%!PS-Adobe-3.0 EPSF-3.0
%%Creator: (MATLAB, The Mathworks, Inc. Version 9.9.0.1592791 \(R2020b\) Update 5. Operating System: Windows 10)
%%Title: (C:/Users/marti/Documents/GitHub/bio-inspired-autonomous-systems/Assignment 02 - Braitenberg Vehicle/figures/aggression_2200_traj.eps)
%%CreationDate: 2021-03-23T11:07:06
%%Pages: (atend)
%%BoundingBox:     0     0   420   315
%%LanguageLevel: 3
%%EndComments
%%BeginProlog
%%BeginResource: procset (Apache XML Graphics Std ProcSet) 1.2 0
%%Version: 1.2 0
%%Copyright: (Copyright 2001-2003,2010 The Apache Software Foundation. License terms: http://www.apache.org/licenses/LICENSE-2.0)
/bd{bind def}bind def
/ld{load def}bd
/GR/grestore ld
/GS/gsave ld
/RM/rmoveto ld
/C/curveto ld
/t/show ld
/L/lineto ld
/ML/setmiterlimit ld
/CT/concat ld
/f/fill ld
/N/newpath ld
/S/stroke ld
/CC/setcmykcolor ld
/A/ashow ld
/cp/closepath ld
/RC/setrgbcolor ld
/LJ/setlinejoin ld
/GC/setgray ld
/LW/setlinewidth ld
/M/moveto ld
/re {4 2 roll M
1 index 0 rlineto
0 exch rlineto
neg 0 rlineto
cp } bd
/_ctm matrix def
/_tm matrix def
/BT { _ctm currentmatrix pop matrix _tm copy pop 0 0 moveto } bd
/ET { _ctm setmatrix } bd
/iTm { _ctm setmatrix _tm concat } bd
/Tm { _tm astore pop iTm 0 0 moveto } bd
/ux 0.0 def
/uy 0.0 def
/F {
  /Tp exch def
  /Tf exch def
  Tf findfont Tp scalefont setfont
  /cf Tf def  /cs Tp def
} bd
/ULS {currentpoint /uy exch def /ux exch def} bd
/ULE {
  /Tcx currentpoint pop def
  gsave
  newpath
  cf findfont cs scalefont dup
  /FontMatrix get 0 get /Ts exch def /FontInfo get dup
  /UnderlinePosition get Ts mul /To exch def
  /UnderlineThickness get Ts mul /Tt exch def
  ux uy To add moveto  Tcx uy To add lineto
  Tt setlinewidth stroke
  grestore
} bd
/OLE {
  /Tcx currentpoint pop def
  gsave
  newpath
  cf findfont cs scalefont dup
  /FontMatrix get 0 get /Ts exch def /FontInfo get dup
  /UnderlinePosition get Ts mul /To exch def
  /UnderlineThickness get Ts mul /Tt exch def
  ux uy To add cs add moveto Tcx uy To add cs add lineto
  Tt setlinewidth stroke
  grestore
} bd
/SOE {
  /Tcx currentpoint pop def
  gsave
  newpath
  cf findfont cs scalefont dup
  /FontMatrix get 0 get /Ts exch def /FontInfo get dup
  /UnderlinePosition get Ts mul /To exch def
  /UnderlineThickness get Ts mul /Tt exch def
  ux uy To add cs 10 mul 26 idiv add moveto Tcx uy To add cs 10 mul 26 idiv add lineto
  Tt setlinewidth stroke
  grestore
} bd
/QT {
/Y22 exch store
/X22 exch store
/Y21 exch store
/X21 exch store
currentpoint
/Y21 load 2 mul add 3 div exch
/X21 load 2 mul add 3 div exch
/X21 load 2 mul /X22 load add 3 div
/Y21 load 2 mul /Y22 load add 3 div
/X22 load /Y22 load curveto
} bd
/SSPD {
dup length /d exch dict def
{
/v exch def
/k exch def
currentpagedevice k known {
/cpdv currentpagedevice k get def
v cpdv ne {
/upd false def
/nullv v type /nulltype eq def
/nullcpdv cpdv type /nulltype eq def
nullv nullcpdv or
{
/upd true def
} {
/sametype v type cpdv type eq def
sametype {
v type /arraytype eq {
/vlen v length def
/cpdvlen cpdv length def
vlen cpdvlen eq {
0 1 vlen 1 sub {
/i exch def
/obj v i get def
/cpdobj cpdv i get def
obj cpdobj ne {
/upd true def
exit
} if
} for
} {
/upd true def
} ifelse
} {
v type /dicttype eq {
v {
/dv exch def
/dk exch def
/cpddv cpdv dk get def
dv cpddv ne {
/upd true def
exit
} if
} forall
} {
/upd true def
} ifelse
} ifelse
} if
} ifelse
upd true eq {
d k v put
} if
} if
} if
} forall
d length 0 gt {
d setpagedevice
} if
} bd
/RE { % /NewFontName [NewEncodingArray] /FontName RE -
  findfont dup length dict begin
  {
    1 index /FID ne
    {def} {pop pop} ifelse
  } forall
  /Encoding exch def
  /FontName 1 index def
  currentdict definefont pop
  end
} bind def
%%EndResource
%%BeginResource: procset (Apache XML Graphics EPS ProcSet) 1.0 0
%%Version: 1.0 0
%%Copyright: (Copyright 2002-2003 The Apache Software Foundation. License terms: http://www.apache.org/licenses/LICENSE-2.0)
/BeginEPSF { %def
/b4_Inc_state save def         % Save state for cleanup
/dict_count countdictstack def % Count objects on dict stack
/op_count count 1 sub def      % Count objects on operand stack
userdict begin                 % Push userdict on dict stack
/showpage { } def              % Redefine showpage, { } = null proc
0 setgray 0 setlinecap         % Prepare graphics state
1 setlinewidth 0 setlinejoin
10 setmiterlimit [ ] 0 setdash newpath
/languagelevel where           % If level not equal to 1 then
{pop languagelevel             % set strokeadjust and
1 ne                           % overprint to their defaults.
{false setstrokeadjust false setoverprint
} if
} if
} bd
/EndEPSF { %def
count op_count sub {pop} repeat            % Clean up stacks
countdictstack dict_count sub {end} repeat
b4_Inc_state restore
} bd
%%EndResource
%FOPBeginFontDict
%%IncludeResource: font Courier-Oblique
%%IncludeResource: font Courier-BoldOblique
%%IncludeResource: font Courier-Bold
%%IncludeResource: font ZapfDingbats
%%IncludeResource: font Symbol
%%IncludeResource: font Helvetica
%%IncludeResource: font Helvetica-Oblique
%%IncludeResource: font Helvetica-Bold
%%IncludeResource: font Helvetica-BoldOblique
%%IncludeResource: font Times-Roman
%%IncludeResource: font Times-Italic
%%IncludeResource: font Times-Bold
%%IncludeResource: font Times-BoldItalic
%%IncludeResource: font Courier
%FOPEndFontDict
%%BeginResource: encoding WinAnsiEncoding
/WinAnsiEncoding [
/.notdef /.notdef /.notdef /.notdef /.notdef
/.notdef /.notdef /.notdef /.notdef /.notdef
/.notdef /.notdef /.notdef /.notdef /.notdef
/.notdef /.notdef /.notdef /.notdef /.notdef
/.notdef /.notdef /.notdef /.notdef /.notdef
/.notdef /.notdef /.notdef /.notdef /.notdef
/.notdef /.notdef /space /exclam /quotedbl
/numbersign /dollar /percent /ampersand /quotesingle
/parenleft /parenright /asterisk /plus /comma
/hyphen /period /slash /zero /one
/two /three /four /five /six
/seven /eight /nine /colon /semicolon
/less /equal /greater /question /at
/A /B /C /D /E
/F /G /H /I /J
/K /L /M /N /O
/P /Q /R /S /T
/U /V /W /X /Y
/Z /bracketleft /backslash /bracketright /asciicircum
/underscore /quoteleft /a /b /c
/d /e /f /g /h
/i /j /k /l /m
/n /o /p /q /r
/s /t /u /v /w
/x /y /z /braceleft /bar
/braceright /asciitilde /bullet /Euro /bullet
/quotesinglbase /florin /quotedblbase /ellipsis /dagger
/daggerdbl /circumflex /perthousand /Scaron /guilsinglleft
/OE /bullet /Zcaron /bullet /bullet
/quoteleft /quoteright /quotedblleft /quotedblright /bullet
/endash /emdash /asciitilde /trademark /scaron
/guilsinglright /oe /bullet /zcaron /Ydieresis
/space /exclamdown /cent /sterling /currency
/yen /brokenbar /section /dieresis /copyright
/ordfeminine /guillemotleft /logicalnot /sfthyphen /registered
/macron /degree /plusminus /twosuperior /threesuperior
/acute /mu /paragraph /middot /cedilla
/onesuperior /ordmasculine /guillemotright /onequarter /onehalf
/threequarters /questiondown /Agrave /Aacute /Acircumflex
/Atilde /Adieresis /Aring /AE /Ccedilla
/Egrave /Eacute /Ecircumflex /Edieresis /Igrave
/Iacute /Icircumflex /Idieresis /Eth /Ntilde
/Ograve /Oacute /Ocircumflex /Otilde /Odieresis
/multiply /Oslash /Ugrave /Uacute /Ucircumflex
/Udieresis /Yacute /Thorn /germandbls /agrave
/aacute /acircumflex /atilde /adieresis /aring
/ae /ccedilla /egrave /eacute /ecircumflex
/edieresis /igrave /iacute /icircumflex /idieresis
/eth /ntilde /ograve /oacute /ocircumflex
/otilde /odieresis /divide /oslash /ugrave
/uacute /ucircumflex /udieresis /yacute /thorn
/ydieresis
] def
%%EndResource
%FOPBeginFontReencode
/Courier-Oblique findfont
dup length dict begin
  {1 index /FID ne {def} {pop pop} ifelse} forall
  /Encoding WinAnsiEncoding def
  currentdict
end
/Courier-Oblique exch definefont pop
/Courier-BoldOblique findfont
dup length dict begin
  {1 index /FID ne {def} {pop pop} ifelse} forall
  /Encoding WinAnsiEncoding def
  currentdict
end
/Courier-BoldOblique exch definefont pop
/Courier-Bold findfont
dup length dict begin
  {1 index /FID ne {def} {pop pop} ifelse} forall
  /Encoding WinAnsiEncoding def
  currentdict
end
/Courier-Bold exch definefont pop
/Helvetica findfont
dup length dict begin
  {1 index /FID ne {def} {pop pop} ifelse} forall
  /Encoding WinAnsiEncoding def
  currentdict
end
/Helvetica exch definefont pop
/Helvetica-Oblique findfont
dup length dict begin
  {1 index /FID ne {def} {pop pop} ifelse} forall
  /Encoding WinAnsiEncoding def
  currentdict
end
/Helvetica-Oblique exch definefont pop
/Helvetica-Bold findfont
dup length dict begin
  {1 index /FID ne {def} {pop pop} ifelse} forall
  /Encoding WinAnsiEncoding def
  currentdict
end
/Helvetica-Bold exch definefont pop
/Helvetica-BoldOblique findfont
dup length dict begin
  {1 index /FID ne {def} {pop pop} ifelse} forall
  /Encoding WinAnsiEncoding def
  currentdict
end
/Helvetica-BoldOblique exch definefont pop
/Times-Roman findfont
dup length dict begin
  {1 index /FID ne {def} {pop pop} ifelse} forall
  /Encoding WinAnsiEncoding def
  currentdict
end
/Times-Roman exch definefont pop
/Times-Italic findfont
dup length dict begin
  {1 index /FID ne {def} {pop pop} ifelse} forall
  /Encoding WinAnsiEncoding def
  currentdict
end
/Times-Italic exch definefont pop
/Times-Bold findfont
dup length dict begin
  {1 index /FID ne {def} {pop pop} ifelse} forall
  /Encoding WinAnsiEncoding def
  currentdict
end
/Times-Bold exch definefont pop
/Times-BoldItalic findfont
dup length dict begin
  {1 index /FID ne {def} {pop pop} ifelse} forall
  /Encoding WinAnsiEncoding def
  currentdict
end
/Times-BoldItalic exch definefont pop
/Courier findfont
dup length dict begin
  {1 index /FID ne {def} {pop pop} ifelse} forall
  /Encoding WinAnsiEncoding def
  currentdict
end
/Courier exch definefont pop
%FOPEndFontReencode
%%EndProlog
%%Page: 1 1
%%PageBoundingBox: 0 0 420 315
%%BeginPageSetup
[1 0 0 -1 0 315] CT
%%EndPageSetup
GS
[0.75 0 0 0.75 0 0] CT
1 GC
N
0 0 560 420 re
f
GR
GS
[0.75 0 0 0.75 0 0] CT
1 GC
N
0 0 560 420 re
f
GR
GS
[0.75 0 0 0.75 0 0] CT
1 GC
N
119 374 M
461 374 L
461 32 L
119 32 L
cp
f
GR
GS
[0.75 0 0 0.75 0 0] CT
0.873 GC
1 LJ
0.667 LW
N
119 374 M
119 32 L
S
GR
GS
[0.75 0 0 0.75 0 0] CT
0.873 GC
1 LJ
0.667 LW
N
176 374 M
176 32 L
S
GR
GS
[0.75 0 0 0.75 0 0] CT
0.873 GC
1 LJ
0.667 LW
N
233 374 M
233 32 L
S
GR
GS
[0.75 0 0 0.75 0 0] CT
0.873 GC
1 LJ
0.667 LW
N
290 374 M
290 32 L
S
GR
GS
[0.75 0 0 0.75 0 0] CT
0.873 GC
1 LJ
0.667 LW
N
347 374 M
347 32 L
S
GR
GS
[0.75 0 0 0.75 0 0] CT
0.873 GC
1 LJ
0.667 LW
N
404 374 M
404 32 L
S
GR
GS
[0.75 0 0 0.75 0 0] CT
0.873 GC
1 LJ
0.667 LW
N
461 374 M
461 32 L
S
GR
GS
[0.75 0 0 0.75 0 0] CT
0.873 GC
1 LJ
0.667 LW
N
461 374 M
119 374 L
S
GR
GS
[0.75 0 0 0.75 0 0] CT
0.873 GC
1 LJ
0.667 LW
N
461 317 M
119 317 L
S
GR
GS
[0.75 0 0 0.75 0 0] CT
0.873 GC
1 LJ
0.667 LW
N
461 260 M
119 260 L
S
GR
GS
[0.75 0 0 0.75 0 0] CT
0.873 GC
1 LJ
0.667 LW
N
461 203 M
119 203 L
S
GR
GS
[0.75 0 0 0.75 0 0] CT
0.873 GC
1 LJ
0.667 LW
N
461 146 M
119 146 L
S
GR
GS
[0.75 0 0 0.75 0 0] CT
0.873 GC
1 LJ
0.667 LW
N
461 89 M
119 89 L
S
GR
GS
[0.75 0 0 0.75 0 0] CT
0.873 GC
1 LJ
0.667 LW
N
461 32 M
119 32 L
S
GR
GS
[0.75 0 0 0.75 0 0] CT
0.149 GC
2 setlinecap
1 LJ
0.667 LW
N
119 374 M
461 374 L
S
GR
GS
[0.75 0 0 0.75 0 0] CT
0.149 GC
2 setlinecap
1 LJ
0.667 LW
N
119 374 M
119 370.58 L
S
GR
GS
[0.75 0 0 0.75 0 0] CT
0.149 GC
2 setlinecap
1 LJ
0.667 LW
N
176 374 M
176 370.58 L
S
GR
GS
[0.75 0 0 0.75 0 0] CT
0.149 GC
2 setlinecap
1 LJ
0.667 LW
N
233 374 M
233 370.58 L
S
GR
GS
[0.75 0 0 0.75 0 0] CT
0.149 GC
2 setlinecap
1 LJ
0.667 LW
N
290 374 M
290 370.58 L
S
GR
GS
[0.75 0 0 0.75 0 0] CT
0.149 GC
2 setlinecap
1 LJ
0.667 LW
N
347 374 M
347 370.58 L
S
GR
GS
[0.75 0 0 0.75 0 0] CT
0.149 GC
2 setlinecap
1 LJ
0.667 LW
N
404 374 M
404 370.58 L
S
GR
GS
[0.75 0 0 0.75 0 0] CT
0.149 GC
2 setlinecap
1 LJ
0.667 LW
N
461 374 M
461 370.58 L
S
GR
GS
[0.75 0 0 0.75 89.25 284.50001] CT
0.149 GC
/Helvetica 13.333 F
GS
[1 0 0 1 0 0] CT
-13.5 14 moveto 
1 -1 scale
(-200) t 
GR
GR
GS
[0.75 0 0 0.75 132 284.50001] CT
0.149 GC
/Helvetica 13.333 F
GS
[1 0 0 1 0 0] CT
-13.5 14 moveto 
1 -1 scale
(-100) t 
GR
GR
GS
[0.75 0 0 0.75 174.75 284.50001] CT
0.149 GC
/Helvetica 13.333 F
GS
[1 0 0 1 0 0] CT
-4 14 moveto 
1 -1 scale
(0) t 
GR
GR
GS
[0.75 0 0 0.75 217.5 284.50001] CT
0.149 GC
/Helvetica 13.333 F
GS
[1 0 0 1 0 0] CT
-11.5 14 moveto 
1 -1 scale
(100) t 
GR
GR
GS
[0.75 0 0 0.75 260.25 284.50001] CT
0.149 GC
/Helvetica 13.333 F
GS
[1 0 0 1 0 0] CT
-11.5 14 moveto 
1 -1 scale
(200) t 
GR
GR
GS
[0.75 0 0 0.75 303 284.50001] CT
0.149 GC
/Helvetica 13.333 F
GS
[1 0 0 1 0 0] CT
-11.5 14 moveto 
1 -1 scale
(300) t 
GR
GR
GS
[0.75 0 0 0.75 345.75 284.50001] CT
0.149 GC
/Helvetica 13.333 F
GS
[1 0 0 1 0 0] CT
-11.5 14 moveto 
1 -1 scale
(400) t 
GR
GR
GS
[0.75 0 0 0.75 0 0] CT
0.149 GC
2 setlinecap
1 LJ
0.667 LW
N
119 374 M
119 32 L
S
GR
GS
[0.75 0 0 0.75 0 0] CT
0.149 GC
2 setlinecap
1 LJ
0.667 LW
N
119 374 M
122.42 374 L
S
GR
GS
[0.75 0 0 0.75 0 0] CT
0.149 GC
2 setlinecap
1 LJ
0.667 LW
N
119 317 M
122.42 317 L
S
GR
GS
[0.75 0 0 0.75 0 0] CT
0.149 GC
2 setlinecap
1 LJ
0.667 LW
N
119 260 M
122.42 260 L
S
GR
GS
[0.75 0 0 0.75 0 0] CT
0.149 GC
2 setlinecap
1 LJ
0.667 LW
N
119 203 M
122.42 203 L
S
GR
GS
[0.75 0 0 0.75 0 0] CT
0.149 GC
2 setlinecap
1 LJ
0.667 LW
N
119 146 M
122.42 146 L
S
GR
GS
[0.75 0 0 0.75 0 0] CT
0.149 GC
2 setlinecap
1 LJ
0.667 LW
N
119 89 M
122.42 89 L
S
GR
GS
[0.75 0 0 0.75 0 0] CT
0.149 GC
2 setlinecap
1 LJ
0.667 LW
N
119 32 M
122.42 32 L
S
GR
GS
[0.75 0 0 0.75 85.25 280.5] CT
0.149 GC
/Helvetica 13.333 F
GS
[1 0 0 1 0 0] CT
-27 5.5 moveto 
1 -1 scale
(-200) t 
GR
GR
GS
[0.75 0 0 0.75 85.25 237.75] CT
0.149 GC
/Helvetica 13.333 F
GS
[1 0 0 1 0 0] CT
-27 5.5 moveto 
1 -1 scale
(-100) t 
GR
GR
GS
[0.75 0 0 0.75 85.25 195] CT
0.149 GC
/Helvetica 13.333 F
GS
[1 0 0 1 0 0] CT
-8 5.5 moveto 
1 -1 scale
(0) t 
GR
GR
GS
[0.75 0 0 0.75 85.25 152.25] CT
0.149 GC
/Helvetica 13.333 F
GS
[1 0 0 1 0 0] CT
-23 5.5 moveto 
1 -1 scale
(100) t 
GR
GR
GS
[0.75 0 0 0.75 85.25 109.5] CT
0.149 GC
/Helvetica 13.333 F
GS
[1 0 0 1 0 0] CT
-23 5.5 moveto 
1 -1 scale
(200) t 
GR
GR
GS
[0.75 0 0 0.75 85.25 66.75] CT
0.149 GC
/Helvetica 13.333 F
GS
[1 0 0 1 0 0] CT
-23 5.5 moveto 
1 -1 scale
(300) t 
GR
GR
GS
[0.75 0 0 0.75 85.25 24] CT
0.149 GC
/Helvetica 13.333 F
GS
[1 0 0 1 0 0] CT
-23 5.5 moveto 
1 -1 scale
(400) t 
GR
GR
GS
[0.75 0 0 0.75 303 66.75] CT
N
-6 -6 M
-6 6 L
6 6 L
6 -6 L
cp
f
GR
GS
[0.75 0 0 0.75 303 66.75] CT
10.0 ML
0.667 LW
N
-6 -6 M
-6 6 L
6 6 L
6 -6 L
cp
S
GR
GS
[0.75 0 0 0.75 132 237.75] CT
1 0 0 RC
N
6.667 0 M
6.667 -3.682 3.682 -6.667 0 -6.667 C
-3.682 -6.667 -6.667 -3.682 -6.667 0 C
-6.667 3.682 -3.682 6.667 0 6.667 C
3.682 6.667 6.667 3.682 6.667 0 C
cp
f
GR
GS
[0.75 0 0 0.75 132 237.75] CT
1 0 0 RC
N
0 -6.333 M
3.498 -6.333 6.333 -3.498 6.333 0 C
6.333 0 L
6.333 3.498 3.498 6.333 0 6.333 C
-3.498 6.333 -6.333 3.498 -6.333 0 C
-6.333 -3.498 -3.498 -6.333 0 -6.333 C
cp
0 -7 M
-3.866 -7 -7 -3.866 -7 0 C
-7 3.866 -3.866 7 0 7 C
3.866 7 7 3.866 7 0 C
7 0 L
7 -3.866 3.866 -7 0 -7 C
cp
f
GR
GS
[0.75 0 0 0.75 0 0] CT
0 0.447 0.741 RC
1 LJ
2.667 LW
N
176.718 316.992 M
177.857 316.966 L
S
GR
GS
[0.75 0 0 0.75 132.53815 237.74398] CT
0.494 0.184 0.557 RC
N
0.5 0 M
0.5 0.276 0.276 0.5 0 0.5 C
-0.276 0.5 -0.5 0.276 -0.5 0 C
-0.5 -0.276 -0.276 -0.5 0 -0.5 C
0.276 -0.5 0.5 -0.276 0.5 0 C
cp
f
GR
GS
[0.75 0 0 0.75 0 0] CT
0 0.447 0.741 RC
1 LJ
2.667 LW
N
177.436 316.968 M
178.575 316.918 L
S
GR
GS
[0.75 0 0 0.75 133.07695 237.72604] CT
0.302 0.745 0.933 RC
N
/f1188474679{0.5 0 M
0.5 0.276 0.276 0.5 0 0.5 C
-0.276 0.5 -0.5 0.276 -0.5 0 C
-0.5 -0.276 -0.276 -0.5 0 -0.5 C
0.276 -0.5 0.5 -0.276 0.5 0 C
cp}def
f1188474679
f
GR
GS
[0.75 0 0 0.75 0 0] CT
0 0.447 0.741 RC
1 LJ
2.667 LW
N
178.155 316.929 M
179.292 316.854 L
S
GR
GS
[0.75 0 0 0.75 133.61613 237.69642] CT
0 0.447 0.741 RC
N
f1188474679
f
GR
GS
[0.75 0 0 0.75 0 0] CT
0 0.447 0.741 RC
1 LJ
2.667 LW
N
178.874 316.874 M
180.01 316.775 L
S
GR
GS
[0.75 0 0 0.75 134.15545 237.65533] CT
0.929 0.694 0.125 RC
N
f1188474679
f
GR
GS
[0.75 0 0 0.75 0 0] CT
0 0.447 0.741 RC
1 LJ
2.667 LW
N
179.593 316.804 M
180.726 316.682 L
S
GR
GS
[0.75 0 0 0.75 134.69465 237.60306] CT
0.467 0.675 0.188 RC
N
f1188474679
f
GR
GS
[0.75 0 0 0.75 0 0] CT
0 0.447 0.741 RC
1 LJ
2.667 LW
N
180.311 316.72 M
181.442 316.576 L
S
GR
GS
[0.75 0 0 0.75 135.23353 237.53982] CT
0.635 0.078 0.184 RC
N
f1188474679
f
GR
GS
[0.75 0 0 0.75 0 0] CT
0 0.447 0.741 RC
1 LJ
2.667 LW
N
181.029 316.621 M
182.157 316.455 L
S
GR
GS
[0.75 0 0 0.75 135.77187 237.46587] CT
0.851 0.325 0.098 RC
N
f1188474679
f
GR
GS
[0.75 0 0 0.75 0 0] CT
0 0.447 0.741 RC
1 LJ
2.667 LW
N
181.746 316.509 M
182.87 316.321 L
S
GR
GS
[0.75 0 0 0.75 136.30949 237.38145] CT
0.494 0.184 0.557 RC
N
f1188474679
f
GR
GS
[0.75 0 0 0.75 0 0] CT
0 0.447 0.741 RC
1 LJ
2.667 LW
N
182.462 316.382 M
183.582 316.174 L
S
GR
GS
[0.75 0 0 0.75 136.84623 237.28679] CT
0.302 0.745 0.933 RC
N
f1188474679
f
GR
GS
[0.75 0 0 0.75 0 0] CT
0 0.447 0.741 RC
1 LJ
2.667 LW
N
183.176 316.243 M
184.293 316.014 L
S
GR
GS
[0.75 0 0 0.75 137.38193 237.18217] CT
0 0.447 0.741 RC
N
f1188474679
f
GR
GS
[0.75 0 0 0.75 0 0] CT
0 0.447 0.741 RC
1 LJ
2.667 LW
N
183.889 316.09 M
185.001 315.842 L
S
GR
GS
[0.75 0 0 0.75 137.9164 237.06779] CT
0.929 0.694 0.125 RC
N
f1188474679
f
GR
GS
[0.75 0 0 0.75 0 0] CT
0 0.447 0.741 RC
1 LJ
2.667 LW
N
184.599 315.925 M
185.708 315.658 L
S
GR
GS
[0.75 0 0 0.75 138.44954 236.94392] CT
0.467 0.675 0.188 RC
N
f1188474679
f
GR
GS
[0.75 0 0 0.75 0 0] CT
0 0.447 0.741 RC
1 LJ
2.667 LW
N
185.308 315.748 M
186.412 315.461 L
S
GR
GS
[0.75 0 0 0.75 138.98118 236.81078] CT
0.635 0.078 0.184 RC
N
f1188474679
f
GR
GS
[0.75 0 0 0.75 0 0] CT
0 0.447 0.741 RC
1 LJ
2.667 LW
N
186.015 315.558 M
187.114 315.254 L
S
GR
GS
[0.75 0 0 0.75 139.51123 236.66862] CT
0.851 0.325 0.098 RC
N
f1188474679
f
GR
GS
[0.75 0 0 0.75 0 0] CT
0 0.447 0.741 RC
1 LJ
2.667 LW
N
186.719 315.357 M
187.813 315.035 L
S
GR
GS
[0.75 0 0 0.75 140.03955 236.51768] CT
0.494 0.184 0.557 RC
N
f1188474679
f
GR
GS
[0.75 0 0 0.75 0 0] CT
0 0.447 0.741 RC
1 LJ
2.667 LW
N
187.421 315.144 M
188.51 314.805 L
S
GR
GS
[0.75 0 0 0.75 140.56607 236.35815] CT
0.302 0.745 0.933 RC
N
f1188474679
f
GR
GS
[0.75 0 0 0.75 0 0] CT
0 0.447 0.741 RC
1 LJ
2.667 LW
N
188.121 314.92 M
189.204 314.565 L
S
GR
GS
[0.75 0 0 0.75 141.09068 236.19028] CT
0 0.447 0.741 RC
N
f1188474679
f
GR
GS
[0.75 0 0 0.75 0 0] CT
0 0.447 0.741 RC
1 LJ
2.667 LW
N
188.818 314.686 M
189.895 314.314 L
S
GR
GS
[0.75 0 0 0.75 141.61331 236.01432] CT
0.929 0.694 0.125 RC
N
f1188474679
f
GR
GS
[0.75 0 0 0.75 0 0] CT
0 0.447 0.741 RC
1 LJ
2.667 LW
N
189.512 314.441 M
190.584 314.053 L
S
GR
GS
[0.75 0 0 0.75 142.13388 235.83046] CT
0.467 0.675 0.188 RC
N
f1188474679
f
GR
GS
[0.75 0 0 0.75 0 0] CT
0 0.447 0.741 RC
1 LJ
2.667 LW
N
190.203 314.185 M
191.27 313.783 L
S
GR
GS
[0.75 0 0 0.75 142.65234 235.63889] CT
0.635 0.078 0.184 RC
N
f1188474679
f
GR
GS
[0.75 0 0 0.75 0 0] CT
0 0.447 0.741 RC
1 LJ
2.667 LW
N
190.892 313.92 M
191.952 313.502 L
S
GR
GS
[0.75 0 0 0.75 143.16866 235.43985] CT
0.851 0.325 0.098 RC
N
f1188474679
f
GR
GS
[0.75 0 0 0.75 0 0] CT
0 0.447 0.741 RC
1 LJ
2.667 LW
N
191.577 313.645 M
192.632 313.213 L
S
GR
GS
[0.75 0 0 0.75 143.68282 235.23349] CT
0.494 0.184 0.557 RC
N
f1188474679
f
GR
GS
[0.75 0 0 0.75 0 0] CT
0 0.447 0.741 RC
1 LJ
2.667 LW
N
192.26 313.36 M
193.309 312.914 L
S
GR
GS
[0.75 0 0 0.75 144.19477 235.02003] CT
0.302 0.745 0.933 RC
N
f1188474679
f
GR
GS
[0.75 0 0 0.75 0 0] CT
0 0.447 0.741 RC
1 LJ
2.667 LW
N
192.939 313.066 M
193.983 312.607 L
S
GR
GS
[0.75 0 0 0.75 144.70449 234.79969] CT
0 0.447 0.741 RC
N
f1188474679
f
GR
GS
[0.75 0 0 0.75 0 0] CT
0 0.447 0.741 RC
1 LJ
2.667 LW
N
193.616 312.764 M
194.654 312.291 L
S
GR
GS
[0.75 0 0 0.75 145.21194 234.57266] CT
0.929 0.694 0.125 RC
N
f1188474679
f
GR
GS
[0.75 0 0 0.75 0 0] CT
0 0.447 0.741 RC
1 LJ
2.667 LW
N
194.289 312.452 M
195.321 311.967 L
S
GR
GS
[0.75 0 0 0.75 145.71711 234.33911] CT
0.467 0.675 0.188 RC
N
f1188474679
f
GR
GS
[0.75 0 0 0.75 0 0] CT
0 0.447 0.741 RC
1 LJ
2.667 LW
N
194.96 312.132 M
195.986 311.635 L
S
GR
GS
[0.75 0 0 0.75 146.21997 234.09924] CT
0.635 0.078 0.184 RC
N
f1188474679
f
GR
GS
[0.75 0 0 0.75 0 0] CT
0 0.447 0.741 RC
1 LJ
2.667 LW
N
195.627 311.804 M
196.648 311.296 L
S
GR
GS
[0.75 0 0 0.75 146.72057 233.8532] CT
0.851 0.325 0.098 RC
N
f1188474679
f
GR
GS
[0.75 0 0 0.75 0 0] CT
0 0.447 0.741 RC
1 LJ
2.667 LW
N
196.292 311.468 M
197.306 310.948 L
S
GR
GS
[0.75 0 0 0.75 147.21888 233.6012] CT
0.494 0.184 0.557 RC
N
f1188474679
f
GR
GS
[0.75 0 0 0.75 0 0] CT
0 0.447 0.741 RC
1 LJ
2.667 LW
N
196.953 311.125 M
197.962 310.593 L
S
GR
GS
[0.75 0 0 0.75 147.71491 233.34338] CT
0.302 0.745 0.933 RC
N
f1188474679
f
GR
GS
[0.75 0 0 0.75 0 0] CT
0 0.447 0.741 RC
1 LJ
2.667 LW
N
197.612 310.773 M
198.614 310.231 L
S
GR
GS
[0.75 0 0 0.75 148.20864 233.07994] CT
0 0.447 0.741 RC
N
f1188474679
f
GR
GS
[0.75 0 0 0.75 0 0] CT
0 0.447 0.741 RC
1 LJ
2.667 LW
N
198.267 310.415 M
199.264 309.862 L
S
GR
GS
[0.75 0 0 0.75 148.7001 232.81107] CT
0.929 0.694 0.125 RC
N
f1188474679
f
GR
GS
[0.75 0 0 0.75 0 0] CT
0 0.447 0.741 RC
1 LJ
2.667 LW
N
198.919 310.049 M
199.911 309.487 L
S
GR
GS
[0.75 0 0 0.75 149.18928 232.53687] CT
0.467 0.675 0.188 RC
N
f1188474679
f
GR
GS
[0.75 0 0 0.75 0 0] CT
0 0.447 0.741 RC
1 LJ
2.667 LW
N
199.568 309.677 M
200.554 309.105 L
S
GR
GS
[0.75 0 0 0.75 149.67622 232.25755] CT
0.635 0.078 0.184 RC
N
f1188474679
f
GR
GS
[0.75 0 0 0.75 0 0] CT
0 0.447 0.741 RC
1 LJ
2.667 LW
N
200.215 309.298 M
201.195 308.716 L
S
GR
GS
[0.75 0 0 0.75 150.16096 231.97321] CT
0.851 0.325 0.098 RC
N
f1188474679
f
GR
GS
[0.75 0 0 0.75 0 0] CT
0 0.447 0.741 RC
1 LJ
2.667 LW
N
200.858 308.912 M
201.833 308.322 L
S
GR
GS
[0.75 0 0 0.75 150.64351 231.68401] CT
0.494 0.184 0.557 RC
N
f1188474679
f
GR
GS
[0.75 0 0 0.75 0 0] CT
0 0.447 0.741 RC
1 LJ
2.667 LW
N
201.499 308.52 M
202.468 307.921 L
S
GR
GS
[0.75 0 0 0.75 151.12389 231.39013] CT
0.302 0.745 0.933 RC
N
f1188474679
f
GR
GS
[0.75 0 0 0.75 0 0] CT
0 0.447 0.741 RC
1 LJ
2.667 LW
N
202.136 308.122 M
203.101 307.515 L
S
GR
GS
[0.75 0 0 0.75 151.60212 231.09171] CT
0 0.447 0.741 RC
N
f1188474679
f
GR
GS
[0.75 0 0 0.75 0 0] CT
0 0.447 0.741 RC
1 LJ
2.667 LW
N
202.771 307.718 M
203.73 307.103 L
S
GR
GS
[0.75 0 0 0.75 152.07822 230.78886] CT
0.929 0.694 0.125 RC
N
f1188474679
f
GR
GS
[0.75 0 0 0.75 0 0] CT
0 0.447 0.741 RC
1 LJ
2.667 LW
N
203.403 307.309 M
204.357 306.685 L
S
GR
GS
[0.75 0 0 0.75 152.55223 230.48172] CT
0.467 0.675 0.188 RC
N
f1188474679
f
GR
GS
[0.75 0 0 0.75 0 0] CT
0 0.447 0.741 RC
1 LJ
2.667 LW
N
204.032 306.894 M
204.981 306.262 L
S
GR
GS
[0.75 0 0 0.75 153.02418 230.17044] CT
0.635 0.078 0.184 RC
N
f1188474679
f
GR
GS
[0.75 0 0 0.75 0 0] CT
0 0.447 0.741 RC
1 LJ
2.667 LW
N
204.659 306.473 M
205.603 305.835 L
S
GR
GS
[0.75 0 0 0.75 153.49412 229.85511] CT
0.851 0.325 0.098 RC
N
f1188474679
f
GR
GS
[0.75 0 0 0.75 0 0] CT
0 0.447 0.741 RC
1 LJ
2.667 LW
N
205.283 306.048 M
206.222 305.402 L
S
GR
GS
[0.75 0 0 0.75 153.96208 229.53587] CT
0.494 0.184 0.557 RC
N
f1188474679
f
GR
GS
[0.75 0 0 0.75 0 0] CT
0 0.447 0.741 RC
1 LJ
2.667 LW
N
205.904 305.617 M
206.839 304.964 L
S
GR
GS
[0.75 0 0 0.75 154.42811 229.21282] CT
0.302 0.745 0.933 RC
N
f1188474679
f
GR
GS
[0.75 0 0 0.75 0 0] CT
0 0.447 0.741 RC
1 LJ
2.667 LW
N
206.523 305.181 M
207.453 304.522 L
S
GR
GS
[0.75 0 0 0.75 154.89221 228.88609] CT
0 0.447 0.741 RC
N
f1188474679
f
GR
GS
[0.75 0 0 0.75 0 0] CT
0 0.447 0.741 RC
1 LJ
2.667 LW
N
207.139 304.741 M
208.065 304.075 L
S
GR
GS
[0.75 0 0 0.75 155.35446 228.55579] CT
0.929 0.694 0.125 RC
N
f1188474679
f
GR
GS
[0.75 0 0 0.75 0 0] CT
0 0.447 0.741 RC
1 LJ
2.667 LW
N
207.753 304.296 M
208.674 303.624 L
S
GR
GS
[0.75 0 0 0.75 155.81486 228.22206] CT
0.467 0.675 0.188 RC
N
f1188474679
f
GR
GS
[0.75 0 0 0.75 0 0] CT
0 0.447 0.741 RC
1 LJ
2.667 LW
N
208.365 303.847 M
209.281 303.168 L
S
GR
GS
[0.75 0 0 0.75 156.27347 227.88494] CT
0.635 0.078 0.184 RC
N
f1188474679
f
GR
GS
[0.75 0 0 0.75 0 0] CT
0 0.447 0.741 RC
1 LJ
2.667 LW
N
208.974 303.393 M
209.886 302.709 L
S
GR
GS
[0.75 0 0 0.75 156.7303 227.54459] CT
0.851 0.325 0.098 RC
N
f1188474679
f
GR
GS
[0.75 0 0 0.75 0 0] CT
0 0.447 0.741 RC
1 LJ
2.667 LW
N
209.581 302.935 M
210.488 302.245 L
S
GR
GS
[0.75 0 0 0.75 157.18542 227.20109] CT
0.494 0.184 0.557 RC
N
f1188474679
f
GR
GS
[0.75 0 0 0.75 0 0] CT
0 0.447 0.741 RC
1 LJ
2.667 LW
N
210.185 302.473 M
211.089 301.778 L
S
GR
GS
[0.75 0 0 0.75 157.63885 226.85449] CT
0.302 0.745 0.933 RC
N
f1188474679
f
GR
GS
[0.75 0 0 0.75 0 0] CT
0 0.447 0.741 RC
1 LJ
2.667 LW
N
210.788 302.007 M
211.687 301.306 L
S
GR
GS
[0.75 0 0 0.75 158.09065 226.50494] CT
0 0.447 0.741 RC
N
f1188474679
f
GR
GS
[0.75 0 0 0.75 0 0] CT
0 0.447 0.741 RC
1 LJ
2.667 LW
N
211.388 301.537 M
212.283 300.831 L
S
GR
GS
[0.75 0 0 0.75 158.54085 226.15249] CT
0.929 0.694 0.125 RC
N
f1188474679
f
GR
GS
[0.75 0 0 0.75 0 0] CT
0 0.447 0.741 RC
1 LJ
2.667 LW
N
211.986 301.063 M
212.878 300.353 L
S
GR
GS
[0.75 0 0 0.75 158.98951 225.79722] CT
0.467 0.675 0.188 RC
N
f1188474679
f
GR
GS
[0.75 0 0 0.75 0 0] CT
0 0.447 0.741 RC
1 LJ
2.667 LW
N
212.582 300.586 M
213.47 299.871 L
S
GR
GS
[0.75 0 0 0.75 159.43665 225.43925] CT
0.635 0.078 0.184 RC
N
f1188474679
f
GR
GS
[0.75 0 0 0.75 0 0] CT
0 0.447 0.741 RC
1 LJ
2.667 LW
N
213.176 300.105 M
214.061 299.385 L
S
GR
GS
[0.75 0 0 0.75 159.88232 225.07862] CT
0.851 0.325 0.098 RC
N
f1188474679
f
GR
GS
[0.75 0 0 0.75 0 0] CT
0 0.447 0.741 RC
1 LJ
2.667 LW
N
213.769 299.621 M
214.65 298.897 L
S
GR
GS
[0.75 0 0 0.75 160.32654 224.71543] CT
0.494 0.184 0.557 RC
N
f1188474679
f
GR
GS
[0.75 0 0 0.75 0 0] CT
0 0.447 0.741 RC
1 LJ
2.667 LW
N
214.359 299.133 M
215.236 298.405 L
S
GR
GS
[0.75 0 0 0.75 160.76937 224.34977] CT
0.302 0.745 0.933 RC
N
f1188474679
f
GR
GS
[0.75 0 0 0.75 0 0] CT
0 0.447 0.741 RC
1 LJ
2.667 LW
N
214.948 298.642 M
215.822 297.91 L
S
GR
GS
[0.75 0 0 0.75 161.21084 223.98168] CT
0 0.447 0.741 RC
N
f1188474679
f
GR
GS
[0.75 0 0 0.75 0 0] CT
0 0.447 0.741 RC
1 LJ
2.667 LW
N
215.535 298.148 M
216.405 297.412 L
S
GR
GS
[0.75 0 0 0.75 161.65098 223.61126] CT
0.929 0.694 0.125 RC
N
f1188474679
f
GR
GS
[0.75 0 0 0.75 0 0] CT
0 0.447 0.741 RC
1 LJ
2.667 LW
N
216.12 297.651 M
216.987 296.912 L
S
GR
GS
[0.75 0 0 0.75 162.08984 223.23855] CT
0.467 0.675 0.188 RC
N
f1188474679
f
GR
GS
[0.75 0 0 0.75 0 0] CT
0 0.447 0.741 RC
1 LJ
2.667 LW
N
216.703 297.152 M
217.567 296.408 L
S
GR
GS
[0.75 0 0 0.75 162.52744 222.86364] CT
0.635 0.078 0.184 RC
N
f1188474679
f
GR
GS
[0.75 0 0 0.75 0 0] CT
0 0.447 0.741 RC
1 LJ
2.667 LW
N
217.285 296.649 M
218.146 295.902 L
S
GR
GS
[0.75 0 0 0.75 162.96382 222.48658] CT
0.851 0.325 0.098 RC
N
f1188474679
f
GR
GS
[0.75 0 0 0.75 0 0] CT
0 0.447 0.741 RC
1 LJ
2.667 LW
N
217.865 296.143 M
218.723 295.393 L
S
GR
GS
[0.75 0 0 0.75 163.39903 222.10744] CT
0.494 0.184 0.557 RC
N
f1188474679
f
GR
GS
[0.75 0 0 0.75 0 0] CT
0 0.447 0.741 RC
1 LJ
2.667 LW
N
218.444 295.635 M
219.299 294.881 L
S
GR
GS
[0.75 0 0 0.75 163.83308 221.72626] CT
0.302 0.745 0.933 RC
N
f1188474679
f
GR
GS
[0.75 0 0 0.75 0 0] CT
0 0.447 0.741 RC
1 LJ
2.667 LW
N
219.021 295.124 M
219.874 294.367 L
S
GR
GS
[0.75 0 0 0.75 164.26602 221.34311] CT
0 0.447 0.741 RC
N
f1188474679
f
GR
GS
[0.75 0 0 0.75 0 0] CT
0 0.447 0.741 RC
1 LJ
2.667 LW
N
219.597 294.611 M
220.447 293.85 L
S
GR
GS
[0.75 0 0 0.75 164.69789 220.95804] CT
0.929 0.694 0.125 RC
N
f1188474679
f
GR
GS
[0.75 0 0 0.75 0 0] CT
0 0.447 0.741 RC
1 LJ
2.667 LW
N
220.172 294.095 M
221.018 293.332 L
S
GR
GS
[0.75 0 0 0.75 165.12871 220.57111] CT
0.467 0.675 0.188 RC
N
f1188474679
f
GR
GS
[0.75 0 0 0.75 0 0] CT
0 0.447 0.741 RC
1 LJ
2.667 LW
N
220.745 293.576 M
221.589 292.81 L
S
GR
GS
[0.75 0 0 0.75 165.55852 220.18236] CT
0.635 0.078 0.184 RC
N
f1188474679
f
GR
GS
[0.75 0 0 0.75 0 0] CT
0 0.447 0.741 RC
1 LJ
2.667 LW
N
221.316 293.056 M
222.158 292.287 L
S
GR
GS
[0.75 0 0 0.75 165.98734 219.79186] CT
0.851 0.325 0.098 RC
N
f1188474679
f
GR
GS
[0.75 0 0 0.75 0 0] CT
0 0.447 0.741 RC
1 LJ
2.667 LW
N
221.887 292.533 M
222.726 291.761 L
S
GR
GS
[0.75 0 0 0.75 166.4152 219.39963] CT
0.494 0.184 0.557 RC
N
f1188474679
f
GR
GS
[0.75 0 0 0.75 0 0] CT
0 0.447 0.741 RC
1 LJ
2.667 LW
N
222.456 292.008 M
223.293 291.233 L
S
GR
GS
[0.75 0 0 0.75 166.84216 219.00572] CT
0.302 0.745 0.933 RC
N
f1188474679
f
GR
GS
[0.75 0 0 0.75 0 0] CT
0 0.447 0.741 RC
1 LJ
2.667 LW
N
223.024 291.48 M
223.859 290.703 L
S
GR
GS
[0.75 0 0 0.75 167.26821 218.61019] CT
0 0.447 0.741 RC
N
f1188474679
f
GR
GS
[0.75 0 0 0.75 0 0] CT
0 0.447 0.741 RC
1 LJ
2.667 LW
N
223.591 290.951 M
224.423 290.171 L
S
GR
GS
[0.75 0 0 0.75 167.6934 218.21306] CT
0.929 0.694 0.125 RC
N
f1188474679
f
GR
GS
[0.75 0 0 0.75 0 0] CT
0 0.447 0.741 RC
1 LJ
2.667 LW
N
224.157 290.419 M
224.987 289.637 L
S
GR
GS
[0.75 0 0 0.75 168.11776 217.81439] CT
0.467 0.675 0.188 RC
N
f1188474679
f
GR
GS
[0.75 0 0 0.75 0 0] CT
0 0.447 0.741 RC
1 LJ
2.667 LW
N
224.722 289.886 M
225.549 289.102 L
S
GR
GS
[0.75 0 0 0.75 168.54132 217.41422] CT
0.635 0.078 0.184 RC
N
f1188474679
f
GR
GS
[0.75 0 0 0.75 0 0] CT
0 0.447 0.741 RC
1 LJ
2.667 LW
N
225.285 289.35 M
226.111 288.564 L
S
GR
GS
[0.75 0 0 0.75 168.9641 217.01257] CT
0.851 0.325 0.098 RC
N
f1188474679
f
GR
GS
[0.75 0 0 0.75 0 0] CT
0 0.447 0.741 RC
1 LJ
2.667 LW
N
225.848 288.813 M
226.672 288.024 L
S
GR
GS
[0.75 0 0 0.75 169.38612 216.60949] CT
0.494 0.184 0.557 RC
N
f1188474679
f
GR
GS
[0.75 0 0 0.75 0 0] CT
0 0.447 0.741 RC
1 LJ
2.667 LW
N
226.41 288.273 M
227.231 287.483 L
S
GR
GS
[0.75 0 0 0.75 169.80742 216.20503] CT
0.302 0.745 0.933 RC
N
f1188474679
f
GR
GS
[0.75 0 0 0.75 0 0] CT
0 0.447 0.741 RC
1 LJ
2.667 LW
N
226.971 287.732 M
227.79 286.94 L
S
GR
GS
[0.75 0 0 0.75 170.22803 215.79918] CT
0 0.447 0.741 RC
N
f1188474679
f
GR
GS
[0.75 0 0 0.75 0 0] CT
0 0.447 0.741 RC
1 LJ
2.667 LW
N
227.531 287.189 M
228.348 286.395 L
S
GR
GS
[0.75 0 0 0.75 170.64795 215.39202] CT
0.929 0.694 0.125 RC
N
f1188474679
f
GR
GS
[0.75 0 0 0.75 0 0] CT
0 0.447 0.741 RC
1 LJ
2.667 LW
N
228.09 286.645 M
228.905 285.848 L
S
GR
GS
[0.75 0 0 0.75 171.06723 214.98356] CT
0.467 0.675 0.188 RC
N
f1188474679
f
GR
GS
[0.75 0 0 0.75 0 0] CT
0 0.447 0.741 RC
1 LJ
2.667 LW
N
228.648 286.098 M
229.462 285.3 L
S
GR
GS
[0.75 0 0 0.75 171.48588 214.57384] CT
0.635 0.078 0.184 RC
N
f1188474679
f
GR
GS
[0.75 0 0 0.75 0 0] CT
0 0.447 0.741 RC
1 LJ
2.667 LW
N
229.205 285.551 M
230.017 284.75 L
S
GR
GS
[0.75 0 0 0.75 171.90393 214.16288] CT
0.851 0.325 0.098 RC
N
f1188474679
f
GR
GS
[0.75 0 0 0.75 0 0] CT
0 0.447 0.741 RC
1 LJ
2.667 LW
N
229.762 285.001 M
230.572 284.199 L
S
GR
GS
[0.75 0 0 0.75 172.3214 213.75071] CT
0.494 0.184 0.557 RC
N
f1188474679
f
GR
GS
[0.75 0 0 0.75 0 0] CT
0 0.447 0.741 RC
1 LJ
2.667 LW
N
230.318 284.45 M
231.126 283.646 L
S
GR
GS
[0.75 0 0 0.75 172.73831 213.33735] CT
0.302 0.745 0.933 RC
N
f1188474679
f
GR
GS
[0.75 0 0 0.75 0 0] CT
0 0.447 0.741 RC
1 LJ
2.667 LW
N
230.873 283.897 M
231.68 283.092 L
S
GR
GS
[0.75 0 0 0.75 173.15469 212.92284] CT
0 0.447 0.741 RC
N
f1188474679
f
GR
GS
[0.75 0 0 0.75 0 0] CT
0 0.447 0.741 RC
1 LJ
2.667 LW
N
231.427 283.343 M
232.233 282.536 L
S
GR
GS
[0.75 0 0 0.75 173.57055 212.50722] CT
0.929 0.694 0.125 RC
N
f1188474679
f
GR
GS
[0.75 0 0 0.75 0 0] CT
0 0.447 0.741 RC
1 LJ
2.667 LW
N
231.981 282.787 M
232.785 281.979 L
S
GR
GS
[0.75 0 0 0.75 173.98592 212.09049] CT
0.467 0.675 0.188 RC
N
f1188474679
f
GR
GS
[0.75 0 0 0.75 0 0] CT
0 0.447 0.741 RC
1 LJ
2.667 LW
N
232.534 282.23 M
233.337 281.421 L
S
GR
GS
[0.75 0 0 0.75 174.40082 211.67269] CT
0.635 0.078 0.184 RC
N
f1188474679
f
GR
GS
[0.75 0 0 0.75 0 0] CT
0 0.447 0.741 RC
1 LJ
2.667 LW
N
233.087 281.672 M
233.888 280.861 L
S
GR
GS
[0.75 0 0 0.75 174.81525 211.25381] CT
0.851 0.325 0.098 RC
N
f1188474679
f
GR
GS
[0.75 0 0 0.75 0 0] CT
0 0.447 0.741 RC
1 LJ
2.667 LW
N
233.639 281.112 M
234.439 280.299 L
S
GR
GS
[0.75 0 0 0.75 175.22927 210.83393] CT
0.494 0.184 0.557 RC
N
f1188474679
f
GR
GS
[0.75 0 0 0.75 0 0] CT
0 0.447 0.741 RC
1 LJ
2.667 LW
N
234.19 280.551 M
234.989 279.737 L
S
GR
GS
[0.75 0 0 0.75 175.64286 210.41304] CT
0.302 0.745 0.933 RC
N
f1188474679
f
GR
GS
[0.75 0 0 0.75 0 0] CT
0 0.447 0.741 RC
1 LJ
2.667 LW
N
234.741 279.988 M
235.538 279.173 L
S
GR
GS
[0.75 0 0 0.75 176.05605 209.99117] CT
0 0.447 0.741 RC
N
f1188474679
f
GR
GS
[0.75 0 0 0.75 0 0] CT
0 0.447 0.741 RC
1 LJ
2.667 LW
N
235.292 279.424 M
236.088 278.608 L
S
GR
GS
[0.75 0 0 0.75 176.46887 209.56831] CT
0.929 0.694 0.125 RC
N
f1188474679
f
GR
GS
[0.75 0 0 0.75 0 0] CT
0 0.447 0.741 RC
1 LJ
2.667 LW
N
235.842 278.859 M
236.636 278.042 L
S
GR
GS
[0.75 0 0 0.75 176.88131 209.14451] CT
0.467 0.675 0.188 RC
N
f1188474679
f
GR
GS
[0.75 0 0 0.75 0 0] CT
0 0.447 0.741 RC
1 LJ
2.667 LW
N
236.391 278.293 M
237.184 277.474 L
S
GR
GS
[0.75 0 0 0.75 177.29343 208.7198] CT
0.635 0.078 0.184 RC
N
f1188474679
f
GR
GS
[0.75 0 0 0.75 0 0] CT
0 0.447 0.741 RC
1 LJ
2.667 LW
N
236.94 277.726 M
237.732 276.906 L
S
GR
GS
[0.75 0 0 0.75 177.7052 208.29417] CT
0.851 0.325 0.098 RC
N
f1188474679
f
GR
GS
[0.75 0 0 0.75 0 0] CT
0 0.447 0.741 RC
1 LJ
2.667 LW
N
237.489 277.157 M
238.28 276.336 L
S
GR
GS
[0.75 0 0 0.75 178.11666 207.86765] CT
0.494 0.184 0.557 RC
N
f1188474679
f
GR
GS
[0.75 0 0 0.75 0 0] CT
0 0.447 0.741 RC
1 LJ
2.667 LW
N
238.037 276.587 M
238.827 275.765 L
S
GR
GS
[0.75 0 0 0.75 178.52783 207.44025] CT
0.302 0.745 0.933 RC
N
f1188474679
f
GR
GS
[0.75 0 0 0.75 0 0] CT
0 0.447 0.741 RC
1 LJ
2.667 LW
N
238.585 276.016 M
239.374 275.193 L
S
GR
GS
[0.75 0 0 0.75 178.93871 207.01202] CT
0 0.447 0.741 RC
N
f1188474679
f
GR
GS
[0.75 0 0 0.75 0 0] CT
0 0.447 0.741 RC
1 LJ
2.667 LW
N
239.132 275.444 M
239.92 274.62 L
S
GR
GS
[0.75 0 0 0.75 179.34932 206.58293] CT
0.929 0.694 0.125 RC
N
f1188474679
f
GR
GS
[0.75 0 0 0.75 0 0] CT
0 0.447 0.741 RC
1 LJ
2.667 LW
N
239.68 274.871 M
240.466 274.046 L
S
GR
GS
[0.75 0 0 0.75 179.75969 206.15305] CT
0.467 0.675 0.188 RC
N
f1188474679
f
GR
GS
[0.75 0 0 0.75 0 0] CT
0 0.447 0.741 RC
1 LJ
2.667 LW
N
240.226 274.296 M
241.012 273.47 L
S
GR
GS
[0.75 0 0 0.75 180.16981 205.72234] CT
0.635 0.078 0.184 RC
N
f1188474679
f
GR
GS
[0.75 0 0 0.75 0 0] CT
0 0.447 0.741 RC
1 LJ
2.667 LW
N
240.773 273.721 M
241.558 272.894 L
S
GR
GS
[0.75 0 0 0.75 180.57971 205.29082] CT
0.851 0.325 0.098 RC
N
f1188474679
f
GR
GS
[0.75 0 0 0.75 0 0] CT
0 0.447 0.741 RC
1 LJ
2.667 LW
N
241.319 273.145 M
242.103 272.317 L
S
GR
GS
[0.75 0 0 0.75 180.9894 204.85854] CT
0.494 0.184 0.557 RC
N
f1188474679
f
GR
GS
[0.75 0 0 0.75 0 0] CT
0 0.447 0.741 RC
1 LJ
2.667 LW
N
241.865 272.567 M
242.648 271.739 L
S
GR
GS
[0.75 0 0 0.75 181.39888 204.42551] CT
0.302 0.745 0.933 RC
N
f1188474679
f
GR
GS
[0.75 0 0 0.75 0 0] CT
0 0.447 0.741 RC
1 LJ
2.667 LW
N
242.411 271.989 M
243.193 271.159 L
S
GR
GS
[0.75 0 0 0.75 181.80819 203.99171] CT
0 0.447 0.741 RC
N
f1188474679
f
GR
GS
[0.75 0 0 0.75 0 0] CT
0 0.447 0.741 RC
1 LJ
2.667 LW
N
242.956 271.41 M
243.737 270.579 L
S
GR
GS
[0.75 0 0 0.75 182.21732 203.55718] CT
0.929 0.694 0.125 RC
N
f1188474679
f
GR
GS
[0.75 0 0 0.75 0 0] CT
0 0.447 0.741 RC
1 LJ
2.667 LW
N
243.502 270.829 M
244.282 269.998 L
S
GR
GS
[0.75 0 0 0.75 182.62628 203.12194] CT
0.467 0.675 0.188 RC
N
f1188474679
f
GR
GS
[0.75 0 0 0.75 0 0] CT
0 0.447 0.741 RC
1 LJ
2.667 LW
N
244.047 270.248 M
244.826 269.416 L
S
GR
GS
[0.75 0 0 0.75 183.03509 202.68597] CT
0.635 0.078 0.184 RC
N
f1188474679
f
GR
GS
[0.75 0 0 0.75 0 0] CT
0 0.447 0.741 RC
1 LJ
2.667 LW
N
244.592 269.666 M
245.37 268.833 L
S
GR
GS
[0.75 0 0 0.75 183.44377 202.24933] CT
0.851 0.325 0.098 RC
N
f1188474679
f
GR
GS
[0.75 0 0 0.75 0 0] CT
0 0.447 0.741 RC
1 LJ
2.667 LW
N
245.136 269.083 M
245.914 268.249 L
S
GR
GS
[0.75 0 0 0.75 183.85231 201.81198] CT
0.494 0.184 0.557 RC
N
f1188474679
f
GR
GS
[0.75 0 0 0.75 0 0] CT
0 0.447 0.741 RC
1 LJ
2.667 LW
N
245.681 268.499 M
246.458 267.664 L
S
GR
GS
[0.75 0 0 0.75 184.26074 201.37395] CT
0.302 0.745 0.933 RC
N
f1188474679
f
GR
GS
[0.75 0 0 0.75 0 0] CT
0 0.447 0.741 RC
1 LJ
2.667 LW
N
246.225 267.914 M
247.002 267.079 L
S
GR
GS
[0.75 0 0 0.75 184.66906 200.93525] CT
0 0.447 0.741 RC
N
f1188474679
f
GR
GS
[0.75 0 0 0.75 0 0] CT
0 0.447 0.741 RC
1 LJ
2.667 LW
N
246.77 267.328 M
247.545 266.492 L
S
GR
GS
[0.75 0 0 0.75 185.07729 200.49591] CT
0.929 0.694 0.125 RC
N
f1188474679
f
GR
GS
[0.75 0 0 0.75 0 0] CT
0 0.447 0.741 RC
1 LJ
2.667 LW
N
247.314 266.741 M
248.089 265.905 L
S
GR
GS
[0.75 0 0 0.75 185.48543 200.05593] CT
0.467 0.675 0.188 RC
N
f1188474679
f
GR
GS
[0.75 0 0 0.75 0 0] CT
0 0.447 0.741 RC
1 LJ
2.667 LW
N
247.858 266.154 M
248.632 265.317 L
S
GR
GS
[0.75 0 0 0.75 185.89348 199.61531] CT
0.635 0.078 0.184 RC
N
f1188474679
f
GR
GS
[0.75 0 0 0.75 0 0] CT
0 0.447 0.741 RC
1 LJ
2.667 LW
N
248.402 265.565 M
249.176 264.728 L
S
GR
GS
[0.75 0 0 0.75 186.30147 199.17407] CT
0.851 0.325 0.098 RC
N
f1188474679
f
GR
GS
[0.75 0 0 0.75 0 0] CT
0 0.447 0.741 RC
1 LJ
2.667 LW
N
248.946 264.976 M
249.719 264.138 L
S
GR
GS
[0.75 0 0 0.75 186.70941 198.73222] CT
0.494 0.184 0.557 RC
N
f1188474679
f
GR
GS
[0.75 0 0 0.75 0 0] CT
0 0.447 0.741 RC
1 LJ
2.667 LW
N
249.49 264.386 M
250.262 263.548 L
S
GR
GS
[0.75 0 0 0.75 187.11729 198.28974] CT
0.302 0.745 0.933 RC
N
f1188474679
f
GR
GS
[0.75 0 0 0.75 0 0] CT
0 0.447 0.741 RC
1 LJ
2.667 LW
N
250.034 263.796 M
250.805 262.957 L
S
GR
GS
[0.75 0 0 0.75 187.52513 197.84667] CT
0 0.447 0.741 RC
N
f1188474679
f
GR
GS
[0.75 0 0 0.75 0 0] CT
0 0.447 0.741 RC
1 LJ
2.667 LW
N
250.577 263.204 M
251.348 262.364 L
S
GR
GS
[0.75 0 0 0.75 187.93293 197.40303] CT
0.929 0.694 0.125 RC
N
f1188474679
f
GR
GS
[0.75 0 0 0.75 0 0] CT
0 0.447 0.741 RC
1 LJ
2.667 LW
N
251.121 262.612 M
251.892 261.772 L
S
GR
GS
[0.75 0 0 0.75 188.34072 196.95879] CT
0.467 0.675 0.188 RC
N
f1188474679
f
GR
GS
[0.75 0 0 0.75 0 0] CT
0 0.447 0.741 RC
1 LJ
2.667 LW
N
251.665 262.019 M
252.435 261.178 L
S
GR
GS
[0.75 0 0 0.75 188.74848 196.51401] CT
0.635 0.078 0.184 RC
N
f1188474679
f
GR
GS
[0.75 0 0 0.75 0 0] CT
0 0.447 0.741 RC
1 LJ
2.667 LW
N
252.208 261.425 M
252.978 260.584 L
S
GR
GS
[0.75 0 0 0.75 189.15623 196.06863] CT
0.851 0.325 0.098 RC
N
f1188474679
f
GR
GS
[0.75 0 0 0.75 0 0] CT
0 0.447 0.741 RC
1 LJ
2.667 LW
N
252.752 260.83 M
253.521 259.989 L
S
GR
GS
[0.75 0 0 0.75 189.56398 195.62272] CT
0.494 0.184 0.557 RC
N
f1188474679
f
GR
GS
[0.75 0 0 0.75 0 0] CT
0 0.447 0.741 RC
1 LJ
2.667 LW
N
253.296 260.235 M
254.064 259.393 L
S
GR
GS
[0.75 0 0 0.75 189.97174 195.17624] CT
0.302 0.745 0.933 RC
N
f1188474679
f
GR
GS
[0.75 0 0 0.75 0 0] CT
0 0.447 0.741 RC
1 LJ
2.667 LW
N
253.839 259.639 M
254.607 258.797 L
S
GR
GS
[0.75 0 0 0.75 190.37951 194.72923] CT
0 0.447 0.741 RC
N
f1188474679
f
GR
GS
[0.75 0 0 0.75 0 0] CT
0 0.447 0.741 RC
1 LJ
2.667 LW
N
254.383 259.042 M
255.151 258.199 L
S
GR
GS
[0.75 0 0 0.75 190.78729 194.28168] CT
0.929 0.694 0.125 RC
N
f1188474679
f
GR
GS
[0.75 0 0 0.75 0 0] CT
0 0.447 0.741 RC
1 LJ
2.667 LW
N
254.927 258.445 M
255.694 257.602 L
S
GR
GS
[0.75 0 0 0.75 191.1951 193.8336] CT
0.467 0.675 0.188 RC
N
f1188474679
f
GR
GS
[0.75 0 0 0.75 0 0] CT
0 0.447 0.741 RC
1 LJ
2.667 LW
N
255.471 257.847 M
256.237 257.003 L
S
GR
GS
[0.75 0 0 0.75 191.60295 193.38499] CT
0.635 0.078 0.184 RC
N
f1188474679
f
GR
GS
[0.75 0 0 0.75 0 0] CT
0 0.447 0.741 RC
1 LJ
2.667 LW
N
256.014 257.248 M
256.781 256.404 L
S
GR
GS
[0.75 0 0 0.75 192.01083 192.93587] CT
0.851 0.325 0.098 RC
N
f1188474679
f
GR
GS
[0.75 0 0 0.75 0 0] CT
0 0.447 0.741 RC
1 LJ
2.667 LW
N
256.558 256.648 M
257.324 255.804 L
S
GR
GS
[0.75 0 0 0.75 192.41876 192.48626] CT
0.494 0.184 0.557 RC
N
f1188474679
f
GR
GS
[0.75 0 0 0.75 0 0] CT
0 0.447 0.741 RC
1 LJ
2.667 LW
N
257.102 256.048 M
257.868 255.203 L
S
GR
GS
[0.75 0 0 0.75 192.82674 192.03614] CT
0.302 0.745 0.933 RC
N
f1188474679
f
GR
GS
[0.75 0 0 0.75 0 0] CT
0 0.447 0.741 RC
1 LJ
2.667 LW
N
257.646 255.447 M
258.411 254.602 L
S
GR
GS
[0.75 0 0 0.75 193.23477 191.58551] CT
0 0.447 0.741 RC
N
f1188474679
f
GR
GS
[0.75 0 0 0.75 0 0] CT
0 0.447 0.741 RC
1 LJ
2.667 LW
N
258.19 254.846 M
258.955 254 L
S
GR
GS
[0.75 0 0 0.75 193.64287 191.13439] CT
0.929 0.694 0.125 RC
N
f1188474679
f
GR
GS
[0.75 0 0 0.75 0 0] CT
0 0.447 0.741 RC
1 LJ
2.667 LW
N
258.735 254.244 M
259.499 253.398 L
S
GR
GS
[0.75 0 0 0.75 194.05103 190.68279] CT
0.467 0.675 0.188 RC
N
f1188474679
f
GR
GS
[0.75 0 0 0.75 0 0] CT
0 0.447 0.741 RC
1 LJ
2.667 LW
N
259.279 253.641 M
260.043 252.795 L
S
GR
GS
[0.75 0 0 0.75 194.45927 190.2307] CT
0.635 0.078 0.184 RC
N
f1188474679
f
GR
GS
[0.75 0 0 0.75 0 0] CT
0 0.447 0.741 RC
1 LJ
2.667 LW
N
259.823 253.038 M
260.587 252.191 L
S
GR
GS
[0.75 0 0 0.75 194.86759 189.77814] CT
0.851 0.325 0.098 RC
N
f1188474679
f
GR
GS
[0.75 0 0 0.75 0 0] CT
0 0.447 0.741 RC
1 LJ
2.667 LW
N
260.368 252.433 M
261.131 251.587 L
S
GR
GS
[0.75 0 0 0.75 195.27599 189.32512] CT
0.494 0.184 0.557 RC
N
f1188474679
f
GR
GS
[0.75 0 0 0.75 0 0] CT
0 0.447 0.741 RC
1 LJ
2.667 LW
N
260.913 251.829 M
261.675 250.982 L
S
GR
GS
[0.75 0 0 0.75 195.68447 188.87162] CT
0.302 0.745 0.933 RC
N
f1188474679
f
GR
GS
[0.75 0 0 0.75 0 0] CT
0 0.447 0.741 RC
1 LJ
2.667 LW
N
261.457 251.224 M
262.22 250.376 L
S
GR
GS
[0.75 0 0 0.75 196.09305 188.41766] CT
0 0.447 0.741 RC
N
f1188474679
f
GR
GS
[0.75 0 0 0.75 0 0] CT
0 0.447 0.741 RC
1 LJ
2.667 LW
N
262.002 250.618 M
262.764 249.77 L
S
GR
GS
[0.75 0 0 0.75 196.50172 187.96325] CT
0.929 0.694 0.125 RC
N
f1188474679
f
GR
GS
[0.75 0 0 0.75 0 0] CT
0 0.447 0.741 RC
1 LJ
2.667 LW
N
262.547 250.011 M
263.309 249.163 L
S
GR
GS
[0.75 0 0 0.75 196.9105 187.50838] CT
0.467 0.675 0.188 RC
N
f1188474679
f
GR
GS
[0.75 0 0 0.75 0 0] CT
0 0.447 0.741 RC
1 LJ
2.667 LW
N
263.092 249.404 M
263.854 248.556 L
S
GR
GS
[0.75 0 0 0.75 197.31937 187.05306] CT
0.635 0.078 0.184 RC
N
f1188474679
f
GR
GS
[0.75 0 0 0.75 0 0] CT
0 0.447 0.741 RC
1 LJ
2.667 LW
N
263.638 248.796 M
264.399 247.948 L
S
GR
GS
[0.75 0 0 0.75 197.72836 186.59731] CT
0.851 0.325 0.098 RC
N
f1188474679
f
GR
GS
[0.75 0 0 0.75 0 0] CT
0 0.447 0.741 RC
1 LJ
2.667 LW
N
264.183 248.188 M
264.944 247.339 L
S
GR
GS
[0.75 0 0 0.75 198.13747 186.14112] CT
0.494 0.184 0.557 RC
N
f1188474679
f
GR
GS
[0.75 0 0 0.75 0 0] CT
0 0.447 0.741 RC
1 LJ
2.667 LW
N
264.729 247.579 M
265.49 246.73 L
S
GR
GS
[0.75 0 0 0.75 198.54668 185.68449] CT
0.302 0.745 0.933 RC
N
f1188474679
f
GR
GS
[0.75 0 0 0.75 0 0] CT
0 0.447 0.741 RC
1 LJ
2.667 LW
N
265.275 246.97 M
266.035 246.121 L
S
GR
GS
[0.75 0 0 0.75 198.95604 185.22742] CT
0 0.447 0.741 RC
N
f1188474679
f
GR
GS
[0.75 0 0 0.75 0 0] CT
0 0.447 0.741 RC
1 LJ
2.667 LW
N
265.821 246.36 M
266.581 245.51 L
S
GR
GS
[0.75 0 0 0.75 199.36551 184.76993] CT
0.929 0.694 0.125 RC
N
f1188474679
f
GR
GS
[0.75 0 0 0.75 0 0] CT
0 0.447 0.741 RC
1 LJ
2.667 LW
N
266.367 245.749 M
267.127 244.9 L
S
GR
GS
[0.75 0 0 0.75 199.77512 184.31202] CT
0.467 0.675 0.188 RC
N
f1188474679
f
GR
GS
[0.75 0 0 0.75 0 0] CT
0 0.447 0.741 RC
1 LJ
2.667 LW
N
266.913 245.138 M
267.673 244.288 L
S
GR
GS
[0.75 0 0 0.75 200.18484 183.85368] CT
0.635 0.078 0.184 RC
N
f1188474679
f
GR
GS
[0.75 0 0 0.75 0 0] CT
0 0.447 0.741 RC
1 LJ
2.667 LW
N
267.46 244.527 M
268.219 243.676 L
S
GR
GS
[0.75 0 0 0.75 200.5947 183.39492] CT
0.851 0.325 0.098 RC
N
f1188474679
f
GR
GS
[0.75 0 0 0.75 0 0] CT
0 0.447 0.741 RC
1 LJ
2.667 LW
N
268.006 243.914 M
268.765 243.064 L
S
GR
GS
[0.75 0 0 0.75 201.00471 182.93576] CT
0.494 0.184 0.557 RC
N
f1188474679
f
GR
GS
[0.75 0 0 0.75 0 0] CT
0 0.447 0.741 RC
1 LJ
2.667 LW
N
268.553 243.302 M
269.312 242.451 L
S
GR
GS
[0.75 0 0 0.75 201.41487 182.47618] CT
0.302 0.745 0.933 RC
N
f1188474679
f
GR
GS
[0.75 0 0 0.75 0 0] CT
0 0.447 0.741 RC
1 LJ
2.667 LW
N
269.1 242.688 M
269.859 241.837 L
S
GR
GS
[0.75 0 0 0.75 201.82516 182.0162] CT
0 0.447 0.741 RC
N
f1188474679
f
GR
GS
[0.75 0 0 0.75 0 0] CT
0 0.447 0.741 RC
1 LJ
2.667 LW
N
269.647 242.074 M
270.406 241.223 L
S
GR
GS
[0.75 0 0 0.75 202.23562 181.55581] CT
0.929 0.694 0.125 RC
N
f1188474679
f
GR
GS
[0.75 0 0 0.75 0 0] CT
0 0.447 0.741 RC
1 LJ
2.667 LW
N
270.195 241.46 M
270.953 240.609 L
S
GR
GS
[0.75 0 0 0.75 202.64621 181.09503] CT
0.467 0.675 0.188 RC
N
f1188474679
f
GR
GS
[0.75 0 0 0.75 0 0] CT
0 0.447 0.741 RC
1 LJ
2.667 LW
N
270.743 240.845 M
271.501 239.994 L
S
GR
GS
[0.75 0 0 0.75 203.05696 180.63384] CT
0.635 0.078 0.184 RC
N
f1188474679
f
GR
GS
[0.75 0 0 0.75 0 0] CT
0 0.447 0.741 RC
1 LJ
2.667 LW
N
271.291 240.23 M
272.048 239.378 L
S
GR
GS
[0.75 0 0 0.75 203.4679 180.17226] CT
0.851 0.325 0.098 RC
N
f1188474679
f
GR
GS
[0.75 0 0 0.75 0 0] CT
0 0.447 0.741 RC
1 LJ
2.667 LW
N
271.839 239.614 M
272.596 238.762 L
S
GR
GS
[0.75 0 0 0.75 203.87897 179.71028] CT
0.494 0.184 0.557 RC
N
f1188474679
f
GR
GS
[0.75 0 0 0.75 0 0] CT
0 0.447 0.741 RC
1 LJ
2.667 LW
N
272.387 238.997 M
273.144 238.145 L
S
GR
GS
[0.75 0 0 0.75 204.2902 179.24792] CT
0.302 0.745 0.933 RC
N
f1188474679
f
GR
GS
[0.75 0 0 0.75 0 0] CT
0 0.447 0.741 RC
1 LJ
2.667 LW
N
272.935 238.38 M
273.693 237.528 L
S
GR
GS
[0.75 0 0 0.75 204.70159 178.78516] CT
0 0.447 0.741 RC
N
f1188474679
f
GR
GS
[0.75 0 0 0.75 0 0] CT
0 0.447 0.741 RC
1 LJ
2.667 LW
N
273.484 237.763 M
274.241 236.91 L
S
GR
GS
[0.75 0 0 0.75 205.11317 178.32202] CT
0.929 0.694 0.125 RC
N
f1188474679
f
GR
GS
[0.75 0 0 0.75 0 0] CT
0 0.447 0.741 RC
1 LJ
2.667 LW
N
274.033 237.145 M
274.79 236.292 L
S
GR
GS
[0.75 0 0 0.75 205.52493 177.85851] CT
0.467 0.675 0.188 RC
N
f1188474679
f
GR
GS
[0.75 0 0 0.75 0 0] CT
0 0.447 0.741 RC
1 LJ
2.667 LW
N
274.582 236.526 M
275.339 235.674 L
S
GR
GS
[0.75 0 0 0.75 205.93682 177.39462] CT
0.635 0.078 0.184 RC
N
f1188474679
f
GR
GS
[0.75 0 0 0.75 0 0] CT
0 0.447 0.741 RC
1 LJ
2.667 LW
N
275.132 235.907 M
275.889 235.054 L
S
GR
GS
[0.75 0 0 0.75 206.34892 176.93033] CT
0.851 0.325 0.098 RC
N
f1188474679
f
GR
GS
[0.75 0 0 0.75 0 0] CT
0 0.447 0.741 RC
1 LJ
2.667 LW
N
275.682 235.288 M
276.438 234.435 L
S
GR
GS
[0.75 0 0 0.75 206.76118 176.46569] CT
0.494 0.184 0.557 RC
N
f1188474679
f
GR
GS
[0.75 0 0 0.75 0 0] CT
0 0.447 0.741 RC
1 LJ
2.667 LW
N
276.232 234.668 M
276.988 233.815 L
S
GR
GS
[0.75 0 0 0.75 207.17363 176.00066] CT
0.302 0.745 0.933 RC
N
f1188474679
f
GR
GS
[0.75 0 0 0.75 0 0] CT
0 0.447 0.741 RC
1 LJ
2.667 LW
N
276.782 234.047 M
277.538 233.194 L
S
GR
GS
[0.75 0 0 0.75 207.58628 175.53526] CT
0 0.447 0.741 RC
N
f1188474679
f
GR
GS
[0.75 0 0 0.75 0 0] CT
0 0.447 0.741 RC
1 LJ
2.667 LW
N
277.332 233.426 M
278.088 232.573 L
S
GR
GS
[0.75 0 0 0.75 207.99909 175.0695] CT
0.929 0.694 0.125 RC
N
f1188474679
f
GR
GS
[0.75 0 0 0.75 0 0] CT
0 0.447 0.741 RC
1 LJ
2.667 LW
N
277.883 232.804 M
278.639 231.951 L
S
GR
GS
[0.75 0 0 0.75 208.41209 174.60337] CT
0.467 0.675 0.188 RC
N
f1188474679
f
GR
GS
[0.75 0 0 0.75 0 0] CT
0 0.447 0.741 RC
1 LJ
2.667 LW
N
278.434 232.182 M
279.19 231.329 L
S
GR
GS
[0.75 0 0 0.75 208.82529 174.13687] CT
0.635 0.078 0.184 RC
N
f1188474679
f
GR
GS
[0.75 0 0 0.75 0 0] CT
0 0.447 0.741 RC
1 LJ
2.667 LW
N
278.985 231.56 M
279.741 230.706 L
S
GR
GS
[0.75 0 0 0.75 209.23865 173.67001] CT
0.851 0.325 0.098 RC
N
f1188474679
f
GR
GS
[0.75 0 0 0.75 0 0] CT
0 0.447 0.741 RC
1 LJ
2.667 LW
N
279.536 230.937 M
280.292 230.083 L
S
GR
GS
[0.75 0 0 0.75 209.65224 173.20279] CT
0.494 0.184 0.557 RC
N
f1188474679
f
GR
GS
[0.75 0 0 0.75 0 0] CT
0 0.447 0.741 RC
1 LJ
2.667 LW
N
280.088 230.314 M
280.843 229.46 L
S
GR
GS
[0.75 0 0 0.75 210.06599 172.73522] CT
0.302 0.745 0.933 RC
N
f1188474679
f
GR
GS
[0.75 0 0 0.75 0 0] CT
0 0.447 0.741 RC
1 LJ
2.667 LW
N
280.64 229.69 M
281.395 228.836 L
S
GR
GS
[0.75 0 0 0.75 210.47994 172.26728] CT
0 0.447 0.741 RC
N
f1188474679
f
GR
GS
[0.75 0 0 0.75 0 0] CT
0 0.447 0.741 RC
1 LJ
2.667 LW
N
281.192 229.065 M
281.947 228.211 L
S
GR
GS
[0.75 0 0 0.75 210.8941 171.79899] CT
0.929 0.694 0.125 RC
N
f1188474679
f
GR
GS
[0.75 0 0 0.75 0 0] CT
0 0.447 0.741 RC
1 LJ
2.667 LW
N
281.745 228.44 M
282.5 227.586 L
S
GR
GS
[0.75 0 0 0.75 211.30847 171.33035] CT
0.467 0.675 0.188 RC
N
f1188474679
f
GR
GS
[0.75 0 0 0.75 0 0] CT
0 0.447 0.741 RC
1 LJ
2.667 LW
N
282.297 227.815 M
283.052 226.961 L
S
GR
GS
[0.75 0 0 0.75 211.72302 170.86135] CT
0.635 0.078 0.184 RC
N
f1188474679
f
GR
GS
[0.75 0 0 0.75 0 0] CT
0 0.447 0.741 RC
1 LJ
2.667 LW
N
282.85 227.189 M
283.605 226.335 L
S
GR
GS
[0.75 0 0 0.75 212.13778 170.392] CT
0.851 0.325 0.098 RC
N
f1188474679
f
GR
GS
[0.75 0 0 0.75 0 0] CT
0 0.447 0.741 RC
1 LJ
2.667 LW
N
283.404 226.563 M
284.158 225.709 L
S
GR
GS
[0.75 0 0 0.75 212.55274 169.92231] CT
0.494 0.184 0.557 RC
N
f1188474679
f
GR
GS
[0.75 0 0 0.75 0 0] CT
0 0.447 0.741 RC
1 LJ
2.667 LW
N
283.957 225.936 M
284.712 225.082 L
S
GR
GS
[0.75 0 0 0.75 212.96789 169.45227] CT
0.302 0.745 0.933 RC
N
f1188474679
f
GR
GS
[0.75 0 0 0.75 0 0] CT
0 0.447 0.741 RC
1 LJ
2.667 LW
N
284.511 225.309 M
285.266 224.455 L
S
GR
GS
[0.75 0 0 0.75 213.38326 168.98188] CT
0 0.447 0.741 RC
N
f1188474679
f
GR
GS
[0.75 0 0 0.75 0 0] CT
0 0.447 0.741 RC
1 LJ
2.667 LW
N
285.065 224.682 M
285.82 223.827 L
S
GR
GS
[0.75 0 0 0.75 213.79884 168.51114] CT
0.929 0.694 0.125 RC
N
f1188474679
f
GR
GS
[0.75 0 0 0.75 0 0] CT
0 0.447 0.741 RC
1 LJ
2.667 LW
N
285.62 224.053 M
286.374 223.199 L
S
GR
GS
[0.75 0 0 0.75 214.21463 168.04007] CT
0.467 0.675 0.188 RC
N
f1188474679
f
GR
GS
[0.75 0 0 0.75 0 0] CT
0 0.447 0.741 RC
1 LJ
2.667 LW
N
286.174 223.425 M
286.928 222.57 L
S
GR
GS
[0.75 0 0 0.75 214.63062 167.56865] CT
0.635 0.078 0.184 RC
N
f1188474679
f
GR
GS
[0.75 0 0 0.75 0 0] CT
0 0.447 0.741 RC
1 LJ
2.667 LW
N
286.729 222.796 M
287.483 221.941 L
S
GR
GS
[0.75 0 0 0.75 215.04682 167.09689] CT
0.851 0.325 0.098 RC
N
f1188474679
f
GR
GS
[0.75 0 0 0.75 0 0] CT
0 0.447 0.741 RC
1 LJ
2.667 LW
N
287.284 222.166 M
288.038 221.311 L
S
GR
GS
[0.75 0 0 0.75 215.46325 166.62479] CT
0.494 0.184 0.557 RC
N
f1188474679
f
GR
GS
[0.75 0 0 0.75 0 0] CT
0 0.447 0.741 RC
1 LJ
2.667 LW
N
287.84 221.536 M
288.594 220.681 L
S
GR
GS
[0.75 0 0 0.75 215.87988 166.15235] CT
0.302 0.745 0.933 RC
N
f1188474679
f
GR
GS
[0.75 0 0 0.75 0 0] CT
0 0.447 0.741 RC
1 LJ
2.667 LW
N
288.396 220.906 M
289.15 220.051 L
S
GR
GS
[0.75 0 0 0.75 216.29672 165.67958] CT
0 0.447 0.741 RC
N
f1188474679
f
GR
GS
[0.75 0 0 0.75 0 0] CT
0 0.447 0.741 RC
1 LJ
2.667 LW
N
288.952 220.275 M
289.706 219.42 L
S
GR
GS
[0.75 0 0 0.75 216.71379 165.20647] CT
0.929 0.694 0.125 RC
N
f1188474679
f
GR
GS
[0.75 0 0 0.75 0 0] CT
0 0.447 0.741 RC
1 LJ
2.667 LW
N
289.508 219.644 M
290.262 218.789 L
S
GR
GS
[0.75 0 0 0.75 217.13107 164.73303] CT
0.467 0.675 0.188 RC
N
f1188474679
f
GR
GS
[0.75 0 0 0.75 0 0] CT
0 0.447 0.741 RC
1 LJ
2.667 LW
N
290.065 219.012 M
290.818 218.157 L
S
GR
GS
[0.75 0 0 0.75 217.54855 164.25926] CT
0.635 0.078 0.184 RC
N
f1188474679
f
GR
GS
[0.75 0 0 0.75 0 0] CT
0 0.447 0.741 RC
1 LJ
2.667 LW
N
290.622 218.38 M
291.375 217.525 L
S
GR
GS
[0.75 0 0 0.75 217.96626 163.78515] CT
0.851 0.325 0.098 RC
N
f1188474679
f
GR
GS
[0.75 0 0 0.75 0 0] CT
0 0.447 0.741 RC
1 LJ
2.667 LW
N
291.179 217.748 M
291.932 216.892 L
S
GR
GS
[0.75 0 0 0.75 218.38419 163.31071] CT
0.494 0.184 0.557 RC
N
f1188474679
f
GR
GS
[0.75 0 0 0.75 0 0] CT
0 0.447 0.741 RC
1 LJ
2.667 LW
N
291.736 217.115 M
292.49 216.259 L
S
GR
GS
[0.75 0 0 0.75 218.80236 162.83595] CT
0.302 0.745 0.933 RC
N
f1188474679
f
GR
GS
[0.75 0 0 0.75 0 0] CT
0 0.447 0.741 RC
1 LJ
2.667 LW
N
292.294 216.481 M
293.048 215.626 L
S
GR
GS
[0.75 0 0 0.75 219.22073 162.36086] CT
0 0.447 0.741 RC
N
f1188474679
f
GR
GS
[0.75 0 0 0.75 0 0] CT
0 0.447 0.741 RC
1 LJ
2.667 LW
N
292.852 215.847 M
293.606 214.992 L
S
GR
GS
[0.75 0 0 0.75 219.63931 161.88543] CT
0.929 0.694 0.125 RC
N
f1188474679
f
GR
GS
[0.75 0 0 0.75 0 0] CT
0 0.447 0.741 RC
1 LJ
2.667 LW
N
293.411 215.213 M
294.164 214.357 L
S
GR
GS
[0.75 0 0 0.75 220.05814 161.40968] CT
0.467 0.675 0.188 RC
N
f1188474679
f
GR
GS
[0.75 0 0 0.75 0 0] CT
0 0.447 0.741 RC
1 LJ
2.667 LW
N
293.97 214.578 M
294.723 213.722 L
S
GR
GS
[0.75 0 0 0.75 220.47718 160.93361] CT
0.635 0.078 0.184 RC
N
f1188474679
f
GR
GS
[0.75 0 0 0.75 0 0] CT
0 0.447 0.741 RC
1 LJ
2.667 LW
N
294.529 213.943 M
295.282 213.087 L
S
GR
GS
[0.75 0 0 0.75 220.89645 160.45721] CT
0.851 0.325 0.098 RC
N
f1188474679
f
GR
GS
[0.75 0 0 0.75 0 0] CT
0 0.447 0.741 RC
1 LJ
2.667 LW
N
295.088 213.307 M
295.841 212.451 L
S
GR
GS
[0.75 0 0 0.75 221.31594 159.98048] CT
0.494 0.184 0.557 RC
N
f1188474679
f
GR
GS
[0.75 0 0 0.75 0 0] CT
0 0.447 0.741 RC
1 LJ
2.667 LW
N
295.648 212.671 M
296.401 211.815 L
S
GR
GS
[0.75 0 0 0.75 221.73566 159.50344] CT
0.302 0.745 0.933 RC
N
f1188474679
f
GR
GS
[0.75 0 0 0.75 0 0] CT
0 0.447 0.741 RC
1 LJ
2.667 LW
N
296.207 212.035 M
296.96 211.179 L
S
GR
GS
[0.75 0 0 0.75 222.15559 159.02607] CT
0 0.447 0.741 RC
N
f1188474679
f
GR
GS
[0.75 0 0 0.75 0 0] CT
0 0.447 0.741 RC
1 LJ
2.667 LW
N
296.768 211.398 M
297.521 210.542 L
S
GR
GS
[0.75 0 0 0.75 222.57578 158.54838] CT
0.929 0.694 0.125 RC
N
f1188474679
f
GR
GS
[0.75 0 0 0.75 0 0] CT
0 0.447 0.741 RC
1 LJ
2.667 LW
N
297.328 210.76 M
298.081 209.904 L
S
GR
GS
[0.75 0 0 0.75 222.99619 158.07037] CT
0.467 0.675 0.188 RC
N
f1188474679
f
GR
GS
[0.75 0 0 0.75 0 0] CT
0 0.447 0.741 RC
1 LJ
2.667 LW
N
297.889 210.123 M
298.642 209.267 L
S
GR
GS
[0.75 0 0 0.75 223.4168 157.59203] CT
0.635 0.078 0.184 RC
N
f1188474679
f
GR
GS
[0.75 0 0 0.75 0 0] CT
0 0.447 0.741 RC
1 LJ
2.667 LW
N
298.45 209.485 M
299.203 208.628 L
S
GR
GS
[0.75 0 0 0.75 223.83767 157.11338] CT
0.851 0.325 0.098 RC
N
f1188474679
f
GR
GS
[0.75 0 0 0.75 0 0] CT
0 0.447 0.741 RC
1 LJ
2.667 LW
N
299.012 208.846 M
299.764 207.99 L
S
GR
GS
[0.75 0 0 0.75 224.25877 156.63443] CT
0.494 0.184 0.557 RC
N
f1188474679
f
GR
GS
[0.75 0 0 0.75 0 0] CT
0 0.447 0.741 RC
1 LJ
2.667 LW
N
299.573 208.207 M
300.326 207.351 L
S
GR
GS
[0.75 0 0 0.75 224.68007 156.15514] CT
0.302 0.745 0.933 RC
N
f1188474679
f
GR
GS
[0.75 0 0 0.75 0 0] CT
0 0.447 0.741 RC
1 LJ
2.667 LW
N
300.135 207.567 M
300.888 206.711 L
S
GR
GS
[0.75 0 0 0.75 225.10162 155.67554] CT
0 0.447 0.741 RC
N
f1188474679
f
GR
GS
[0.75 0 0 0.75 0 0] CT
0 0.447 0.741 RC
1 LJ
2.667 LW
N
300.698 206.928 M
301.45 206.071 L
S
GR
GS
[0.75 0 0 0.75 225.52341 155.19563] CT
0.929 0.694 0.125 RC
N
f1188474679
f
GR
GS
[0.75 0 0 0.75 0 0] CT
0 0.447 0.741 RC
1 LJ
2.667 LW
N
301.261 206.287 M
302.013 205.431 L
S
GR
GS
[0.75 0 0 0.75 225.94542 154.7154] CT
0.467 0.675 0.188 RC
N
f1188474679
f
GR
GS
[0.75 0 0 0.75 0 0] CT
0 0.447 0.741 RC
1 LJ
2.667 LW
N
301.824 205.646 M
302.576 204.79 L
S
GR
GS
[0.75 0 0 0.75 226.36768 154.23485] CT
0.635 0.078 0.184 RC
N
f1188474679
f
GR
GS
[0.75 0 0 0.75 0 0] CT
0 0.447 0.741 RC
1 LJ
2.667 LW
N
302.387 205.005 M
303.139 204.149 L
S
GR
GS
[0.75 0 0 0.75 226.79015 153.75399] CT
0.851 0.325 0.098 RC
N
f1188474679
f
GR
GS
[0.75 0 0 0.75 0 0] CT
0 0.447 0.741 RC
1 LJ
2.667 LW
N
302.951 204.364 M
303.703 203.507 L
S
GR
GS
[0.75 0 0 0.75 227.21288 153.27283] CT
0.494 0.184 0.557 RC
N
f1188474679
f
GR
GS
[0.75 0 0 0.75 0 0] CT
0 0.447 0.741 RC
1 LJ
2.667 LW
N
303.514 203.722 M
304.267 202.865 L
S
GR
GS
[0.75 0 0 0.75 227.63583 152.79134] CT
0.302 0.745 0.933 RC
N
f1188474679
f
GR
GS
[0.75 0 0 0.75 0 0] CT
0 0.447 0.741 RC
1 LJ
2.667 LW
N
304.079 203.079 M
304.831 202.223 L
S
GR
GS
[0.75 0 0 0.75 228.05901 152.30954] CT
0 0.447 0.741 RC
N
f1188474679
f
GR
GS
[0.75 0 0 0.75 0 0] CT
0 0.447 0.741 RC
1 LJ
2.667 LW
N
304.643 202.437 M
305.396 201.58 L
S
GR
GS
[0.75 0 0 0.75 228.48244 151.82744] CT
0.929 0.694 0.125 RC
N
f1188474679
f
GR
GS
[0.75 0 0 0.75 0 0] CT
0 0.447 0.741 RC
1 LJ
2.667 LW
N
305.208 201.793 M
305.96 200.937 L
S
GR
GS
[0.75 0 0 0.75 228.9061 151.34502] CT
0.467 0.675 0.188 RC
N
f1188474679
f
GR
GS
[0.75 0 0 0.75 0 0] CT
0 0.447 0.741 RC
1 LJ
2.667 LW
N
305.773 201.15 M
306.525 200.293 L
S
GR
GS
[0.75 0 0 0.75 229.32999 150.8623] CT
0.635 0.078 0.184 RC
N
f1188474679
f
GR
GS
[0.75 0 0 0.75 0 0] CT
0 0.447 0.741 RC
1 LJ
2.667 LW
N
306.339 200.506 M
307.091 199.649 L
S
GR
GS
[0.75 0 0 0.75 229.7541 150.37927] CT
0.851 0.325 0.098 RC
N
f1188474679
f
GR
GS
[0.75 0 0 0.75 0 0] CT
0 0.447 0.741 RC
1 LJ
2.667 LW
N
306.905 199.861 M
307.657 199.005 L
S
GR
GS
[0.75 0 0 0.75 230.17847 149.89593] CT
0.494 0.184 0.557 RC
N
f1188474679
f
GR
GS
[0.75 0 0 0.75 0 0] CT
0 0.447 0.741 RC
1 LJ
2.667 LW
N
307.471 199.216 M
308.223 198.36 L
S
GR
GS
[0.75 0 0 0.75 230.60307 149.41227] CT
0.302 0.745 0.933 RC
N
f1188474679
f
GR
GS
[0.75 0 0 0.75 0 0] CT
0 0.447 0.741 RC
1 LJ
2.667 LW
N
308.037 198.571 M
308.789 197.714 L
S
GR
GS
[0.75 0 0 0.75 231.02792 148.92831] CT
0 0.447 0.741 RC
N
f1188474679
f
GR
GS
[0.75 0 0 0.75 0 0] CT
0 0.447 0.741 RC
1 LJ
2.667 LW
N
308.604 197.925 M
309.356 197.069 L
S
GR
GS
[0.75 0 0 0.75 231.453 148.44405] CT
0.929 0.694 0.125 RC
N
f1188474679
f
GR
GS
[0.75 0 0 0.75 0 0] CT
0 0.447 0.741 RC
1 LJ
2.667 LW
N
309.171 197.279 M
309.923 196.423 L
S
GR
GS
[0.75 0 0 0.75 231.87831 147.95947] CT
0.467 0.675 0.188 RC
N
f1188474679
f
GR
GS
[0.75 0 0 0.75 0 0] CT
0 0.447 0.741 RC
1 LJ
2.667 LW
N
309.738 196.633 M
310.49 195.776 L
S
GR
GS
[0.75 0 0 0.75 232.30387 147.4746] CT
0.635 0.078 0.184 RC
N
f1188474679
f
GR
GS
[0.75 0 0 0.75 0 0] CT
0 0.447 0.741 RC
1 LJ
2.667 LW
N
310.306 195.986 M
311.058 195.129 L
S
GR
GS
[0.75 0 0 0.75 232.72966 146.98941] CT
0.851 0.325 0.098 RC
N
f1188474679
f
GR
GS
[0.75 0 0 0.75 0 0] CT
0 0.447 0.741 RC
1 LJ
2.667 LW
N
310.874 195.339 M
311.626 194.482 L
S
GR
GS
[0.75 0 0 0.75 233.15568 146.50392] CT
0.494 0.184 0.557 RC
N
f1188474679
f
GR
GS
[0.75 0 0 0.75 0 0] CT
0 0.447 0.741 RC
1 LJ
2.667 LW
N
311.443 194.691 M
312.194 193.834 L
S
GR
GS
[0.75 0 0 0.75 233.58197 146.01813] CT
0.302 0.745 0.933 RC
N
f1188474679
f
GR
GS
[0.75 0 0 0.75 0 0] CT
0 0.447 0.741 RC
1 LJ
2.667 LW
N
312.011 194.043 M
312.763 193.186 L
S
GR
GS
[0.75 0 0 0.75 234.00847 145.53203] CT
0 0.447 0.741 RC
N
f1188474679
f
GR
GS
[0.75 0 0 0.75 0 0] CT
0 0.447 0.741 RC
1 LJ
2.667 LW
N
312.58 193.394 M
313.332 192.537 L
S
GR
GS
[0.75 0 0 0.75 234.43522 145.04564] CT
0.929 0.694 0.125 RC
N
f1188474679
f
GR
GS
[0.75 0 0 0.75 0 0] CT
0 0.447 0.741 RC
1 LJ
2.667 LW
N
313.15 192.745 M
313.901 191.888 L
S
GR
GS
[0.75 0 0 0.75 234.86222 144.55893] CT
0.467 0.675 0.188 RC
N
f1188474679
f
GR
GS
[0.75 0 0 0.75 0 0] CT
0 0.447 0.741 RC
1 LJ
2.667 LW
N
313.719 192.096 M
314.471 191.239 L
S
GR
GS
[0.75 0 0 0.75 235.28945 144.07191] CT
0.635 0.078 0.184 RC
N
f1188474679
f
GR
GS
[0.75 0 0 0.75 0 0] CT
0 0.447 0.741 RC
1 LJ
2.667 LW
N
314.289 191.446 M
315.041 190.589 L
S
GR
GS
[0.75 0 0 0.75 235.71693 143.58461] CT
0.851 0.325 0.098 RC
N
f1188474679
f
GR
GS
[0.75 0 0 0.75 0 0] CT
0 0.447 0.741 RC
1 LJ
2.667 LW
N
314.86 190.796 M
315.611 189.939 L
S
GR
GS
[0.75 0 0 0.75 236.14465 143.097] CT
0.494 0.184 0.557 RC
N
f1188474679
f
GR
GS
[0.75 0 0 0.75 0 0] CT
0 0.447 0.741 RC
1 LJ
2.667 LW
N
315.43 190.145 M
316.182 189.288 L
S
GR
GS
[0.75 0 0 0.75 236.57259 142.6091] CT
0.302 0.745 0.933 RC
N
f1188474679
f
GR
GS
[0.75 0 0 0.75 0 0] CT
0 0.447 0.741 RC
1 LJ
2.667 LW
N
316.001 189.495 M
316.753 188.637 L
S
GR
GS
[0.75 0 0 0.75 237.00078 142.12088] CT
0 0.447 0.741 RC
N
f1188474679
f
GR
GS
[0.75 0 0 0.75 0 0] CT
0 0.447 0.741 RC
1 LJ
2.667 LW
N
316.572 188.843 M
317.324 187.986 L
S
GR
GS
[0.75 0 0 0.75 237.42922 141.63237] CT
0.929 0.694 0.125 RC
N
f1188474679
f
GR
GS
[0.75 0 0 0.75 0 0] CT
0 0.447 0.741 RC
1 LJ
2.667 LW
N
317.144 188.191 M
317.896 187.334 L
S
GR
GS
[0.75 0 0 0.75 237.85792 141.14355] CT
0.467 0.675 0.188 RC
N
f1188474679
f
GR
GS
[0.75 0 0 0.75 0 0] CT
0 0.447 0.741 RC
1 LJ
2.667 LW
N
317.716 187.539 M
318.467 186.682 L
S
GR
GS
[0.75 0 0 0.75 238.28682 140.65445] CT
0.635 0.078 0.184 RC
N
f1188474679
f
GR
GS
[0.75 0 0 0.75 0 0] CT
0 0.447 0.741 RC
1 LJ
2.667 LW
N
318.288 186.887 M
319.04 186.03 L
S
GR
GS
[0.75 0 0 0.75 238.716 140.16503] CT
0.851 0.325 0.098 RC
N
f1188474679
f
GR
GS
[0.75 0 0 0.75 0 0] CT
0 0.447 0.741 RC
1 LJ
2.667 LW
N
318.861 186.234 M
319.612 185.377 L
S
GR
GS
[0.75 0 0 0.75 239.1454 139.67532] CT
0.494 0.184 0.557 RC
N
f1188474679
f
GR
GS
[0.75 0 0 0.75 0 0] CT
0 0.447 0.741 RC
1 LJ
2.667 LW
N
319.433 185.58 M
320.185 184.723 L
S
GR
GS
[0.75 0 0 0.75 239.57504 139.18531] CT
0.302 0.745 0.933 RC
N
f1188474679
f
GR
GS
[0.75 0 0 0.75 0 0] CT
0 0.447 0.741 RC
1 LJ
2.667 LW
N
320.007 184.927 M
320.758 184.069 L
S
GR
GS
[0.75 0 0 0.75 240.00494 138.695] CT
0 0.447 0.741 RC
N
f1188474679
f
GR
GS
[0.75 0 0 0.75 0 0] CT
0 0.447 0.741 RC
1 LJ
2.667 LW
N
320.58 184.273 M
321.332 183.415 L
S
GR
GS
[0.75 0 0 0.75 240.43508 138.20439] CT
0.929 0.694 0.125 RC
N
f1188474679
f
GR
GS
[0.75 0 0 0.75 0 0] CT
0 0.447 0.741 RC
1 LJ
2.667 LW
N
321.154 183.618 M
321.905 182.761 L
S
GR
GS
[0.75 0 0 0.75 240.86545 137.7135] CT
0.467 0.675 0.188 RC
N
f1188474679
f
GR
GS
[0.75 0 0 0.75 0 0] CT
0 0.447 0.741 RC
1 LJ
2.667 LW
N
321.728 182.963 M
322.48 182.106 L
S
GR
GS
[0.75 0 0 0.75 241.29607 137.22229] CT
0.635 0.078 0.184 RC
N
f1188474679
f
GR
GS
[0.75 0 0 0.75 0 0] CT
0 0.447 0.741 RC
1 LJ
2.667 LW
N
322.303 182.308 M
323.054 181.45 L
S
GR
GS
[0.75 0 0 0.75 241.72694 136.73079] CT
0.851 0.325 0.098 RC
N
f1188474679
f
GR
GS
[0.75 0 0 0.75 0 0] CT
0 0.447 0.741 RC
1 LJ
2.667 LW
N
322.877 181.652 M
323.629 180.795 L
S
GR
GS
[0.75 0 0 0.75 242.15804 136.23899] CT
0.494 0.184 0.557 RC
N
f1188474679
f
GR
GS
[0.75 0 0 0.75 0 0] CT
0 0.447 0.741 RC
1 LJ
2.667 LW
N
323.453 180.996 M
324.204 180.139 L
S
GR
GS
[0.75 0 0 0.75 242.58939 135.74691] CT
0.302 0.745 0.933 RC
N
f1188474679
f
GR
GS
[0.75 0 0 0.75 0 0] CT
0 0.447 0.741 RC
1 LJ
2.667 LW
N
324.028 180.339 M
324.779 179.482 L
S
GR
GS
[0.75 0 0 0.75 243.02097 135.25453] CT
0 0.447 0.741 RC
N
f1188474679
f
GR
GS
[0.75 0 0 0.75 0 0] CT
0 0.447 0.741 RC
1 LJ
2.667 LW
N
324.604 179.682 M
325.355 178.825 L
S
GR
GS
[0.75 0 0 0.75 243.45282 134.76184] CT
0.929 0.694 0.125 RC
N
f1188474679
f
GR
GS
[0.75 0 0 0.75 0 0] CT
0 0.447 0.741 RC
1 LJ
2.667 LW
N
325.18 179.025 M
325.931 178.168 L
S
GR
GS
[0.75 0 0 0.75 243.88488 134.26887] CT
0.467 0.675 0.188 RC
N
f1188474679
f
GR
GS
[0.75 0 0 0.75 0 0] CT
0 0.447 0.741 RC
1 LJ
2.667 LW
N
325.756 178.367 M
326.508 177.51 L
S
GR
GS
[0.75 0 0 0.75 244.31721 133.7756] CT
0.635 0.078 0.184 RC
N
f1188474679
f
GR
GS
[0.75 0 0 0.75 0 0] CT
0 0.447 0.741 RC
1 LJ
2.667 LW
N
326.333 177.709 M
327.084 176.852 L
S
GR
GS
[0.75 0 0 0.75 244.74978 133.28202] CT
0.851 0.325 0.098 RC
N
f1188474679
f
GR
GS
[0.75 0 0 0.75 0 0] CT
0 0.447 0.741 RC
1 LJ
2.667 LW
N
326.91 177.051 M
327.661 176.194 L
S
GR
GS
[0.75 0 0 0.75 245.18259 132.78817] CT
0.494 0.184 0.557 RC
N
f1188474679
f
GR
GS
[0.75 0 0 0.75 0 0] CT
0 0.447 0.741 RC
1 LJ
2.667 LW
N
327.488 176.392 M
328.239 175.535 L
S
GR
GS
[0.75 0 0 0.75 245.61564 132.29402] CT
0.302 0.745 0.933 RC
N
f1188474679
f
GR
GS
[0.75 0 0 0.75 0 0] CT
0 0.447 0.741 RC
1 LJ
2.667 LW
N
328.065 175.733 M
328.817 174.875 L
S
GR
GS
[0.75 0 0 0.75 246.04893 131.79957] CT
0 0.447 0.741 RC
N
f1188474679
f
GR
GS
[0.75 0 0 0.75 0 0] CT
0 0.447 0.741 RC
1 LJ
2.667 LW
N
328.643 175.073 M
329.395 174.216 L
S
GR
GS
[0.75 0 0 0.75 246.48248 131.30483] CT
0.929 0.694 0.125 RC
N
f1188474679
f
GR
GS
[0.75 0 0 0.75 0 0] CT
0 0.447 0.741 RC
1 LJ
2.667 LW
N
329.222 174.413 M
329.973 173.556 L
S
GR
GS
[0.75 0 0 0.75 246.91628 130.80979] CT
0.467 0.675 0.188 RC
N
f1188474679
f
GR
GS
[0.75 0 0 0.75 0 0] CT
0 0.447 0.741 RC
1 LJ
2.667 LW
N
329.8 173.753 M
330.552 172.895 L
S
GR
GS
[0.75 0 0 0.75 247.35031 130.31447] CT
0.635 0.078 0.184 RC
N
f1188474679
f
GR
GS
[0.75 0 0 0.75 0 0] CT
0 0.447 0.741 RC
1 LJ
2.667 LW
N
330.379 173.092 M
331.131 172.234 L
S
GR
GS
[0.75 0 0 0.75 247.78459 129.81885] CT
0.851 0.325 0.098 RC
N
f1188474679
f
GR
GS
[0.75 0 0 0.75 0 0] CT
0 0.447 0.741 RC
1 LJ
2.667 LW
N
330.959 172.431 M
331.71 171.573 L
S
GR
GS
[0.75 0 0 0.75 248.2191 129.32293] CT
0.494 0.184 0.557 RC
N
f1188474679
f
GR
GS
[0.75 0 0 0.75 0 0] CT
0 0.447 0.741 RC
1 LJ
2.667 LW
N
331.538 171.769 M
332.29 170.912 L
S
GR
GS
[0.75 0 0 0.75 248.65386 128.82673] CT
0.302 0.745 0.933 RC
N
f1188474679
f
GR
GS
[0.75 0 0 0.75 0 0] CT
0 0.447 0.741 RC
1 LJ
2.667 LW
N
332.118 171.107 M
332.87 170.25 L
S
GR
GS
[0.75 0 0 0.75 249.08887 128.33023] CT
0 0.447 0.741 RC
N
f1188474679
f
GR
GS
[0.75 0 0 0.75 0 0] CT
0 0.447 0.741 RC
1 LJ
2.667 LW
N
332.699 170.445 M
333.45 169.587 L
S
GR
GS
[0.75 0 0 0.75 249.52412 127.83345] CT
0.929 0.694 0.125 RC
N
f1188474679
f
GR
GS
[0.75 0 0 0.75 0 0] CT
0 0.447 0.741 RC
1 LJ
2.667 LW
N
333.28 169.782 M
334.031 168.924 L
S
GR
GS
[0.75 0 0 0.75 249.95963 127.33637] CT
0.467 0.675 0.188 RC
N
f1188474679
f
GR
GS
[0.75 0 0 0.75 0 0] CT
0 0.447 0.741 RC
1 LJ
2.667 LW
N
333.861 169.119 M
334.612 168.261 L
S
GR
GS
[0.75 0 0 0.75 250.39538 126.839] CT
0.635 0.078 0.184 RC
N
f1188474679
f
GR
GS
[0.75 0 0 0.75 0 0] CT
0 0.447 0.741 RC
1 LJ
2.667 LW
N
334.442 168.455 M
335.193 167.598 L
S
GR
GS
[0.75 0 0 0.75 250.83135 126.34134] CT
0.851 0.325 0.098 RC
N
f1188474679
f
GR
GS
[0.75 0 0 0.75 0 0] CT
0 0.447 0.741 RC
1 LJ
2.667 LW
N
335.023 167.791 M
335.775 166.934 L
S
GR
GS
[0.75 0 0 0.75 251.26758 125.84339] CT
0.494 0.184 0.557 RC
N
f1188474679
f
GR
GS
[0.75 0 0 0.75 0 0] CT
0 0.447 0.741 RC
1 LJ
2.667 LW
N
335.605 167.127 M
336.357 166.269 L
S
GR
GS
[0.75 0 0 0.75 251.70406 125.34515] CT
0.302 0.745 0.933 RC
N
f1188474679
f
GR
GS
[0.75 0 0 0.75 0 0] CT
0 0.447 0.741 RC
1 LJ
2.667 LW
N
336.188 166.462 M
336.939 165.605 L
S
GR
GS
[0.75 0 0 0.75 252.14079 124.84662] CT
0 0.447 0.741 RC
N
f1188474679
f
GR
GS
[0.75 0 0 0.75 0 0] CT
0 0.447 0.741 RC
1 LJ
2.667 LW
N
336.77 165.797 M
337.521 164.94 L
S
GR
GS
[0.75 0 0 0.75 252.57774 124.34779] CT
0.929 0.694 0.125 RC
N
f1188474679
f
GR
GS
[0.75 0 0 0.75 0 0] CT
0 0.447 0.741 RC
1 LJ
2.667 LW
N
337.353 165.132 M
338.104 164.274 L
S
GR
GS
[0.75 0 0 0.75 253.01495 123.84868] CT
0.467 0.675 0.188 RC
N
f1188474679
f
GR
GS
[0.75 0 0 0.75 0 0] CT
0 0.447 0.741 RC
1 LJ
2.667 LW
N
337.937 164.466 M
338.688 163.608 L
S
GR
GS
[0.75 0 0 0.75 253.45239 123.34929] CT
0.635 0.078 0.184 RC
N
f1188474679
f
GR
GS
[0.75 0 0 0.75 0 0] CT
0 0.447 0.741 RC
1 LJ
2.667 LW
N
338.52 163.799 M
339.271 162.942 L
S
GR
GS
[0.75 0 0 0.75 253.89011 122.84959] CT
0.851 0.325 0.098 RC
N
f1188474679
f
GR
GS
[0.75 0 0 0.75 0 0] CT
0 0.447 0.741 RC
1 LJ
2.667 LW
N
339.104 163.133 M
339.855 162.275 L
S
GR
GS
[0.75 0 0 0.75 254.32805 122.34962] CT
0.494 0.184 0.557 RC
N
f1188474679
f
GR
GS
[0.75 0 0 0.75 0 0] CT
0 0.447 0.741 RC
1 LJ
2.667 LW
N
339.688 162.466 M
340.439 161.608 L
S
GR
GS
[0.75 0 0 0.75 254.76622 121.84934] CT
0.302 0.745 0.933 RC
N
f1188474679
f
GR
GS
[0.75 0 0 0.75 0 0] CT
0 0.447 0.741 RC
1 LJ
2.667 LW
N
340.273 161.798 M
341.024 160.941 L
S
GR
GS
[0.75 0 0 0.75 255.20467 121.34879] CT
0 0.447 0.741 RC
N
f1188474679
f
GR
GS
[0.75 0 0 0.75 0 0] CT
0 0.447 0.741 RC
1 LJ
2.667 LW
N
340.858 161.131 M
341.609 160.273 L
S
GR
GS
[0.75 0 0 0.75 255.64334 120.84795] CT
0.929 0.694 0.125 RC
N
f1188474679
f
GR
GS
[0.75 0 0 0.75 0 0] CT
0 0.447 0.741 RC
1 LJ
2.667 LW
N
341.443 160.462 M
342.194 159.605 L
S
GR
GS
[0.75 0 0 0.75 256.08227 120.34682] CT
0.467 0.675 0.188 RC
N
f1188474679
f
GR
GS
[0.75 0 0 0.75 0 0] CT
0 0.447 0.741 RC
1 LJ
2.667 LW
N
342.029 159.794 M
342.78 158.936 L
S
GR
GS
[0.75 0 0 0.75 256.52142 119.8454] CT
0.635 0.078 0.184 RC
N
f1188474679
f
GR
GS
[0.75 0 0 0.75 0 0] CT
0 0.447 0.741 RC
1 LJ
2.667 LW
N
342.614 159.125 M
343.366 158.267 L
S
GR
GS
[0.75 0 0 0.75 256.96083 119.34369] CT
0.851 0.325 0.098 RC
N
f1188474679
f
GR
GS
[0.75 0 0 0.75 0 0] CT
0 0.447 0.741 RC
1 LJ
2.667 LW
N
343.201 158.456 M
343.952 157.598 L
S
GR
GS
[0.75 0 0 0.75 257.40049 118.8417] CT
0.494 0.184 0.557 RC
N
f1188474679
f
GR
GS
[0.75 0 0 0.75 0 0] CT
0 0.447 0.741 RC
1 LJ
2.667 LW
N
343.787 157.786 M
344.538 156.928 L
S
GR
GS
[0.75 0 0 0.75 257.84038 118.33942] CT
0.302 0.745 0.933 RC
N
f1188474679
f
GR
GS
[0.75 0 0 0.75 0 0] CT
0 0.447 0.741 RC
1 LJ
2.667 LW
N
344.374 157.116 M
345.125 156.258 L
S
GR
GS
[0.75 0 0 0.75 258.28054 117.83685] CT
0 0.447 0.741 RC
N
f1188474679
f
GR
GS
[0.75 0 0 0.75 0 0] CT
0 0.447 0.741 RC
1 LJ
2.667 LW
N
344.961 156.445 M
345.712 155.588 L
S
GR
GS
[0.75 0 0 0.75 258.72091 117.334] CT
0.929 0.694 0.125 RC
N
f1188474679
f
GR
GS
[0.75 0 0 0.75 0 0] CT
0 0.447 0.741 RC
1 LJ
2.667 LW
N
345.549 155.774 M
346.3 154.917 L
S
GR
GS
[0.75 0 0 0.75 259.16155 116.83086] CT
0.467 0.675 0.188 RC
N
f1188474679
f
GR
GS
[0.75 0 0 0.75 0 0] CT
0 0.447 0.741 RC
1 LJ
2.667 LW
N
346.137 155.103 M
346.888 154.246 L
S
GR
GS
[0.75 0 0 0.75 259.60242 116.32742] CT
0.635 0.078 0.184 RC
N
f1188474679
f
GR
GS
[0.75 0 0 0.75 0 0] CT
0 0.447 0.741 RC
1 LJ
2.667 LW
N
346.725 154.432 M
347.476 153.574 L
S
GR
GS
[0.75 0 0 0.75 260.04355 115.82371] CT
0.851 0.325 0.098 RC
N
f1188474679
f
GR
GS
[0.75 0 0 0.75 0 0] CT
0 0.447 0.741 RC
1 LJ
2.667 LW
N
347.313 153.76 M
348.064 152.902 L
S
GR
GS
[0.75 0 0 0.75 260.4849 115.31971] CT
0.494 0.184 0.557 RC
N
f1188474679
f
GR
GS
[0.75 0 0 0.75 0 0] CT
0 0.447 0.741 RC
1 LJ
2.667 LW
N
347.902 153.087 M
348.653 152.23 L
S
GR
GS
[0.75 0 0 0.75 260.92651 114.81541] CT
0.302 0.745 0.933 RC
N
f1188474679
f
GR
GS
[0.75 0 0 0.75 0 0] CT
0 0.447 0.741 RC
1 LJ
2.667 LW
N
348.491 152.414 M
349.242 151.557 L
S
GR
GS
[0.75 0 0 0.75 261.36836 114.31084] CT
0 0.447 0.741 RC
N
f1188474679
f
GR
GS
[0.75 0 0 0.75 0 0] CT
0 0.447 0.741 RC
1 LJ
2.667 LW
N
349.081 151.741 M
349.832 150.884 L
S
GR
GS
[0.75 0 0 0.75 261.81047 113.80599] CT
0.929 0.694 0.125 RC
N
f1188474679
f
GR
GS
[0.75 0 0 0.75 0 0] CT
0 0.447 0.741 RC
1 LJ
2.667 LW
N
349.67 151.068 M
350.421 150.21 L
S
GR
GS
[0.75 0 0 0.75 262.25281 113.30085] CT
0.467 0.675 0.188 RC
N
f1188474679
f
GR
GS
[0.75 0 0 0.75 0 0] CT
0 0.447 0.741 RC
1 LJ
2.667 LW
N
350.261 150.394 M
351.012 149.536 L
S
GR
GS
[0.75 0 0 0.75 262.6954 112.79542] CT
0.635 0.078 0.184 RC
N
f1188474679
f
GR
GS
[0.75 0 0 0.75 0 0] CT
0 0.447 0.741 RC
1 LJ
2.667 LW
N
350.851 149.72 M
351.602 148.862 L
S
GR
GS
[0.75 0 0 0.75 263.13821 112.2897] CT
0.851 0.325 0.098 RC
N
f1188474679
f
GR
GS
[0.75 0 0 0.75 0 0] CT
0 0.447 0.741 RC
1 LJ
2.667 LW
N
351.442 149.045 M
352.193 148.187 L
S
GR
GS
[0.75 0 0 0.75 263.58128 111.78371] CT
0.494 0.184 0.557 RC
N
f1188474679
f
GR
GS
[0.75 0 0 0.75 0 0] CT
0 0.447 0.741 RC
1 LJ
2.667 LW
N
352.033 148.37 M
352.784 147.512 L
S
GR
GS
[0.75 0 0 0.75 264.0246 111.27743] CT
0.302 0.745 0.933 RC
N
f1188474679
f
GR
GS
[0.75 0 0 0.75 0 0] CT
0 0.447 0.741 RC
1 LJ
2.667 LW
N
352.624 147.694 M
353.375 146.837 L
S
GR
GS
[0.75 0 0 0.75 264.46815 110.77087] CT
0 0.447 0.741 RC
N
f1188474679
f
GR
GS
[0.75 0 0 0.75 0 0] CT
0 0.447 0.741 RC
1 LJ
2.667 LW
N
353.216 147.019 M
353.967 146.161 L
S
GR
GS
[0.75 0 0 0.75 264.91196 110.26402] CT
0.929 0.694 0.125 RC
N
f1188474679
f
GR
GS
[0.75 0 0 0.75 0 0] CT
0 0.447 0.741 RC
1 LJ
2.667 LW
N
353.808 146.343 M
354.559 145.485 L
S
GR
GS
[0.75 0 0 0.75 265.35601 109.75689] CT
0.467 0.675 0.188 RC
N
f1188474679
f
GR
GS
[0.75 0 0 0.75 0 0] CT
0 0.447 0.741 RC
1 LJ
2.667 LW
N
354.4 145.666 M
355.151 144.808 L
S
GR
GS
[0.75 0 0 0.75 265.80032 109.24945] CT
0.635 0.078 0.184 RC
N
f1188474679
f
GR
GS
[0.75 0 0 0.75 0 0] CT
0 0.447 0.741 RC
1 LJ
2.667 LW
N
354.993 144.989 M
355.744 144.131 L
S
GR
GS
[0.75 0 0 0.75 266.24485 108.74176] CT
0.851 0.325 0.098 RC
N
f1188474679
f
GR
GS
[0.75 0 0 0.75 0 0] CT
0 0.447 0.741 RC
1 LJ
2.667 LW
N
355.586 144.312 M
356.337 143.454 L
S
GR
GS
[0.75 0 0 0.75 266.68961 108.23378] CT
0.494 0.184 0.557 RC
N
f1188474679
f
GR
GS
[0.75 0 0 0.75 0 0] CT
0 0.447 0.741 RC
1 LJ
2.667 LW
N
356.18 143.634 M
356.93 142.776 L
S
GR
GS
[0.75 0 0 0.75 267.13463 107.7255] CT
0.302 0.745 0.933 RC
N
f1188474679
f
GR
GS
[0.75 0 0 0.75 0 0] CT
0 0.447 0.741 RC
1 LJ
2.667 LW
N
356.773 142.956 M
357.524 142.098 L
S
GR
GS
[0.75 0 0 0.75 267.57992 107.21696] CT
0 0.447 0.741 RC
N
f1188474679
f
GR
GS
[0.75 0 0 0.75 0 0] CT
0 0.447 0.741 RC
1 LJ
2.667 LW
N
357.367 142.277 M
358.118 141.42 L
S
GR
GS
[0.75 0 0 0.75 268.02541 106.70812] CT
0.929 0.694 0.125 RC
N
f1188474679
f
GR
GS
[0.75 0 0 0.75 0 0] CT
0 0.447 0.741 RC
1 LJ
2.667 LW
N
357.962 141.599 M
358.713 140.741 L
S
GR
GS
[0.75 0 0 0.75 268.47116 106.19901] CT
0.467 0.675 0.188 RC
N
f1188474679
f
GR
GS
[0.75 0 0 0.75 0 0] CT
0 0.447 0.741 RC
1 LJ
2.667 LW
N
358.556 140.919 M
359.307 140.062 L
S
GR
GS
[0.75 0 0 0.75 268.91716 105.6896] CT
0.635 0.078 0.184 RC
N
f1188474679
f
GR
GS
[0.75 0 0 0.75 0 0] CT
0 0.447 0.741 RC
1 LJ
2.667 LW
N
359.151 140.24 M
359.902 139.382 L
S
GR
GS
[0.75 0 0 0.75 269.36339 105.17992] CT
0.851 0.325 0.098 RC
N
f1188474679
f
GR
GS
[0.75 0 0 0.75 0 0] CT
0 0.447 0.741 RC
1 LJ
2.667 LW
N
359.746 139.56 M
360.497 138.702 L
S
GR
GS
[0.75 0 0 0.75 269.80987 104.66996] CT
0.494 0.184 0.557 RC
N
f1188474679
f
GR
GS
[0.75 0 0 0.75 0 0] CT
0 0.447 0.741 RC
1 LJ
2.667 LW
N
360.342 138.88 M
361.093 138.022 L
S
GR
GS
[0.75 0 0 0.75 270.2566 104.15972] CT
0.302 0.745 0.933 RC
N
f1188474679
f
GR
GS
[0.75 0 0 0.75 0 0] CT
0 0.447 0.741 RC
1 LJ
2.667 LW
N
360.938 138.199 M
361.689 137.341 L
S
GR
GS
[0.75 0 0 0.75 270.70356 103.64919] CT
0 0.447 0.741 RC
N
f1188474679
f
GR
GS
[0.75 0 0 0.75 0 0] CT
0 0.447 0.741 RC
1 LJ
2.667 LW
N
361.534 137.518 M
362.285 136.66 L
S
GR
GS
[0.75 0 0 0.75 271.15077 103.13838] CT
0.929 0.694 0.125 RC
N
f1188474679
f
GR
GS
[0.75 0 0 0.75 0 0] CT
0 0.447 0.741 RC
1 LJ
2.667 LW
N
362.131 136.836 M
362.882 135.979 L
S
GR
GS
[0.75 0 0 0.75 271.59824 102.62729] CT
0.467 0.675 0.188 RC
N
f1188474679
f
GR
GS
[0.75 0 0 0.75 0 0] CT
0 0.447 0.741 RC
1 LJ
2.667 LW
N
362.728 136.155 M
363.479 135.297 L
S
GR
GS
[0.75 0 0 0.75 272.04593 102.11592] CT
0.635 0.078 0.184 RC
N
f1188474679
f
GR
GS
[0.75 0 0 0.75 0 0] CT
0 0.447 0.741 RC
1 LJ
2.667 LW
N
363.325 135.472 M
364.076 134.615 L
S
GR
GS
[0.75 0 0 0.75 272.49387 101.60425] CT
0.851 0.325 0.098 RC
N
f1188474679
f
GR
GS
[0.75 0 0 0.75 0 0] CT
0 0.447 0.741 RC
1 LJ
2.667 LW
N
363.923 134.79 M
364.674 133.932 L
S
GR
GS
[0.75 0 0 0.75 272.94205 101.09232] CT
0.494 0.184 0.557 RC
N
f1188474679
f
GR
GS
[0.75 0 0 0.75 0 0] CT
0 0.447 0.741 RC
1 LJ
2.667 LW
N
364.521 134.107 M
365.272 133.249 L
S
GR
GS
[0.75 0 0 0.75 273.39047 100.58011] CT
0.302 0.745 0.933 RC
N
f1188474679
f
GR
GS
[0.75 0 0 0.75 0 0] CT
0 0.447 0.741 RC
1 LJ
2.667 LW
N
365.119 133.423 M
365.87 132.566 L
S
GR
GS
[0.75 0 0 0.75 273.83913 100.06761] CT
0 0.447 0.741 RC
N
f1188474679
f
GR
GS
[0.75 0 0 0.75 0 0] CT
0 0.447 0.741 RC
1 LJ
2.667 LW
N
365.717 132.74 M
366.468 131.882 L
S
GR
GS
[0.75 0 0 0.75 274.28803 99.55482] CT
0.929 0.694 0.125 RC
N
f1188474679
f
GR
GS
[0.75 0 0 0.75 0 0] CT
0 0.447 0.741 RC
1 LJ
2.667 LW
N
366.316 132.056 M
367.067 131.198 L
S
GR
GS
[0.75 0 0 0.75 274.73719 99.04177] CT
0.467 0.675 0.188 RC
N
f1188474679
f
GR
GS
[0.75 0 0 0.75 0 0] CT
0 0.447 0.741 RC
1 LJ
2.667 LW
N
366.915 131.371 M
367.666 130.513 L
S
GR
GS
[0.75 0 0 0.75 275.18658 98.52843] CT
0.635 0.078 0.184 RC
N
f1188474679
f
GR
GS
[0.75 0 0 0.75 0 0] CT
0 0.447 0.741 RC
1 LJ
2.667 LW
N
367.515 130.686 M
368.266 129.829 L
S
GR
GS
[0.75 0 0 0.75 275.63622 98.01481] CT
0.851 0.325 0.098 RC
N
f1188474679
f
GR
GS
[0.75 0 0 0.75 0 0] CT
0 0.447 0.741 RC
1 LJ
2.667 LW
N
368.115 130.001 M
368.866 129.143 L
S
GR
GS
[0.75 0 0 0.75 276.08608 97.50092] CT
0.494 0.184 0.557 RC
N
f1188474679
f
GR
GS
[0.75 0 0 0.75 0 0] CT
0 0.447 0.741 RC
1 LJ
2.667 LW
N
368.715 129.316 M
369.466 128.458 L
S
GR
GS
[0.75 0 0 0.75 276.53622 96.98673] CT
0.302 0.745 0.933 RC
N
f1188474679
f
GR
GS
[0.75 0 0 0.75 0 0] CT
0 0.447 0.741 RC
1 LJ
2.667 LW
N
369.315 128.63 M
370.066 127.772 L
S
GR
GS
[0.75 0 0 0.75 276.98657 96.47227] CT
0 0.447 0.741 RC
N
f1188474679
f
GR
GS
[0.75 0 0 0.75 0 0] CT
0 0.447 0.741 RC
1 LJ
2.667 LW
N
369.916 127.943 M
370.667 127.086 L
S
GR
GS
[0.75 0 0 0.75 277.43717 95.95753] CT
0.929 0.694 0.125 RC
N
f1188474679
f
GR
GS
[0.75 0 0 0.75 0 0] CT
0 0.447 0.741 RC
1 LJ
2.667 LW
N
370.517 127.257 M
371.268 126.399 L
S
GR
GS
[0.75 0 0 0.75 277.88802 95.44251] CT
0.467 0.675 0.188 RC
N
f1188474679
f
GR
GS
[0.75 0 0 0.75 0 0] CT
0 0.447 0.741 RC
1 LJ
2.667 LW
N
371.119 126.57 M
371.87 125.712 L
S
GR
GS
[0.75 0 0 0.75 278.3391 94.92722] CT
0.635 0.078 0.184 RC
N
f1188474679
f
GR
GS
[0.75 0 0 0.75 0 0] CT
0 0.447 0.741 RC
1 LJ
2.667 LW
N
371.721 125.882 M
372.471 125.024 L
S
GR
GS
[0.75 0 0 0.75 278.79044 94.41164] CT
0.851 0.325 0.098 RC
N
f1188474679
f
GR
GS
[0.75 0 0 0.75 0 0] CT
0 0.447 0.741 RC
1 LJ
2.667 LW
N
372.323 125.194 M
373.074 124.337 L
S
GR
GS
[0.75 0 0 0.75 279.242 93.89579] CT
0.494 0.184 0.557 RC
N
f1188474679
f
GR
GS
[0.75 0 0 0.75 0 0] CT
0 0.447 0.741 RC
1 LJ
2.667 LW
N
372.925 124.506 M
373.676 123.648 L
S
GR
GS
[0.75 0 0 0.75 279.69381 93.37965] CT
0.302 0.745 0.933 RC
N
f1188474679
f
GR
GS
[0.75 0 0 0.75 0 0] CT
0 0.447 0.741 RC
1 LJ
2.667 LW
N
373.528 123.818 M
374.279 122.96 L
S
GR
GS
[0.75 0 0 0.75 280.14585 92.86323] CT
0 0.447 0.741 RC
N
f1188474679
f
GR
GS
[0.75 0 0 0.75 0 0] CT
0 0.447 0.741 RC
1 LJ
2.667 LW
N
374.131 123.129 M
374.882 122.271 L
S
GR
GS
[0.75 0 0 0.75 280.59814 92.34654] CT
0.929 0.694 0.125 RC
N
f1188474679
f
GR
GS
[0.75 0 0 0.75 0 0] CT
0 0.447 0.741 RC
1 LJ
2.667 LW
N
374.734 122.439 M
375.485 121.582 L
S
GR
GS
[0.75 0 0 0.75 281.05067 91.82957] CT
0.467 0.675 0.188 RC
N
f1188474679
f
GR
GS
[0.75 0 0 0.75 0 0] CT
0 0.447 0.741 RC
1 LJ
2.667 LW
N
375.338 121.75 M
376.089 120.892 L
S
GR
GS
[0.75 0 0 0.75 281.50344 91.31233] CT
0.635 0.078 0.184 RC
N
f1188474679
f
GR
GS
[0.75 0 0 0.75 0 0] CT
0 0.447 0.741 RC
1 LJ
2.667 LW
N
375.942 121.06 M
376.693 120.202 L
S
GR
GS
[0.75 0 0 0.75 281.95647 90.7948] CT
0.851 0.325 0.098 RC
N
f1188474679
f
GR
GS
[0.75 0 0 0.75 0 0] CT
0 0.447 0.741 RC
1 LJ
2.667 LW
N
376.546 120.369 M
377.297 119.512 L
S
GR
GS
[0.75 0 0 0.75 282.40972 90.27699] CT
0.494 0.184 0.557 RC
N
f1188474679
f
GR
GS
[0.75 0 0 0.75 0 0] CT
0 0.447 0.741 RC
1 LJ
2.667 LW
N
377.151 119.679 M
377.902 118.821 L
S
GR
GS
[0.75 0 0 0.75 282.8632 89.75891] CT
0.302 0.745 0.933 RC
N
f1188474679
f
GR
GS
[0.75 0 0 0.75 0 0] CT
0 0.447 0.741 RC
1 LJ
2.667 LW
N
377.756 118.987 M
378.507 118.13 L
S
GR
GS
[0.75 0 0 0.75 283.31694 89.24055] CT
0 0.447 0.741 RC
N
f1188474679
f
GR
GS
[0.75 0 0 0.75 0 0] CT
0 0.447 0.741 RC
1 LJ
2.667 LW
N
378.361 118.296 M
379.112 117.438 L
S
GR
GS
[0.75 0 0 0.75 283.77093 88.72191] CT
0.929 0.694 0.125 RC
N
f1188474679
f
GR
GS
[0.75 0 0 0.75 0 0] CT
0 0.447 0.741 RC
1 LJ
2.667 LW
N
378.967 117.604 M
379.718 116.746 L
S
GR
GS
[0.75 0 0 0.75 284.22514 88.203] CT
0.467 0.675 0.188 RC
N
f1188474679
f
GR
GS
[0.75 0 0 0.75 0 0] CT
0 0.447 0.741 RC
1 LJ
2.667 LW
N
379.573 116.912 M
380.324 116.054 L
S
GR
GS
[0.75 0 0 0.75 284.67961 87.6838] CT
0.635 0.078 0.184 RC
N
f1188474679
f
GR
GS
[0.75 0 0 0.75 0 0] CT
0 0.447 0.741 RC
1 LJ
2.667 LW
N
380.179 116.219 M
380.93 115.361 L
S
GR
GS
[0.75 0 0 0.75 285.13428 87.16433] CT
0.851 0.325 0.098 RC
N
f1188474679
f
GR
GS
[0.75 0 0 0.75 0 0] CT
0 0.447 0.741 RC
1 LJ
2.667 LW
N
380.786 115.526 M
381.536 114.668 L
S
GR
GS
[0.75 0 0 0.75 285.58923 86.64458] CT
0.494 0.184 0.557 RC
N
f1188474679
f
GR
GS
[0.75 0 0 0.75 0 0] CT
0 0.447 0.741 RC
1 LJ
2.667 LW
N
381.393 114.833 M
382.143 113.975 L
S
GR
GS
[0.75 0 0 0.75 286.04441 86.12456] CT
0.302 0.745 0.933 RC
N
f1188474679
f
GR
GS
[0.75 0 0 0.75 0 0] CT
0 0.447 0.741 RC
1 LJ
2.667 LW
N
382 114.139 M
382.751 113.281 L
S
GR
GS
[0.75 0 0 0.75 286.49982 85.60426] CT
0 0.447 0.741 RC
N
f1188474679
f
GR
GS
[0.75 0 0 0.75 0 0] CT
0 0.447 0.741 RC
1 LJ
2.667 LW
N
382.607 113.445 M
383.358 112.587 L
S
GR
GS
[0.75 0 0 0.75 286.95547 85.08368] CT
0.929 0.694 0.125 RC
N
f1188474679
f
GR
GS
[0.75 0 0 0.75 0 0] CT
0 0.447 0.741 RC
1 LJ
2.667 LW
N
383.215 112.75 M
383.966 111.893 L
S
GR
GS
[0.75 0 0 0.75 287.41136 84.56282] CT
0.467 0.675 0.188 RC
N
f1188474679
f
GR
GS
[0.75 0 0 0.75 0 0] CT
0 0.447 0.741 RC
1 LJ
2.667 LW
N
383.823 112.056 M
384.574 111.198 L
S
GR
GS
[0.75 0 0 0.75 287.8675 84.04169] CT
0.635 0.078 0.184 RC
N
f1188474679
f
GR
GS
[0.75 0 0 0.75 0 0] CT
0 0.447 0.741 RC
1 LJ
2.667 LW
N
384.432 111.36 M
385.183 110.503 L
S
GR
GS
[0.75 0 0 0.75 288.32387 83.52028] CT
0.851 0.325 0.098 RC
N
f1188474679
f
GR
GS
[0.75 0 0 0.75 0 0] CT
0 0.447 0.741 RC
1 LJ
2.667 LW
N
385.041 110.665 M
385.791 109.807 L
S
GR
GS
[0.75 0 0 0.75 288.78049 82.9986] CT
0.494 0.184 0.557 RC
N
f1188474679
f
GR
GS
[0.75 0 0 0.75 0 0] CT
0 0.447 0.741 RC
1 LJ
2.667 LW
N
385.65 109.969 M
386.401 109.111 L
S
GR
GS
[0.75 0 0 0.75 289.23736 82.47665] CT
0.302 0.745 0.933 RC
N
f1188474679
f
GR
GS
[0.75 0 0 0.75 0 0] CT
0 0.447 0.741 RC
1 LJ
2.667 LW
N
386.259 109.273 M
387.01 108.415 L
S
GR
GS
[0.75 0 0 0.75 289.69444 81.9544] CT
0 0.447 0.741 RC
N
f1188474679
f
GR
GS
[0.75 0 0 0.75 0 0] CT
0 0.447 0.741 RC
1 LJ
2.667 LW
N
386.869 108.576 M
387.62 107.718 L
S
GR
GS
[0.75 0 0 0.75 290.15179 81.4319] CT
0.929 0.694 0.125 RC
N
f1188474679
f
GR
GS
[0.75 0 0 0.75 0 0] CT
0 0.447 0.741 RC
1 LJ
2.667 LW
N
387.479 107.879 M
388.23 107.021 L
S
GR
GS
[0.75 0 0 0.75 290.60934 80.90911] CT
0.467 0.675 0.188 RC
N
f1188474679
f
GR
GS
[0.75 0 0 0.75 0 0] CT
0 0.447 0.741 RC
1 LJ
2.667 LW
N
388.09 107.181 M
388.84 106.324 L
S
GR
GS
[0.75 0 0 0.75 291.06715 80.38605] CT
0.635 0.078 0.184 RC
N
f1188474679
f
GR
GS
[0.75 0 0 0.75 0 0] CT
0 0.447 0.741 RC
1 LJ
2.667 LW
N
388.7 106.484 M
389.451 105.626 L
S
GR
GS
[0.75 0 0 0.75 291.52519 79.86271] CT
0.851 0.325 0.098 RC
N
f1188474679
f
GR
GS
[0.75 0 0 0.75 0 0] CT
0 0.447 0.741 RC
1 LJ
2.667 LW
N
389.311 105.785 M
390.062 104.928 L
S
GR
GS
[0.75 0 0 0.75 291.98348 79.3391] CT
0.494 0.184 0.557 RC
N
f1188474679
f
GR
GS
[0.75 0 0 0.75 0 0] CT
0 0.447 0.741 RC
1 LJ
2.667 LW
N
389.923 105.087 M
390.673 104.229 L
S
GR
GS
[0.75 0 0 0.75 292.442 78.81521] CT
0.302 0.745 0.933 RC
N
f1188474679
f
GR
GS
[0.75 0 0 0.75 0 0] CT
0 0.447 0.741 RC
1 LJ
2.667 LW
N
390.534 104.388 M
391.285 103.53 L
S
GR
GS
[0.75 0 0 0.75 292.90077 78.29104] CT
0 0.447 0.741 RC
N
f1188474679
f
GR
GS
[0.75 0 0 0.75 0 0] CT
0 0.447 0.741 RC
1 LJ
2.667 LW
N
391.146 103.689 M
391.897 102.831 L
S
GR
GS
[0.75 0 0 0.75 293.35977 77.7666] CT
0.929 0.694 0.125 RC
N
f1188474679
f
GR
GS
[0.75 0 0 0.75 0 0] CT
0 0.447 0.741 RC
1 LJ
2.667 LW
N
391.759 102.989 M
392.509 102.131 L
S
GR
GS
[0.75 0 0 0.75 293.819 77.2419] CT
0.467 0.675 0.188 RC
N
f1188474679
f
GR
GS
[0.75 0 0 0.75 0 0] CT
0 0.447 0.741 RC
1 LJ
2.667 LW
N
392.371 102.289 M
393.122 101.431 L
S
GR
GS
[0.75 0 0 0.75 294.27848 76.7169] CT
0.635 0.078 0.184 RC
N
f1188474679
f
GR
GS
[0.75 0 0 0.75 0 0] CT
0 0.447 0.741 RC
1 LJ
2.667 LW
N
392.984 101.589 M
393.735 100.731 L
S
GR
GS
[0.75 0 0 0.75 294.73821 76.19163] CT
0.851 0.325 0.098 RC
N
f1188474679
f
GR
GS
[0.75 0 0 0.75 0 0] CT
0 0.447 0.741 RC
1 LJ
2.667 LW
N
393.598 100.888 M
394.348 100.03 L
S
GR
GS
[0.75 0 0 0.75 295.19815 75.6661] CT
0.494 0.184 0.557 RC
N
f1188474679
f
GR
GS
[0.75 0 0 0.75 0 0] CT
0 0.447 0.741 RC
1 LJ
2.667 LW
N
394.211 100.187 M
394.962 99.329 L
S
GR
GS
[0.75 0 0 0.75 295.65834 75.14029] CT
0.302 0.745 0.933 RC
N
f1188474679
f
GR
GS
[0.75 0 0 0.75 0 0] CT
0 0.447 0.741 RC
1 LJ
2.667 LW
N
394.825 99.486 M
395.576 98.628 L
S
GR
GS
[0.75 0 0 0.75 296.11878 74.61421] CT
0 0.447 0.741 RC
N
f1188474679
f
GR
GS
[0.75 0 0 0.75 0 0] CT
0 0.447 0.741 RC
1 LJ
2.667 LW
N
395.439 98.784 M
396.19 97.926 L
S
GR
GS
[0.75 0 0 0.75 296.57943 74.08784] CT
0.929 0.694 0.125 RC
N
f1188474679
f
GR
GS
[0.75 0 0 0.75 0 0] CT
0 0.447 0.741 RC
1 LJ
2.667 LW
N
396.054 98.082 M
396.805 97.224 L
S
GR
GS
[0.75 0 0 0.75 297.04033 73.56121] CT
0.467 0.675 0.188 RC
N
f1188474679
f
GR
GS
[0.75 0 0 0.75 0 0] CT
0 0.447 0.741 RC
1 LJ
2.667 LW
N
396.669 97.379 M
397.419 96.521 L
S
GR
GS
[0.75 0 0 0.75 297.50148 73.03429] CT
0.635 0.078 0.184 RC
N
f1188474679
f
GR
GS
[0.75 0 0 0.75 297.96284 72.50712] CT
1 0 0 RC
N
/f640454831{6.667 0 M
6.667 -3.682 3.682 -6.667 0 -6.667 C
-3.682 -6.667 -6.667 -3.682 -6.667 0 C
-6.667 3.682 -3.682 6.667 0 6.667 C
3.682 6.667 6.667 3.682 6.667 0 C
cp}def
f640454831
f
GR
GS
[0.75 0 0 0.75 297.96284 72.50712] CT
1 0 0 RC
N
/f-1502758814{0 -6.333 M
3.498 -6.333 6.333 -3.498 6.333 0 C
6.333 0 L
6.333 3.498 3.498 6.333 0 6.333 C
-3.498 6.333 -6.333 3.498 -6.333 0 C
-6.333 -3.498 -3.498 -6.333 0 -6.333 C
cp
0 -7 M
-3.866 -7 -7 -3.866 -7 0 C
-7 3.866 -3.866 7 0 7 C
3.866 7 7 3.866 7 0 C
7 0 L
7 -3.866 3.866 -7 0 -7 C
cp}def
f-1502758814
f
GR
GS
[0.75 0 0 0.75 0 0] CT
0 0.447 0.741 RC
1 LJ
2.667 LW
N
397.284 96.676 M
398.035 95.818 L
S
GR
GS
[0.75 0 0 0.75 297.96284 72.50712] CT
0.851 0.325 0.098 RC
N
f1188474679
f
GR
%%Trailer
%%Pages: 1
%%EOF
