%!PS-Adobe-3.0 EPSF-3.0
%%Creator: (MATLAB, The Mathworks, Inc. Version 9.9.0.1592791 \(R2020b\) Update 5. Operating System: Windows 10)
%%Title: (C:/Users/marti/Documents/GitHub/bio-inspired-autonomous-systems/Assignment 02 - Braitenberg Vehicle/figures/exploration_1900.eps)
%%CreationDate: 2021-03-23T10:11:33
%%Pages: (atend)
%%BoundingBox:     0     0  1440   722
%%LanguageLevel: 3
%%EndComments
%%BeginProlog
%%BeginResource: procset (Apache XML Graphics Std ProcSet) 1.2 0
%%Version: 1.2 0
%%Copyright: (Copyright 2001-2003,2010 The Apache Software Foundation. License terms: http://www.apache.org/licenses/LICENSE-2.0)
/bd{bind def}bind def
/ld{load def}bd
/GR/grestore ld
/GS/gsave ld
/RM/rmoveto ld
/C/curveto ld
/t/show ld
/L/lineto ld
/ML/setmiterlimit ld
/CT/concat ld
/f/fill ld
/N/newpath ld
/S/stroke ld
/CC/setcmykcolor ld
/A/ashow ld
/cp/closepath ld
/RC/setrgbcolor ld
/LJ/setlinejoin ld
/GC/setgray ld
/LW/setlinewidth ld
/M/moveto ld
/re {4 2 roll M
1 index 0 rlineto
0 exch rlineto
neg 0 rlineto
cp } bd
/_ctm matrix def
/_tm matrix def
/BT { _ctm currentmatrix pop matrix _tm copy pop 0 0 moveto } bd
/ET { _ctm setmatrix } bd
/iTm { _ctm setmatrix _tm concat } bd
/Tm { _tm astore pop iTm 0 0 moveto } bd
/ux 0.0 def
/uy 0.0 def
/F {
  /Tp exch def
  /Tf exch def
  Tf findfont Tp scalefont setfont
  /cf Tf def  /cs Tp def
} bd
/ULS {currentpoint /uy exch def /ux exch def} bd
/ULE {
  /Tcx currentpoint pop def
  gsave
  newpath
  cf findfont cs scalefont dup
  /FontMatrix get 0 get /Ts exch def /FontInfo get dup
  /UnderlinePosition get Ts mul /To exch def
  /UnderlineThickness get Ts mul /Tt exch def
  ux uy To add moveto  Tcx uy To add lineto
  Tt setlinewidth stroke
  grestore
} bd
/OLE {
  /Tcx currentpoint pop def
  gsave
  newpath
  cf findfont cs scalefont dup
  /FontMatrix get 0 get /Ts exch def /FontInfo get dup
  /UnderlinePosition get Ts mul /To exch def
  /UnderlineThickness get Ts mul /Tt exch def
  ux uy To add cs add moveto Tcx uy To add cs add lineto
  Tt setlinewidth stroke
  grestore
} bd
/SOE {
  /Tcx currentpoint pop def
  gsave
  newpath
  cf findfont cs scalefont dup
  /FontMatrix get 0 get /Ts exch def /FontInfo get dup
  /UnderlinePosition get Ts mul /To exch def
  /UnderlineThickness get Ts mul /Tt exch def
  ux uy To add cs 10 mul 26 idiv add moveto Tcx uy To add cs 10 mul 26 idiv add lineto
  Tt setlinewidth stroke
  grestore
} bd
/QT {
/Y22 exch store
/X22 exch store
/Y21 exch store
/X21 exch store
currentpoint
/Y21 load 2 mul add 3 div exch
/X21 load 2 mul add 3 div exch
/X21 load 2 mul /X22 load add 3 div
/Y21 load 2 mul /Y22 load add 3 div
/X22 load /Y22 load curveto
} bd
/SSPD {
dup length /d exch dict def
{
/v exch def
/k exch def
currentpagedevice k known {
/cpdv currentpagedevice k get def
v cpdv ne {
/upd false def
/nullv v type /nulltype eq def
/nullcpdv cpdv type /nulltype eq def
nullv nullcpdv or
{
/upd true def
} {
/sametype v type cpdv type eq def
sametype {
v type /arraytype eq {
/vlen v length def
/cpdvlen cpdv length def
vlen cpdvlen eq {
0 1 vlen 1 sub {
/i exch def
/obj v i get def
/cpdobj cpdv i get def
obj cpdobj ne {
/upd true def
exit
} if
} for
} {
/upd true def
} ifelse
} {
v type /dicttype eq {
v {
/dv exch def
/dk exch def
/cpddv cpdv dk get def
dv cpddv ne {
/upd true def
exit
} if
} forall
} {
/upd true def
} ifelse
} ifelse
} if
} ifelse
upd true eq {
d k v put
} if
} if
} if
} forall
d length 0 gt {
d setpagedevice
} if
} bd
/RE { % /NewFontName [NewEncodingArray] /FontName RE -
  findfont dup length dict begin
  {
    1 index /FID ne
    {def} {pop pop} ifelse
  } forall
  /Encoding exch def
  /FontName 1 index def
  currentdict definefont pop
  end
} bind def
%%EndResource
%%BeginResource: procset (Apache XML Graphics EPS ProcSet) 1.0 0
%%Version: 1.0 0
%%Copyright: (Copyright 2002-2003 The Apache Software Foundation. License terms: http://www.apache.org/licenses/LICENSE-2.0)
/BeginEPSF { %def
/b4_Inc_state save def         % Save state for cleanup
/dict_count countdictstack def % Count objects on dict stack
/op_count count 1 sub def      % Count objects on operand stack
userdict begin                 % Push userdict on dict stack
/showpage { } def              % Redefine showpage, { } = null proc
0 setgray 0 setlinecap         % Prepare graphics state
1 setlinewidth 0 setlinejoin
10 setmiterlimit [ ] 0 setdash newpath
/languagelevel where           % If level not equal to 1 then
{pop languagelevel             % set strokeadjust and
1 ne                           % overprint to their defaults.
{false setstrokeadjust false setoverprint
} if
} if
} bd
/EndEPSF { %def
count op_count sub {pop} repeat            % Clean up stacks
countdictstack dict_count sub {end} repeat
b4_Inc_state restore
} bd
%%EndResource
%FOPBeginFontDict
%%IncludeResource: font Courier-Oblique
%%IncludeResource: font Courier-BoldOblique
%%IncludeResource: font Courier-Bold
%%IncludeResource: font ZapfDingbats
%%IncludeResource: font Symbol
%%IncludeResource: font Helvetica
%%IncludeResource: font Helvetica-Oblique
%%IncludeResource: font Helvetica-Bold
%%IncludeResource: font Helvetica-BoldOblique
%%IncludeResource: font Times-Roman
%%IncludeResource: font Times-Italic
%%IncludeResource: font Times-Bold
%%IncludeResource: font Times-BoldItalic
%%IncludeResource: font Courier
%FOPEndFontDict
%%BeginResource: encoding WinAnsiEncoding
/WinAnsiEncoding [
/.notdef /.notdef /.notdef /.notdef /.notdef
/.notdef /.notdef /.notdef /.notdef /.notdef
/.notdef /.notdef /.notdef /.notdef /.notdef
/.notdef /.notdef /.notdef /.notdef /.notdef
/.notdef /.notdef /.notdef /.notdef /.notdef
/.notdef /.notdef /.notdef /.notdef /.notdef
/.notdef /.notdef /space /exclam /quotedbl
/numbersign /dollar /percent /ampersand /quotesingle
/parenleft /parenright /asterisk /plus /comma
/hyphen /period /slash /zero /one
/two /three /four /five /six
/seven /eight /nine /colon /semicolon
/less /equal /greater /question /at
/A /B /C /D /E
/F /G /H /I /J
/K /L /M /N /O
/P /Q /R /S /T
/U /V /W /X /Y
/Z /bracketleft /backslash /bracketright /asciicircum
/underscore /quoteleft /a /b /c
/d /e /f /g /h
/i /j /k /l /m
/n /o /p /q /r
/s /t /u /v /w
/x /y /z /braceleft /bar
/braceright /asciitilde /bullet /Euro /bullet
/quotesinglbase /florin /quotedblbase /ellipsis /dagger
/daggerdbl /circumflex /perthousand /Scaron /guilsinglleft
/OE /bullet /Zcaron /bullet /bullet
/quoteleft /quoteright /quotedblleft /quotedblright /bullet
/endash /emdash /asciitilde /trademark /scaron
/guilsinglright /oe /bullet /zcaron /Ydieresis
/space /exclamdown /cent /sterling /currency
/yen /brokenbar /section /dieresis /copyright
/ordfeminine /guillemotleft /logicalnot /sfthyphen /registered
/macron /degree /plusminus /twosuperior /threesuperior
/acute /mu /paragraph /middot /cedilla
/onesuperior /ordmasculine /guillemotright /onequarter /onehalf
/threequarters /questiondown /Agrave /Aacute /Acircumflex
/Atilde /Adieresis /Aring /AE /Ccedilla
/Egrave /Eacute /Ecircumflex /Edieresis /Igrave
/Iacute /Icircumflex /Idieresis /Eth /Ntilde
/Ograve /Oacute /Ocircumflex /Otilde /Odieresis
/multiply /Oslash /Ugrave /Uacute /Ucircumflex
/Udieresis /Yacute /Thorn /germandbls /agrave
/aacute /acircumflex /atilde /adieresis /aring
/ae /ccedilla /egrave /eacute /ecircumflex
/edieresis /igrave /iacute /icircumflex /idieresis
/eth /ntilde /ograve /oacute /ocircumflex
/otilde /odieresis /divide /oslash /ugrave
/uacute /ucircumflex /udieresis /yacute /thorn
/ydieresis
] def
%%EndResource
%FOPBeginFontReencode
/Courier-Oblique findfont
dup length dict begin
  {1 index /FID ne {def} {pop pop} ifelse} forall
  /Encoding WinAnsiEncoding def
  currentdict
end
/Courier-Oblique exch definefont pop
/Courier-BoldOblique findfont
dup length dict begin
  {1 index /FID ne {def} {pop pop} ifelse} forall
  /Encoding WinAnsiEncoding def
  currentdict
end
/Courier-BoldOblique exch definefont pop
/Courier-Bold findfont
dup length dict begin
  {1 index /FID ne {def} {pop pop} ifelse} forall
  /Encoding WinAnsiEncoding def
  currentdict
end
/Courier-Bold exch definefont pop
/Helvetica findfont
dup length dict begin
  {1 index /FID ne {def} {pop pop} ifelse} forall
  /Encoding WinAnsiEncoding def
  currentdict
end
/Helvetica exch definefont pop
/Helvetica-Oblique findfont
dup length dict begin
  {1 index /FID ne {def} {pop pop} ifelse} forall
  /Encoding WinAnsiEncoding def
  currentdict
end
/Helvetica-Oblique exch definefont pop
/Helvetica-Bold findfont
dup length dict begin
  {1 index /FID ne {def} {pop pop} ifelse} forall
  /Encoding WinAnsiEncoding def
  currentdict
end
/Helvetica-Bold exch definefont pop
/Helvetica-BoldOblique findfont
dup length dict begin
  {1 index /FID ne {def} {pop pop} ifelse} forall
  /Encoding WinAnsiEncoding def
  currentdict
end
/Helvetica-BoldOblique exch definefont pop
/Times-Roman findfont
dup length dict begin
  {1 index /FID ne {def} {pop pop} ifelse} forall
  /Encoding WinAnsiEncoding def
  currentdict
end
/Times-Roman exch definefont pop
/Times-Italic findfont
dup length dict begin
  {1 index /FID ne {def} {pop pop} ifelse} forall
  /Encoding WinAnsiEncoding def
  currentdict
end
/Times-Italic exch definefont pop
/Times-Bold findfont
dup length dict begin
  {1 index /FID ne {def} {pop pop} ifelse} forall
  /Encoding WinAnsiEncoding def
  currentdict
end
/Times-Bold exch definefont pop
/Times-BoldItalic findfont
dup length dict begin
  {1 index /FID ne {def} {pop pop} ifelse} forall
  /Encoding WinAnsiEncoding def
  currentdict
end
/Times-BoldItalic exch definefont pop
/Courier findfont
dup length dict begin
  {1 index /FID ne {def} {pop pop} ifelse} forall
  /Encoding WinAnsiEncoding def
  currentdict
end
/Courier exch definefont pop
%FOPEndFontReencode
%%EndProlog
%%Page: 1 1
%%PageBoundingBox: 0 0 1440 722
%%BeginPageSetup
[1 0 0 -1 0 722] CT
%%EndPageSetup
GS
[0.75 0 0 0.75 0 -0.25] CT
1 GC
N
0 0 1920 963 re
f
GR
GS
[0.75 0 0 0.75 0 -0.25] CT
1 GC
N
0 0 1920 963 re
f
GR
GS
[0.75 0 0 0.75 0 -0.25] CT
1 GC
N
1095 401 M
1738 401 L
1738 72 L
1095 72 L
cp
f
GR
GS
[0.75 0 0 0.75 0 -0.25] CT
0.873 GC
1 LJ
0.667 LW
N
1212.126 401 M
1212.126 72 L
S
GR
GS
[0.75 0 0 0.75 0 -0.25] CT
0.873 GC
1 LJ
0.667 LW
N
1331.643 401 M
1331.643 72 L
S
GR
GS
[0.75 0 0 0.75 0 -0.25] CT
0.873 GC
1 LJ
0.667 LW
N
1451.16 401 M
1451.16 72 L
S
GR
GS
[0.75 0 0 0.75 0 -0.25] CT
0.873 GC
1 LJ
0.667 LW
N
1570.677 401 M
1570.677 72 L
S
GR
GS
[0.75 0 0 0.75 0 -0.25] CT
0.873 GC
1 LJ
0.667 LW
N
1690.193 401 M
1690.193 72 L
S
GR
GS
[0.75 0 0 0.75 0 -0.25] CT
0.873 GC
1 LJ
0.667 LW
N
1738 401 M
1095 401 L
S
GR
GS
[0.75 0 0 0.75 0 -0.25] CT
0.873 GC
1 LJ
0.667 LW
N
1738 364.444 M
1095 364.444 L
S
GR
GS
[0.75 0 0 0.75 0 -0.25] CT
0.873 GC
1 LJ
0.667 LW
N
1738 327.889 M
1095 327.889 L
S
GR
GS
[0.75 0 0 0.75 0 -0.25] CT
0.873 GC
1 LJ
0.667 LW
N
1738 291.333 M
1095 291.333 L
S
GR
GS
[0.75 0 0 0.75 0 -0.25] CT
0.873 GC
1 LJ
0.667 LW
N
1738 254.778 M
1095 254.778 L
S
GR
GS
[0.75 0 0 0.75 0 -0.25] CT
0.873 GC
1 LJ
0.667 LW
N
1738 218.222 M
1095 218.222 L
S
GR
GS
[0.75 0 0 0.75 0 -0.25] CT
0.873 GC
1 LJ
0.667 LW
N
1738 181.667 M
1095 181.667 L
S
GR
GS
[0.75 0 0 0.75 0 -0.25] CT
0.873 GC
1 LJ
0.667 LW
N
1738 145.111 M
1095 145.111 L
S
GR
GS
[0.75 0 0 0.75 0 -0.25] CT
0.873 GC
1 LJ
0.667 LW
N
1738 108.556 M
1095 108.556 L
S
GR
GS
[0.75 0 0 0.75 0 -0.25] CT
0.873 GC
1 LJ
0.667 LW
N
1738 72 M
1095 72 L
S
GR
GS
[0.75 0 0 0.75 0 -0.25] CT
0.149 GC
2 setlinecap
1 LJ
0.667 LW
N
1095 401 M
1738 401 L
S
GR
GS
[0.75 0 0 0.75 0 -0.25] CT
0.149 GC
2 setlinecap
1 LJ
0.667 LW
N
1212.126 401 M
1212.126 394.57 L
S
GR
GS
[0.75 0 0 0.75 0 -0.25] CT
0.149 GC
2 setlinecap
1 LJ
0.667 LW
N
1331.643 401 M
1331.643 394.57 L
S
GR
GS
[0.75 0 0 0.75 0 -0.25] CT
0.149 GC
2 setlinecap
1 LJ
0.667 LW
N
1451.16 401 M
1451.16 394.57 L
S
GR
GS
[0.75 0 0 0.75 0 -0.25] CT
0.149 GC
2 setlinecap
1 LJ
0.667 LW
N
1570.677 401 M
1570.677 394.57 L
S
GR
GS
[0.75 0 0 0.75 0 -0.25] CT
0.149 GC
2 setlinecap
1 LJ
0.667 LW
N
1690.193 401 M
1690.193 394.57 L
S
GR
GS
[0.75 0 0 0.75 909.09476 304.50001] CT
0.149 GC
/Helvetica 13.333 F
GS
[1 0 0 1 0 0] CT
-7.5 14 moveto 
1 -1 scale
(50) t 
GR
GR
GS
[0.75 0 0 0.75 998.7323 304.50001] CT
0.149 GC
/Helvetica 13.333 F
GS
[1 0 0 1 0 0] CT
-11.5 14 moveto 
1 -1 scale
(100) t 
GR
GR
GS
[0.75 0 0 0.75 1088.36993 304.50001] CT
0.149 GC
/Helvetica 13.333 F
GS
[1 0 0 1 0 0] CT
-11.5 14 moveto 
1 -1 scale
(150) t 
GR
GR
GS
[0.75 0 0 0.75 1178.00748 304.50001] CT
0.149 GC
/Helvetica 13.333 F
GS
[1 0 0 1 0 0] CT
-11.5 14 moveto 
1 -1 scale
(200) t 
GR
GR
GS
[0.75 0 0 0.75 1267.64502 304.50001] CT
0.149 GC
/Helvetica 13.333 F
GS
[1 0 0 1 0 0] CT
-11.5 14 moveto 
1 -1 scale
(250) t 
GR
GR
GS
[0.75 0 0 0.75 0 -0.25] CT
0.149 GC
2 setlinecap
1 LJ
0.667 LW
N
1095 401 M
1095 72 L
S
GR
GS
[0.75 0 0 0.75 0 -0.25] CT
0.149 GC
2 setlinecap
1 LJ
0.667 LW
N
1095 401 M
1101.43 401 L
S
GR
GS
[0.75 0 0 0.75 0 -0.25] CT
0.149 GC
2 setlinecap
1 LJ
0.667 LW
N
1095 364.444 M
1101.43 364.444 L
S
GR
GS
[0.75 0 0 0.75 0 -0.25] CT
0.149 GC
2 setlinecap
1 LJ
0.667 LW
N
1095 327.889 M
1101.43 327.889 L
S
GR
GS
[0.75 0 0 0.75 0 -0.25] CT
0.149 GC
2 setlinecap
1 LJ
0.667 LW
N
1095 291.333 M
1101.43 291.333 L
S
GR
GS
[0.75 0 0 0.75 0 -0.25] CT
0.149 GC
2 setlinecap
1 LJ
0.667 LW
N
1095 254.778 M
1101.43 254.778 L
S
GR
GS
[0.75 0 0 0.75 0 -0.25] CT
0.149 GC
2 setlinecap
1 LJ
0.667 LW
N
1095 218.222 M
1101.43 218.222 L
S
GR
GS
[0.75 0 0 0.75 0 -0.25] CT
0.149 GC
2 setlinecap
1 LJ
0.667 LW
N
1095 181.667 M
1101.43 181.667 L
S
GR
GS
[0.75 0 0 0.75 0 -0.25] CT
0.149 GC
2 setlinecap
1 LJ
0.667 LW
N
1095 145.111 M
1101.43 145.111 L
S
GR
GS
[0.75 0 0 0.75 0 -0.25] CT
0.149 GC
2 setlinecap
1 LJ
0.667 LW
N
1095 108.556 M
1101.43 108.556 L
S
GR
GS
[0.75 0 0 0.75 0 -0.25] CT
0.149 GC
2 setlinecap
1 LJ
0.667 LW
N
1095 72 M
1101.43 72 L
S
GR
GS
[0.75 0 0 0.75 817.24997 300.5] CT
0.149 GC
/Helvetica 13.333 F
GS
[1 0 0 1 0 0] CT
-8 5.5 moveto 
1 -1 scale
(0) t 
GR
GR
GS
[0.75 0 0 0.75 817.24997 273.08334] CT
0.149 GC
/Helvetica 13.333 F
GS
[1 0 0 1 0 0] CT
-19 5.5 moveto 
1 -1 scale
(0.2) t 
GR
GR
GS
[0.75 0 0 0.75 817.24997 245.66666] CT
0.149 GC
/Helvetica 13.333 F
GS
[1 0 0 1 0 0] CT
-19 5.5 moveto 
1 -1 scale
(0.4) t 
GR
GR
GS
[0.75 0 0 0.75 817.24997 218.25001] CT
0.149 GC
/Helvetica 13.333 F
GS
[1 0 0 1 0 0] CT
-19 5.5 moveto 
1 -1 scale
(0.6) t 
GR
GR
GS
[0.75 0 0 0.75 817.24997 190.83333] CT
0.149 GC
/Helvetica 13.333 F
GS
[1 0 0 1 0 0] CT
-19 5.5 moveto 
1 -1 scale
(0.8) t 
GR
GR
GS
[0.75 0 0 0.75 817.24997 163.41667] CT
0.149 GC
/Helvetica 13.333 F
GS
[1 0 0 1 0 0] CT
-8 5.5 moveto 
1 -1 scale
(1) t 
GR
GR
GS
[0.75 0 0 0.75 817.24997 135.99999] CT
0.149 GC
/Helvetica 13.333 F
GS
[1 0 0 1 0 0] CT
-19 5.5 moveto 
1 -1 scale
(1.2) t 
GR
GR
GS
[0.75 0 0 0.75 817.24997 108.58334] CT
0.149 GC
/Helvetica 13.333 F
GS
[1 0 0 1 0 0] CT
-19 5.5 moveto 
1 -1 scale
(1.4) t 
GR
GR
GS
[0.75 0 0 0.75 817.24997 81.16666] CT
0.149 GC
/Helvetica 13.333 F
GS
[1 0 0 1 0 0] CT
-19 5.5 moveto 
1 -1 scale
(1.6) t 
GR
GR
GS
[0.75 0 0 0.75 817.24997 53.75001] CT
0.149 GC
/Helvetica 13.333 F
GS
[1 0 0 1 0 0] CT
-19 5.5 moveto 
1 -1 scale
(1.8) t 
GR
GR
GS
[0.75 0 0 0.75 1062.37601 51.6875] CT
/Helvetica-Bold 14.667 F
GS
[1 0 0 1 0 0] CT
-181.5 -4 moveto 
1 -1 scale
(Motor velocities: left motor \(red\), right motor \(black\)) t 
GR
GR
GS
[0.75 0 0 0.75 0 -0.25] CT
1 0 0 RC
1 LJ
2.667 LW
N
1095 232.984 M
1097.39 227.543 L
1099.781 221.591 L
1102.171 214.988 L
1104.561 207.518 L
1106.952 199.037 L
1109.342 189.744 L
1111.732 179.567 L
1114.123 168.605 L
1116.513 156.594 L
1118.903 143.777 L
1121.294 131.314 L
1123.684 119.784 L
1126.074 110.468 L
1128.465 104.952 L
1130.855 104.487 L
1133.245 109.351 L
1135.636 118.641 L
1138.026 130.719 L
1140.416 144.05 L
1142.807 157.828 L
1145.197 170.64 L
1147.587 182.197 L
1149.978 192.944 L
1152.368 202.662 L
1154.758 211.268 L
1157.149 218.762 L
1159.539 225.321 L
1161.929 231.361 L
1164.32 236.678 L
1166.71 241.387 L
1169.1 245.581 L
1171.491 249.336 L
1173.881 252.715 L
1176.271 255.804 L
1178.662 258.703 L
1181.052 261.335 L
1183.442 263.735 L
1185.833 265.93 L
1188.223 267.945 L
1190.613 269.799 L
1193.004 271.54 L
1195.394 273.196 L
1197.784 274.728 L
1200.175 276.149 L
1202.565 277.521 L
1204.955 278.805 L
1207.346 280.001 L
1209.736 281.117 L
1212.126 282.159 L
1214.517 283.135 L
1216.907 284.05 L
1219.297 284.909 L
1221.688 285.715 L
1224.078 286.474 L
1226.468 287.189 L
1228.859 287.863 L
1231.249 288.513 L
1233.639 289.142 L
1236.03 289.736 L
1238.42 290.296 L
1240.81 290.827 L
1243.201 291.328 L
1245.591 291.803 L
1247.981 292.253 L
1250.372 292.679 L
1252.762 293.083 L
1255.152 293.466 L
1257.543 293.83 L
1259.933 294.176 L
1262.323 294.504 L
1264.714 294.815 L
1267.104 295.111 L
1269.494 295.393 L
1271.885 295.66 L
1274.275 295.914 L
1276.665 296.156 L
1279.056 296.386 L
1281.446 296.604 L
1283.836 296.812 L
1286.227 297.01 L
1288.617 297.197 L
1291.007 297.38 L
1293.398 297.559 L
1295.788 297.729 L
1298.178 297.891 L
1300.569 298.044 L
1302.959 298.189 L
1305.349 298.327 L
1307.74 298.458 L
1310.13 298.582 L
1312.52 298.699 L
1314.911 298.81 L
1317.301 298.915 L
1319.691 299.014 L
1322.082 299.108 L
1324.472 299.197 L
1326.862 299.28 L
1329.253 299.358 L
1331.643 299.432 L
1334.033 299.501 L
1336.424 299.566 L
1338.814 299.627 L
1341.204 299.684 L
1343.595 299.737 L
1345.985 299.787 L
1348.375 299.833 L
1350.766 299.878 L
1353.156 299.921 L
1355.547 299.961 L
1357.937 299.997 L
1360.327 300.03 L
1362.718 300.061 L
1365.108 300.088 L
1367.498 300.113 L
1369.888 300.135 L
1372.279 300.154 L
1374.669 300.171 L
1377.059 300.186 L
1379.45 300.198 L
1381.84 300.208 L
1384.23 300.216 L
1386.621 300.222 L
1389.011 300.225 L
1391.401 300.227 L
1393.792 300.227 L
1396.182 300.226 L
1398.573 300.222 L
1400.963 300.217 L
1403.353 300.211 L
1405.744 300.202 L
1408.134 300.193 L
1410.524 300.181 L
1412.915 300.169 L
1415.305 300.155 L
1417.695 300.14 L
1420.085 300.123 L
1422.476 300.105 L
1424.866 300.086 L
1427.256 300.066 L
1429.647 300.045 L
1432.037 300.023 L
1434.427 300 L
1436.818 299.975 L
1439.208 299.95 L
1441.599 299.924 L
1443.989 299.897 L
1446.379 299.869 L
1448.77 299.84 L
1451.16 299.81 L
1453.55 299.78 L
1455.941 299.748 L
1458.331 299.716 L
1460.721 299.684 L
1463.112 299.65 L
1465.502 299.616 L
1467.892 299.581 L
1470.282 299.546 L
1472.673 299.51 L
1475.063 299.473 L
1477.453 299.436 L
1479.844 299.398 L
1482.234 299.359 L
1484.625 299.32 L
1487.015 299.281 L
1489.405 299.241 L
1491.796 299.2 L
1494.186 299.159 L
1496.576 299.118 L
1498.967 299.076 L
1501.357 299.034 L
1503.747 298.991 L
1506.138 298.948 L
1508.528 298.904 L
1510.918 298.86 L
1513.309 298.815 L
1515.699 298.77 L
1518.089 298.725 L
1520.48 298.68 L
1522.87 298.634 L
1525.26 298.587 L
1527.651 298.541 L
1530.041 298.494 L
1532.431 298.447 L
1534.822 298.399 L
1537.212 298.351 L
1539.602 298.303 L
1541.993 298.254 L
1544.383 298.205 L
1546.773 298.156 L
1549.164 298.107 L
1551.554 298.057 L
1553.944 298.007 L
1556.335 297.957 L
1558.725 297.907 L
1561.115 297.856 L
1563.506 297.805 L
1565.896 297.754 L
1568.286 297.702 L
1570.677 297.651 L
1573.067 297.599 L
1575.457 297.547 L
1577.848 297.494 L
1580.238 297.442 L
1582.628 297.389 L
1585.019 297.336 L
1587.409 297.283 L
1589.799 297.229 L
1592.19 297.175 L
1594.58 297.122 L
1596.97 297.068 L
1599.361 297.013 L
1601.751 296.959 L
1604.141 296.904 L
1606.532 296.849 L
1608.922 296.794 L
1611.312 296.739 L
1613.703 296.684 L
1616.093 296.628 L
1618.483 296.572 L
1620.874 296.516 L
1623.264 296.46 L
1625.654 296.404 L
1628.045 296.347 L
1630.435 296.29 L
1632.825 296.234 L
1635.216 296.177 L
1637.606 296.119 L
1639.996 296.062 L
1642.387 296.004 L
1644.777 295.947 L
1647.167 295.889 L
1649.558 295.831 L
1651.948 295.773 L
1654.338 295.714 L
1656.729 295.656 L
1659.119 295.597 L
1661.509 295.538 L
1663.9 295.479 L
1666.29 295.42 L
1668.68 295.36 L
1671.071 295.301 L
1673.461 295.241 L
1675.851 295.181 L
1678.242 295.121 L
1680.632 295.061 L
1683.022 295.001 L
1685.413 294.94 L
1687.803 294.88 L
1690.193 294.819 L
1692.584 294.758 L
1694.974 294.697 L
1697.364 294.635 L
1699.755 294.574 L
1702.145 294.512 L
1704.535 294.45 L
1706.926 294.388 L
1709.316 294.326 L
1711.706 294.264 L
1714.097 294.202 L
1716.487 294.139 L
1718.877 294.076 L
1721.268 294.014 L
1723.658 293.95 L
1726.048 293.887 L
1728.439 293.824 L
1730.829 293.76 L
1733.219 293.697 L
1735.61 293.633 L
1738 293.569 L
S
GR
GS
[0.75 0 0 0.75 0 -0.25] CT
1 LJ
2.667 LW
N
1095 326.733 M
1097.39 327.189 L
1099.781 327.644 L
1102.171 328.097 L
1104.561 328.545 L
1106.952 328.987 L
1109.342 329.419 L
1111.732 329.838 L
1114.123 330.241 L
1116.513 330.626 L
1118.903 330.978 L
1121.294 331.286 L
1123.684 331.538 L
1126.074 331.72 L
1128.465 331.82 L
1130.855 331.828 L
1133.245 331.741 L
1135.636 331.561 L
1138.026 331.3 L
1140.416 330.972 L
1142.807 330.591 L
1145.197 330.172 L
1147.587 329.736 L
1149.978 329.28 L
1152.368 328.811 L
1154.758 328.335 L
1157.149 327.854 L
1159.539 327.37 L
1161.929 326.886 L
1164.32 326.402 L
1166.71 325.921 L
1169.1 325.442 L
1171.491 324.967 L
1173.881 324.494 L
1176.271 324.025 L
1178.662 323.561 L
1181.052 323.101 L
1183.442 322.646 L
1185.833 322.196 L
1188.223 321.751 L
1190.613 321.311 L
1193.004 320.876 L
1195.394 320.447 L
1197.784 320.027 L
1200.175 319.617 L
1202.565 319.213 L
1204.955 318.815 L
1207.346 318.423 L
1209.736 318.037 L
1212.126 317.658 L
1214.517 317.284 L
1216.907 316.917 L
1219.297 316.556 L
1221.688 316.201 L
1224.078 315.851 L
1226.468 315.508 L
1228.859 315.171 L
1231.249 314.839 L
1233.639 314.514 L
1236.03 314.194 L
1238.42 313.881 L
1240.81 313.573 L
1243.201 313.272 L
1245.591 312.976 L
1247.981 312.686 L
1250.372 312.403 L
1252.762 312.128 L
1255.152 311.857 L
1257.543 311.592 L
1259.933 311.332 L
1262.323 311.077 L
1264.714 310.827 L
1267.104 310.582 L
1269.494 310.342 L
1271.885 310.107 L
1274.275 309.877 L
1276.665 309.651 L
1279.056 309.429 L
1281.446 309.213 L
1283.836 309 L
1286.227 308.792 L
1288.617 308.588 L
1291.007 308.388 L
1293.398 308.192 L
1295.788 308 L
1298.178 307.812 L
1300.569 307.629 L
1302.959 307.449 L
1305.349 307.272 L
1307.74 307.1 L
1310.13 306.931 L
1312.52 306.765 L
1314.911 306.603 L
1317.301 306.444 L
1319.691 306.288 L
1322.082 306.135 L
1324.472 305.986 L
1326.862 305.839 L
1329.253 305.696 L
1331.643 305.555 L
1334.033 305.417 L
1336.424 305.282 L
1338.814 305.149 L
1341.204 305.019 L
1343.595 304.891 L
1345.985 304.766 L
1348.375 304.643 L
1350.766 304.522 L
1353.156 304.403 L
1355.547 304.287 L
1357.937 304.173 L
1360.327 304.061 L
1362.718 303.951 L
1365.108 303.843 L
1367.498 303.736 L
1369.888 303.632 L
1372.279 303.529 L
1374.669 303.428 L
1377.059 303.329 L
1379.45 303.232 L
1381.84 303.135 L
1384.23 303.041 L
1386.621 302.948 L
1389.011 302.856 L
1391.401 302.766 L
1393.792 302.677 L
1396.182 302.589 L
1398.573 302.503 L
1400.963 302.417 L
1403.353 302.333 L
1405.744 302.25 L
1408.134 302.168 L
1410.524 302.088 L
1412.915 302.008 L
1415.305 301.929 L
1417.695 301.851 L
1420.085 301.774 L
1422.476 301.698 L
1424.866 301.622 L
1427.256 301.548 L
1429.647 301.474 L
1432.037 301.401 L
1434.427 301.329 L
1436.818 301.257 L
1439.208 301.186 L
1441.599 301.116 L
1443.989 301.046 L
1446.379 300.977 L
1448.77 300.909 L
1451.16 300.841 L
1453.55 300.774 L
1455.941 300.707 L
1458.331 300.64 L
1460.721 300.574 L
1463.112 300.509 L
1465.502 300.444 L
1467.892 300.379 L
1470.282 300.315 L
1472.673 300.251 L
1475.063 300.188 L
1477.453 300.125 L
1479.844 300.062 L
1482.234 300 L
1484.625 299.938 L
1487.015 299.876 L
1489.405 299.814 L
1491.796 299.753 L
1494.186 299.692 L
1496.576 299.631 L
1498.967 299.57 L
1501.357 299.51 L
1503.747 299.45 L
1506.138 299.39 L
1508.528 299.33 L
1510.918 299.27 L
1513.309 299.211 L
1515.699 299.151 L
1518.089 299.092 L
1520.48 299.033 L
1522.87 298.974 L
1525.26 298.915 L
1527.651 298.857 L
1530.041 298.798 L
1532.431 298.74 L
1534.822 298.681 L
1537.212 298.623 L
1539.602 298.565 L
1541.993 298.506 L
1544.383 298.448 L
1546.773 298.39 L
1549.164 298.332 L
1551.554 298.274 L
1553.944 298.216 L
1556.335 298.158 L
1558.725 298.1 L
1561.115 298.042 L
1563.506 297.984 L
1565.896 297.926 L
1568.286 297.868 L
1570.677 297.81 L
1573.067 297.753 L
1575.457 297.695 L
1577.848 297.637 L
1580.238 297.579 L
1582.628 297.521 L
1585.019 297.463 L
1587.409 297.405 L
1589.799 297.347 L
1592.19 297.289 L
1594.58 297.23 L
1596.97 297.172 L
1599.361 297.114 L
1601.751 297.056 L
1604.141 296.997 L
1606.532 296.939 L
1608.922 296.88 L
1611.312 296.822 L
1613.703 296.763 L
1616.093 296.705 L
1618.483 296.646 L
1620.874 296.587 L
1623.264 296.528 L
1625.654 296.469 L
1628.045 296.41 L
1630.435 296.351 L
1632.825 296.292 L
1635.216 296.233 L
1637.606 296.173 L
1639.996 296.114 L
1642.387 296.054 L
1644.777 295.995 L
1647.167 295.935 L
1649.558 295.875 L
1651.948 295.815 L
1654.338 295.755 L
1656.729 295.695 L
1659.119 295.635 L
1661.509 295.574 L
1663.9 295.514 L
1666.29 295.453 L
1668.68 295.393 L
1671.071 295.332 L
1673.461 295.271 L
1675.851 295.21 L
1678.242 295.149 L
1680.632 295.087 L
1683.022 295.026 L
1685.413 294.965 L
1687.803 294.903 L
1690.193 294.841 L
1692.584 294.779 L
1694.974 294.717 L
1697.364 294.655 L
1699.755 294.593 L
1702.145 294.531 L
1704.535 294.468 L
1706.926 294.405 L
1709.316 294.343 L
1711.706 294.28 L
1714.097 294.217 L
1716.487 294.154 L
1718.877 294.09 L
1721.268 294.027 L
1723.658 293.963 L
1726.048 293.899 L
1728.439 293.836 L
1730.829 293.772 L
1733.219 293.707 L
1735.61 293.643 L
1738 293.579 L
S
GR
GS
[0.75 0 0 0.75 0 -0.25] CT
1 GC
N
1095 857 M
1738 857 L
1738 529 L
1095 529 L
cp
f
GR
GS
[0.75 0 0 0.75 0 -0.25] CT
0.873 GC
1 LJ
0.667 LW
N
1212.126 857 M
1212.126 529 L
S
GR
GS
[0.75 0 0 0.75 0 -0.25] CT
0.873 GC
1 LJ
0.667 LW
N
1331.643 857 M
1331.643 529 L
S
GR
GS
[0.75 0 0 0.75 0 -0.25] CT
0.873 GC
1 LJ
0.667 LW
N
1451.16 857 M
1451.16 529 L
S
GR
GS
[0.75 0 0 0.75 0 -0.25] CT
0.873 GC
1 LJ
0.667 LW
N
1570.677 857 M
1570.677 529 L
S
GR
GS
[0.75 0 0 0.75 0 -0.25] CT
0.873 GC
1 LJ
0.667 LW
N
1690.193 857 M
1690.193 529 L
S
GR
GS
[0.75 0 0 0.75 0 -0.25] CT
0.873 GC
1 LJ
0.667 LW
N
1738 857 M
1095 857 L
S
GR
GS
[0.75 0 0 0.75 0 -0.25] CT
0.873 GC
1 LJ
0.667 LW
N
1738 810.143 M
1095 810.143 L
S
GR
GS
[0.75 0 0 0.75 0 -0.25] CT
0.873 GC
1 LJ
0.667 LW
N
1738 763.286 M
1095 763.286 L
S
GR
GS
[0.75 0 0 0.75 0 -0.25] CT
0.873 GC
1 LJ
0.667 LW
N
1738 716.429 M
1095 716.429 L
S
GR
GS
[0.75 0 0 0.75 0 -0.25] CT
0.873 GC
1 LJ
0.667 LW
N
1738 669.571 M
1095 669.571 L
S
GR
GS
[0.75 0 0 0.75 0 -0.25] CT
0.873 GC
1 LJ
0.667 LW
N
1738 622.714 M
1095 622.714 L
S
GR
GS
[0.75 0 0 0.75 0 -0.25] CT
0.873 GC
1 LJ
0.667 LW
N
1738 575.857 M
1095 575.857 L
S
GR
GS
[0.75 0 0 0.75 0 -0.25] CT
0.873 GC
1 LJ
0.667 LW
N
1738 529 M
1095 529 L
S
GR
GS
[0.75 0 0 0.75 0 -0.25] CT
0.149 GC
2 setlinecap
1 LJ
0.667 LW
N
1095 857 M
1738 857 L
S
GR
GS
[0.75 0 0 0.75 0 -0.25] CT
0.149 GC
2 setlinecap
1 LJ
0.667 LW
N
1212.126 857 M
1212.126 850.57 L
S
GR
GS
[0.75 0 0 0.75 0 -0.25] CT
0.149 GC
2 setlinecap
1 LJ
0.667 LW
N
1331.643 857 M
1331.643 850.57 L
S
GR
GS
[0.75 0 0 0.75 0 -0.25] CT
0.149 GC
2 setlinecap
1 LJ
0.667 LW
N
1451.16 857 M
1451.16 850.57 L
S
GR
GS
[0.75 0 0 0.75 0 -0.25] CT
0.149 GC
2 setlinecap
1 LJ
0.667 LW
N
1570.677 857 M
1570.677 850.57 L
S
GR
GS
[0.75 0 0 0.75 0 -0.25] CT
0.149 GC
2 setlinecap
1 LJ
0.667 LW
N
1690.193 857 M
1690.193 850.57 L
S
GR
GS
[0.75 0 0 0.75 909.09476 646.49998] CT
0.149 GC
/Helvetica 13.333 F
GS
[1 0 0 1 0 0] CT
-7.5 14 moveto 
1 -1 scale
(50) t 
GR
GR
GS
[0.75 0 0 0.75 998.7323 646.49998] CT
0.149 GC
/Helvetica 13.333 F
GS
[1 0 0 1 0 0] CT
-11.5 14 moveto 
1 -1 scale
(100) t 
GR
GR
GS
[0.75 0 0 0.75 1088.36993 646.49998] CT
0.149 GC
/Helvetica 13.333 F
GS
[1 0 0 1 0 0] CT
-11.5 14 moveto 
1 -1 scale
(150) t 
GR
GR
GS
[0.75 0 0 0.75 1178.00748 646.49998] CT
0.149 GC
/Helvetica 13.333 F
GS
[1 0 0 1 0 0] CT
-11.5 14 moveto 
1 -1 scale
(200) t 
GR
GR
GS
[0.75 0 0 0.75 1267.64502 646.49998] CT
0.149 GC
/Helvetica 13.333 F
GS
[1 0 0 1 0 0] CT
-11.5 14 moveto 
1 -1 scale
(250) t 
GR
GR
GS
[0.75 0 0 0.75 0 -0.25] CT
0.149 GC
2 setlinecap
1 LJ
0.667 LW
N
1095 857 M
1095 529 L
S
GR
GS
[0.75 0 0 0.75 0 -0.25] CT
0.149 GC
2 setlinecap
1 LJ
0.667 LW
N
1095 857 M
1101.43 857 L
S
GR
GS
[0.75 0 0 0.75 0 -0.25] CT
0.149 GC
2 setlinecap
1 LJ
0.667 LW
N
1095 810.143 M
1101.43 810.143 L
S
GR
GS
[0.75 0 0 0.75 0 -0.25] CT
0.149 GC
2 setlinecap
1 LJ
0.667 LW
N
1095 763.286 M
1101.43 763.286 L
S
GR
GS
[0.75 0 0 0.75 0 -0.25] CT
0.149 GC
2 setlinecap
1 LJ
0.667 LW
N
1095 716.429 M
1101.43 716.429 L
S
GR
GS
[0.75 0 0 0.75 0 -0.25] CT
0.149 GC
2 setlinecap
1 LJ
0.667 LW
N
1095 669.571 M
1101.43 669.571 L
S
GR
GS
[0.75 0 0 0.75 0 -0.25] CT
0.149 GC
2 setlinecap
1 LJ
0.667 LW
N
1095 622.714 M
1101.43 622.714 L
S
GR
GS
[0.75 0 0 0.75 0 -0.25] CT
0.149 GC
2 setlinecap
1 LJ
0.667 LW
N
1095 575.857 M
1101.43 575.857 L
S
GR
GS
[0.75 0 0 0.75 0 -0.25] CT
0.149 GC
2 setlinecap
1 LJ
0.667 LW
N
1095 529 M
1101.43 529 L
S
GR
GS
[0.75 0 0 0.75 817.24997 642.5] CT
0.149 GC
/Helvetica 13.333 F
GS
[1 0 0 1 0 0] CT
-23 5.5 moveto 
1 -1 scale
(-3.5) t 
GR
GR
GS
[0.75 0 0 0.75 817.24997 607.35716] CT
0.149 GC
/Helvetica 13.333 F
GS
[1 0 0 1 0 0] CT
-12 5.5 moveto 
1 -1 scale
(-3) t 
GR
GR
GS
[0.75 0 0 0.75 817.24997 572.21428] CT
0.149 GC
/Helvetica 13.333 F
GS
[1 0 0 1 0 0] CT
-23 5.5 moveto 
1 -1 scale
(-2.5) t 
GR
GR
GS
[0.75 0 0 0.75 817.24997 537.07144] CT
0.149 GC
/Helvetica 13.333 F
GS
[1 0 0 1 0 0] CT
-12 5.5 moveto 
1 -1 scale
(-2) t 
GR
GR
GS
[0.75 0 0 0.75 817.24997 501.92856] CT
0.149 GC
/Helvetica 13.333 F
GS
[1 0 0 1 0 0] CT
-23 5.5 moveto 
1 -1 scale
(-1.5) t 
GR
GR
GS
[0.75 0 0 0.75 817.24997 466.78572] CT
0.149 GC
/Helvetica 13.333 F
GS
[1 0 0 1 0 0] CT
-12 5.5 moveto 
1 -1 scale
(-1) t 
GR
GR
GS
[0.75 0 0 0.75 817.24997 431.64284] CT
0.149 GC
/Helvetica 13.333 F
GS
[1 0 0 1 0 0] CT
-23 5.5 moveto 
1 -1 scale
(-0.5) t 
GR
GR
GS
[0.75 0 0 0.75 817.24997 396.5] CT
0.149 GC
/Helvetica 13.333 F
GS
[1 0 0 1 0 0] CT
-8 5.5 moveto 
1 -1 scale
(0) t 
GR
GR
GS
[0.75 0 0 0.75 1062.37601 394.4375] CT
/Helvetica-Bold 14.667 F
GS
[1 0 0 1 0 0] CT
-215 -4 moveto 
1 -1 scale
(Sound inputs: left microphone \(red\), right microphone \(black\)) t 
GR
GR
GS
[0.75 0 0 0.75 0 -0.25] CT
1 0 0 RC
1 LJ
2.667 LW
N
1095 602.603 M
1097.39 605.686 L
1099.781 608.963 L
1102.171 612.449 L
1104.561 616.166 L
1106.952 620.143 L
1109.342 624.412 L
1111.732 628.999 L
1114.123 633.933 L
1116.513 639.239 L
1118.903 644.95 L
1121.294 651.091 L
1123.684 657.65 L
1126.074 664.594 L
1128.465 671.848 L
1130.855 679.285 L
1133.245 686.737 L
1135.636 694.026 L
1138.026 701.006 L
1140.416 707.582 L
1142.807 713.711 L
1145.197 719.377 L
1147.587 724.611 L
1149.978 729.452 L
1152.368 733.926 L
1154.758 738.067 L
1157.149 741.911 L
1159.539 745.495 L
1161.929 748.847 L
1164.32 751.986 L
1166.71 754.934 L
1169.1 757.713 L
1171.491 760.338 L
1173.881 762.825 L
1176.271 765.185 L
1178.662 767.429 L
1181.052 769.562 L
1183.442 771.594 L
1185.833 773.531 L
1188.223 775.382 L
1190.613 777.153 L
1193.004 778.847 L
1195.394 780.471 L
1197.784 782.025 L
1200.175 783.516 L
1202.565 784.946 L
1204.955 786.318 L
1207.346 787.635 L
1209.736 788.899 L
1212.126 790.115 L
1214.517 791.283 L
1216.907 792.407 L
1219.297 793.489 L
1221.688 794.53 L
1224.078 795.534 L
1226.468 796.5 L
1228.859 797.432 L
1231.249 798.331 L
1233.639 799.198 L
1236.03 800.033 L
1238.42 800.838 L
1240.81 801.614 L
1243.201 802.362 L
1245.591 803.085 L
1247.981 803.781 L
1250.372 804.454 L
1252.762 805.103 L
1255.152 805.73 L
1257.543 806.335 L
1259.933 806.919 L
1262.323 807.484 L
1264.714 808.029 L
1267.104 808.556 L
1269.494 809.065 L
1271.885 809.557 L
1274.275 810.033 L
1276.665 810.492 L
1279.056 810.936 L
1281.446 811.365 L
1283.836 811.78 L
1286.227 812.181 L
1288.617 812.568 L
1291.007 812.943 L
1293.398 813.305 L
1295.788 813.654 L
1298.178 813.992 L
1300.569 814.319 L
1302.959 814.634 L
1305.349 814.938 L
1307.74 815.232 L
1310.13 815.516 L
1312.52 815.791 L
1314.911 816.056 L
1317.301 816.312 L
1319.691 816.56 L
1322.082 816.799 L
1324.472 817.03 L
1326.862 817.253 L
1329.253 817.469 L
1331.643 817.677 L
1334.033 817.878 L
1336.424 818.073 L
1338.814 818.261 L
1341.204 818.442 L
1343.595 818.617 L
1345.985 818.787 L
1348.375 818.95 L
1350.766 819.108 L
1353.156 819.261 L
1355.547 819.408 L
1357.937 819.55 L
1360.327 819.687 L
1362.718 819.82 L
1365.108 819.948 L
1367.498 820.071 L
1369.888 820.19 L
1372.279 820.305 L
1374.669 820.416 L
1377.059 820.523 L
1379.45 820.626 L
1381.84 820.726 L
1384.23 820.822 L
1386.621 820.914 L
1389.011 821.004 L
1391.401 821.09 L
1393.792 821.174 L
1396.182 821.254 L
1398.573 821.332 L
1400.963 821.407 L
1403.353 821.479 L
1405.744 821.549 L
1408.134 821.616 L
1410.524 821.681 L
1412.915 821.743 L
1415.305 821.804 L
1417.695 821.862 L
1420.085 821.918 L
1422.476 821.972 L
1424.866 822.025 L
1427.256 822.075 L
1429.647 822.124 L
1432.037 822.171 L
1434.427 822.216 L
1436.818 822.259 L
1439.208 822.301 L
1441.599 822.342 L
1443.989 822.381 L
1446.379 822.419 L
1448.77 822.455 L
1451.16 822.49 L
1453.55 822.524 L
1455.941 822.557 L
1458.331 822.588 L
1460.721 822.619 L
1463.112 822.648 L
1465.502 822.676 L
1467.892 822.703 L
1470.282 822.729 L
1472.673 822.755 L
1475.063 822.779 L
1477.453 822.802 L
1479.844 822.825 L
1482.234 822.847 L
1484.625 822.868 L
1487.015 822.888 L
1489.405 822.907 L
1491.796 822.926 L
1494.186 822.944 L
1496.576 822.962 L
1498.967 822.979 L
1501.357 822.995 L
1503.747 823.01 L
1506.138 823.026 L
1508.528 823.04 L
1510.918 823.054 L
1513.309 823.067 L
1515.699 823.08 L
1518.089 823.093 L
1520.48 823.105 L
1522.87 823.117 L
1525.26 823.128 L
1527.651 823.138 L
1530.041 823.149 L
1532.431 823.159 L
1534.822 823.168 L
1537.212 823.178 L
1539.602 823.187 L
1541.993 823.195 L
1544.383 823.203 L
1546.773 823.211 L
1549.164 823.219 L
1551.554 823.226 L
1553.944 823.233 L
1556.335 823.24 L
1558.725 823.247 L
1561.115 823.253 L
1563.506 823.259 L
1565.896 823.265 L
1568.286 823.271 L
1570.677 823.276 L
1573.067 823.281 L
1575.457 823.286 L
1577.848 823.291 L
1580.238 823.296 L
1582.628 823.301 L
1585.019 823.305 L
1587.409 823.309 L
1589.799 823.313 L
1592.19 823.317 L
1594.58 823.321 L
1596.97 823.324 L
1599.361 823.328 L
1601.751 823.331 L
1604.141 823.334 L
1606.532 823.337 L
1608.922 823.34 L
1611.312 823.343 L
1613.703 823.346 L
1616.093 823.348 L
1618.483 823.351 L
1620.874 823.353 L
1623.264 823.355 L
1625.654 823.358 L
1628.045 823.36 L
1630.435 823.362 L
1632.825 823.364 L
1635.216 823.366 L
1637.606 823.368 L
1639.996 823.369 L
1642.387 823.371 L
1644.777 823.373 L
1647.167 823.374 L
1649.558 823.376 L
1651.948 823.377 L
1654.338 823.379 L
1656.729 823.38 L
1659.119 823.381 L
1661.509 823.383 L
1663.9 823.384 L
1666.29 823.385 L
1668.68 823.386 L
1671.071 823.387 L
1673.461 823.388 L
1675.851 823.389 L
1678.242 823.39 L
1680.632 823.391 L
1683.022 823.392 L
1685.413 823.392 L
1687.803 823.393 L
1690.193 823.394 L
1692.584 823.395 L
1694.974 823.396 L
1697.364 823.396 L
1699.755 823.397 L
1702.145 823.397 L
1704.535 823.398 L
1706.926 823.399 L
1709.316 823.399 L
1711.706 823.4 L
1714.097 823.4 L
1716.487 823.401 L
1718.877 823.401 L
1721.268 823.402 L
1723.658 823.402 L
1726.048 823.402 L
1728.439 823.403 L
1730.829 823.403 L
1733.219 823.404 L
1735.61 823.404 L
1738 823.404 L
S
GR
GS
[0.75 0 0 0.75 0 -0.25] CT
1 LJ
2.667 LW
N
1095 559.247 M
1097.39 560.226 L
1099.781 561.229 L
1102.171 562.253 L
1104.561 563.294 L
1106.952 564.347 L
1109.342 565.408 L
1111.732 566.463 L
1114.123 567.498 L
1116.513 568.491 L
1118.903 569.419 L
1121.294 570.249 L
1123.684 570.941 L
1126.074 571.448 L
1128.465 571.73 L
1130.855 571.753 L
1133.245 571.507 L
1135.636 571.005 L
1138.026 570.287 L
1140.416 569.401 L
1142.807 568.396 L
1145.197 567.317 L
1147.587 566.196 L
1149.978 565.056 L
1152.368 563.916 L
1154.758 562.79 L
1157.149 561.686 L
1159.539 560.607 L
1161.929 559.556 L
1164.32 558.537 L
1166.71 557.549 L
1169.1 556.592 L
1171.491 555.665 L
1173.881 554.769 L
1176.271 553.901 L
1178.662 553.061 L
1181.052 552.25 L
1183.442 551.466 L
1185.833 550.708 L
1188.223 549.976 L
1190.613 549.268 L
1193.004 548.584 L
1195.394 547.922 L
1197.784 547.283 L
1200.175 546.666 L
1202.565 546.069 L
1204.955 545.493 L
1207.346 544.937 L
1209.736 544.4 L
1212.126 543.881 L
1214.517 543.38 L
1216.907 542.896 L
1219.297 542.428 L
1221.688 541.976 L
1224.078 541.538 L
1226.468 541.116 L
1228.859 540.707 L
1231.249 540.312 L
1233.639 539.93 L
1236.03 539.561 L
1238.42 539.205 L
1240.81 538.86 L
1243.201 538.528 L
1245.591 538.206 L
1247.981 537.895 L
1250.372 537.595 L
1252.762 537.304 L
1255.152 537.023 L
1257.543 536.752 L
1259.933 536.489 L
1262.323 536.235 L
1264.714 535.99 L
1267.104 535.753 L
1269.494 535.523 L
1271.885 535.301 L
1274.275 535.086 L
1276.665 534.879 L
1279.056 534.678 L
1281.446 534.484 L
1283.836 534.296 L
1286.227 534.114 L
1288.617 533.939 L
1291.007 533.769 L
1293.398 533.605 L
1295.788 533.446 L
1298.178 533.293 L
1300.569 533.144 L
1302.959 533.001 L
1305.349 532.863 L
1307.74 532.729 L
1310.13 532.6 L
1312.52 532.475 L
1314.911 532.354 L
1317.301 532.238 L
1319.691 532.125 L
1322.082 532.016 L
1324.472 531.911 L
1326.862 531.809 L
1329.253 531.711 L
1331.643 531.616 L
1334.033 531.524 L
1336.424 531.436 L
1338.814 531.35 L
1341.204 531.268 L
1343.595 531.188 L
1345.985 531.11 L
1348.375 531.036 L
1350.766 530.964 L
1353.156 530.894 L
1355.547 530.827 L
1357.937 530.762 L
1360.327 530.7 L
1362.718 530.639 L
1365.108 530.581 L
1367.498 530.525 L
1369.888 530.47 L
1372.279 530.418 L
1374.669 530.367 L
1377.059 530.319 L
1379.45 530.272 L
1381.84 530.226 L
1384.23 530.182 L
1386.621 530.14 L
1389.011 530.099 L
1391.401 530.06 L
1393.792 530.022 L
1396.182 529.985 L
1398.573 529.949 L
1400.963 529.915 L
1403.353 529.882 L
1405.744 529.851 L
1408.134 529.82 L
1410.524 529.79 L
1412.915 529.762 L
1415.305 529.734 L
1417.695 529.708 L
1420.085 529.682 L
1422.476 529.657 L
1424.866 529.633 L
1427.256 529.61 L
1429.647 529.588 L
1432.037 529.567 L
1434.427 529.546 L
1436.818 529.526 L
1439.208 529.507 L
1441.599 529.488 L
1443.989 529.471 L
1446.379 529.453 L
1448.77 529.437 L
1451.16 529.421 L
1453.55 529.405 L
1455.941 529.39 L
1458.331 529.376 L
1460.721 529.362 L
1463.112 529.349 L
1465.502 529.336 L
1467.892 529.324 L
1470.282 529.312 L
1472.673 529.3 L
1475.063 529.289 L
1477.453 529.278 L
1479.844 529.268 L
1482.234 529.258 L
1484.625 529.248 L
1487.015 529.239 L
1489.405 529.23 L
1491.796 529.222 L
1494.186 529.214 L
1496.576 529.206 L
1498.967 529.198 L
1501.357 529.19 L
1503.747 529.183 L
1506.138 529.176 L
1508.528 529.17 L
1510.918 529.163 L
1513.309 529.157 L
1515.699 529.151 L
1518.089 529.146 L
1520.48 529.14 L
1522.87 529.135 L
1525.26 529.13 L
1527.651 529.125 L
1530.041 529.12 L
1532.431 529.116 L
1534.822 529.111 L
1537.212 529.107 L
1539.602 529.103 L
1541.993 529.099 L
1544.383 529.095 L
1546.773 529.092 L
1549.164 529.088 L
1551.554 529.085 L
1553.944 529.082 L
1556.335 529.078 L
1558.725 529.075 L
1561.115 529.073 L
1563.506 529.07 L
1565.896 529.067 L
1568.286 529.065 L
1570.677 529.062 L
1573.067 529.06 L
1575.457 529.057 L
1577.848 529.055 L
1580.238 529.053 L
1582.628 529.051 L
1585.019 529.049 L
1587.409 529.047 L
1589.799 529.045 L
1592.19 529.043 L
1594.58 529.042 L
1596.97 529.04 L
1599.361 529.039 L
1601.751 529.037 L
1604.141 529.036 L
1606.532 529.034 L
1608.922 529.033 L
1611.312 529.032 L
1613.703 529.03 L
1616.093 529.029 L
1618.483 529.028 L
1620.874 529.027 L
1623.264 529.026 L
1625.654 529.025 L
1628.045 529.024 L
1630.435 529.023 L
1632.825 529.022 L
1635.216 529.021 L
1637.606 529.02 L
1639.996 529.02 L
1642.387 529.019 L
1644.777 529.018 L
1647.167 529.017 L
1649.558 529.017 L
1651.948 529.016 L
1654.338 529.015 L
1656.729 529.015 L
1659.119 529.014 L
1661.509 529.013 L
1663.9 529.013 L
1666.29 529.012 L
1668.68 529.012 L
1671.071 529.011 L
1673.461 529.011 L
1675.851 529.011 L
1678.242 529.01 L
1680.632 529.01 L
1683.022 529.009 L
1685.413 529.009 L
1687.803 529.009 L
1690.193 529.008 L
1692.584 529.008 L
1694.974 529.008 L
1697.364 529.007 L
1699.755 529.007 L
1702.145 529.007 L
1704.535 529.006 L
1706.926 529.006 L
1709.316 529.006 L
1711.706 529.006 L
1714.097 529.005 L
1716.487 529.005 L
1718.877 529.005 L
1721.268 529.005 L
1723.658 529.005 L
1726.048 529.004 L
1728.439 529.004 L
1730.829 529.004 L
1733.219 529.004 L
1735.61 529.004 L
1738 529.004 L
S
GR
GS
[0.75 0 0 0.75 0 -0.25] CT
1 GC
N
250 785.5 M
892 785.5 L
892 143.5 L
250 143.5 L
cp
f
GR
GS
[0.75 0 0 0.75 0 -0.25] CT
0.873 GC
1 LJ
0.667 LW
N
250 785.5 M
250 143.5 L
S
GR
GS
[0.75 0 0 0.75 0 -0.25] CT
0.873 GC
1 LJ
0.667 LW
N
357 785.5 M
357 143.5 L
S
GR
GS
[0.75 0 0 0.75 0 -0.25] CT
0.873 GC
1 LJ
0.667 LW
N
464 785.5 M
464 143.5 L
S
GR
GS
[0.75 0 0 0.75 0 -0.25] CT
0.873 GC
1 LJ
0.667 LW
N
571 785.5 M
571 143.5 L
S
GR
GS
[0.75 0 0 0.75 0 -0.25] CT
0.873 GC
1 LJ
0.667 LW
N
678 785.5 M
678 143.5 L
S
GR
GS
[0.75 0 0 0.75 0 -0.25] CT
0.873 GC
1 LJ
0.667 LW
N
785 785.5 M
785 143.5 L
S
GR
GS
[0.75 0 0 0.75 0 -0.25] CT
0.873 GC
1 LJ
0.667 LW
N
892 785.5 M
892 143.5 L
S
GR
GS
[0.75 0 0 0.75 0 -0.25] CT
0.873 GC
1 LJ
0.667 LW
N
892 785.5 M
250 785.5 L
S
GR
GS
[0.75 0 0 0.75 0 -0.25] CT
0.873 GC
1 LJ
0.667 LW
N
892 678.5 M
250 678.5 L
S
GR
GS
[0.75 0 0 0.75 0 -0.25] CT
0.873 GC
1 LJ
0.667 LW
N
892 571.5 M
250 571.5 L
S
GR
GS
[0.75 0 0 0.75 0 -0.25] CT
0.873 GC
1 LJ
0.667 LW
N
892 464.5 M
250 464.5 L
S
GR
GS
[0.75 0 0 0.75 0 -0.25] CT
0.873 GC
1 LJ
0.667 LW
N
892 357.5 M
250 357.5 L
S
GR
GS
[0.75 0 0 0.75 0 -0.25] CT
0.873 GC
1 LJ
0.667 LW
N
892 250.5 M
250 250.5 L
S
GR
GS
[0.75 0 0 0.75 0 -0.25] CT
0.873 GC
1 LJ
0.667 LW
N
892 143.5 M
250 143.5 L
S
GR
GS
[0.75 0 0 0.75 0 -0.25] CT
0.149 GC
2 setlinecap
1 LJ
0.667 LW
N
250 785.5 M
892 785.5 L
S
GR
GS
[0.75 0 0 0.75 0 -0.25] CT
0.149 GC
2 setlinecap
1 LJ
0.667 LW
N
250 785.5 M
250 779.08 L
S
GR
GS
[0.75 0 0 0.75 0 -0.25] CT
0.149 GC
2 setlinecap
1 LJ
0.667 LW
N
357 785.5 M
357 779.08 L
S
GR
GS
[0.75 0 0 0.75 0 -0.25] CT
0.149 GC
2 setlinecap
1 LJ
0.667 LW
N
464 785.5 M
464 779.08 L
S
GR
GS
[0.75 0 0 0.75 0 -0.25] CT
0.149 GC
2 setlinecap
1 LJ
0.667 LW
N
571 785.5 M
571 779.08 L
S
GR
GS
[0.75 0 0 0.75 0 -0.25] CT
0.149 GC
2 setlinecap
1 LJ
0.667 LW
N
678 785.5 M
678 779.08 L
S
GR
GS
[0.75 0 0 0.75 0 -0.25] CT
0.149 GC
2 setlinecap
1 LJ
0.667 LW
N
785 785.5 M
785 779.08 L
S
GR
GS
[0.75 0 0 0.75 0 -0.25] CT
0.149 GC
2 setlinecap
1 LJ
0.667 LW
N
892 785.5 M
892 779.08 L
S
GR
GS
[0.75 0 0 0.75 187.5 592.87498] CT
0.149 GC
/Helvetica 13.333 F
GS
[1 0 0 1 0 0] CT
-13.5 14 moveto 
1 -1 scale
(-200) t 
GR
GR
GS
[0.75 0 0 0.75 267.75 592.87498] CT
0.149 GC
/Helvetica 13.333 F
GS
[1 0 0 1 0 0] CT
-13.5 14 moveto 
1 -1 scale
(-100) t 
GR
GR
GS
[0.75 0 0 0.75 348 592.87498] CT
0.149 GC
/Helvetica 13.333 F
GS
[1 0 0 1 0 0] CT
-4 14 moveto 
1 -1 scale
(0) t 
GR
GR
GS
[0.75 0 0 0.75 428.25 592.87498] CT
0.149 GC
/Helvetica 13.333 F
GS
[1 0 0 1 0 0] CT
-11.5 14 moveto 
1 -1 scale
(100) t 
GR
GR
GS
[0.75 0 0 0.75 508.5 592.87498] CT
0.149 GC
/Helvetica 13.333 F
GS
[1 0 0 1 0 0] CT
-11.5 14 moveto 
1 -1 scale
(200) t 
GR
GR
GS
[0.75 0 0 0.75 588.75 592.87498] CT
0.149 GC
/Helvetica 13.333 F
GS
[1 0 0 1 0 0] CT
-11.5 14 moveto 
1 -1 scale
(300) t 
GR
GR
GS
[0.75 0 0 0.75 669 592.87498] CT
0.149 GC
/Helvetica 13.333 F
GS
[1 0 0 1 0 0] CT
-11.5 14 moveto 
1 -1 scale
(400) t 
GR
GR
GS
[0.75 0 0 0.75 0 -0.25] CT
0.149 GC
2 setlinecap
1 LJ
0.667 LW
N
250 785.5 M
250 143.5 L
S
GR
GS
[0.75 0 0 0.75 0 -0.25] CT
0.149 GC
2 setlinecap
1 LJ
0.667 LW
N
250 785.5 M
256.42 785.5 L
S
GR
GS
[0.75 0 0 0.75 0 -0.25] CT
0.149 GC
2 setlinecap
1 LJ
0.667 LW
N
250 678.5 M
256.42 678.5 L
S
GR
GS
[0.75 0 0 0.75 0 -0.25] CT
0.149 GC
2 setlinecap
1 LJ
0.667 LW
N
250 571.5 M
256.42 571.5 L
S
GR
GS
[0.75 0 0 0.75 0 -0.25] CT
0.149 GC
2 setlinecap
1 LJ
0.667 LW
N
250 464.5 M
256.42 464.5 L
S
GR
GS
[0.75 0 0 0.75 0 -0.25] CT
0.149 GC
2 setlinecap
1 LJ
0.667 LW
N
250 357.5 M
256.42 357.5 L
S
GR
GS
[0.75 0 0 0.75 0 -0.25] CT
0.149 GC
2 setlinecap
1 LJ
0.667 LW
N
250 250.5 M
256.42 250.5 L
S
GR
GS
[0.75 0 0 0.75 0 -0.25] CT
0.149 GC
2 setlinecap
1 LJ
0.667 LW
N
250 143.5 M
256.42 143.5 L
S
GR
GS
[0.75 0 0 0.75 183.5 588.875] CT
0.149 GC
/Helvetica 13.333 F
GS
[1 0 0 1 0 0] CT
-27 5.5 moveto 
1 -1 scale
(-200) t 
GR
GR
GS
[0.75 0 0 0.75 183.5 508.625] CT
0.149 GC
/Helvetica 13.333 F
GS
[1 0 0 1 0 0] CT
-27 5.5 moveto 
1 -1 scale
(-100) t 
GR
GR
GS
[0.75 0 0 0.75 183.5 428.375] CT
0.149 GC
/Helvetica 13.333 F
GS
[1 0 0 1 0 0] CT
-8 5.5 moveto 
1 -1 scale
(0) t 
GR
GR
GS
[0.75 0 0 0.75 183.5 348.125] CT
0.149 GC
/Helvetica 13.333 F
GS
[1 0 0 1 0 0] CT
-23 5.5 moveto 
1 -1 scale
(100) t 
GR
GR
GS
[0.75 0 0 0.75 183.5 267.875] CT
0.149 GC
/Helvetica 13.333 F
GS
[1 0 0 1 0 0] CT
-23 5.5 moveto 
1 -1 scale
(200) t 
GR
GR
GS
[0.75 0 0 0.75 183.5 187.625] CT
0.149 GC
/Helvetica 13.333 F
GS
[1 0 0 1 0 0] CT
-23 5.5 moveto 
1 -1 scale
(300) t 
GR
GR
GS
[0.75 0 0 0.75 183.5 107.375] CT
0.149 GC
/Helvetica 13.333 F
GS
[1 0 0 1 0 0] CT
-23 5.5 moveto 
1 -1 scale
(400) t 
GR
GR
GS
[0.75 0 0 0.75 428.25041 105.3125] CT
/Helvetica-Bold 14.667 F
GS
[1 0 0 1 0 0] CT
-43 -4 moveto 
1 -1 scale
(Robot arena) t 
GR
GR
GS
[0.75 0 0 0.75 588.75 187.625] CT
N
-6 -6 M
-6 6 L
6 6 L
6 -6 L
cp
f
GR
GS
[0.75 0 0 0.75 588.75 187.625] CT
10.0 ML
0.667 LW
N
-6 -6 M
-6 6 L
6 6 L
6 -6 L
cp
S
GR
GS
[0.75 0 0 0.75 267.75 508.625] CT
1 0 0 RC
N
6.667 0 M
6.667 -3.682 3.682 -6.667 0 -6.667 C
-3.682 -6.667 -6.667 -3.682 -6.667 0 C
-6.667 3.682 -3.682 6.667 0 6.667 C
3.682 6.667 6.667 3.682 6.667 0 C
cp
f
GR
GS
[0.75 0 0 0.75 267.75 508.625] CT
1 0 0 RC
N
0 -6.333 M
3.498 -6.333 6.333 -3.498 6.333 0 C
6.333 0 L
6.333 3.498 3.498 6.333 0 6.333 C
-3.498 6.333 -6.333 3.498 -6.333 0 C
-6.333 -3.498 -3.498 -6.333 0 -6.333 C
cp
0 -7 M
-3.866 -7 -7 -3.866 -7 0 C
-7 3.866 -3.866 7 0 7 C
3.866 7 7 3.866 7 0 C
7 0 L
7 -3.866 3.866 -7 0 -7 C
cp
f
GR
GS
[0.75 0 0 0.75 0 -0.25] CT
0 0.447 0.741 RC
1 LJ
2.667 LW
N
357.709 678.511 M
359.848 678.58 L
S
GR
GS
[0.75 0 0 0.75 268.28178 508.63351] CT
0.494 0.184 0.557 RC
N
0.5 0 M
0.5 0.276 0.276 0.5 0 0.5 C
-0.276 0.5 -0.5 0.276 -0.5 0 C
-0.5 -0.276 -0.276 -0.5 0 -0.5 C
0.276 -0.5 0.5 -0.276 0.5 0 C
cp
f
GR
GS
[0.75 0 0 0.75 0 -0.25] CT
0 0.447 0.741 RC
1 LJ
2.667 LW
N
358.432 678.547 M
360.567 678.688 L
S
GR
GS
[0.75 0 0 0.75 268.82394 508.66016] CT
0.302 0.745 0.933 RC
N
/f1188474679{0.5 0 M
0.5 0.276 0.276 0.5 0 0.5 C
-0.276 0.5 -0.5 0.276 -0.5 0 C
-0.5 -0.276 -0.276 -0.5 0 -0.5 C
0.276 -0.5 0.5 -0.276 0.5 0 C
cp}def
f1188474679
f
GR
GS
[0.75 0 0 0.75 0 -0.25] CT
0 0.447 0.741 RC
1 LJ
2.667 LW
N
359.169 678.609 M
361.298 678.828 L
S
GR
GS
[0.75 0 0 0.75 269.37682 508.70685] CT
0 0.447 0.741 RC
N
f1188474679
f
GR
GS
[0.75 0 0 0.75 0 -0.25] CT
0 0.447 0.741 RC
1 LJ
2.667 LW
N
359.921 678.701 M
362.04 679.002 L
S
GR
GS
[0.75 0 0 0.75 269.94097 508.77588] CT
0.929 0.694 0.125 RC
N
f1188474679
f
GR
GS
[0.75 0 0 0.75 0 -0.25] CT
0 0.447 0.741 RC
1 LJ
2.667 LW
N
360.689 678.827 M
362.794 679.215 L
S
GR
GS
[0.75 0 0 0.75 270.51711 508.8699] CT
0.467 0.675 0.188 RC
N
f1188474679
f
GR
GS
[0.75 0 0 0.75 0 -0.25] CT
0 0.447 0.741 RC
1 LJ
2.667 LW
N
361.475 678.99 M
363.56 679.471 L
S
GR
GS
[0.75 0 0 0.75 271.10598 508.99213] CT
0.635 0.078 0.184 RC
N
f1188474679
f
GR
GS
[0.75 0 0 0.75 0 -0.25] CT
0 0.447 0.741 RC
1 LJ
2.667 LW
N
362.277 679.195 M
364.336 679.775 L
S
GR
GS
[0.75 0 0 0.75 271.70741 509.14621] CT
0.851 0.325 0.098 RC
N
f1188474679
f
GR
GS
[0.75 0 0 0.75 0 -0.25] CT
0 0.447 0.741 RC
1 LJ
2.667 LW
N
363.095 679.448 M
365.122 680.134 L
S
GR
GS
[0.75 0 0 0.75 272.32091 509.33623] CT
0.494 0.184 0.557 RC
N
f1188474679
f
GR
GS
[0.75 0 0 0.75 0 -0.25] CT
0 0.447 0.741 RC
1 LJ
2.667 LW
N
363.927 679.756 M
365.913 680.552 L
S
GR
GS
[0.75 0 0 0.75 272.94516 509.56667] CT
0.302 0.745 0.933 RC
N
f1188474679
f
GR
GS
[0.75 0 0 0.75 0 -0.25] CT
0 0.447 0.741 RC
1 LJ
2.667 LW
N
364.771 680.124 M
366.707 681.037 L
S
GR
GS
[0.75 0 0 0.75 273.57854 509.84274] CT
0 0.447 0.741 RC
N
f1188474679
f
GR
GS
[0.75 0 0 0.75 0 -0.25] CT
0 0.447 0.741 RC
1 LJ
2.667 LW
N
365.624 680.56 M
367.497 681.595 L
S
GR
GS
[0.75 0 0 0.75 274.21799 510.16986] CT
0.929 0.694 0.125 RC
N
f1188474679
f
GR
GS
[0.75 0 0 0.75 0 -0.25] CT
0 0.447 0.741 RC
1 LJ
2.667 LW
N
366.476 681.07 M
368.274 682.23 L
S
GR
GS
[0.75 0 0 0.75 274.85731 510.55223] CT
0.467 0.675 0.188 RC
N
f1188474679
f
GR
GS
[0.75 0 0 0.75 0 -0.25] CT
0 0.447 0.741 RC
1 LJ
2.667 LW
N
367.318 681.657 M
369.027 682.945 L
S
GR
GS
[0.75 0 0 0.75 275.48843 510.99278] CT
0.635 0.078 0.184 RC
N
f1188474679
f
GR
GS
[0.75 0 0 0.75 0 -0.25] CT
0 0.447 0.741 RC
1 LJ
2.667 LW
N
368.134 682.322 M
369.741 683.735 L
S
GR
GS
[0.75 0 0 0.75 276.10078 511.49147] CT
0.851 0.325 0.098 RC
N
f1188474679
f
GR
GS
[0.75 0 0 0.75 0 -0.25] CT
0 0.447 0.741 RC
1 LJ
2.667 LW
N
368.909 683.058 M
370.402 684.592 L
S
GR
GS
[0.75 0 0 0.75 276.68175 512.04372] CT
0.494 0.184 0.557 RC
N
f1188474679
f
GR
GS
[0.75 0 0 0.75 0 -0.25] CT
0 0.447 0.741 RC
1 LJ
2.667 LW
N
369.625 683.854 M
370.994 685.498 L
S
GR
GS
[0.75 0 0 0.75 277.2188 512.64014] CT
0.302 0.745 0.933 RC
N
f1188474679
f
GR
GS
[0.75 0 0 0.75 0 -0.25] CT
0 0.447 0.741 RC
1 LJ
2.667 LW
N
370.269 684.69 M
371.51 686.434 L
S
GR
GS
[0.75 0 0 0.75 277.70206 513.26773] CT
0 0.447 0.741 RC
N
f1188474679
f
GR
GS
[0.75 0 0 0.75 0 -0.25] CT
0 0.447 0.741 RC
1 LJ
2.667 LW
N
370.835 685.55 M
371.945 687.38 L
S
GR
GS
[0.75 0 0 0.75 278.12634 513.91286] CT
0.929 0.694 0.125 RC
N
f1188474679
f
GR
GS
[0.75 0 0 0.75 0 -0.25] CT
0 0.447 0.741 RC
1 LJ
2.667 LW
N
371.322 686.418 M
372.304 688.32 L
S
GR
GS
[0.75 0 0 0.75 278.49131 514.56371] CT
0.467 0.675 0.188 RC
N
f1188474679
f
GR
GS
[0.75 0 0 0.75 0 -0.25] CT
0 0.447 0.741 RC
1 LJ
2.667 LW
N
371.733 687.282 M
372.592 689.242 L
S
GR
GS
[0.75 0 0 0.75 278.80012 515.21158] CT
0.635 0.078 0.184 RC
N
f1188474679
f
GR
GS
[0.75 0 0 0.75 0 -0.25] CT
0 0.447 0.741 RC
1 LJ
2.667 LW
N
372.077 688.133 M
372.818 690.141 L
S
GR
GS
[0.75 0 0 0.75 279.05754 515.84993] CT
0.851 0.325 0.098 RC
N
f1188474679
f
GR
GS
[0.75 0 0 0.75 0 -0.25] CT
0 0.447 0.741 RC
1 LJ
2.667 LW
N
372.359 688.968 M
372.99 691.013 L
S
GR
GS
[0.75 0 0 0.75 279.26958 516.4761] CT
0.494 0.184 0.557 RC
N
f1188474679
f
GR
GS
[0.75 0 0 0.75 0 -0.25] CT
0 0.447 0.741 RC
1 LJ
2.667 LW
N
372.589 689.785 M
373.116 691.86 L
S
GR
GS
[0.75 0 0 0.75 279.44186 517.0891] CT
0.302 0.745 0.933 RC
N
f1188474679
f
GR
GS
[0.75 0 0 0.75 0 -0.25] CT
0 0.447 0.741 RC
1 LJ
2.667 LW
N
372.772 690.584 M
373.202 692.68 L
S
GR
GS
[0.75 0 0 0.75 279.57916 517.68767] CT
0 0.447 0.741 RC
N
f1188474679
f
GR
GS
[0.75 0 0 0.75 0 -0.25] CT
0 0.447 0.741 RC
1 LJ
2.667 LW
N
372.914 691.362 M
373.253 693.475 L
S
GR
GS
[0.75 0 0 0.75 279.68582 518.27187] CT
0.929 0.694 0.125 RC
N
f1188474679
f
GR
GS
[0.75 0 0 0.75 0 -0.25] CT
0 0.447 0.741 RC
1 LJ
2.667 LW
N
373.021 692.123 M
373.275 694.248 L
S
GR
GS
[0.75 0 0 0.75 279.76563 518.84229] CT
0.467 0.675 0.188 RC
N
f1188474679
f
GR
GS
[0.75 0 0 0.75 0 -0.25] CT
0 0.447 0.741 RC
1 LJ
2.667 LW
N
373.096 692.867 M
373.27 695 L
S
GR
GS
[0.75 0 0 0.75 279.82178 519.40007] CT
0.635 0.078 0.184 RC
N
f1188474679
f
GR
GS
[0.75 0 0 0.75 0 -0.25] CT
0 0.447 0.741 RC
1 LJ
2.667 LW
N
373.143 693.595 M
373.243 695.733 L
S
GR
GS
[0.75 0 0 0.75 279.85691 519.94623] CT
0.851 0.325 0.098 RC
N
f1188474679
f
GR
GS
[0.75 0 0 0.75 0 -0.25] CT
0 0.447 0.741 RC
1 LJ
2.667 LW
N
373.164 694.308 M
373.194 696.448 L
S
GR
GS
[0.75 0 0 0.75 279.87321 520.48108] CT
0.494 0.184 0.557 RC
N
f1188474679
f
GR
GS
[0.75 0 0 0.75 0 -0.25] CT
0 0.447 0.741 RC
1 LJ
2.667 LW
N
373.163 695.007 M
373.128 697.147 L
S
GR
GS
[0.75 0 0 0.75 279.87257 521.00554] CT
0.302 0.745 0.933 RC
N
f1188474679
f
GR
GS
[0.75 0 0 0.75 0 -0.25] CT
0 0.447 0.741 RC
1 LJ
2.667 LW
N
373.142 695.694 M
373.045 697.832 L
S
GR
GS
[0.75 0 0 0.75 279.85659 521.52048] CT
0 0.447 0.741 RC
N
f1188474679
f
GR
GS
[0.75 0 0 0.75 0 -0.25] CT
0 0.447 0.741 RC
1 LJ
2.667 LW
N
373.102 696.369 M
372.947 698.503 L
S
GR
GS
[0.75 0 0 0.75 279.82665 522.02667] CT
0.929 0.694 0.125 RC
N
f1188474679
f
GR
GS
[0.75 0 0 0.75 0 -0.25] CT
0 0.447 0.741 RC
1 LJ
2.667 LW
N
373.045 697.033 M
372.834 699.162 L
S
GR
GS
[0.75 0 0 0.75 279.78385 522.52467] CT
0.467 0.675 0.188 RC
N
f1188474679
f
GR
GS
[0.75 0 0 0.75 0 -0.25] CT
0 0.447 0.741 RC
1 LJ
2.667 LW
N
372.972 697.687 M
372.709 699.811 L
S
GR
GS
[0.75 0 0 0.75 279.72924 523.01512] CT
0.635 0.078 0.184 RC
N
f1188474679
f
GR
GS
[0.75 0 0 0.75 0 -0.25] CT
0 0.447 0.741 RC
1 LJ
2.667 LW
N
372.885 698.331 M
372.573 700.448 L
S
GR
GS
[0.75 0 0 0.75 279.66367 523.49838] CT
0.851 0.325 0.098 RC
N
f1188474679
f
GR
GS
[0.75 0 0 0.75 0 -0.25] CT
0 0.447 0.741 RC
1 LJ
2.667 LW
N
372.784 698.966 M
372.425 701.076 L
S
GR
GS
[0.75 0 0 0.75 279.58797 523.97478] CT
0.494 0.184 0.557 RC
N
f1188474679
f
GR
GS
[0.75 0 0 0.75 0 -0.25] CT
0 0.447 0.741 RC
1 LJ
2.667 LW
N
372.67 699.593 M
372.267 701.695 L
S
GR
GS
[0.75 0 0 0.75 279.50281 524.44476] CT
0.302 0.745 0.933 RC
N
f1188474679
f
GR
GS
[0.75 0 0 0.75 0 -0.25] CT
0 0.447 0.741 RC
1 LJ
2.667 LW
N
372.545 700.212 M
372.099 702.305 L
S
GR
GS
[0.75 0 0 0.75 279.40883 524.90866] CT
0 0.447 0.741 RC
N
f1188474679
f
GR
GS
[0.75 0 0 0.75 0 -0.25] CT
0 0.447 0.741 RC
1 LJ
2.667 LW
N
372.409 700.823 M
371.923 702.907 L
S
GR
GS
[0.75 0 0 0.75 279.30656 525.36688] CT
0.929 0.694 0.125 RC
N
f1188474679
f
GR
GS
[0.75 0 0 0.75 0 -0.25] CT
0 0.447 0.741 RC
1 LJ
2.667 LW
N
372.262 701.426 M
371.738 703.501 L
S
GR
GS
[0.75 0 0 0.75 279.19652 525.81979] CT
0.467 0.675 0.188 RC
N
f1188474679
f
GR
GS
[0.75 0 0 0.75 0 -0.25] CT
0 0.447 0.741 RC
1 LJ
2.667 LW
N
372.105 702.023 M
371.545 704.089 L
S
GR
GS
[0.75 0 0 0.75 279.07912 526.26762] CT
0.635 0.078 0.184 RC
N
f1188474679
f
GR
GS
[0.75 0 0 0.75 0 -0.25] CT
0 0.447 0.741 RC
1 LJ
2.667 LW
N
371.94 702.614 M
371.344 704.67 L
S
GR
GS
[0.75 0 0 0.75 278.95477 526.7106] CT
0.851 0.325 0.098 RC
N
f1188474679
f
GR
GS
[0.75 0 0 0.75 0 -0.25] CT
0 0.447 0.741 RC
1 LJ
2.667 LW
N
371.765 703.198 M
371.136 705.244 L
S
GR
GS
[0.75 0 0 0.75 278.82392 527.14886] CT
0.494 0.184 0.557 RC
N
f1188474679
f
GR
GS
[0.75 0 0 0.75 0 -0.25] CT
0 0.447 0.741 RC
1 LJ
2.667 LW
N
371.583 703.777 M
370.922 705.813 L
S
GR
GS
[0.75 0 0 0.75 278.68689 527.58269] CT
0.302 0.745 0.933 RC
N
f1188474679
f
GR
GS
[0.75 0 0 0.75 0 -0.25] CT
0 0.447 0.741 RC
1 LJ
2.667 LW
N
371.392 704.35 M
370.701 706.375 L
S
GR
GS
[0.75 0 0 0.75 278.54398 528.0123] CT
0 0.447 0.741 RC
N
f1188474679
f
GR
GS
[0.75 0 0 0.75 0 -0.25] CT
0 0.447 0.741 RC
1 LJ
2.667 LW
N
371.194 704.917 M
370.475 706.932 L
S
GR
GS
[0.75 0 0 0.75 278.39552 528.43774] CT
0.929 0.694 0.125 RC
N
f1188474679
f
GR
GS
[0.75 0 0 0.75 0 -0.25] CT
0 0.447 0.741 RC
1 LJ
2.667 LW
N
370.989 705.479 M
370.242 707.484 L
S
GR
GS
[0.75 0 0 0.75 278.24181 528.85925] CT
0.467 0.675 0.188 RC
N
f1188474679
f
GR
GS
[0.75 0 0 0.75 0 -0.25] CT
0 0.447 0.741 RC
1 LJ
2.667 LW
N
370.777 706.036 M
370.004 708.031 L
S
GR
GS
[0.75 0 0 0.75 278.08308 529.27701] CT
0.635 0.078 0.184 RC
N
f1188474679
f
GR
GS
[0.75 0 0 0.75 0 -0.25] CT
0 0.447 0.741 RC
1 LJ
2.667 LW
N
370.559 706.588 M
369.761 708.574 L
S
GR
GS
[0.75 0 0 0.75 277.91956 529.69124] CT
0.851 0.325 0.098 RC
N
f1188474679
f
GR
GS
[0.75 0 0 0.75 0 -0.25] CT
0 0.447 0.741 RC
1 LJ
2.667 LW
N
370.335 707.136 M
369.513 709.112 L
S
GR
GS
[0.75 0 0 0.75 277.7515 530.10204] CT
0.494 0.184 0.557 RC
N
f1188474679
f
GR
GS
[0.75 0 0 0.75 0 -0.25] CT
0 0.447 0.741 RC
1 LJ
2.667 LW
N
370.105 707.679 M
369.26 709.645 L
S
GR
GS
[0.75 0 0 0.75 277.57908 530.50958] CT
0.302 0.745 0.933 RC
N
f1188474679
f
GR
GS
[0.75 0 0 0.75 0 -0.25] CT
0 0.447 0.741 RC
1 LJ
2.667 LW
N
369.87 708.219 M
369.003 710.175 L
S
GR
GS
[0.75 0 0 0.75 277.40245 530.91402] CT
0 0.447 0.741 RC
N
f1188474679
f
GR
GS
[0.75 0 0 0.75 0 -0.25] CT
0 0.447 0.741 RC
1 LJ
2.667 LW
N
369.629 708.754 M
368.741 710.701 L
S
GR
GS
[0.75 0 0 0.75 277.22184 531.31548] CT
0.929 0.694 0.125 RC
N
f1188474679
f
GR
GS
[0.75 0 0 0.75 0 -0.25] CT
0 0.447 0.741 RC
1 LJ
2.667 LW
N
369.383 709.285 M
368.474 711.223 L
S
GR
GS
[0.75 0 0 0.75 277.03741 531.7141] CT
0.467 0.675 0.188 RC
N
f1188474679
f
GR
GS
[0.75 0 0 0.75 0 -0.25] CT
0 0.447 0.741 RC
1 LJ
2.667 LW
N
369.132 709.813 M
368.204 711.742 L
S
GR
GS
[0.75 0 0 0.75 276.84927 532.11006] CT
0.635 0.078 0.184 RC
N
f1188474679
f
GR
GS
[0.75 0 0 0.75 0 -0.25] CT
0 0.447 0.741 RC
1 LJ
2.667 LW
N
368.877 710.338 M
367.93 712.257 L
S
GR
GS
[0.75 0 0 0.75 276.65758 532.50333] CT
0.851 0.325 0.098 RC
N
f1188474679
f
GR
GS
[0.75 0 0 0.75 0 -0.25] CT
0 0.447 0.741 RC
1 LJ
2.667 LW
N
368.617 710.859 M
367.652 712.769 L
S
GR
GS
[0.75 0 0 0.75 276.4625 532.89417] CT
0.494 0.184 0.557 RC
N
f1188474679
f
GR
GS
[0.75 0 0 0.75 0 -0.25] CT
0 0.447 0.741 RC
1 LJ
2.667 LW
N
368.352 711.377 M
367.37 713.278 L
S
GR
GS
[0.75 0 0 0.75 276.26418 533.28253] CT
0.302 0.745 0.933 RC
N
f1188474679
f
GR
GS
[0.75 0 0 0.75 0 -0.25] CT
0 0.447 0.741 RC
1 LJ
2.667 LW
N
368.084 711.891 M
367.085 713.784 L
S
GR
GS
[0.75 0 0 0.75 276.06271 533.66852] CT
0 0.447 0.741 RC
N
f1188474679
f
GR
GS
[0.75 0 0 0.75 0 -0.25] CT
0 0.447 0.741 RC
1 LJ
2.667 LW
N
367.811 712.403 M
366.797 714.288 L
S
GR
GS
[0.75 0 0 0.75 275.85828 534.05231] CT
0.929 0.694 0.125 RC
N
f1188474679
f
GR
GS
[0.75 0 0 0.75 0 -0.25] CT
0 0.447 0.741 RC
1 LJ
2.667 LW
N
367.535 712.912 M
366.505 714.788 L
S
GR
GS
[0.75 0 0 0.75 275.65093 534.4339] CT
0.467 0.675 0.188 RC
N
f1188474679
f
GR
GS
[0.75 0 0 0.75 0 -0.25] CT
0 0.447 0.741 RC
1 LJ
2.667 LW
N
367.254 713.418 M
366.211 715.286 L
S
GR
GS
[0.75 0 0 0.75 275.44082 534.81339] CT
0.635 0.078 0.184 RC
N
f1188474679
f
GR
GS
[0.75 0 0 0.75 0 -0.25] CT
0 0.447 0.741 RC
1 LJ
2.667 LW
N
366.971 713.921 M
365.913 715.781 L
S
GR
GS
[0.75 0 0 0.75 275.22803 535.1909] CT
0.851 0.325 0.098 RC
N
f1188474679
f
GR
GS
[0.75 0 0 0.75 0 -0.25] CT
0 0.447 0.741 RC
1 LJ
2.667 LW
N
366.684 714.422 M
365.612 716.275 L
S
GR
GS
[0.75 0 0 0.75 275.01265 535.56645] CT
0.494 0.184 0.557 RC
N
f1188474679
f
GR
GS
[0.75 0 0 0.75 0 -0.25] CT
0 0.447 0.741 RC
1 LJ
2.667 LW
N
366.393 714.92 M
365.309 716.765 L
S
GR
GS
[0.75 0 0 0.75 274.7948 535.94022] CT
0.302 0.745 0.933 RC
N
f1188474679
f
GR
GS
[0.75 0 0 0.75 0 -0.25] CT
0 0.447 0.741 RC
1 LJ
2.667 LW
N
366.099 715.416 M
365.003 717.254 L
S
GR
GS
[0.75 0 0 0.75 274.57452 536.31219] CT
0 0.447 0.741 RC
N
f1188474679
f
GR
GS
[0.75 0 0 0.75 0 -0.25] CT
0 0.447 0.741 RC
1 LJ
2.667 LW
N
365.803 715.91 M
364.694 717.74 L
S
GR
GS
[0.75 0 0 0.75 274.35194 536.68243] CT
0.929 0.694 0.125 RC
N
f1188474679
f
GR
GS
[0.75 0 0 0.75 0 -0.25] CT
0 0.447 0.741 RC
1 LJ
2.667 LW
N
365.503 716.401 M
364.383 718.225 L
S
GR
GS
[0.75 0 0 0.75 274.12713 537.05107] CT
0.467 0.675 0.188 RC
N
f1188474679
f
GR
GS
[0.75 0 0 0.75 0 -0.25] CT
0 0.447 0.741 RC
1 LJ
2.667 LW
N
365.2 716.891 M
364.069 718.707 L
S
GR
GS
[0.75 0 0 0.75 273.90015 537.41806] CT
0.635 0.078 0.184 RC
N
f1188474679
f
GR
GS
[0.75 0 0 0.75 0 -0.25] CT
0 0.447 0.741 RC
1 LJ
2.667 LW
N
364.895 717.378 M
363.753 719.188 L
S
GR
GS
[0.75 0 0 0.75 273.67108 537.78358] CT
0.851 0.325 0.098 RC
N
f1188474679
f
GR
GS
[0.75 0 0 0.75 0 -0.25] CT
0 0.447 0.741 RC
1 LJ
2.667 LW
N
364.587 717.864 M
363.435 719.667 L
S
GR
GS
[0.75 0 0 0.75 273.44 538.14764] CT
0.494 0.184 0.557 RC
N
f1188474679
f
GR
GS
[0.75 0 0 0.75 0 -0.25] CT
0 0.447 0.741 RC
1 LJ
2.667 LW
N
364.276 718.347 M
363.114 720.144 L
S
GR
GS
[0.75 0 0 0.75 273.20698 538.51028] CT
0.302 0.745 0.933 RC
N
f1188474679
f
GR
GS
[0.75 0 0 0.75 0 -0.25] CT
0 0.447 0.741 RC
1 LJ
2.667 LW
N
363.963 718.829 M
362.791 720.62 L
S
GR
GS
[0.75 0 0 0.75 272.97205 538.87155] CT
0 0.447 0.741 RC
N
f1188474679
f
GR
GS
[0.75 0 0 0.75 0 -0.25] CT
0 0.447 0.741 RC
1 LJ
2.667 LW
N
363.647 719.309 M
362.467 721.094 L
S
GR
GS
[0.75 0 0 0.75 272.7353 539.23154] CT
0.929 0.694 0.125 RC
N
f1188474679
f
GR
GS
[0.75 0 0 0.75 0 -0.25] CT
0 0.447 0.741 RC
1 LJ
2.667 LW
N
363.329 719.787 M
362.14 721.566 L
S
GR
GS
[0.75 0 0 0.75 272.4968 539.59029] CT
0.467 0.675 0.188 RC
N
f1188474679
f
GR
GS
[0.75 0 0 0.75 0 -0.25] CT
0 0.447 0.741 RC
1 LJ
2.667 LW
N
363.009 720.264 M
361.811 722.037 L
S
GR
GS
[0.75 0 0 0.75 272.25657 539.9478] CT
0.635 0.078 0.184 RC
N
f1188474679
f
GR
GS
[0.75 0 0 0.75 0 -0.25] CT
0 0.447 0.741 RC
1 LJ
2.667 LW
N
362.686 720.739 M
361.48 722.507 L
S
GR
GS
[0.75 0 0 0.75 272.01469 540.30417] CT
0.851 0.325 0.098 RC
N
f1188474679
f
GR
GS
[0.75 0 0 0.75 0 -0.25] CT
0 0.447 0.741 RC
1 LJ
2.667 LW
N
362.362 721.213 M
361.148 722.975 L
S
GR
GS
[0.75 0 0 0.75 271.7712 540.65944] CT
0.494 0.184 0.557 RC
N
f1188474679
f
GR
GS
[0.75 0 0 0.75 0 -0.25] CT
0 0.447 0.741 RC
1 LJ
2.667 LW
N
362.035 721.685 M
360.814 723.442 L
S
GR
GS
[0.75 0 0 0.75 271.52616 541.01361] CT
0.302 0.745 0.933 RC
N
f1188474679
f
GR
GS
[0.75 0 0 0.75 0 -0.25] CT
0 0.447 0.741 RC
1 LJ
2.667 LW
N
361.706 722.156 M
360.477 723.908 L
S
GR
GS
[0.75 0 0 0.75 271.27963 541.36673] CT
0 0.447 0.741 RC
N
f1188474679
f
GR
GS
[0.75 0 0 0.75 0 -0.25] CT
0 0.447 0.741 RC
1 LJ
2.667 LW
N
361.375 722.625 M
360.14 724.372 L
S
GR
GS
[0.75 0 0 0.75 271.03162 541.71889] CT
0.929 0.694 0.125 RC
N
f1188474679
f
GR
GS
[0.75 0 0 0.75 0 -0.25] CT
0 0.447 0.741 RC
1 LJ
2.667 LW
N
361.043 723.093 M
359.8 724.836 L
S
GR
GS
[0.75 0 0 0.75 270.7822 542.07008] CT
0.467 0.675 0.188 RC
N
f1188474679
f
GR
GS
[0.75 0 0 0.75 0 -0.25] CT
0 0.447 0.741 RC
1 LJ
2.667 LW
N
360.709 723.56 M
359.46 725.298 L
S
GR
GS
[0.75 0 0 0.75 270.53142 542.42036] CT
0.635 0.078 0.184 RC
N
f1188474679
f
GR
GS
[0.75 0 0 0.75 0 -0.25] CT
0 0.447 0.741 RC
1 LJ
2.667 LW
N
360.372 724.026 M
359.117 725.759 L
S
GR
GS
[0.75 0 0 0.75 270.27933 542.76973] CT
0.851 0.325 0.098 RC
N
f1188474679
f
GR
GS
[0.75 0 0 0.75 0 -0.25] CT
0 0.447 0.741 RC
1 LJ
2.667 LW
N
360.035 724.491 M
358.773 726.22 L
S
GR
GS
[0.75 0 0 0.75 270.02596 543.11823] CT
0.494 0.184 0.557 RC
N
f1188474679
f
GR
GS
[0.75 0 0 0.75 0 -0.25] CT
0 0.447 0.741 RC
1 LJ
2.667 LW
N
359.695 724.955 M
358.428 726.679 L
S
GR
GS
[0.75 0 0 0.75 269.77135 543.4659] CT
0.302 0.745 0.933 RC
N
f1188474679
f
GR
GS
[0.75 0 0 0.75 0 -0.25] CT
0 0.447 0.741 RC
1 LJ
2.667 LW
N
359.354 725.417 M
358.081 727.137 L
S
GR
GS
[0.75 0 0 0.75 269.51553 543.81274] CT
0 0.447 0.741 RC
N
f1188474679
f
GR
GS
[0.75 0 0 0.75 0 -0.25] CT
0 0.447 0.741 RC
1 LJ
2.667 LW
N
359.011 725.878 M
357.733 727.595 L
S
GR
GS
[0.75 0 0 0.75 269.25856 544.15886] CT
0.929 0.694 0.125 RC
N
f1188474679
f
GR
GS
[0.75 0 0 0.75 0 -0.25] CT
0 0.447 0.741 RC
1 LJ
2.667 LW
N
358.667 726.339 M
357.384 728.051 L
S
GR
GS
[0.75 0 0 0.75 269.00047 544.50424] CT
0.467 0.675 0.188 RC
N
f1188474679
f
GR
GS
[0.75 0 0 0.75 0 -0.25] CT
0 0.447 0.741 RC
1 LJ
2.667 LW
N
358.322 726.799 M
357.033 728.507 L
S
GR
GS
[0.75 0 0 0.75 268.74129 544.84889] CT
0.635 0.078 0.184 RC
N
f1188474679
f
GR
GS
[0.75 0 0 0.75 0 -0.25] CT
0 0.447 0.741 RC
1 LJ
2.667 LW
N
357.975 727.257 M
356.681 728.962 L
S
GR
GS
[0.75 0 0 0.75 268.48105 545.1929] CT
0.851 0.325 0.098 RC
N
f1188474679
f
GR
GS
[0.75 0 0 0.75 0 -0.25] CT
0 0.447 0.741 RC
1 LJ
2.667 LW
N
357.626 727.715 M
356.328 729.416 L
S
GR
GS
[0.75 0 0 0.75 268.21976 545.53622] CT
0.494 0.184 0.557 RC
N
f1188474679
f
GR
GS
[0.75 0 0 0.75 0 -0.25] CT
0 0.447 0.741 RC
1 LJ
2.667 LW
N
357.277 728.172 M
355.974 729.87 L
S
GR
GS
[0.75 0 0 0.75 267.9575 545.87895] CT
0.302 0.745 0.933 RC
N
f1188474679
f
GR
GS
[0.75 0 0 0.75 0 -0.25] CT
0 0.447 0.741 RC
1 LJ
2.667 LW
N
356.926 728.628 M
355.618 730.323 L
S
GR
GS
[0.75 0 0 0.75 267.69424 546.22108] CT
0 0.447 0.741 RC
N
f1188474679
f
GR
GS
[0.75 0 0 0.75 0 -0.25] CT
0 0.447 0.741 RC
1 LJ
2.667 LW
N
356.573 729.084 M
355.262 730.775 L
S
GR
GS
[0.75 0 0 0.75 267.43007 546.56267] CT
0.929 0.694 0.125 RC
N
f1188474679
f
GR
GS
[0.75 0 0 0.75 0 -0.25] CT
0 0.447 0.741 RC
1 LJ
2.667 LW
N
356.22 729.538 M
354.905 731.226 L
S
GR
GS
[0.75 0 0 0.75 267.16498 546.9037] CT
0.467 0.675 0.188 RC
N
f1188474679
f
GR
GS
[0.75 0 0 0.75 0 -0.25] CT
0 0.447 0.741 RC
1 LJ
2.667 LW
N
355.865 729.992 M
354.546 731.677 L
S
GR
GS
[0.75 0 0 0.75 266.89899 547.24419] CT
0.635 0.078 0.184 RC
N
f1188474679
f
GR
GS
[0.75 0 0 0.75 0 -0.25] CT
0 0.447 0.741 RC
1 LJ
2.667 LW
N
355.51 730.446 M
354.186 732.128 L
S
GR
GS
[0.75 0 0 0.75 266.63214 547.58417] CT
0.851 0.325 0.098 RC
N
f1188474679
f
GR
GS
[0.75 0 0 0.75 0 -0.25] CT
0 0.447 0.741 RC
1 LJ
2.667 LW
N
355.153 730.898 M
353.826 732.577 L
S
GR
GS
[0.75 0 0 0.75 266.36444 547.92369] CT
0.494 0.184 0.557 RC
N
f1188474679
f
GR
GS
[0.75 0 0 0.75 0 -0.25] CT
0 0.447 0.741 RC
1 LJ
2.667 LW
N
354.795 731.35 M
353.464 733.027 L
S
GR
GS
[0.75 0 0 0.75 266.09596 548.26276] CT
0.302 0.745 0.933 RC
N
f1188474679
f
GR
GS
[0.75 0 0 0.75 0 -0.25] CT
0 0.447 0.741 RC
1 LJ
2.667 LW
N
354.436 731.802 M
353.102 733.475 L
S
GR
GS
[0.75 0 0 0.75 265.82666 548.60141] CT
0 0.447 0.741 RC
N
f1188474679
f
GR
GS
[0.75 0 0 0.75 0 -0.25] CT
0 0.447 0.741 RC
1 LJ
2.667 LW
N
354.075 732.253 M
352.739 733.924 L
S
GR
GS
[0.75 0 0 0.75 265.5566 548.93961] CT
0.929 0.694 0.125 RC
N
f1188474679
f
GR
GS
[0.75 0 0 0.75 0 -0.25] CT
0 0.447 0.741 RC
1 LJ
2.667 LW
N
353.714 732.703 M
352.374 734.372 L
S
GR
GS
[0.75 0 0 0.75 265.28579 549.27744] CT
0.467 0.675 0.188 RC
N
f1188474679
f
GR
GS
[0.75 0 0 0.75 0 -0.25] CT
0 0.447 0.741 RC
1 LJ
2.667 LW
N
353.352 733.153 M
352.009 734.819 L
S
GR
GS
[0.75 0 0 0.75 265.01427 549.61485] CT
0.635 0.078 0.184 RC
N
f1188474679
f
GR
GS
[0.75 0 0 0.75 0 -0.25] CT
0 0.447 0.741 RC
1 LJ
2.667 LW
N
352.989 733.603 M
351.643 735.266 L
S
GR
GS
[0.75 0 0 0.75 264.74203 549.95195] CT
0.851 0.325 0.098 RC
N
f1188474679
f
GR
GS
[0.75 0 0 0.75 0 -0.25] CT
0 0.447 0.741 RC
1 LJ
2.667 LW
N
352.625 734.052 M
351.277 735.713 L
S
GR
GS
[0.75 0 0 0.75 264.46909 550.28868] CT
0.494 0.184 0.557 RC
N
f1188474679
f
GR
GS
[0.75 0 0 0.75 0 -0.25] CT
0 0.447 0.741 RC
1 LJ
2.667 LW
N
352.261 734.5 M
350.909 736.159 L
S
GR
GS
[0.75 0 0 0.75 264.19549 550.62509] CT
0.302 0.745 0.933 RC
N
f1188474679
f
GR
GS
[0.75 0 0 0.75 0 -0.25] CT
0 0.447 0.741 RC
1 LJ
2.667 LW
N
351.895 734.948 M
350.541 736.605 L
S
GR
GS
[0.75 0 0 0.75 263.92124 550.96118] CT
0 0.447 0.741 RC
N
f1188474679
f
GR
GS
[0.75 0 0 0.75 0 -0.25] CT
0 0.447 0.741 RC
1 LJ
2.667 LW
N
351.529 735.396 M
350.172 737.051 L
S
GR
GS
[0.75 0 0 0.75 263.64638 551.297] CT
0.929 0.694 0.125 RC
N
f1188474679
f
GR
GS
[0.75 0 0 0.75 0 -0.25] CT
0 0.447 0.741 RC
1 LJ
2.667 LW
N
351.161 735.843 M
349.802 737.496 L
S
GR
GS
[0.75 0 0 0.75 263.37087 551.63249] CT
0.467 0.675 0.188 RC
N
f1188474679
f
GR
GS
[0.75 0 0 0.75 0 -0.25] CT
0 0.447 0.741 RC
1 LJ
2.667 LW
N
350.793 736.29 M
349.431 737.941 L
S
GR
GS
[0.75 0 0 0.75 263.0948 551.96776] CT
0.635 0.078 0.184 RC
N
f1188474679
f
GR
GS
[0.75 0 0 0.75 0 -0.25] CT
0 0.447 0.741 RC
1 LJ
2.667 LW
N
350.424 736.737 M
349.06 738.386 L
S
GR
GS
[0.75 0 0 0.75 262.81812 552.30275] CT
0.851 0.325 0.098 RC
N
f1188474679
f
GR
GS
[0.75 0 0 0.75 0 -0.25] CT
0 0.447 0.741 RC
1 LJ
2.667 LW
N
350.055 737.183 M
348.688 738.831 L
S
GR
GS
[0.75 0 0 0.75 262.5409 552.63747] CT
0.494 0.184 0.557 RC
N
f1188474679
f
GR
GS
[0.75 0 0 0.75 0 -0.25] CT
0 0.447 0.741 RC
1 LJ
2.667 LW
N
349.684 737.629 M
348.316 739.275 L
S
GR
GS
[0.75 0 0 0.75 262.26313 552.972] CT
0.302 0.745 0.933 RC
N
f1188474679
f
GR
GS
[0.75 0 0 0.75 0 -0.25] CT
0 0.447 0.741 RC
1 LJ
2.667 LW
N
349.313 738.075 M
347.943 739.719 L
S
GR
GS
[0.75 0 0 0.75 261.98481 553.3063] CT
0 0.447 0.741 RC
N
f1188474679
f
GR
GS
[0.75 0 0 0.75 0 -0.25] CT
0 0.447 0.741 RC
1 LJ
2.667 LW
N
348.941 738.521 M
347.569 740.163 L
S
GR
GS
[0.75 0 0 0.75 261.70596 553.64043] CT
0.929 0.694 0.125 RC
N
f1188474679
f
GR
GS
[0.75 0 0 0.75 0 -0.25] CT
0 0.447 0.741 RC
1 LJ
2.667 LW
N
348.569 738.966 M
347.195 740.606 L
S
GR
GS
[0.75 0 0 0.75 261.42661 553.97437] CT
0.467 0.675 0.188 RC
N
f1188474679
f
GR
GS
[0.75 0 0 0.75 0 -0.25] CT
0 0.447 0.741 RC
1 LJ
2.667 LW
N
348.196 739.411 M
346.82 741.05 L
S
GR
GS
[0.75 0 0 0.75 261.14676 554.30807] CT
0.635 0.078 0.184 RC
N
f1188474679
f
GR
GS
[0.75 0 0 0.75 0 -0.25] CT
0 0.447 0.741 RC
1 LJ
2.667 LW
N
347.822 739.856 M
346.444 741.493 L
S
GR
GS
[0.75 0 0 0.75 260.86642 554.64165] CT
0.851 0.325 0.098 RC
N
f1188474679
f
GR
GS
[0.75 0 0 0.75 0 -0.25] CT
0 0.447 0.741 RC
1 LJ
2.667 LW
N
347.448 740.3 M
346.068 741.936 L
S
GR
GS
[0.75 0 0 0.75 260.58563 554.97513] CT
0.494 0.184 0.557 RC
N
f1188474679
f
GR
GS
[0.75 0 0 0.75 0 -0.25] CT
0 0.447 0.741 RC
1 LJ
2.667 LW
N
347.072 740.745 M
345.691 742.379 L
S
GR
GS
[0.75 0 0 0.75 260.30436 555.30838] CT
0.302 0.745 0.933 RC
N
f1188474679
f
GR
GS
[0.75 0 0 0.75 0 -0.25] CT
0 0.447 0.741 RC
1 LJ
2.667 LW
N
346.697 741.189 M
345.314 742.822 L
S
GR
GS
[0.75 0 0 0.75 260.02265 555.64154] CT
0 0.447 0.741 RC
N
f1188474679
f
GR
GS
[0.75 0 0 0.75 0 -0.25] CT
0 0.447 0.741 RC
1 LJ
2.667 LW
N
346.321 741.633 M
344.937 743.265 L
S
GR
GS
[0.75 0 0 0.75 259.74049 555.97456] CT
0.929 0.694 0.125 RC
N
f1188474679
f
GR
GS
[0.75 0 0 0.75 0 -0.25] CT
0 0.447 0.741 RC
1 LJ
2.667 LW
N
345.944 742.077 M
344.558 743.708 L
S
GR
GS
[0.75 0 0 0.75 259.45791 556.3075] CT
0.467 0.675 0.188 RC
N
f1188474679
f
GR
GS
[0.75 0 0 0.75 0 -0.25] CT
0 0.447 0.741 RC
1 LJ
2.667 LW
N
345.567 742.52 M
344.18 744.15 L
S
GR
GS
[0.75 0 0 0.75 259.1749 556.64034] CT
0.635 0.078 0.184 RC
N
f1188474679
f
GR
GS
[0.75 0 0 0.75 0 -0.25] CT
0 0.447 0.741 RC
1 LJ
2.667 LW
N
345.189 742.964 M
343.8 744.593 L
S
GR
GS
[0.75 0 0 0.75 258.89147 556.97304] CT
0.851 0.325 0.098 RC
N
f1188474679
f
GR
GS
[0.75 0 0 0.75 0 -0.25] CT
0 0.447 0.741 RC
1 LJ
2.667 LW
N
344.81 743.408 M
343.421 745.035 L
S
GR
GS
[0.75 0 0 0.75 258.60768 557.30569] CT
0.494 0.184 0.557 RC
N
f1188474679
f
GR
GS
[0.75 0 0 0.75 0 -0.25] CT
0 0.447 0.741 RC
1 LJ
2.667 LW
N
344.431 743.851 M
343.04 745.477 L
S
GR
GS
[0.75 0 0 0.75 258.32346 557.63826] CT
0.302 0.745 0.933 RC
N
f1188474679
f
GR
GS
[0.75 0 0 0.75 0 -0.25] CT
0 0.447 0.741 RC
1 LJ
2.667 LW
N
344.052 744.294 M
342.66 745.92 L
S
GR
GS
[0.75 0 0 0.75 258.03886 557.97078] CT
0 0.447 0.741 RC
N
f1188474679
f
GR
GS
[0.75 0 0 0.75 0 -0.25] CT
0 0.447 0.741 RC
1 LJ
2.667 LW
N
343.672 744.738 M
342.279 746.362 L
S
GR
GS
[0.75 0 0 0.75 257.75391 558.30321] CT
0.929 0.694 0.125 RC
N
f1188474679
f
GR
GS
[0.75 0 0 0.75 0 -0.25] CT
0 0.447 0.741 RC
1 LJ
2.667 LW
N
343.291 745.181 M
341.897 746.804 L
S
GR
GS
[0.75 0 0 0.75 257.46856 558.63559] CT
0.467 0.675 0.188 RC
N
f1188474679
f
GR
GS
[0.75 0 0 0.75 0 -0.25] CT
0 0.447 0.741 RC
1 LJ
2.667 LW
N
342.91 745.624 M
341.515 747.246 L
S
GR
GS
[0.75 0 0 0.75 257.18287 558.96793] CT
0.635 0.078 0.184 RC
N
f1188474679
f
GR
GS
[0.75 0 0 0.75 0 -0.25] CT
0 0.447 0.741 RC
1 LJ
2.667 LW
N
342.529 746.067 M
341.132 747.688 L
S
GR
GS
[0.75 0 0 0.75 256.89681 559.30026] CT
0.851 0.325 0.098 RC
N
f1188474679
f
GR
GS
[0.75 0 0 0.75 0 -0.25] CT
0 0.447 0.741 RC
1 LJ
2.667 LW
N
342.147 746.51 M
340.75 748.131 L
S
GR
GS
[0.75 0 0 0.75 256.61044 559.63255] CT
0.494 0.184 0.557 RC
N
f1188474679
f
GR
GS
[0.75 0 0 0.75 0 -0.25] CT
0 0.447 0.741 RC
1 LJ
2.667 LW
N
341.765 746.953 M
340.366 748.573 L
S
GR
GS
[0.75 0 0 0.75 256.32369 559.9648] CT
0.302 0.745 0.933 RC
N
f1188474679
f
GR
GS
[0.75 0 0 0.75 0 -0.25] CT
0 0.447 0.741 RC
1 LJ
2.667 LW
N
341.382 747.396 M
339.983 749.015 L
S
GR
GS
[0.75 0 0 0.75 256.03663 560.29704] CT
0 0.447 0.741 RC
N
f1188474679
f
GR
GS
[0.75 0 0 0.75 0 -0.25] CT
0 0.447 0.741 RC
1 LJ
2.667 LW
N
340.999 747.839 M
339.599 749.457 L
S
GR
GS
[0.75 0 0 0.75 255.74924 560.62929] CT
0.929 0.694 0.125 RC
N
f1188474679
f
GR
GS
[0.75 0 0 0.75 0 -0.25] CT
0 0.447 0.741 RC
1 LJ
2.667 LW
N
340.615 748.282 M
339.214 749.899 L
S
GR
GS
[0.75 0 0 0.75 255.46154 560.96149] CT
0.467 0.675 0.188 RC
N
f1188474679
f
GR
GS
[0.75 0 0 0.75 0 -0.25] CT
0 0.447 0.741 RC
1 LJ
2.667 LW
N
340.231 748.725 M
338.829 750.342 L
S
GR
GS
[0.75 0 0 0.75 255.17352 561.29373] CT
0.635 0.078 0.184 RC
N
f1188474679
f
GR
GS
[0.75 0 0 0.75 0 -0.25] CT
0 0.447 0.741 RC
1 LJ
2.667 LW
N
339.847 749.168 M
338.444 750.784 L
S
GR
GS
[0.75 0 0 0.75 254.88519 561.62598] CT
0.851 0.325 0.098 RC
N
f1188474679
f
GR
GS
[0.75 0 0 0.75 0 -0.25] CT
0 0.447 0.741 RC
1 LJ
2.667 LW
N
339.462 749.611 M
338.058 751.226 L
S
GR
GS
[0.75 0 0 0.75 254.59655 561.95822] CT
0.494 0.184 0.557 RC
N
f1188474679
f
GR
GS
[0.75 0 0 0.75 0 -0.25] CT
0 0.447 0.741 RC
1 LJ
2.667 LW
N
339.077 750.054 M
337.672 751.669 L
S
GR
GS
[0.75 0 0 0.75 254.30763 562.29051] CT
0.302 0.745 0.933 RC
N
f1188474679
f
GR
GS
[0.75 0 0 0.75 0 -0.25] CT
0 0.447 0.741 RC
1 LJ
2.667 LW
N
338.691 750.497 M
337.286 752.111 L
S
GR
GS
[0.75 0 0 0.75 254.01842 562.6228] CT
0 0.447 0.741 RC
N
f1188474679
f
GR
GS
[0.75 0 0 0.75 0 -0.25] CT
0 0.447 0.741 RC
1 LJ
2.667 LW
N
338.305 750.94 M
336.899 752.553 L
S
GR
GS
[0.75 0 0 0.75 253.7289 562.95514] CT
0.929 0.694 0.125 RC
N
f1188474679
f
GR
GS
[0.75 0 0 0.75 0 -0.25] CT
0 0.447 0.741 RC
1 LJ
2.667 LW
N
337.919 751.383 M
336.512 752.996 L
S
GR
GS
[0.75 0 0 0.75 253.43912 563.28748] CT
0.467 0.675 0.188 RC
N
f1188474679
f
GR
GS
[0.75 0 0 0.75 0 -0.25] CT
0 0.447 0.741 RC
1 LJ
2.667 LW
N
337.532 751.827 M
336.125 753.439 L
S
GR
GS
[0.75 0 0 0.75 253.14906 563.6199] CT
0.635 0.078 0.184 RC
N
f1188474679
f
GR
GS
[0.75 0 0 0.75 0 -0.25] CT
0 0.447 0.741 RC
1 LJ
2.667 LW
N
337.145 752.27 M
335.737 753.881 L
S
GR
GS
[0.75 0 0 0.75 252.85872 563.95233] CT
0.851 0.325 0.098 RC
N
f1188474679
f
GR
GS
[0.75 0 0 0.75 0 -0.25] CT
0 0.447 0.741 RC
1 LJ
2.667 LW
N
336.757 752.713 M
335.349 754.324 L
S
GR
GS
[0.75 0 0 0.75 252.56811 564.28481] CT
0.494 0.184 0.557 RC
N
f1188474679
f
GR
GS
[0.75 0 0 0.75 0 -0.25] CT
0 0.447 0.741 RC
1 LJ
2.667 LW
N
336.37 753.156 M
334.96 754.767 L
S
GR
GS
[0.75 0 0 0.75 252.27724 564.61737] CT
0.302 0.745 0.933 RC
N
f1188474679
f
GR
GS
[0.75 0 0 0.75 0 -0.25] CT
0 0.447 0.741 RC
1 LJ
2.667 LW
N
335.981 753.6 M
334.572 755.21 L
S
GR
GS
[0.75 0 0 0.75 251.98611 564.94998] CT
0 0.447 0.741 RC
N
f1188474679
f
GR
GS
[0.75 0 0 0.75 0 -0.25] CT
0 0.447 0.741 RC
1 LJ
2.667 LW
N
335.593 754.044 M
334.183 755.653 L
S
GR
GS
[0.75 0 0 0.75 251.69472 565.28264] CT
0.929 0.694 0.125 RC
N
f1188474679
f
GR
GS
[0.75 0 0 0.75 0 -0.25] CT
0 0.447 0.741 RC
1 LJ
2.667 LW
N
335.204 754.487 M
333.793 756.096 L
S
GR
GS
[0.75 0 0 0.75 251.40308 565.61534] CT
0.467 0.675 0.188 RC
N
f1188474679
f
GR
GS
[0.75 0 0 0.75 0 -0.25] CT
0 0.447 0.741 RC
1 LJ
2.667 LW
N
334.815 754.931 M
333.404 756.539 L
S
GR
GS
[0.75 0 0 0.75 251.11121 565.94814] CT
0.635 0.078 0.184 RC
N
f1188474679
f
GR
GS
[0.75 0 0 0.75 0 -0.25] CT
0 0.447 0.741 RC
1 LJ
2.667 LW
N
334.425 755.375 M
333.014 756.983 L
S
GR
GS
[0.75 0 0 0.75 250.81906 566.28102] CT
0.851 0.325 0.098 RC
N
f1188474679
f
GR
GS
[0.75 0 0 0.75 0 -0.25] CT
0 0.447 0.741 RC
1 LJ
2.667 LW
N
334.036 755.819 M
332.623 757.426 L
S
GR
GS
[0.75 0 0 0.75 250.52669 566.61395] CT
0.494 0.184 0.557 RC
N
f1188474679
f
GR
GS
[0.75 0 0 0.75 0 -0.25] CT
0 0.447 0.741 RC
1 LJ
2.667 LW
N
333.645 756.263 M
332.233 757.87 L
S
GR
GS
[0.75 0 0 0.75 250.23406 566.94698] CT
0.302 0.745 0.933 RC
N
f1188474679
f
GR
GS
[0.75 0 0 0.75 0 -0.25] CT
0 0.447 0.741 RC
1 LJ
2.667 LW
N
333.255 756.707 M
331.842 758.314 L
S
GR
GS
[0.75 0 0 0.75 249.94121 567.28009] CT
0 0.447 0.741 RC
N
f1188474679
f
GR
GS
[0.75 0 0 0.75 0 -0.25] CT
0 0.447 0.741 RC
1 LJ
2.667 LW
N
332.864 757.151 M
331.451 758.758 L
S
GR
GS
[0.75 0 0 0.75 249.64812 567.6133] CT
0.929 0.694 0.125 RC
N
f1188474679
f
GR
GS
[0.75 0 0 0.75 0 -0.25] CT
0 0.447 0.741 RC
1 LJ
2.667 LW
N
332.473 757.595 M
331.059 759.202 L
S
GR
GS
[0.75 0 0 0.75 249.35479 567.94655] CT
0.467 0.675 0.188 RC
N
f1188474679
f
GR
GS
[0.75 0 0 0.75 0 -0.25] CT
0 0.447 0.741 RC
1 LJ
2.667 LW
N
332.082 758.04 M
330.667 759.646 L
S
GR
GS
[0.75 0 0 0.75 249.06125 568.27994] CT
0.635 0.078 0.184 RC
N
f1188474679
f
GR
GS
[0.75 0 0 0.75 0 -0.25] CT
0 0.447 0.741 RC
1 LJ
2.667 LW
N
331.69 758.485 M
330.275 760.09 L
S
GR
GS
[0.75 0 0 0.75 248.76748 568.61342] CT
0.851 0.325 0.098 RC
N
f1188474679
f
GR
GS
[0.75 0 0 0.75 0 -0.25] CT
0 0.447 0.741 RC
1 LJ
2.667 LW
N
331.298 758.929 M
329.883 760.535 L
S
GR
GS
[0.75 0 0 0.75 248.47348 568.94695] CT
0.494 0.184 0.557 RC
N
f1188474679
f
GR
GS
[0.75 0 0 0.75 0 -0.25] CT
0 0.447 0.741 RC
1 LJ
2.667 LW
N
330.906 759.374 M
329.49 760.979 L
S
GR
GS
[0.75 0 0 0.75 248.17928 569.28065] CT
0.302 0.745 0.933 RC
N
f1188474679
f
GR
GS
[0.75 0 0 0.75 0 -0.25] CT
0 0.447 0.741 RC
1 LJ
2.667 LW
N
330.513 759.819 M
329.097 761.424 L
S
GR
GS
[0.75 0 0 0.75 247.88484 569.61441] CT
0 0.447 0.741 RC
N
f1188474679
f
GR
GS
[0.75 0 0 0.75 0 -0.25] CT
0 0.447 0.741 RC
1 LJ
2.667 LW
N
330.12 760.264 M
328.704 761.869 L
S
GR
GS
[0.75 0 0 0.75 247.59018 569.94826] CT
0.929 0.694 0.125 RC
N
f1188474679
f
GR
GS
[0.75 0 0 0.75 0 -0.25] CT
0 0.447 0.741 RC
1 LJ
2.667 LW
N
329.727 760.71 M
328.311 762.314 L
S
GR
GS
[0.75 0 0 0.75 247.29531 570.28224] CT
0.467 0.675 0.188 RC
N
f1188474679
f
GR
GS
[0.75 0 0 0.75 0 -0.25] CT
0 0.447 0.741 RC
1 LJ
2.667 LW
N
329.334 761.155 M
327.917 762.759 L
S
GR
GS
[0.75 0 0 0.75 247.00024 570.61636] CT
0.635 0.078 0.184 RC
N
f1188474679
f
GR
GS
[0.75 0 0 0.75 0 -0.25] CT
0 0.447 0.741 RC
1 LJ
2.667 LW
N
328.94 761.601 M
327.523 763.204 L
S
GR
GS
[0.75 0 0 0.75 246.70493 570.95058] CT
0.851 0.325 0.098 RC
N
f1188474679
f
GR
GS
[0.75 0 0 0.75 0 -0.25] CT
0 0.447 0.741 RC
1 LJ
2.667 LW
N
328.546 762.047 M
327.129 763.65 L
S
GR
GS
[0.75 0 0 0.75 246.40945 571.28488] CT
0.494 0.184 0.557 RC
N
f1188474679
f
GR
GS
[0.75 0 0 0.75 0 -0.25] CT
0 0.447 0.741 RC
1 LJ
2.667 LW
N
328.152 762.492 M
326.734 764.096 L
S
GR
GS
[0.75 0 0 0.75 246.11373 571.61932] CT
0.302 0.745 0.933 RC
N
f1188474679
f
GR
GS
[0.75 0 0 0.75 0 -0.25] CT
0 0.447 0.741 RC
1 LJ
2.667 LW
N
327.757 762.938 M
326.339 764.541 L
S
GR
GS
[0.75 0 0 0.75 245.81783 571.95386] CT
0 0.447 0.741 RC
N
f1188474679
f
GR
GS
[0.75 0 0 0.75 0 -0.25] CT
0 0.447 0.741 RC
1 LJ
2.667 LW
N
327.362 763.385 M
325.944 764.987 L
S
GR
GS
[0.75 0 0 0.75 245.52171 572.28857] CT
0.929 0.694 0.125 RC
N
f1188474679
f
GR
GS
[0.75 0 0 0.75 0 -0.25] CT
0 0.447 0.741 RC
1 LJ
2.667 LW
N
326.967 763.831 M
325.549 765.434 L
S
GR
GS
[0.75 0 0 0.75 245.2254 572.62334] CT
0.467 0.675 0.188 RC
N
f1188474679
f
GR
GS
[0.75 0 0 0.75 0 -0.25] CT
0 0.447 0.741 RC
1 LJ
2.667 LW
N
326.572 764.278 M
325.153 765.88 L
S
GR
GS
[0.75 0 0 0.75 244.92888 572.95828] CT
0.635 0.078 0.184 RC
N
f1188474679
f
GR
GS
[0.75 0 0 0.75 0 -0.25] CT
0 0.447 0.741 RC
1 LJ
2.667 LW
N
326.176 764.724 M
324.757 766.326 L
S
GR
GS
[0.75 0 0 0.75 244.63218 573.29337] CT
0.851 0.325 0.098 RC
N
f1188474679
f
GR
GS
[0.75 0 0 0.75 0 -0.25] CT
0 0.447 0.741 RC
1 LJ
2.667 LW
N
325.78 765.171 M
324.361 766.773 L
S
GR
GS
[0.75 0 0 0.75 244.33525 573.62854] CT
0.494 0.184 0.557 RC
N
f1188474679
f
GR
GS
[0.75 0 0 0.75 0 -0.25] CT
0 0.447 0.741 RC
1 LJ
2.667 LW
N
325.384 765.618 M
323.965 767.22 L
S
GR
GS
[0.75 0 0 0.75 244.03816 573.96385] CT
0.302 0.745 0.933 RC
N
f1188474679
f
GR
GS
[0.75 0 0 0.75 0 -0.25] CT
0 0.447 0.741 RC
1 LJ
2.667 LW
N
324.988 766.066 M
323.568 767.667 L
S
GR
GS
[0.75 0 0 0.75 243.74084 574.2993] CT
0 0.447 0.741 RC
N
f1188474679
f
GR
GS
[0.75 0 0 0.75 0 -0.25] CT
0 0.447 0.741 RC
1 LJ
2.667 LW
N
324.591 766.513 M
323.171 768.115 L
S
GR
GS
[0.75 0 0 0.75 243.44337 574.63493] CT
0.929 0.694 0.125 RC
N
f1188474679
f
GR
GS
[0.75 0 0 0.75 0 -0.25] CT
0 0.447 0.741 RC
1 LJ
2.667 LW
N
324.194 766.961 M
322.774 768.562 L
S
GR
GS
[0.75 0 0 0.75 243.14566 574.97066] CT
0.467 0.675 0.188 RC
N
f1188474679
f
GR
GS
[0.75 0 0 0.75 0 -0.25] CT
0 0.447 0.741 RC
1 LJ
2.667 LW
N
323.797 767.409 M
322.377 769.01 L
S
GR
GS
[0.75 0 0 0.75 242.84779 575.30652] CT
0.635 0.078 0.184 RC
N
f1188474679
f
GR
GS
[0.75 0 0 0.75 0 -0.25] CT
0 0.447 0.741 RC
1 LJ
2.667 LW
N
323.4 767.857 M
321.979 769.457 L
S
GR
GS
[0.75 0 0 0.75 242.54972 575.64252] CT
0.851 0.325 0.098 RC
N
f1188474679
f
GR
GS
[0.75 0 0 0.75 0 -0.25] CT
0 0.447 0.741 RC
1 LJ
2.667 LW
N
323.002 768.305 M
321.582 769.906 L
S
GR
GS
[0.75 0 0 0.75 242.25146 575.97865] CT
0.494 0.184 0.557 RC
N
f1188474679
f
GR
GS
[0.75 0 0 0.75 0 -0.25] CT
0 0.447 0.741 RC
1 LJ
2.667 LW
N
322.604 768.753 M
321.183 770.354 L
S
GR
GS
[0.75 0 0 0.75 241.953 576.31497] CT
0.302 0.745 0.933 RC
N
f1188474679
f
GR
GS
[0.75 0 0 0.75 0 -0.25] CT
0 0.447 0.741 RC
1 LJ
2.667 LW
N
322.206 769.202 M
320.785 770.802 L
S
GR
GS
[0.75 0 0 0.75 241.65438 576.65138] CT
0 0.447 0.741 RC
N
f1188474679
f
GR
GS
[0.75 0 0 0.75 0 -0.25] CT
0 0.447 0.741 RC
1 LJ
2.667 LW
N
321.807 769.651 M
320.387 771.251 L
S
GR
GS
[0.75 0 0 0.75 241.35555 576.98798] CT
0.929 0.694 0.125 RC
N
f1188474679
f
GR
GS
[0.75 0 0 0.75 0 -0.25] CT
0 0.447 0.741 RC
1 LJ
2.667 LW
N
321.409 770.1 M
319.988 771.7 L
S
GR
GS
[0.75 0 0 0.75 241.05654 577.32471] CT
0.467 0.675 0.188 RC
N
f1188474679
f
GR
GS
[0.75 0 0 0.75 0 -0.25] CT
0 0.447 0.741 RC
1 LJ
2.667 LW
N
321.01 770.549 M
319.589 772.149 L
S
GR
GS
[0.75 0 0 0.75 240.75735 577.66158] CT
0.635 0.078 0.184 RC
N
f1188474679
f
GR
GS
[0.75 0 0 0.75 0 -0.25] CT
0 0.447 0.741 RC
1 LJ
2.667 LW
N
320.611 770.998 M
319.189 772.598 L
S
GR
GS
[0.75 0 0 0.75 240.45797 577.99863] CT
0.851 0.325 0.098 RC
N
f1188474679
f
GR
GS
[0.75 0 0 0.75 0 -0.25] CT
0 0.447 0.741 RC
1 LJ
2.667 LW
N
320.211 771.448 M
318.79 773.047 L
S
GR
GS
[0.75 0 0 0.75 240.15841 578.33577] CT
0.494 0.184 0.557 RC
N
f1188474679
f
GR
GS
[0.75 0 0 0.75 0 -0.25] CT
0 0.447 0.741 RC
1 LJ
2.667 LW
N
319.812 771.898 M
318.39 773.497 L
S
GR
GS
[0.75 0 0 0.75 239.85867 578.67314] CT
0.302 0.745 0.933 RC
N
f1188474679
f
GR
GS
[0.75 0 0 0.75 0 -0.25] CT
0 0.447 0.741 RC
1 LJ
2.667 LW
N
319.412 772.347 M
317.99 773.947 L
S
GR
GS
[0.75 0 0 0.75 239.55874 579.0106] CT
0 0.447 0.741 RC
N
f1188474679
f
GR
GS
[0.75 0 0 0.75 0 -0.25] CT
0 0.447 0.741 RC
1 LJ
2.667 LW
N
319.012 772.798 M
317.59 774.397 L
S
GR
GS
[0.75 0 0 0.75 239.25863 579.34825] CT
0.929 0.694 0.125 RC
N
f1188474679
f
GR
GS
[0.75 0 0 0.75 0 -0.25] CT
0 0.447 0.741 RC
1 LJ
2.667 LW
N
318.611 773.248 M
317.189 774.847 L
S
GR
GS
[0.75 0 0 0.75 238.95834 579.68604] CT
0.467 0.675 0.188 RC
N
f1188474679
f
GR
GS
[0.75 0 0 0.75 0 -0.25] CT
0 0.447 0.741 RC
1 LJ
2.667 LW
N
318.21 773.699 M
316.789 775.298 L
S
GR
GS
[0.75 0 0 0.75 238.65786 580.024] CT
0.635 0.078 0.184 RC
N
f1188474679
f
GR
GS
[0.75 0 0 0.75 0 -0.25] CT
0 0.447 0.741 RC
1 LJ
2.667 LW
N
317.81 774.149 M
316.388 775.749 L
S
GR
GS
[0.75 0 0 0.75 238.35722 580.36211] CT
0.851 0.325 0.098 RC
N
f1188474679
f
GR
GS
[0.75 0 0 0.75 0 -0.25] CT
0 0.447 0.741 RC
1 LJ
2.667 LW
N
317.409 774.601 M
315.986 776.2 L
S
GR
GS
[0.75 0 0 0.75 238.05638 580.70039] CT
0.494 0.184 0.557 RC
N
f1188474679
f
GR
GS
[0.75 0 0 0.75 0 -0.25] CT
0 0.447 0.741 RC
1 LJ
2.667 LW
N
317.007 775.052 M
315.585 776.651 L
S
GR
GS
[0.75 0 0 0.75 237.75536 581.03882] CT
0.302 0.745 0.933 RC
N
f1188474679
f
GR
GS
[0.75 0 0 0.75 0 -0.25] CT
0 0.447 0.741 RC
1 LJ
2.667 LW
N
316.606 775.503 M
315.183 777.102 L
S
GR
GS
[0.75 0 0 0.75 237.45417 581.37743] CT
0 0.447 0.741 RC
N
f1188474679
f
GR
GS
[0.75 0 0 0.75 0 -0.25] CT
0 0.447 0.741 RC
1 LJ
2.667 LW
N
316.204 775.955 M
314.781 777.554 L
S
GR
GS
[0.75 0 0 0.75 237.1528 581.71617] CT
0.929 0.694 0.125 RC
N
f1188474679
f
GR
GS
[0.75 0 0 0.75 0 -0.25] CT
0 0.447 0.741 RC
1 LJ
2.667 LW
N
315.802 776.407 M
314.379 778.006 L
S
GR
GS
[0.75 0 0 0.75 236.85125 582.0551] CT
0.467 0.675 0.188 RC
N
f1188474679
f
GR
GS
[0.75 0 0 0.75 0 -0.25] CT
0 0.447 0.741 RC
1 LJ
2.667 LW
N
315.399 776.859 M
313.977 778.458 L
S
GR
GS
[0.75 0 0 0.75 236.54954 582.39421] CT
0.635 0.078 0.184 RC
N
f1188474679
f
GR
GS
[0.75 0 0 0.75 0 -0.25] CT
0 0.447 0.741 RC
1 LJ
2.667 LW
N
314.997 777.311 M
313.574 778.91 L
S
GR
GS
[0.75 0 0 0.75 236.24762 582.73346] CT
0.851 0.325 0.098 RC
N
f1188474679
f
GR
GS
[0.75 0 0 0.75 0 -0.25] CT
0 0.447 0.741 RC
1 LJ
2.667 LW
N
314.594 777.764 M
313.171 779.362 L
S
GR
GS
[0.75 0 0 0.75 235.94554 583.07289] CT
0.494 0.184 0.557 RC
N
f1188474679
f
GR
GS
[0.75 0 0 0.75 0 -0.25] CT
0 0.447 0.741 RC
1 LJ
2.667 LW
N
314.191 778.217 M
312.768 779.815 L
S
GR
GS
[0.75 0 0 0.75 235.64328 583.41246] CT
0.302 0.745 0.933 RC
N
f1188474679
f
GR
GS
[0.75 0 0 0.75 0 -0.25] CT
0 0.447 0.741 RC
1 LJ
2.667 LW
N
313.788 778.67 M
312.365 780.268 L
S
GR
GS
[0.75 0 0 0.75 235.34084 583.75226] CT
0 0.447 0.741 RC
N
f1188474679
f
GR
GS
[0.75 0 0 0.75 0 -0.25] CT
0 0.447 0.741 RC
1 LJ
2.667 LW
N
313.384 779.123 M
311.961 780.721 L
S
GR
GS
[0.75 0 0 0.75 235.03825 584.09215] CT
0.929 0.694 0.125 RC
N
f1188474679
f
GR
GS
[0.75 0 0 0.75 0 -0.25] CT
0 0.447 0.741 RC
1 LJ
2.667 LW
N
312.981 779.576 M
311.558 781.175 L
S
GR
GS
[0.75 0 0 0.75 234.73544 584.43227] CT
0.467 0.675 0.188 RC
N
f1188474679
f
GR
GS
[0.75 0 0 0.75 0 -0.25] CT
0 0.447 0.741 RC
1 LJ
2.667 LW
N
312.577 780.03 M
311.154 781.628 L
S
GR
GS
[0.75 0 0 0.75 234.4325 584.77252] CT
0.635 0.078 0.184 RC
N
f1188474679
f
GR
GS
[0.75 0 0 0.75 0 -0.25] CT
0 0.447 0.741 RC
1 LJ
2.667 LW
N
312.172 780.484 M
310.749 782.082 L
S
GR
GS
[0.75 0 0 0.75 234.12934 585.11296] CT
0.851 0.325 0.098 RC
N
f1188474679
f
GR
GS
[0.75 0 0 0.75 0 -0.25] CT
0 0.447 0.741 RC
1 LJ
2.667 LW
N
311.768 780.938 M
310.345 782.536 L
S
GR
GS
[0.75 0 0 0.75 233.82603 585.45358] CT
0.494 0.184 0.557 RC
N
f1188474679
f
GR
GS
[0.75 0 0 0.75 0 -0.25] CT
0 0.447 0.741 RC
1 LJ
2.667 LW
N
311.363 781.393 M
309.94 782.991 L
S
GR
GS
[0.75 0 0 0.75 233.52253 585.79439] CT
0.302 0.745 0.933 RC
N
f1188474679
f
GR
GS
[0.75 0 0 0.75 0 -0.25] CT
0 0.447 0.741 RC
1 LJ
2.667 LW
N
310.958 781.847 M
309.535 783.445 L
S
GR
GS
[0.75 0 0 0.75 233.21885 586.13533] CT
0 0.447 0.741 RC
N
f1188474679
f
GR
GS
[0.75 0 0 0.75 0 -0.25] CT
0 0.447 0.741 RC
1 LJ
2.667 LW
N
310.553 782.302 M
309.13 783.9 L
S
GR
GS
[0.75 0 0 0.75 232.91501 586.4765] CT
0.929 0.694 0.125 RC
N
f1188474679
f
GR
GS
[0.75 0 0 0.75 0 -0.25] CT
0 0.447 0.741 RC
1 LJ
2.667 LW
N
310.148 782.757 M
308.725 784.355 L
S
GR
GS
[0.75 0 0 0.75 232.61098 586.81781] CT
0.467 0.675 0.188 RC
N
f1188474679
f
GR
GS
[0.75 0 0 0.75 0 -0.25] CT
0 0.447 0.741 RC
1 LJ
2.667 LW
N
309.742 783.212 M
308.319 784.81 L
S
GR
GS
[0.75 0 0 0.75 232.30678 587.1593] CT
0.635 0.078 0.184 RC
N
f1188474679
f
GR
GS
[0.75 0 0 0.75 0 -0.25] CT
0 0.447 0.741 RC
1 LJ
2.667 LW
N
309.337 783.668 M
307.913 785.266 L
S
GR
GS
[0.75 0 0 0.75 232.00241 587.50098] CT
0.851 0.325 0.098 RC
N
f1188474679
f
GR
GS
[0.75 0 0 0.75 0 -0.25] CT
0 0.447 0.741 RC
1 LJ
2.667 LW
N
308.93 784.124 M
307.636 785.577 L
S
GR
GS
[0.75 0 0 0.75 231.69786 587.84283] CT
0.494 0.184 0.557 RC
N
f1188474679
f
GR
GS
[0.75 0 0 0.75 0 -0.25] CT
0 0.447 0.741 RC
1 LJ
2.667 LW
N
308.524 784.58 M
307.636 785.577 L
S
GR
GS
[0.75 0 0 0.75 231.39313 588.18483] CT
0.302 0.745 0.933 RC
N
f1188474679
f
GR
GS
[0.75 0 0 0.75 0 -0.25] CT
0 0.447 0.741 RC
1 LJ
2.667 LW
N
308.118 785.036 M
307.636 785.577 L
S
GR
GS
[0.75 0 0 0.75 231.08823 588.52705] CT
0 0.447 0.741 RC
N
f1188474679
f
GR
GS
[0.75 0 0 0.75 0 -0.25] CT
0 0.447 0.741 RC
1 LJ
2.667 LW
N
307.711 785.493 M
307.636 785.577 L
S
GR
GS
[0.75 0 0 0.75 230.78313 588.86946] CT
0.929 0.694 0.125 RC
N
f1188474679
f
GR
%%Trailer
%%Pages: 1
%%EOF
