%!PS-Adobe-3.0 EPSF-3.0
%%Creator: (MATLAB, The Mathworks, Inc. Version 9.9.0.1592791 \(R2020b\) Update 5. Operating System: Windows 10)
%%Title: (C:/Users/marti/Documents/GitHub/bio-inspired-autonomous-systems/Assignment 02 - Braitenberg Vehicle/figures/fear_2200.eps)
%%CreationDate: 2021-03-23T10:44:57
%%Pages: (atend)
%%BoundingBox:     0     0  1440   722
%%LanguageLevel: 3
%%EndComments
%%BeginProlog
%%BeginResource: procset (Apache XML Graphics Std ProcSet) 1.2 0
%%Version: 1.2 0
%%Copyright: (Copyright 2001-2003,2010 The Apache Software Foundation. License terms: http://www.apache.org/licenses/LICENSE-2.0)
/bd{bind def}bind def
/ld{load def}bd
/GR/grestore ld
/GS/gsave ld
/RM/rmoveto ld
/C/curveto ld
/t/show ld
/L/lineto ld
/ML/setmiterlimit ld
/CT/concat ld
/f/fill ld
/N/newpath ld
/S/stroke ld
/CC/setcmykcolor ld
/A/ashow ld
/cp/closepath ld
/RC/setrgbcolor ld
/LJ/setlinejoin ld
/GC/setgray ld
/LW/setlinewidth ld
/M/moveto ld
/re {4 2 roll M
1 index 0 rlineto
0 exch rlineto
neg 0 rlineto
cp } bd
/_ctm matrix def
/_tm matrix def
/BT { _ctm currentmatrix pop matrix _tm copy pop 0 0 moveto } bd
/ET { _ctm setmatrix } bd
/iTm { _ctm setmatrix _tm concat } bd
/Tm { _tm astore pop iTm 0 0 moveto } bd
/ux 0.0 def
/uy 0.0 def
/F {
  /Tp exch def
  /Tf exch def
  Tf findfont Tp scalefont setfont
  /cf Tf def  /cs Tp def
} bd
/ULS {currentpoint /uy exch def /ux exch def} bd
/ULE {
  /Tcx currentpoint pop def
  gsave
  newpath
  cf findfont cs scalefont dup
  /FontMatrix get 0 get /Ts exch def /FontInfo get dup
  /UnderlinePosition get Ts mul /To exch def
  /UnderlineThickness get Ts mul /Tt exch def
  ux uy To add moveto  Tcx uy To add lineto
  Tt setlinewidth stroke
  grestore
} bd
/OLE {
  /Tcx currentpoint pop def
  gsave
  newpath
  cf findfont cs scalefont dup
  /FontMatrix get 0 get /Ts exch def /FontInfo get dup
  /UnderlinePosition get Ts mul /To exch def
  /UnderlineThickness get Ts mul /Tt exch def
  ux uy To add cs add moveto Tcx uy To add cs add lineto
  Tt setlinewidth stroke
  grestore
} bd
/SOE {
  /Tcx currentpoint pop def
  gsave
  newpath
  cf findfont cs scalefont dup
  /FontMatrix get 0 get /Ts exch def /FontInfo get dup
  /UnderlinePosition get Ts mul /To exch def
  /UnderlineThickness get Ts mul /Tt exch def
  ux uy To add cs 10 mul 26 idiv add moveto Tcx uy To add cs 10 mul 26 idiv add lineto
  Tt setlinewidth stroke
  grestore
} bd
/QT {
/Y22 exch store
/X22 exch store
/Y21 exch store
/X21 exch store
currentpoint
/Y21 load 2 mul add 3 div exch
/X21 load 2 mul add 3 div exch
/X21 load 2 mul /X22 load add 3 div
/Y21 load 2 mul /Y22 load add 3 div
/X22 load /Y22 load curveto
} bd
/SSPD {
dup length /d exch dict def
{
/v exch def
/k exch def
currentpagedevice k known {
/cpdv currentpagedevice k get def
v cpdv ne {
/upd false def
/nullv v type /nulltype eq def
/nullcpdv cpdv type /nulltype eq def
nullv nullcpdv or
{
/upd true def
} {
/sametype v type cpdv type eq def
sametype {
v type /arraytype eq {
/vlen v length def
/cpdvlen cpdv length def
vlen cpdvlen eq {
0 1 vlen 1 sub {
/i exch def
/obj v i get def
/cpdobj cpdv i get def
obj cpdobj ne {
/upd true def
exit
} if
} for
} {
/upd true def
} ifelse
} {
v type /dicttype eq {
v {
/dv exch def
/dk exch def
/cpddv cpdv dk get def
dv cpddv ne {
/upd true def
exit
} if
} forall
} {
/upd true def
} ifelse
} ifelse
} if
} ifelse
upd true eq {
d k v put
} if
} if
} if
} forall
d length 0 gt {
d setpagedevice
} if
} bd
/RE { % /NewFontName [NewEncodingArray] /FontName RE -
  findfont dup length dict begin
  {
    1 index /FID ne
    {def} {pop pop} ifelse
  } forall
  /Encoding exch def
  /FontName 1 index def
  currentdict definefont pop
  end
} bind def
%%EndResource
%%BeginResource: procset (Apache XML Graphics EPS ProcSet) 1.0 0
%%Version: 1.0 0
%%Copyright: (Copyright 2002-2003 The Apache Software Foundation. License terms: http://www.apache.org/licenses/LICENSE-2.0)
/BeginEPSF { %def
/b4_Inc_state save def         % Save state for cleanup
/dict_count countdictstack def % Count objects on dict stack
/op_count count 1 sub def      % Count objects on operand stack
userdict begin                 % Push userdict on dict stack
/showpage { } def              % Redefine showpage, { } = null proc
0 setgray 0 setlinecap         % Prepare graphics state
1 setlinewidth 0 setlinejoin
10 setmiterlimit [ ] 0 setdash newpath
/languagelevel where           % If level not equal to 1 then
{pop languagelevel             % set strokeadjust and
1 ne                           % overprint to their defaults.
{false setstrokeadjust false setoverprint
} if
} if
} bd
/EndEPSF { %def
count op_count sub {pop} repeat            % Clean up stacks
countdictstack dict_count sub {end} repeat
b4_Inc_state restore
} bd
%%EndResource
%FOPBeginFontDict
%%IncludeResource: font Courier-Oblique
%%IncludeResource: font Courier-BoldOblique
%%IncludeResource: font Courier-Bold
%%IncludeResource: font ZapfDingbats
%%IncludeResource: font Symbol
%%IncludeResource: font Helvetica
%%IncludeResource: font Helvetica-Oblique
%%IncludeResource: font Helvetica-Bold
%%IncludeResource: font Helvetica-BoldOblique
%%IncludeResource: font Times-Roman
%%IncludeResource: font Times-Italic
%%IncludeResource: font Times-Bold
%%IncludeResource: font Times-BoldItalic
%%IncludeResource: font Courier
%FOPEndFontDict
%%BeginResource: encoding WinAnsiEncoding
/WinAnsiEncoding [
/.notdef /.notdef /.notdef /.notdef /.notdef
/.notdef /.notdef /.notdef /.notdef /.notdef
/.notdef /.notdef /.notdef /.notdef /.notdef
/.notdef /.notdef /.notdef /.notdef /.notdef
/.notdef /.notdef /.notdef /.notdef /.notdef
/.notdef /.notdef /.notdef /.notdef /.notdef
/.notdef /.notdef /space /exclam /quotedbl
/numbersign /dollar /percent /ampersand /quotesingle
/parenleft /parenright /asterisk /plus /comma
/hyphen /period /slash /zero /one
/two /three /four /five /six
/seven /eight /nine /colon /semicolon
/less /equal /greater /question /at
/A /B /C /D /E
/F /G /H /I /J
/K /L /M /N /O
/P /Q /R /S /T
/U /V /W /X /Y
/Z /bracketleft /backslash /bracketright /asciicircum
/underscore /quoteleft /a /b /c
/d /e /f /g /h
/i /j /k /l /m
/n /o /p /q /r
/s /t /u /v /w
/x /y /z /braceleft /bar
/braceright /asciitilde /bullet /Euro /bullet
/quotesinglbase /florin /quotedblbase /ellipsis /dagger
/daggerdbl /circumflex /perthousand /Scaron /guilsinglleft
/OE /bullet /Zcaron /bullet /bullet
/quoteleft /quoteright /quotedblleft /quotedblright /bullet
/endash /emdash /asciitilde /trademark /scaron
/guilsinglright /oe /bullet /zcaron /Ydieresis
/space /exclamdown /cent /sterling /currency
/yen /brokenbar /section /dieresis /copyright
/ordfeminine /guillemotleft /logicalnot /sfthyphen /registered
/macron /degree /plusminus /twosuperior /threesuperior
/acute /mu /paragraph /middot /cedilla
/onesuperior /ordmasculine /guillemotright /onequarter /onehalf
/threequarters /questiondown /Agrave /Aacute /Acircumflex
/Atilde /Adieresis /Aring /AE /Ccedilla
/Egrave /Eacute /Ecircumflex /Edieresis /Igrave
/Iacute /Icircumflex /Idieresis /Eth /Ntilde
/Ograve /Oacute /Ocircumflex /Otilde /Odieresis
/multiply /Oslash /Ugrave /Uacute /Ucircumflex
/Udieresis /Yacute /Thorn /germandbls /agrave
/aacute /acircumflex /atilde /adieresis /aring
/ae /ccedilla /egrave /eacute /ecircumflex
/edieresis /igrave /iacute /icircumflex /idieresis
/eth /ntilde /ograve /oacute /ocircumflex
/otilde /odieresis /divide /oslash /ugrave
/uacute /ucircumflex /udieresis /yacute /thorn
/ydieresis
] def
%%EndResource
%FOPBeginFontReencode
/Courier-Oblique findfont
dup length dict begin
  {1 index /FID ne {def} {pop pop} ifelse} forall
  /Encoding WinAnsiEncoding def
  currentdict
end
/Courier-Oblique exch definefont pop
/Courier-BoldOblique findfont
dup length dict begin
  {1 index /FID ne {def} {pop pop} ifelse} forall
  /Encoding WinAnsiEncoding def
  currentdict
end
/Courier-BoldOblique exch definefont pop
/Courier-Bold findfont
dup length dict begin
  {1 index /FID ne {def} {pop pop} ifelse} forall
  /Encoding WinAnsiEncoding def
  currentdict
end
/Courier-Bold exch definefont pop
/Helvetica findfont
dup length dict begin
  {1 index /FID ne {def} {pop pop} ifelse} forall
  /Encoding WinAnsiEncoding def
  currentdict
end
/Helvetica exch definefont pop
/Helvetica-Oblique findfont
dup length dict begin
  {1 index /FID ne {def} {pop pop} ifelse} forall
  /Encoding WinAnsiEncoding def
  currentdict
end
/Helvetica-Oblique exch definefont pop
/Helvetica-Bold findfont
dup length dict begin
  {1 index /FID ne {def} {pop pop} ifelse} forall
  /Encoding WinAnsiEncoding def
  currentdict
end
/Helvetica-Bold exch definefont pop
/Helvetica-BoldOblique findfont
dup length dict begin
  {1 index /FID ne {def} {pop pop} ifelse} forall
  /Encoding WinAnsiEncoding def
  currentdict
end
/Helvetica-BoldOblique exch definefont pop
/Times-Roman findfont
dup length dict begin
  {1 index /FID ne {def} {pop pop} ifelse} forall
  /Encoding WinAnsiEncoding def
  currentdict
end
/Times-Roman exch definefont pop
/Times-Italic findfont
dup length dict begin
  {1 index /FID ne {def} {pop pop} ifelse} forall
  /Encoding WinAnsiEncoding def
  currentdict
end
/Times-Italic exch definefont pop
/Times-Bold findfont
dup length dict begin
  {1 index /FID ne {def} {pop pop} ifelse} forall
  /Encoding WinAnsiEncoding def
  currentdict
end
/Times-Bold exch definefont pop
/Times-BoldItalic findfont
dup length dict begin
  {1 index /FID ne {def} {pop pop} ifelse} forall
  /Encoding WinAnsiEncoding def
  currentdict
end
/Times-BoldItalic exch definefont pop
/Courier findfont
dup length dict begin
  {1 index /FID ne {def} {pop pop} ifelse} forall
  /Encoding WinAnsiEncoding def
  currentdict
end
/Courier exch definefont pop
%FOPEndFontReencode
%%EndProlog
%%Page: 1 1
%%PageBoundingBox: 0 0 1440 722
%%BeginPageSetup
[1 0 0 -1 0 722] CT
%%EndPageSetup
GS
[0.75 0 0 0.75 0 -0.25] CT
1 GC
N
0 0 1920 963 re
f
GR
GS
[0.75 0 0 0.75 0 -0.25] CT
1 GC
N
0 0 1920 963 re
f
GR
GS
[0.75 0 0 0.75 0 -0.25] CT
1 GC
N
1095 401 M
1738 401 L
1738 72 L
1095 72 L
cp
f
GR
GS
[0.75 0 0 0.75 0 -0.25] CT
0.873 GC
1 LJ
0.667 LW
N
1198.302 401 M
1198.302 72 L
S
GR
GS
[0.75 0 0 0.75 0 -0.25] CT
0.873 GC
1 LJ
0.667 LW
N
1303.711 401 M
1303.711 72 L
S
GR
GS
[0.75 0 0 0.75 0 -0.25] CT
0.873 GC
1 LJ
0.667 LW
N
1409.121 401 M
1409.121 72 L
S
GR
GS
[0.75 0 0 0.75 0 -0.25] CT
0.873 GC
1 LJ
0.667 LW
N
1514.531 401 M
1514.531 72 L
S
GR
GS
[0.75 0 0 0.75 0 -0.25] CT
0.873 GC
1 LJ
0.667 LW
N
1619.941 401 M
1619.941 72 L
S
GR
GS
[0.75 0 0 0.75 0 -0.25] CT
0.873 GC
1 LJ
0.667 LW
N
1725.351 401 M
1725.351 72 L
S
GR
GS
[0.75 0 0 0.75 0 -0.25] CT
0.873 GC
1 LJ
0.667 LW
N
1738 401 M
1095 401 L
S
GR
GS
[0.75 0 0 0.75 0 -0.25] CT
0.873 GC
1 LJ
0.667 LW
N
1738 291.333 M
1095 291.333 L
S
GR
GS
[0.75 0 0 0.75 0 -0.25] CT
0.873 GC
1 LJ
0.667 LW
N
1738 181.667 M
1095 181.667 L
S
GR
GS
[0.75 0 0 0.75 0 -0.25] CT
0.873 GC
1 LJ
0.667 LW
N
1738 72 M
1095 72 L
S
GR
GS
[0.75 0 0 0.75 0 -0.25] CT
0.149 GC
2 setlinecap
1 LJ
0.667 LW
N
1095 401 M
1738 401 L
S
GR
GS
[0.75 0 0 0.75 0 -0.25] CT
0.149 GC
2 setlinecap
1 LJ
0.667 LW
N
1198.302 401 M
1198.302 394.57 L
S
GR
GS
[0.75 0 0 0.75 0 -0.25] CT
0.149 GC
2 setlinecap
1 LJ
0.667 LW
N
1303.711 401 M
1303.711 394.57 L
S
GR
GS
[0.75 0 0 0.75 0 -0.25] CT
0.149 GC
2 setlinecap
1 LJ
0.667 LW
N
1409.121 401 M
1409.121 394.57 L
S
GR
GS
[0.75 0 0 0.75 0 -0.25] CT
0.149 GC
2 setlinecap
1 LJ
0.667 LW
N
1514.531 401 M
1514.531 394.57 L
S
GR
GS
[0.75 0 0 0.75 0 -0.25] CT
0.149 GC
2 setlinecap
1 LJ
0.667 LW
N
1619.941 401 M
1619.941 394.57 L
S
GR
GS
[0.75 0 0 0.75 0 -0.25] CT
0.149 GC
2 setlinecap
1 LJ
0.667 LW
N
1725.351 401 M
1725.351 394.57 L
S
GR
GS
[0.75 0 0 0.75 898.72623 304.50001] CT
0.149 GC
/Helvetica 13.333 F
GS
[1 0 0 1 0 0] CT
-7.5 14 moveto 
1 -1 scale
(50) t 
GR
GR
GS
[0.75 0 0 0.75 977.78357 304.50001] CT
0.149 GC
/Helvetica 13.333 F
GS
[1 0 0 1 0 0] CT
-11.5 14 moveto 
1 -1 scale
(100) t 
GR
GR
GS
[0.75 0 0 0.75 1056.841 304.50001] CT
0.149 GC
/Helvetica 13.333 F
GS
[1 0 0 1 0 0] CT
-11.5 14 moveto 
1 -1 scale
(150) t 
GR
GR
GS
[0.75 0 0 0.75 1135.89835 304.50001] CT
0.149 GC
/Helvetica 13.333 F
GS
[1 0 0 1 0 0] CT
-11.5 14 moveto 
1 -1 scale
(200) t 
GR
GR
GS
[0.75 0 0 0.75 1214.95578 304.50001] CT
0.149 GC
/Helvetica 13.333 F
GS
[1 0 0 1 0 0] CT
-11.5 14 moveto 
1 -1 scale
(250) t 
GR
GR
GS
[0.75 0 0 0.75 1294.01312 304.50001] CT
0.149 GC
/Helvetica 13.333 F
GS
[1 0 0 1 0 0] CT
-11.5 14 moveto 
1 -1 scale
(300) t 
GR
GR
GS
[0.75 0 0 0.75 0 -0.25] CT
0.149 GC
2 setlinecap
1 LJ
0.667 LW
N
1095 401 M
1095 72 L
S
GR
GS
[0.75 0 0 0.75 0 -0.25] CT
0.149 GC
2 setlinecap
1 LJ
0.667 LW
N
1095 401 M
1101.43 401 L
S
GR
GS
[0.75 0 0 0.75 0 -0.25] CT
0.149 GC
2 setlinecap
1 LJ
0.667 LW
N
1095 291.333 M
1101.43 291.333 L
S
GR
GS
[0.75 0 0 0.75 0 -0.25] CT
0.149 GC
2 setlinecap
1 LJ
0.667 LW
N
1095 181.667 M
1101.43 181.667 L
S
GR
GS
[0.75 0 0 0.75 0 -0.25] CT
0.149 GC
2 setlinecap
1 LJ
0.667 LW
N
1095 72 M
1101.43 72 L
S
GR
GS
[0.75 0 0 0.75 817.24997 300.5] CT
0.149 GC
/Helvetica 13.333 F
GS
[1 0 0 1 0 0] CT
-8 5.5 moveto 
1 -1 scale
(0) t 
GR
GR
GS
[0.75 0 0 0.75 817.24997 218.25001] CT
0.149 GC
/Helvetica 13.333 F
GS
[1 0 0 1 0 0] CT
-19 5.5 moveto 
1 -1 scale
(0.5) t 
GR
GR
GS
[0.75 0 0 0.75 817.24997 136] CT
0.149 GC
/Helvetica 13.333 F
GS
[1 0 0 1 0 0] CT
-8 5.5 moveto 
1 -1 scale
(1) t 
GR
GR
GS
[0.75 0 0 0.75 817.24997 53.75] CT
0.149 GC
/Helvetica 13.333 F
GS
[1 0 0 1 0 0] CT
-19 5.5 moveto 
1 -1 scale
(1.5) t 
GR
GR
GS
[0.75 0 0 0.75 1062.37601 51.68751] CT
/Helvetica-Bold 14.667 F
GS
[1 0 0 1 0 0] CT
-181.5 -4 moveto 
1 -1 scale
(Motor velocities: left motor \(red\), right motor \(black\)) t 
GR
GR
GS
[0.75 0 0 0.75 0 -0.25] CT
1 0 0 RC
1 LJ
2.667 LW
N
1095 85.652 M
1097.108 84.891 L
1099.216 84.141 L
1101.325 83.405 L
1103.433 82.657 L
1105.541 81.916 L
1107.649 81.193 L
1109.757 80.49 L
1111.866 79.81 L
1113.974 79.153 L
1116.082 78.522 L
1118.19 77.919 L
1120.298 77.346 L
1122.407 76.795 L
1124.515 76.26 L
1126.623 75.76 L
1128.731 75.299 L
1130.839 74.878 L
1132.948 74.499 L
1135.056 74.162 L
1137.164 73.87 L
1139.272 73.622 L
1141.38 73.42 L
1143.489 73.265 L
1145.597 73.158 L
1147.705 73.098 L
1149.813 73.086 L
1151.921 73.122 L
1154.03 73.207 L
1156.138 73.339 L
1158.246 73.519 L
1160.354 73.746 L
1162.462 74.019 L
1164.57 74.337 L
1166.679 74.7 L
1168.787 75.106 L
1170.895 75.553 L
1173.003 76.042 L
1175.111 76.569 L
1177.22 77.124 L
1179.328 77.692 L
1181.436 78.293 L
1183.544 78.923 L
1185.652 79.581 L
1187.761 80.265 L
1189.869 80.974 L
1191.977 81.704 L
1194.085 82.454 L
1196.193 83.22 L
1198.302 83.966 L
1200.41 84.728 L
1202.518 85.501 L
1204.626 86.286 L
1206.734 87.08 L
1208.843 87.882 L
1210.951 88.691 L
1213.059 89.505 L
1215.167 90.31 L
1217.275 91.096 L
1219.384 91.883 L
1221.492 92.672 L
1223.6 93.462 L
1225.708 94.25 L
1227.816 95.037 L
1229.925 95.822 L
1232.033 96.603 L
1234.141 97.381 L
1236.249 98.143 L
1238.357 98.884 L
1240.466 99.62 L
1242.574 100.35 L
1244.682 101.075 L
1246.79 101.793 L
1248.898 102.505 L
1251.007 103.209 L
1253.115 103.906 L
1255.223 104.594 L
1257.331 105.274 L
1259.439 105.946 L
1261.547 106.609 L
1263.656 107.263 L
1265.764 107.907 L
1267.872 108.543 L
1269.98 109.169 L
1272.089 109.786 L
1274.197 110.393 L
1276.305 110.991 L
1278.413 111.58 L
1280.521 112.16 L
1282.63 112.73 L
1284.738 113.291 L
1286.846 113.843 L
1288.954 114.385 L
1291.062 114.919 L
1293.171 115.445 L
1295.279 115.962 L
1297.387 116.47 L
1299.495 116.97 L
1301.603 117.462 L
1303.711 117.945 L
1305.82 118.421 L
1307.928 118.889 L
1310.036 119.349 L
1312.144 119.802 L
1314.252 120.248 L
1316.361 120.687 L
1318.469 121.119 L
1320.577 121.545 L
1322.685 121.965 L
1324.793 122.378 L
1326.902 122.785 L
1329.01 123.187 L
1331.118 123.582 L
1333.226 123.973 L
1335.334 124.358 L
1337.443 124.738 L
1339.551 125.112 L
1341.659 125.482 L
1343.767 125.848 L
1345.875 126.208 L
1347.984 126.565 L
1350.092 126.917 L
1352.2 127.265 L
1354.308 127.609 L
1356.416 127.949 L
1358.525 128.285 L
1360.633 128.618 L
1362.741 128.947 L
1364.849 129.272 L
1366.957 129.595 L
1369.066 129.914 L
1371.174 130.23 L
1373.282 130.543 L
1375.39 130.854 L
1377.498 131.161 L
1379.607 131.466 L
1381.715 131.768 L
1383.823 132.068 L
1385.931 132.365 L
1388.039 132.66 L
1390.148 132.953 L
1392.256 133.243 L
1394.364 133.532 L
1396.472 133.818 L
1398.58 134.102 L
1400.688 134.385 L
1402.797 134.665 L
1404.905 134.944 L
1407.013 135.221 L
1409.121 135.497 L
1411.229 135.77 L
1413.338 136.043 L
1415.446 136.313 L
1417.554 136.583 L
1419.662 136.851 L
1421.771 137.117 L
1423.879 137.382 L
1425.987 137.646 L
1428.095 137.909 L
1430.203 138.171 L
1432.312 138.431 L
1434.42 138.691 L
1436.528 138.949 L
1438.636 139.207 L
1440.744 139.463 L
1442.852 139.719 L
1444.961 139.973 L
1447.069 140.227 L
1449.177 140.48 L
1451.285 140.732 L
1453.393 140.983 L
1455.502 141.233 L
1457.61 141.483 L
1459.718 141.732 L
1461.826 141.981 L
1463.934 142.229 L
1466.043 142.476 L
1468.151 142.722 L
1470.259 142.968 L
1472.367 143.214 L
1474.475 143.458 L
1476.584 143.703 L
1478.692 143.947 L
1480.8 144.19 L
1482.908 144.433 L
1485.016 144.676 L
1487.125 144.918 L
1489.233 145.159 L
1491.341 145.401 L
1493.449 145.641 L
1495.557 145.882 L
1497.666 146.122 L
1499.774 146.362 L
1501.882 146.602 L
1503.99 146.841 L
1506.098 147.08 L
1508.207 147.318 L
1510.315 147.557 L
1512.423 147.795 L
1514.531 148.033 L
1516.639 148.27 L
1518.748 148.508 L
1520.856 148.745 L
1522.964 148.982 L
1525.072 149.219 L
1527.18 149.455 L
1529.289 149.692 L
1531.397 149.928 L
1533.505 150.164 L
1535.613 150.4 L
1537.721 150.636 L
1539.829 150.871 L
1541.938 151.107 L
1544.046 151.342 L
1546.154 151.578 L
1548.262 151.813 L
1550.37 152.048 L
1552.479 152.283 L
1554.587 152.517 L
1556.695 152.752 L
1558.803 152.987 L
1560.911 153.221 L
1563.02 153.456 L
1565.128 153.69 L
1567.236 153.924 L
1569.344 154.159 L
1571.453 154.393 L
1573.561 154.627 L
1575.669 154.861 L
1577.777 155.095 L
1579.885 155.329 L
1581.993 155.563 L
1584.102 155.797 L
1586.21 156.031 L
1588.318 156.264 L
1590.426 156.498 L
1592.534 156.732 L
1594.643 156.966 L
1596.751 157.199 L
1598.859 157.433 L
1600.967 157.667 L
1603.075 157.9 L
1605.184 158.134 L
1607.292 158.368 L
1609.4 158.601 L
1611.508 158.835 L
1613.616 159.069 L
1615.725 159.302 L
1617.833 159.536 L
1619.941 159.769 L
1622.049 160.003 L
1624.157 160.237 L
1626.266 160.47 L
1628.374 160.704 L
1630.482 160.938 L
1632.59 161.171 L
1634.698 161.405 L
1636.807 161.639 L
1638.915 161.873 L
1641.023 162.106 L
1643.131 162.34 L
1645.239 162.574 L
1647.348 162.808 L
1649.456 163.041 L
1651.564 163.275 L
1653.672 163.509 L
1655.78 163.743 L
1657.889 163.977 L
1659.997 164.211 L
1662.105 164.445 L
1664.213 164.679 L
1666.321 164.913 L
1668.43 165.147 L
1670.538 165.381 L
1672.646 165.615 L
1674.754 165.849 L
1676.862 166.083 L
1678.97 166.318 L
1681.079 166.552 L
1683.187 166.786 L
1685.295 167.02 L
1687.403 167.255 L
1689.511 167.489 L
1691.62 167.724 L
1693.728 167.958 L
1695.836 168.193 L
1697.944 168.427 L
1700.052 168.662 L
1702.161 168.896 L
1704.269 169.131 L
1706.377 169.365 L
1708.485 169.6 L
1710.593 169.835 L
1712.702 170.07 L
1714.81 170.305 L
1716.918 170.539 L
1719.026 170.774 L
1721.134 171.009 L
1723.243 171.244 L
1725.351 171.479 L
1727.459 171.714 L
1729.567 171.949 L
1731.675 172.184 L
1733.784 172.42 L
1735.892 172.655 L
1738 172.89 L
S
GR
GS
[0.75 0 0 0.75 0 -0.25] CT
1 LJ
2.667 LW
N
1095 164.095 M
1097.108 165.305 L
1099.216 166.541 L
1101.325 167.8 L
1103.433 169.077 L
1105.541 170.37 L
1107.649 171.673 L
1109.757 172.983 L
1111.866 174.293 L
1113.974 175.526 L
1116.082 176.728 L
1118.19 177.911 L
1120.298 179.056 L
1122.407 180.099 L
1124.515 181.104 L
1126.623 182.063 L
1128.731 182.969 L
1130.839 183.76 L
1132.948 184.479 L
1135.056 185.129 L
1137.164 185.702 L
1139.272 186.194 L
1141.38 186.599 L
1143.489 186.913 L
1145.597 187.133 L
1147.705 187.246 L
1149.813 187.268 L
1151.921 187.2 L
1154.03 187.032 L
1156.138 186.763 L
1158.246 186.4 L
1160.354 185.946 L
1162.462 185.407 L
1164.57 184.787 L
1166.679 184.093 L
1168.787 183.33 L
1170.895 182.458 L
1173.003 181.508 L
1175.111 180.506 L
1177.22 179.462 L
1179.328 178.341 L
1181.436 177.145 L
1183.544 175.926 L
1185.652 174.692 L
1187.761 173.364 L
1189.869 172.024 L
1191.977 170.687 L
1194.085 169.359 L
1196.193 168.046 L
1198.302 166.752 L
1200.41 165.479 L
1202.518 164.232 L
1204.626 163.013 L
1206.734 161.825 L
1208.843 160.669 L
1210.951 159.547 L
1213.059 158.46 L
1215.167 157.41 L
1217.275 156.395 L
1219.384 155.418 L
1221.492 154.477 L
1223.6 153.572 L
1225.708 152.703 L
1227.816 151.871 L
1229.925 151.074 L
1232.033 150.312 L
1234.141 149.584 L
1236.249 148.889 L
1238.357 148.227 L
1240.466 147.55 L
1242.574 146.882 L
1244.682 146.247 L
1246.79 145.643 L
1248.898 145.069 L
1251.007 144.475 L
1253.115 143.901 L
1255.223 143.357 L
1257.331 142.842 L
1259.439 142.355 L
1261.547 141.884 L
1263.656 141.399 L
1265.764 140.941 L
1267.872 140.51 L
1269.98 140.104 L
1272.089 139.723 L
1274.197 139.364 L
1276.305 139.011 L
1278.413 138.656 L
1280.521 138.324 L
1282.63 138.014 L
1284.738 137.725 L
1286.846 137.455 L
1288.954 137.205 L
1291.062 136.973 L
1293.171 136.759 L
1295.279 136.542 L
1297.387 136.332 L
1299.495 136.138 L
1301.603 135.961 L
1303.711 135.799 L
1305.82 135.653 L
1307.928 135.521 L
1310.036 135.402 L
1312.144 135.297 L
1314.252 135.205 L
1316.361 135.124 L
1318.469 135.056 L
1320.577 134.998 L
1322.685 134.951 L
1324.793 134.915 L
1326.902 134.888 L
1329.01 134.871 L
1331.118 134.863 L
1333.226 134.864 L
1335.334 134.873 L
1337.443 134.89 L
1339.551 134.914 L
1341.659 134.947 L
1343.767 134.986 L
1345.875 135.032 L
1347.984 135.085 L
1350.092 135.144 L
1352.2 135.209 L
1354.308 135.28 L
1356.416 135.357 L
1358.525 135.439 L
1360.633 135.527 L
1362.741 135.619 L
1364.849 135.716 L
1366.957 135.818 L
1369.066 135.924 L
1371.174 136.035 L
1373.282 136.149 L
1375.39 136.268 L
1377.498 136.391 L
1379.607 136.517 L
1381.715 136.647 L
1383.823 136.78 L
1385.931 136.917 L
1388.039 137.056 L
1390.148 137.199 L
1392.256 137.345 L
1394.364 137.494 L
1396.472 137.645 L
1398.58 137.799 L
1400.688 137.956 L
1402.797 138.115 L
1404.905 138.277 L
1407.013 138.44 L
1409.121 138.607 L
1411.229 138.775 L
1413.338 138.945 L
1415.446 139.117 L
1417.554 139.291 L
1419.662 139.467 L
1421.771 139.645 L
1423.879 139.825 L
1425.987 140.006 L
1428.095 140.189 L
1430.203 140.373 L
1432.312 140.559 L
1434.42 140.747 L
1436.528 140.935 L
1438.636 141.126 L
1440.744 141.317 L
1442.852 141.51 L
1444.961 141.704 L
1447.069 141.899 L
1449.177 142.095 L
1451.285 142.293 L
1453.393 142.491 L
1455.502 142.691 L
1457.61 142.892 L
1459.718 143.093 L
1461.826 143.296 L
1463.934 143.499 L
1466.043 143.703 L
1468.151 143.908 L
1470.259 144.114 L
1472.367 144.321 L
1474.475 144.529 L
1476.584 144.737 L
1478.692 144.946 L
1480.8 145.156 L
1482.908 145.366 L
1485.016 145.577 L
1487.125 145.789 L
1489.233 146.001 L
1491.341 146.214 L
1493.449 146.428 L
1495.557 146.642 L
1497.666 146.856 L
1499.774 147.072 L
1501.882 147.287 L
1503.99 147.503 L
1506.098 147.72 L
1508.207 147.937 L
1510.315 148.155 L
1512.423 148.373 L
1514.531 148.591 L
1516.639 148.81 L
1518.748 149.029 L
1520.856 149.249 L
1522.964 149.469 L
1525.072 149.69 L
1527.18 149.91 L
1529.289 150.132 L
1531.397 150.353 L
1533.505 150.575 L
1535.613 150.797 L
1537.721 151.019 L
1539.829 151.242 L
1541.938 151.465 L
1544.046 151.689 L
1546.154 151.912 L
1548.262 152.136 L
1550.37 152.36 L
1552.479 152.585 L
1554.587 152.809 L
1556.695 153.034 L
1558.803 153.259 L
1560.911 153.485 L
1563.02 153.71 L
1565.128 153.936 L
1567.236 154.162 L
1569.344 154.389 L
1571.453 154.615 L
1573.561 154.842 L
1575.669 155.069 L
1577.777 155.296 L
1579.885 155.523 L
1581.993 155.75 L
1584.102 155.978 L
1586.21 156.206 L
1588.318 156.434 L
1590.426 156.662 L
1592.534 156.89 L
1594.643 157.119 L
1596.751 157.347 L
1598.859 157.576 L
1600.967 157.805 L
1603.075 158.034 L
1605.184 158.263 L
1607.292 158.492 L
1609.4 158.722 L
1611.508 158.951 L
1613.616 159.181 L
1615.725 159.411 L
1617.833 159.641 L
1619.941 159.871 L
1622.049 160.101 L
1624.157 160.332 L
1626.266 160.562 L
1628.374 160.793 L
1630.482 161.023 L
1632.59 161.254 L
1634.698 161.485 L
1636.807 161.716 L
1638.915 161.947 L
1641.023 162.179 L
1643.131 162.41 L
1645.239 162.641 L
1647.348 162.873 L
1649.456 163.105 L
1651.564 163.336 L
1653.672 163.568 L
1655.78 163.8 L
1657.889 164.032 L
1659.997 164.264 L
1662.105 164.496 L
1664.213 164.729 L
1666.321 164.961 L
1668.43 165.193 L
1670.538 165.426 L
1672.646 165.659 L
1674.754 165.891 L
1676.862 166.124 L
1678.97 166.357 L
1681.079 166.59 L
1683.187 166.823 L
1685.295 167.056 L
1687.403 167.289 L
1689.511 167.522 L
1691.62 167.756 L
1693.728 167.989 L
1695.836 168.222 L
1697.944 168.456 L
1700.052 168.69 L
1702.161 168.923 L
1704.269 169.157 L
1706.377 169.391 L
1708.485 169.625 L
1710.593 169.859 L
1712.702 170.093 L
1714.81 170.327 L
1716.918 170.561 L
1719.026 170.795 L
1721.134 171.029 L
1723.243 171.263 L
1725.351 171.498 L
1727.459 171.732 L
1729.567 171.967 L
1731.675 172.201 L
1733.784 172.436 L
1735.892 172.671 L
1738 172.905 L
S
GR
GS
[0.75 0 0 0.75 0 -0.25] CT
1 GC
N
1095 857 M
1738 857 L
1738 529 L
1095 529 L
cp
f
GR
GS
[0.75 0 0 0.75 0 -0.25] CT
0.873 GC
1 LJ
0.667 LW
N
1198.302 857 M
1198.302 529 L
S
GR
GS
[0.75 0 0 0.75 0 -0.25] CT
0.873 GC
1 LJ
0.667 LW
N
1303.711 857 M
1303.711 529 L
S
GR
GS
[0.75 0 0 0.75 0 -0.25] CT
0.873 GC
1 LJ
0.667 LW
N
1409.121 857 M
1409.121 529 L
S
GR
GS
[0.75 0 0 0.75 0 -0.25] CT
0.873 GC
1 LJ
0.667 LW
N
1514.531 857 M
1514.531 529 L
S
GR
GS
[0.75 0 0 0.75 0 -0.25] CT
0.873 GC
1 LJ
0.667 LW
N
1619.941 857 M
1619.941 529 L
S
GR
GS
[0.75 0 0 0.75 0 -0.25] CT
0.873 GC
1 LJ
0.667 LW
N
1725.351 857 M
1725.351 529 L
S
GR
GS
[0.75 0 0 0.75 0 -0.25] CT
0.873 GC
1 LJ
0.667 LW
N
1738 857 M
1095 857 L
S
GR
GS
[0.75 0 0 0.75 0 -0.25] CT
0.873 GC
1 LJ
0.667 LW
N
1738 810.143 M
1095 810.143 L
S
GR
GS
[0.75 0 0 0.75 0 -0.25] CT
0.873 GC
1 LJ
0.667 LW
N
1738 763.286 M
1095 763.286 L
S
GR
GS
[0.75 0 0 0.75 0 -0.25] CT
0.873 GC
1 LJ
0.667 LW
N
1738 716.429 M
1095 716.429 L
S
GR
GS
[0.75 0 0 0.75 0 -0.25] CT
0.873 GC
1 LJ
0.667 LW
N
1738 669.571 M
1095 669.571 L
S
GR
GS
[0.75 0 0 0.75 0 -0.25] CT
0.873 GC
1 LJ
0.667 LW
N
1738 622.714 M
1095 622.714 L
S
GR
GS
[0.75 0 0 0.75 0 -0.25] CT
0.873 GC
1 LJ
0.667 LW
N
1738 575.857 M
1095 575.857 L
S
GR
GS
[0.75 0 0 0.75 0 -0.25] CT
0.873 GC
1 LJ
0.667 LW
N
1738 529 M
1095 529 L
S
GR
GS
[0.75 0 0 0.75 0 -0.25] CT
0.149 GC
2 setlinecap
1 LJ
0.667 LW
N
1095 857 M
1738 857 L
S
GR
GS
[0.75 0 0 0.75 0 -0.25] CT
0.149 GC
2 setlinecap
1 LJ
0.667 LW
N
1198.302 857 M
1198.302 850.57 L
S
GR
GS
[0.75 0 0 0.75 0 -0.25] CT
0.149 GC
2 setlinecap
1 LJ
0.667 LW
N
1303.711 857 M
1303.711 850.57 L
S
GR
GS
[0.75 0 0 0.75 0 -0.25] CT
0.149 GC
2 setlinecap
1 LJ
0.667 LW
N
1409.121 857 M
1409.121 850.57 L
S
GR
GS
[0.75 0 0 0.75 0 -0.25] CT
0.149 GC
2 setlinecap
1 LJ
0.667 LW
N
1514.531 857 M
1514.531 850.57 L
S
GR
GS
[0.75 0 0 0.75 0 -0.25] CT
0.149 GC
2 setlinecap
1 LJ
0.667 LW
N
1619.941 857 M
1619.941 850.57 L
S
GR
GS
[0.75 0 0 0.75 0 -0.25] CT
0.149 GC
2 setlinecap
1 LJ
0.667 LW
N
1725.351 857 M
1725.351 850.57 L
S
GR
GS
[0.75 0 0 0.75 898.72623 646.49998] CT
0.149 GC
/Helvetica 13.333 F
GS
[1 0 0 1 0 0] CT
-7.5 14 moveto 
1 -1 scale
(50) t 
GR
GR
GS
[0.75 0 0 0.75 977.78357 646.49998] CT
0.149 GC
/Helvetica 13.333 F
GS
[1 0 0 1 0 0] CT
-11.5 14 moveto 
1 -1 scale
(100) t 
GR
GR
GS
[0.75 0 0 0.75 1056.841 646.49998] CT
0.149 GC
/Helvetica 13.333 F
GS
[1 0 0 1 0 0] CT
-11.5 14 moveto 
1 -1 scale
(150) t 
GR
GR
GS
[0.75 0 0 0.75 1135.89835 646.49998] CT
0.149 GC
/Helvetica 13.333 F
GS
[1 0 0 1 0 0] CT
-11.5 14 moveto 
1 -1 scale
(200) t 
GR
GR
GS
[0.75 0 0 0.75 1214.95578 646.49998] CT
0.149 GC
/Helvetica 13.333 F
GS
[1 0 0 1 0 0] CT
-11.5 14 moveto 
1 -1 scale
(250) t 
GR
GR
GS
[0.75 0 0 0.75 1294.01312 646.49998] CT
0.149 GC
/Helvetica 13.333 F
GS
[1 0 0 1 0 0] CT
-11.5 14 moveto 
1 -1 scale
(300) t 
GR
GR
GS
[0.75 0 0 0.75 0 -0.25] CT
0.149 GC
2 setlinecap
1 LJ
0.667 LW
N
1095 857 M
1095 529 L
S
GR
GS
[0.75 0 0 0.75 0 -0.25] CT
0.149 GC
2 setlinecap
1 LJ
0.667 LW
N
1095 857 M
1101.43 857 L
S
GR
GS
[0.75 0 0 0.75 0 -0.25] CT
0.149 GC
2 setlinecap
1 LJ
0.667 LW
N
1095 810.143 M
1101.43 810.143 L
S
GR
GS
[0.75 0 0 0.75 0 -0.25] CT
0.149 GC
2 setlinecap
1 LJ
0.667 LW
N
1095 763.286 M
1101.43 763.286 L
S
GR
GS
[0.75 0 0 0.75 0 -0.25] CT
0.149 GC
2 setlinecap
1 LJ
0.667 LW
N
1095 716.429 M
1101.43 716.429 L
S
GR
GS
[0.75 0 0 0.75 0 -0.25] CT
0.149 GC
2 setlinecap
1 LJ
0.667 LW
N
1095 669.571 M
1101.43 669.571 L
S
GR
GS
[0.75 0 0 0.75 0 -0.25] CT
0.149 GC
2 setlinecap
1 LJ
0.667 LW
N
1095 622.714 M
1101.43 622.714 L
S
GR
GS
[0.75 0 0 0.75 0 -0.25] CT
0.149 GC
2 setlinecap
1 LJ
0.667 LW
N
1095 575.857 M
1101.43 575.857 L
S
GR
GS
[0.75 0 0 0.75 0 -0.25] CT
0.149 GC
2 setlinecap
1 LJ
0.667 LW
N
1095 529 M
1101.43 529 L
S
GR
GS
[0.75 0 0 0.75 817.24997 642.5] CT
0.149 GC
/Helvetica 13.333 F
GS
[1 0 0 1 0 0] CT
-23 5.5 moveto 
1 -1 scale
(-3.5) t 
GR
GR
GS
[0.75 0 0 0.75 817.24997 607.35716] CT
0.149 GC
/Helvetica 13.333 F
GS
[1 0 0 1 0 0] CT
-12 5.5 moveto 
1 -1 scale
(-3) t 
GR
GR
GS
[0.75 0 0 0.75 817.24997 572.21428] CT
0.149 GC
/Helvetica 13.333 F
GS
[1 0 0 1 0 0] CT
-23 5.5 moveto 
1 -1 scale
(-2.5) t 
GR
GR
GS
[0.75 0 0 0.75 817.24997 537.07144] CT
0.149 GC
/Helvetica 13.333 F
GS
[1 0 0 1 0 0] CT
-12 5.5 moveto 
1 -1 scale
(-2) t 
GR
GR
GS
[0.75 0 0 0.75 817.24997 501.92856] CT
0.149 GC
/Helvetica 13.333 F
GS
[1 0 0 1 0 0] CT
-23 5.5 moveto 
1 -1 scale
(-1.5) t 
GR
GR
GS
[0.75 0 0 0.75 817.24997 466.78572] CT
0.149 GC
/Helvetica 13.333 F
GS
[1 0 0 1 0 0] CT
-12 5.5 moveto 
1 -1 scale
(-1) t 
GR
GR
GS
[0.75 0 0 0.75 817.24997 431.64284] CT
0.149 GC
/Helvetica 13.333 F
GS
[1 0 0 1 0 0] CT
-23 5.5 moveto 
1 -1 scale
(-0.5) t 
GR
GR
GS
[0.75 0 0 0.75 817.24997 396.5] CT
0.149 GC
/Helvetica 13.333 F
GS
[1 0 0 1 0 0] CT
-8 5.5 moveto 
1 -1 scale
(0) t 
GR
GR
GS
[0.75 0 0 0.75 1062.37601 394.4375] CT
/Helvetica-Bold 14.667 F
GS
[1 0 0 1 0 0] CT
-215 -4 moveto 
1 -1 scale
(Sound inputs: left microphone \(red\), right microphone \(black\)) t 
GR
GR
GS
[0.75 0 0 0.75 0 -0.25] CT
1 0 0 RC
1 LJ
2.667 LW
N
1095 602.603 M
1097.108 604.847 L
1099.216 607.148 L
1101.325 609.504 L
1103.433 611.918 L
1105.541 614.39 L
1107.649 616.919 L
1109.757 619.506 L
1111.866 622.149 L
1113.974 624.85 L
1116.082 627.604 L
1118.19 630.409 L
1120.298 633.266 L
1122.407 636.171 L
1124.515 639.122 L
1126.623 642.116 L
1128.731 645.152 L
1130.839 648.226 L
1132.948 651.335 L
1135.056 654.475 L
1137.164 657.643 L
1139.272 660.835 L
1141.38 664.048 L
1143.489 667.278 L
1145.597 670.522 L
1147.705 673.775 L
1149.813 677.032 L
1151.921 680.29 L
1154.03 683.546 L
1156.138 686.793 L
1158.246 690.03 L
1160.354 693.251 L
1162.462 696.452 L
1164.57 699.63 L
1166.679 702.781 L
1168.787 705.903 L
1170.895 708.99 L
1173.003 712.041 L
1175.111 715.05 L
1177.22 718.016 L
1179.328 720.936 L
1181.436 723.808 L
1183.544 726.629 L
1185.652 729.397 L
1187.761 732.112 L
1189.869 734.769 L
1191.977 737.369 L
1194.085 739.909 L
1196.193 742.391 L
1198.302 744.813 L
1200.41 747.177 L
1202.518 749.484 L
1204.626 751.732 L
1206.734 753.924 L
1208.843 756.059 L
1210.951 758.138 L
1213.059 760.161 L
1215.167 762.131 L
1217.275 764.047 L
1219.384 765.911 L
1221.492 767.725 L
1223.6 769.49 L
1225.708 771.205 L
1227.816 772.873 L
1229.925 774.495 L
1232.033 776.071 L
1234.141 777.603 L
1236.249 779.091 L
1238.357 780.538 L
1240.466 781.944 L
1242.574 783.309 L
1244.682 784.634 L
1246.79 785.921 L
1248.898 787.169 L
1251.007 788.38 L
1253.115 789.554 L
1255.223 790.692 L
1257.331 791.794 L
1259.439 792.862 L
1261.547 793.897 L
1263.656 794.9 L
1265.764 795.869 L
1267.872 796.808 L
1269.98 797.716 L
1272.089 798.594 L
1274.197 799.444 L
1276.305 800.266 L
1278.413 801.061 L
1280.521 801.83 L
1282.63 802.572 L
1284.738 803.289 L
1286.846 803.982 L
1288.954 804.651 L
1291.062 805.298 L
1293.171 805.923 L
1295.279 806.527 L
1297.387 807.111 L
1299.495 807.673 L
1301.603 808.216 L
1303.711 808.74 L
1305.82 809.246 L
1307.928 809.734 L
1310.036 810.205 L
1312.144 810.66 L
1314.252 811.098 L
1316.361 811.522 L
1318.469 811.93 L
1320.577 812.325 L
1322.685 812.705 L
1324.793 813.073 L
1326.902 813.428 L
1329.01 813.77 L
1331.118 814.1 L
1333.226 814.419 L
1335.334 814.727 L
1337.443 815.025 L
1339.551 815.312 L
1341.659 815.589 L
1343.767 815.856 L
1345.875 816.115 L
1347.984 816.364 L
1350.092 816.604 L
1352.2 816.837 L
1354.308 817.061 L
1356.416 817.278 L
1358.525 817.487 L
1360.633 817.689 L
1362.741 817.884 L
1364.849 818.073 L
1366.957 818.254 L
1369.066 818.43 L
1371.174 818.6 L
1373.282 818.763 L
1375.39 818.921 L
1377.498 819.074 L
1379.607 819.222 L
1381.715 819.364 L
1383.823 819.502 L
1385.931 819.634 L
1388.039 819.763 L
1390.148 819.887 L
1392.256 820.006 L
1394.364 820.122 L
1396.472 820.233 L
1398.58 820.341 L
1400.688 820.445 L
1402.797 820.546 L
1404.905 820.643 L
1407.013 820.737 L
1409.121 820.828 L
1411.229 820.915 L
1413.338 821 L
1415.446 821.081 L
1417.554 821.16 L
1419.662 821.236 L
1421.771 821.31 L
1423.879 821.381 L
1425.987 821.45 L
1428.095 821.516 L
1430.203 821.58 L
1432.312 821.642 L
1434.42 821.702 L
1436.528 821.76 L
1438.636 821.815 L
1440.744 821.869 L
1442.852 821.921 L
1444.961 821.972 L
1447.069 822.02 L
1449.177 822.067 L
1451.285 822.113 L
1453.393 822.157 L
1455.502 822.199 L
1457.61 822.24 L
1459.718 822.279 L
1461.826 822.318 L
1463.934 822.354 L
1466.043 822.39 L
1468.151 822.424 L
1470.259 822.458 L
1472.367 822.49 L
1474.475 822.521 L
1476.584 822.551 L
1478.692 822.58 L
1480.8 822.608 L
1482.908 822.635 L
1485.016 822.661 L
1487.125 822.686 L
1489.233 822.711 L
1491.341 822.734 L
1493.449 822.757 L
1495.557 822.779 L
1497.666 822.801 L
1499.774 822.821 L
1501.882 822.841 L
1503.99 822.86 L
1506.098 822.879 L
1508.207 822.897 L
1510.315 822.914 L
1512.423 822.931 L
1514.531 822.947 L
1516.639 822.963 L
1518.748 822.978 L
1520.856 822.992 L
1522.964 823.006 L
1525.072 823.02 L
1527.18 823.033 L
1529.289 823.046 L
1531.397 823.058 L
1533.505 823.07 L
1535.613 823.081 L
1537.721 823.093 L
1539.829 823.103 L
1541.938 823.114 L
1544.046 823.124 L
1546.154 823.133 L
1548.262 823.143 L
1550.37 823.152 L
1552.479 823.16 L
1554.587 823.169 L
1556.695 823.177 L
1558.803 823.185 L
1560.911 823.192 L
1563.02 823.2 L
1565.128 823.207 L
1567.236 823.214 L
1569.344 823.22 L
1571.453 823.227 L
1573.561 823.233 L
1575.669 823.239 L
1577.777 823.245 L
1579.885 823.25 L
1581.993 823.256 L
1584.102 823.261 L
1586.21 823.266 L
1588.318 823.271 L
1590.426 823.276 L
1592.534 823.28 L
1594.643 823.285 L
1596.751 823.289 L
1598.859 823.293 L
1600.967 823.297 L
1603.075 823.301 L
1605.184 823.305 L
1607.292 823.308 L
1609.4 823.312 L
1611.508 823.315 L
1613.616 823.318 L
1615.725 823.321 L
1617.833 823.324 L
1619.941 823.327 L
1622.049 823.33 L
1624.157 823.333 L
1626.266 823.336 L
1628.374 823.338 L
1630.482 823.341 L
1632.59 823.343 L
1634.698 823.345 L
1636.807 823.348 L
1638.915 823.35 L
1641.023 823.352 L
1643.131 823.354 L
1645.239 823.356 L
1647.348 823.358 L
1649.456 823.359 L
1651.564 823.361 L
1653.672 823.363 L
1655.78 823.365 L
1657.889 823.366 L
1659.997 823.368 L
1662.105 823.369 L
1664.213 823.371 L
1666.321 823.372 L
1668.43 823.373 L
1670.538 823.375 L
1672.646 823.376 L
1674.754 823.377 L
1676.862 823.378 L
1678.97 823.379 L
1681.079 823.38 L
1683.187 823.381 L
1685.295 823.383 L
1687.403 823.383 L
1689.511 823.384 L
1691.62 823.385 L
1693.728 823.386 L
1695.836 823.387 L
1697.944 823.388 L
1700.052 823.389 L
1702.161 823.39 L
1704.269 823.39 L
1706.377 823.391 L
1708.485 823.392 L
1710.593 823.392 L
1712.702 823.393 L
1714.81 823.394 L
1716.918 823.394 L
1719.026 823.395 L
1721.134 823.395 L
1723.243 823.396 L
1725.351 823.397 L
1727.459 823.397 L
1729.567 823.398 L
1731.675 823.398 L
1733.784 823.398 L
1735.892 823.399 L
1738 823.399 L
S
GR
GS
[0.75 0 0 0.75 0 -0.25] CT
1 LJ
2.667 LW
N
1095 564.023 M
1097.108 564.852 L
1099.216 565.68 L
1101.325 566.505 L
1103.433 567.326 L
1105.541 568.14 L
1107.649 568.945 L
1109.757 569.738 L
1111.866 570.516 L
1113.974 571.277 L
1116.082 572.017 L
1118.19 572.733 L
1120.298 573.421 L
1122.407 574.079 L
1124.515 574.703 L
1126.623 575.289 L
1128.731 575.836 L
1130.839 576.339 L
1132.948 576.796 L
1135.056 577.205 L
1137.164 577.562 L
1139.272 577.866 L
1141.38 578.114 L
1143.489 578.306 L
1145.597 578.439 L
1147.705 578.514 L
1149.813 578.529 L
1151.921 578.483 L
1154.03 578.379 L
1156.138 578.215 L
1158.246 577.993 L
1160.354 577.714 L
1162.462 577.379 L
1164.57 576.991 L
1166.679 576.552 L
1168.787 576.064 L
1170.895 575.53 L
1173.003 574.953 L
1175.111 574.336 L
1177.22 573.682 L
1179.328 572.995 L
1181.436 572.277 L
1183.544 571.532 L
1185.652 570.764 L
1187.761 569.975 L
1189.869 569.17 L
1191.977 568.351 L
1194.085 567.521 L
1196.193 566.683 L
1198.302 565.84 L
1200.41 564.993 L
1202.518 564.145 L
1204.626 563.297 L
1206.734 562.452 L
1208.843 561.612 L
1210.951 560.777 L
1213.059 559.949 L
1215.167 559.129 L
1217.275 558.319 L
1219.384 557.519 L
1221.492 556.73 L
1223.6 555.953 L
1225.708 555.187 L
1227.816 554.435 L
1229.925 553.696 L
1232.033 552.97 L
1234.141 552.259 L
1236.249 551.561 L
1238.357 550.878 L
1240.466 550.209 L
1242.574 549.554 L
1244.682 548.915 L
1246.79 548.291 L
1248.898 547.682 L
1251.007 547.087 L
1253.115 546.508 L
1255.223 545.944 L
1257.331 545.396 L
1259.439 544.862 L
1261.547 544.343 L
1263.656 543.838 L
1265.764 543.348 L
1267.872 542.873 L
1269.98 542.412 L
1272.089 541.964 L
1274.197 541.53 L
1276.305 541.109 L
1278.413 540.701 L
1280.521 540.306 L
1282.63 539.924 L
1284.738 539.554 L
1286.846 539.196 L
1288.954 538.849 L
1291.062 538.514 L
1293.171 538.19 L
1295.279 537.876 L
1297.387 537.572 L
1299.495 537.279 L
1301.603 536.996 L
1303.711 536.723 L
1305.82 536.459 L
1307.928 536.204 L
1310.036 535.957 L
1312.144 535.719 L
1314.252 535.489 L
1316.361 535.268 L
1318.469 535.053 L
1320.577 534.846 L
1322.685 534.646 L
1324.793 534.453 L
1326.902 534.267 L
1329.01 534.087 L
1331.118 533.913 L
1333.226 533.746 L
1335.334 533.584 L
1337.443 533.427 L
1339.551 533.276 L
1341.659 533.13 L
1343.767 532.989 L
1345.875 532.853 L
1347.984 532.722 L
1350.092 532.595 L
1352.2 532.472 L
1354.308 532.354 L
1356.416 532.24 L
1358.525 532.129 L
1360.633 532.023 L
1362.741 531.92 L
1364.849 531.821 L
1366.957 531.725 L
1369.066 531.632 L
1371.174 531.542 L
1373.282 531.456 L
1375.39 531.372 L
1377.498 531.292 L
1379.607 531.214 L
1381.715 531.139 L
1383.823 531.066 L
1385.931 530.996 L
1388.039 530.928 L
1390.148 530.863 L
1392.256 530.8 L
1394.364 530.739 L
1396.472 530.68 L
1398.58 530.623 L
1400.688 530.568 L
1402.797 530.515 L
1404.905 530.463 L
1407.013 530.414 L
1409.121 530.366 L
1411.229 530.32 L
1413.338 530.275 L
1415.446 530.232 L
1417.554 530.19 L
1419.662 530.15 L
1421.771 530.111 L
1423.879 530.073 L
1425.987 530.037 L
1428.095 530.002 L
1430.203 529.968 L
1432.312 529.935 L
1434.42 529.904 L
1436.528 529.873 L
1438.636 529.844 L
1440.744 529.815 L
1442.852 529.788 L
1444.961 529.761 L
1447.069 529.736 L
1449.177 529.711 L
1451.285 529.687 L
1453.393 529.664 L
1455.502 529.641 L
1457.61 529.62 L
1459.718 529.599 L
1461.826 529.578 L
1463.934 529.559 L
1466.043 529.54 L
1468.151 529.522 L
1470.259 529.504 L
1472.367 529.487 L
1474.475 529.471 L
1476.584 529.455 L
1478.692 529.44 L
1480.8 529.425 L
1482.908 529.411 L
1485.016 529.397 L
1487.125 529.383 L
1489.233 529.371 L
1491.341 529.358 L
1493.449 529.346 L
1495.557 529.334 L
1497.666 529.323 L
1499.774 529.312 L
1501.882 529.302 L
1503.99 529.292 L
1506.098 529.282 L
1508.207 529.272 L
1510.315 529.263 L
1512.423 529.254 L
1514.531 529.246 L
1516.639 529.238 L
1518.748 529.23 L
1520.856 529.222 L
1522.964 529.214 L
1525.072 529.207 L
1527.18 529.2 L
1529.289 529.194 L
1531.397 529.187 L
1533.505 529.181 L
1535.613 529.175 L
1537.721 529.169 L
1539.829 529.163 L
1541.938 529.158 L
1544.046 529.152 L
1546.154 529.147 L
1548.262 529.142 L
1550.37 529.138 L
1552.479 529.133 L
1554.587 529.129 L
1556.695 529.124 L
1558.803 529.12 L
1560.911 529.116 L
1563.02 529.112 L
1565.128 529.108 L
1567.236 529.105 L
1569.344 529.101 L
1571.453 529.098 L
1573.561 529.095 L
1575.669 529.091 L
1577.777 529.088 L
1579.885 529.085 L
1581.993 529.083 L
1584.102 529.08 L
1586.21 529.077 L
1588.318 529.075 L
1590.426 529.072 L
1592.534 529.07 L
1594.643 529.067 L
1596.751 529.065 L
1598.859 529.063 L
1600.967 529.061 L
1603.075 529.059 L
1605.184 529.057 L
1607.292 529.055 L
1609.4 529.053 L
1611.508 529.051 L
1613.616 529.05 L
1615.725 529.048 L
1617.833 529.046 L
1619.941 529.045 L
1622.049 529.043 L
1624.157 529.042 L
1626.266 529.04 L
1628.374 529.039 L
1630.482 529.038 L
1632.59 529.036 L
1634.698 529.035 L
1636.807 529.034 L
1638.915 529.033 L
1641.023 529.032 L
1643.131 529.031 L
1645.239 529.03 L
1647.348 529.029 L
1649.456 529.028 L
1651.564 529.027 L
1653.672 529.026 L
1655.78 529.025 L
1657.889 529.024 L
1659.997 529.023 L
1662.105 529.023 L
1664.213 529.022 L
1666.321 529.021 L
1668.43 529.021 L
1670.538 529.02 L
1672.646 529.019 L
1674.754 529.019 L
1676.862 529.018 L
1678.97 529.017 L
1681.079 529.017 L
1683.187 529.016 L
1685.295 529.016 L
1687.403 529.015 L
1689.511 529.015 L
1691.62 529.014 L
1693.728 529.014 L
1695.836 529.013 L
1697.944 529.013 L
1700.052 529.012 L
1702.161 529.012 L
1704.269 529.012 L
1706.377 529.011 L
1708.485 529.011 L
1710.593 529.01 L
1712.702 529.01 L
1714.81 529.01 L
1716.918 529.009 L
1719.026 529.009 L
1721.134 529.009 L
1723.243 529.008 L
1725.351 529.008 L
1727.459 529.008 L
1729.567 529.008 L
1731.675 529.007 L
1733.784 529.007 L
1735.892 529.007 L
1738 529.007 L
S
GR
GS
[0.75 0 0 0.75 0 -0.25] CT
1 GC
N
250 785.5 M
892 785.5 L
892 143.5 L
250 143.5 L
cp
f
GR
GS
[0.75 0 0 0.75 0 -0.25] CT
0.873 GC
1 LJ
0.667 LW
N
250 785.5 M
250 143.5 L
S
GR
GS
[0.75 0 0 0.75 0 -0.25] CT
0.873 GC
1 LJ
0.667 LW
N
357 785.5 M
357 143.5 L
S
GR
GS
[0.75 0 0 0.75 0 -0.25] CT
0.873 GC
1 LJ
0.667 LW
N
464 785.5 M
464 143.5 L
S
GR
GS
[0.75 0 0 0.75 0 -0.25] CT
0.873 GC
1 LJ
0.667 LW
N
571 785.5 M
571 143.5 L
S
GR
GS
[0.75 0 0 0.75 0 -0.25] CT
0.873 GC
1 LJ
0.667 LW
N
678 785.5 M
678 143.5 L
S
GR
GS
[0.75 0 0 0.75 0 -0.25] CT
0.873 GC
1 LJ
0.667 LW
N
785 785.5 M
785 143.5 L
S
GR
GS
[0.75 0 0 0.75 0 -0.25] CT
0.873 GC
1 LJ
0.667 LW
N
892 785.5 M
892 143.5 L
S
GR
GS
[0.75 0 0 0.75 0 -0.25] CT
0.873 GC
1 LJ
0.667 LW
N
892 785.5 M
250 785.5 L
S
GR
GS
[0.75 0 0 0.75 0 -0.25] CT
0.873 GC
1 LJ
0.667 LW
N
892 678.5 M
250 678.5 L
S
GR
GS
[0.75 0 0 0.75 0 -0.25] CT
0.873 GC
1 LJ
0.667 LW
N
892 571.5 M
250 571.5 L
S
GR
GS
[0.75 0 0 0.75 0 -0.25] CT
0.873 GC
1 LJ
0.667 LW
N
892 464.5 M
250 464.5 L
S
GR
GS
[0.75 0 0 0.75 0 -0.25] CT
0.873 GC
1 LJ
0.667 LW
N
892 357.5 M
250 357.5 L
S
GR
GS
[0.75 0 0 0.75 0 -0.25] CT
0.873 GC
1 LJ
0.667 LW
N
892 250.5 M
250 250.5 L
S
GR
GS
[0.75 0 0 0.75 0 -0.25] CT
0.873 GC
1 LJ
0.667 LW
N
892 143.5 M
250 143.5 L
S
GR
GS
[0.75 0 0 0.75 0 -0.25] CT
0.149 GC
2 setlinecap
1 LJ
0.667 LW
N
250 785.5 M
892 785.5 L
S
GR
GS
[0.75 0 0 0.75 0 -0.25] CT
0.149 GC
2 setlinecap
1 LJ
0.667 LW
N
250 785.5 M
250 779.08 L
S
GR
GS
[0.75 0 0 0.75 0 -0.25] CT
0.149 GC
2 setlinecap
1 LJ
0.667 LW
N
357 785.5 M
357 779.08 L
S
GR
GS
[0.75 0 0 0.75 0 -0.25] CT
0.149 GC
2 setlinecap
1 LJ
0.667 LW
N
464 785.5 M
464 779.08 L
S
GR
GS
[0.75 0 0 0.75 0 -0.25] CT
0.149 GC
2 setlinecap
1 LJ
0.667 LW
N
571 785.5 M
571 779.08 L
S
GR
GS
[0.75 0 0 0.75 0 -0.25] CT
0.149 GC
2 setlinecap
1 LJ
0.667 LW
N
678 785.5 M
678 779.08 L
S
GR
GS
[0.75 0 0 0.75 0 -0.25] CT
0.149 GC
2 setlinecap
1 LJ
0.667 LW
N
785 785.5 M
785 779.08 L
S
GR
GS
[0.75 0 0 0.75 0 -0.25] CT
0.149 GC
2 setlinecap
1 LJ
0.667 LW
N
892 785.5 M
892 779.08 L
S
GR
GS
[0.75 0 0 0.75 187.5 592.87498] CT
0.149 GC
/Helvetica 13.333 F
GS
[1 0 0 1 0 0] CT
-13.5 14 moveto 
1 -1 scale
(-200) t 
GR
GR
GS
[0.75 0 0 0.75 267.75 592.87498] CT
0.149 GC
/Helvetica 13.333 F
GS
[1 0 0 1 0 0] CT
-13.5 14 moveto 
1 -1 scale
(-100) t 
GR
GR
GS
[0.75 0 0 0.75 348 592.87498] CT
0.149 GC
/Helvetica 13.333 F
GS
[1 0 0 1 0 0] CT
-4 14 moveto 
1 -1 scale
(0) t 
GR
GR
GS
[0.75 0 0 0.75 428.25 592.87498] CT
0.149 GC
/Helvetica 13.333 F
GS
[1 0 0 1 0 0] CT
-11.5 14 moveto 
1 -1 scale
(100) t 
GR
GR
GS
[0.75 0 0 0.75 508.5 592.87498] CT
0.149 GC
/Helvetica 13.333 F
GS
[1 0 0 1 0 0] CT
-11.5 14 moveto 
1 -1 scale
(200) t 
GR
GR
GS
[0.75 0 0 0.75 588.75 592.87498] CT
0.149 GC
/Helvetica 13.333 F
GS
[1 0 0 1 0 0] CT
-11.5 14 moveto 
1 -1 scale
(300) t 
GR
GR
GS
[0.75 0 0 0.75 669 592.87498] CT
0.149 GC
/Helvetica 13.333 F
GS
[1 0 0 1 0 0] CT
-11.5 14 moveto 
1 -1 scale
(400) t 
GR
GR
GS
[0.75 0 0 0.75 0 -0.25] CT
0.149 GC
2 setlinecap
1 LJ
0.667 LW
N
250 785.5 M
250 143.5 L
S
GR
GS
[0.75 0 0 0.75 0 -0.25] CT
0.149 GC
2 setlinecap
1 LJ
0.667 LW
N
250 785.5 M
256.42 785.5 L
S
GR
GS
[0.75 0 0 0.75 0 -0.25] CT
0.149 GC
2 setlinecap
1 LJ
0.667 LW
N
250 678.5 M
256.42 678.5 L
S
GR
GS
[0.75 0 0 0.75 0 -0.25] CT
0.149 GC
2 setlinecap
1 LJ
0.667 LW
N
250 571.5 M
256.42 571.5 L
S
GR
GS
[0.75 0 0 0.75 0 -0.25] CT
0.149 GC
2 setlinecap
1 LJ
0.667 LW
N
250 464.5 M
256.42 464.5 L
S
GR
GS
[0.75 0 0 0.75 0 -0.25] CT
0.149 GC
2 setlinecap
1 LJ
0.667 LW
N
250 357.5 M
256.42 357.5 L
S
GR
GS
[0.75 0 0 0.75 0 -0.25] CT
0.149 GC
2 setlinecap
1 LJ
0.667 LW
N
250 250.5 M
256.42 250.5 L
S
GR
GS
[0.75 0 0 0.75 0 -0.25] CT
0.149 GC
2 setlinecap
1 LJ
0.667 LW
N
250 143.5 M
256.42 143.5 L
S
GR
GS
[0.75 0 0 0.75 183.5 588.875] CT
0.149 GC
/Helvetica 13.333 F
GS
[1 0 0 1 0 0] CT
-27 5.5 moveto 
1 -1 scale
(-200) t 
GR
GR
GS
[0.75 0 0 0.75 183.5 508.625] CT
0.149 GC
/Helvetica 13.333 F
GS
[1 0 0 1 0 0] CT
-27 5.5 moveto 
1 -1 scale
(-100) t 
GR
GR
GS
[0.75 0 0 0.75 183.5 428.375] CT
0.149 GC
/Helvetica 13.333 F
GS
[1 0 0 1 0 0] CT
-8 5.5 moveto 
1 -1 scale
(0) t 
GR
GR
GS
[0.75 0 0 0.75 183.5 348.125] CT
0.149 GC
/Helvetica 13.333 F
GS
[1 0 0 1 0 0] CT
-23 5.5 moveto 
1 -1 scale
(100) t 
GR
GR
GS
[0.75 0 0 0.75 183.5 267.875] CT
0.149 GC
/Helvetica 13.333 F
GS
[1 0 0 1 0 0] CT
-23 5.5 moveto 
1 -1 scale
(200) t 
GR
GR
GS
[0.75 0 0 0.75 183.5 187.625] CT
0.149 GC
/Helvetica 13.333 F
GS
[1 0 0 1 0 0] CT
-23 5.5 moveto 
1 -1 scale
(300) t 
GR
GR
GS
[0.75 0 0 0.75 183.5 107.375] CT
0.149 GC
/Helvetica 13.333 F
GS
[1 0 0 1 0 0] CT
-23 5.5 moveto 
1 -1 scale
(400) t 
GR
GR
GS
[0.75 0 0 0.75 428.25041 105.3125] CT
/Helvetica-Bold 14.667 F
GS
[1 0 0 1 0 0] CT
-43 -4 moveto 
1 -1 scale
(Robot arena) t 
GR
GR
GS
[0.75 0 0 0.75 588.75 187.625] CT
N
-6 -6 M
-6 6 L
6 6 L
6 -6 L
cp
f
GR
GS
[0.75 0 0 0.75 588.75 187.625] CT
10.0 ML
0.667 LW
N
-6 -6 M
-6 6 L
6 6 L
6 -6 L
cp
S
GR
GS
[0.75 0 0 0.75 267.75 508.625] CT
1 0 0 RC
N
6.667 0 M
6.667 -3.682 3.682 -6.667 0 -6.667 C
-3.682 -6.667 -6.667 -3.682 -6.667 0 C
-6.667 3.682 -3.682 6.667 0 6.667 C
3.682 6.667 6.667 3.682 6.667 0 C
cp
f
GR
GS
[0.75 0 0 0.75 267.75 508.625] CT
1 0 0 RC
N
0 -6.333 M
3.498 -6.333 6.333 -3.498 6.333 0 C
6.333 0 L
6.333 3.498 3.498 6.333 0 6.333 C
-3.498 6.333 -6.333 3.498 -6.333 0 C
-6.333 -3.498 -3.498 -6.333 0 -6.333 C
cp
0 -7 M
-3.866 -7 -7 -3.866 -7 0 C
-7 3.866 -3.866 7 0 7 C
3.866 7 7 3.866 7 0 C
7 0 L
7 -3.866 3.866 -7 0 -7 C
cp
f
GR
GS
[0.75 0 0 0.75 0 -0.25] CT
0 0.447 0.741 RC
1 LJ
2.667 LW
N
358.347 678.515 M
360.486 678.563 L
S
GR
GS
[0.75 0 0 0.75 268.76022 508.63631] CT
0.494 0.184 0.557 RC
N
0.5 0 M
0.5 0.276 0.276 0.5 0 0.5 C
-0.276 0.5 -0.5 0.276 -0.5 0 C
-0.5 -0.276 -0.276 -0.5 0 -0.5 C
0.276 -0.5 0.5 -0.276 0.5 0 C
cp
f
GR
GS
[0.75 0 0 0.75 0 -0.25] CT
0 0.447 0.741 RC
1 LJ
2.667 LW
N
359.692 678.561 M
361.83 678.657 L
S
GR
GS
[0.75 0 0 0.75 269.76908 508.67041] CT
0.302 0.745 0.933 RC
N
/f1188474679{0.5 0 M
0.5 0.276 0.276 0.5 0 0.5 C
-0.276 0.5 -0.5 0.276 -0.5 0 C
-0.5 -0.276 -0.276 -0.5 0 -0.5 C
0.276 -0.5 0.5 -0.276 0.5 0 C
cp}def
f1188474679
f
GR
GS
[0.75 0 0 0.75 0 -0.25] CT
0 0.447 0.741 RC
1 LJ
2.667 LW
N
361.035 678.637 M
363.17 678.784 L
S
GR
GS
[0.75 0 0 0.75 270.776 508.72786] CT
0 0.447 0.741 RC
N
f1188474679
f
GR
GS
[0.75 0 0 0.75 0 -0.25] CT
0 0.447 0.741 RC
1 LJ
2.667 LW
N
362.374 678.746 M
364.505 678.944 L
S
GR
GS
[0.75 0 0 0.75 271.78033 508.80916] CT
0.929 0.694 0.125 RC
N
f1188474679
f
GR
GS
[0.75 0 0 0.75 0 -0.25] CT
0 0.447 0.741 RC
1 LJ
2.667 LW
N
363.709 678.886 M
365.834 679.137 L
S
GR
GS
[0.75 0 0 0.75 272.78142 508.91481] CT
0.467 0.675 0.188 RC
N
f1188474679
f
GR
GS
[0.75 0 0 0.75 0 -0.25] CT
0 0.447 0.741 RC
1 LJ
2.667 LW
N
365.038 679.06 M
367.156 679.364 L
S
GR
GS
[0.75 0 0 0.75 273.77854 509.04518] CT
0.635 0.078 0.184 RC
N
f1188474679
f
GR
GS
[0.75 0 0 0.75 0 -0.25] CT
0 0.447 0.741 RC
1 LJ
2.667 LW
N
366.361 679.268 M
368.471 679.626 L
S
GR
GS
[0.75 0 0 0.75 274.77097 509.20078] CT
0.851 0.325 0.098 RC
N
f1188474679
f
GR
GS
[0.75 0 0 0.75 0 -0.25] CT
0 0.447 0.741 RC
1 LJ
2.667 LW
N
367.677 679.509 M
369.777 679.923 L
S
GR
GS
[0.75 0 0 0.75 275.75793 509.382] CT
0.494 0.184 0.557 RC
N
f1188474679
f
GR
GS
[0.75 0 0 0.75 0 -0.25] CT
0 0.447 0.741 RC
1 LJ
2.667 LW
N
368.985 679.786 M
371.072 680.256 L
S
GR
GS
[0.75 0 0 0.75 276.73858 509.58919] CT
0.302 0.745 0.933 RC
N
f1188474679
f
GR
GS
[0.75 0 0 0.75 0 -0.25] CT
0 0.447 0.741 RC
1 LJ
2.667 LW
N
370.283 680.097 M
372.357 680.625 L
S
GR
GS
[0.75 0 0 0.75 277.7122 509.82274] CT
0 0.447 0.741 RC
N
f1188474679
f
GR
GS
[0.75 0 0 0.75 0 -0.25] CT
0 0.447 0.741 RC
1 LJ
2.667 LW
N
371.571 680.444 M
373.629 681.029 L
S
GR
GS
[0.75 0 0 0.75 278.67796 510.08289] CT
0.929 0.694 0.125 RC
N
f1188474679
f
GR
GS
[0.75 0 0 0.75 0 -0.25] CT
0 0.447 0.741 RC
1 LJ
2.667 LW
N
372.847 680.827 M
374.887 681.47 L
S
GR
GS
[0.75 0 0 0.75 279.63499 510.3699] CT
0.467 0.675 0.188 RC
N
f1188474679
f
GR
GS
[0.75 0 0 0.75 0 -0.25] CT
0 0.447 0.741 RC
1 LJ
2.667 LW
N
374.11 681.245 M
376.131 681.948 L
S
GR
GS
[0.75 0 0 0.75 280.58237 510.68402] CT
0.635 0.078 0.184 RC
N
f1188474679
f
GR
GS
[0.75 0 0 0.75 0 -0.25] CT
0 0.447 0.741 RC
1 LJ
2.667 LW
N
375.359 681.7 M
377.359 682.462 L
S
GR
GS
[0.75 0 0 0.75 281.51933 511.02533] CT
0.851 0.325 0.098 RC
N
f1188474679
f
GR
GS
[0.75 0 0 0.75 0 -0.25] CT
0 0.447 0.741 RC
1 LJ
2.667 LW
N
376.593 682.192 M
378.569 683.013 L
S
GR
GS
[0.75 0 0 0.75 282.44495 511.39392] CT
0.494 0.184 0.557 RC
N
f1188474679
f
GR
GS
[0.75 0 0 0.75 0 -0.25] CT
0 0.447 0.741 RC
1 LJ
2.667 LW
N
377.811 682.72 M
379.761 683.601 L
S
GR
GS
[0.75 0 0 0.75 283.3583 511.78989] CT
0.302 0.745 0.933 RC
N
f1188474679
f
GR
GS
[0.75 0 0 0.75 0 -0.25] CT
0 0.447 0.741 RC
1 LJ
2.667 LW
N
379.011 683.284 M
380.934 684.224 L
S
GR
GS
[0.75 0 0 0.75 284.2584 512.21318] CT
0 0.447 0.741 RC
N
f1188474679
f
GR
GS
[0.75 0 0 0.75 0 -0.25] CT
0 0.447 0.741 RC
1 LJ
2.667 LW
N
380.193 683.885 M
382.085 684.884 L
S
GR
GS
[0.75 0 0 0.75 285.14442 512.66367] CT
0.929 0.694 0.125 RC
N
f1188474679
f
GR
GS
[0.75 0 0 0.75 0 -0.25] CT
0 0.447 0.741 RC
1 LJ
2.667 LW
N
381.354 684.522 M
383.214 685.58 L
S
GR
GS
[0.75 0 0 0.75 286.01543 513.14134] CT
0.467 0.675 0.188 RC
N
f1188474679
f
GR
GS
[0.75 0 0 0.75 0 -0.25] CT
0 0.447 0.741 RC
1 LJ
2.667 LW
N
382.494 685.194 M
384.32 686.311 L
S
GR
GS
[0.75 0 0 0.75 286.87047 513.64584] CT
0.635 0.078 0.184 RC
N
f1188474679
f
GR
GS
[0.75 0 0 0.75 0 -0.25] CT
0 0.447 0.741 RC
1 LJ
2.667 LW
N
383.612 685.903 M
385.401 687.077 L
S
GR
GS
[0.75 0 0 0.75 287.70863 514.17699] CT
0.851 0.325 0.098 RC
N
f1188474679
f
GR
GS
[0.75 0 0 0.75 0 -0.25] CT
0 0.447 0.741 RC
1 LJ
2.667 LW
N
384.705 686.646 M
386.456 687.877 L
S
GR
GS
[0.75 0 0 0.75 288.52904 514.73436] CT
0.494 0.184 0.557 RC
N
f1188474679
f
GR
GS
[0.75 0 0 0.75 0 -0.25] CT
0 0.447 0.741 RC
1 LJ
2.667 LW
N
385.774 687.424 M
387.484 688.71 L
S
GR
GS
[0.75 0 0 0.75 289.33076 515.31764] CT
0.302 0.745 0.933 RC
N
f1188474679
f
GR
GS
[0.75 0 0 0.75 0 -0.25] CT
0 0.447 0.741 RC
1 LJ
2.667 LW
N
386.817 688.235 M
388.485 689.577 L
S
GR
GS
[0.75 0 0 0.75 290.11301 515.92633] CT
0 0.447 0.741 RC
N
f1188474679
f
GR
GS
[0.75 0 0 0.75 0 -0.25] CT
0 0.447 0.741 RC
1 LJ
2.667 LW
N
387.833 689.08 M
389.456 690.475 L
S
GR
GS
[0.75 0 0 0.75 290.87496 516.55997] CT
0.929 0.694 0.125 RC
N
f1188474679
f
GR
GS
[0.75 0 0 0.75 0 -0.25] CT
0 0.447 0.741 RC
1 LJ
2.667 LW
N
388.821 689.957 M
390.398 691.404 L
S
GR
GS
[0.75 0 0 0.75 291.61583 517.21791] CT
0.467 0.675 0.188 RC
N
f1188474679
f
GR
GS
[0.75 0 0 0.75 0 -0.25] CT
0 0.447 0.741 RC
1 LJ
2.667 LW
N
389.78 690.866 M
391.309 692.364 L
S
GR
GS
[0.75 0 0 0.75 292.33488 517.89961] CT
0.635 0.078 0.184 RC
N
f1188474679
f
GR
GS
[0.75 0 0 0.75 0 -0.25] CT
0 0.447 0.741 RC
1 LJ
2.667 LW
N
390.709 691.806 M
392.188 693.352 L
S
GR
GS
[0.75 0 0 0.75 293.03144 518.60439] CT
0.851 0.325 0.098 RC
N
f1188474679
f
GR
GS
[0.75 0 0 0.75 0 -0.25] CT
0 0.447 0.741 RC
1 LJ
2.667 LW
N
391.606 692.775 M
393.035 694.369 L
S
GR
GS
[0.75 0 0 0.75 293.70486 519.33154] CT
0.494 0.184 0.557 RC
N
f1188474679
f
GR
GS
[0.75 0 0 0.75 0 -0.25] CT
0 0.447 0.741 RC
1 LJ
2.667 LW
N
392.473 693.774 M
393.849 695.412 L
S
GR
GS
[0.75 0 0 0.75 294.35454 520.08026] CT
0.302 0.745 0.933 RC
N
f1188474679
f
GR
GS
[0.75 0 0 0.75 0 -0.25] CT
0 0.447 0.741 RC
1 LJ
2.667 LW
N
393.307 694.8 M
394.629 696.482 L
S
GR
GS
[0.75 0 0 0.75 294.97998 520.84981] CT
0 0.447 0.741 RC
N
f1188474679
f
GR
GS
[0.75 0 0 0.75 0 -0.25] CT
0 0.447 0.741 RC
1 LJ
2.667 LW
N
394.108 695.852 M
395.376 697.576 L
S
GR
GS
[0.75 0 0 0.75 295.58066 521.63936] CT
0.929 0.694 0.125 RC
N
f1188474679
f
GR
GS
[0.75 0 0 0.75 0 -0.25] CT
0 0.447 0.741 RC
1 LJ
2.667 LW
N
394.875 696.931 M
396.088 698.694 L
S
GR
GS
[0.75 0 0 0.75 296.15616 522.448] CT
0.467 0.675 0.188 RC
N
f1188474679
f
GR
GS
[0.75 0 0 0.75 0 -0.25] CT
0 0.447 0.741 RC
1 LJ
2.667 LW
N
395.608 698.033 M
396.765 699.833 L
S
GR
GS
[0.75 0 0 0.75 296.70614 523.2749] CT
0.635 0.078 0.184 RC
N
f1188474679
f
GR
GS
[0.75 0 0 0.75 0 -0.25] CT
0 0.447 0.741 RC
1 LJ
2.667 LW
N
396.307 699.159 M
397.407 700.994 L
S
GR
GS
[0.75 0 0 0.75 297.23026 524.11916] CT
0.851 0.325 0.098 RC
N
f1188474679
f
GR
GS
[0.75 0 0 0.75 0 -0.25] CT
0 0.447 0.741 RC
1 LJ
2.667 LW
N
396.971 700.306 M
398.014 702.175 L
S
GR
GS
[0.75 0 0 0.75 297.72828 524.9798] CT
0.494 0.184 0.557 RC
N
f1188474679
f
GR
GS
[0.75 0 0 0.75 0 -0.25] CT
0 0.447 0.741 RC
1 LJ
2.667 LW
N
397.6 701.475 M
398.586 703.374 L
S
GR
GS
[0.75 0 0 0.75 298.20007 525.856] CT
0.302 0.745 0.933 RC
N
f1188474679
f
GR
GS
[0.75 0 0 0.75 0 -0.25] CT
0 0.447 0.741 RC
1 LJ
2.667 LW
N
398.194 702.662 M
399.122 704.591 L
S
GR
GS
[0.75 0 0 0.75 298.64552 526.74681] CT
0 0.447 0.741 RC
N
f1188474679
f
GR
GS
[0.75 0 0 0.75 0 -0.25] CT
0 0.447 0.741 RC
1 LJ
2.667 LW
N
398.753 703.868 M
399.623 705.823 L
S
GR
GS
[0.75 0 0 0.75 299.06456 527.65131] CT
0.929 0.694 0.125 RC
N
f1188474679
f
GR
GS
[0.75 0 0 0.75 0 -0.25] CT
0 0.447 0.741 RC
1 LJ
2.667 LW
N
399.276 705.091 M
400.09 707.071 L
S
GR
GS
[0.75 0 0 0.75 299.45718 528.56857] CT
0.467 0.675 0.188 RC
N
f1188474679
f
GR
GS
[0.75 0 0 0.75 0 -0.25] CT
0 0.447 0.741 RC
1 LJ
2.667 LW
N
399.765 706.33 M
400.521 708.332 L
S
GR
GS
[0.75 0 0 0.75 299.82351 529.49774] CT
0.635 0.078 0.184 RC
N
f1188474679
f
GR
GS
[0.75 0 0 0.75 0 -0.25] CT
0 0.447 0.741 RC
1 LJ
2.667 LW
N
400.218 707.584 M
400.918 709.606 L
S
GR
GS
[0.75 0 0 0.75 300.16363 530.43794] CT
0.851 0.325 0.098 RC
N
f1188474679
f
GR
GS
[0.75 0 0 0.75 0 -0.25] CT
0 0.447 0.741 RC
1 LJ
2.667 LW
N
400.637 708.851 M
401.28 710.892 L
S
GR
GS
[0.75 0 0 0.75 300.47775 531.38831] CT
0.494 0.184 0.557 RC
N
f1188474679
f
GR
GS
[0.75 0 0 0.75 0 -0.25] CT
0 0.447 0.741 RC
1 LJ
2.667 LW
N
401.021 710.131 M
401.609 712.188 L
S
GR
GS
[0.75 0 0 0.75 300.766 532.34796] CT
0.302 0.745 0.933 RC
N
f1188474679
f
GR
GS
[0.75 0 0 0.75 0 -0.25] CT
0 0.447 0.741 RC
1 LJ
2.667 LW
N
401.372 711.421 M
401.905 713.494 L
S
GR
GS
[0.75 0 0 0.75 301.02876 533.31609] CT
0 0.447 0.741 RC
N
f1188474679
f
GR
GS
[0.75 0 0 0.75 0 -0.25] CT
0 0.447 0.741 RC
1 LJ
2.667 LW
N
401.688 712.723 M
402.168 714.808 L
S
GR
GS
[0.75 0 0 0.75 301.26629 534.2919] CT
0.929 0.694 0.125 RC
N
f1188474679
f
GR
GS
[0.75 0 0 0.75 0 -0.25] CT
0 0.447 0.741 RC
1 LJ
2.667 LW
N
401.972 714.033 M
402.398 716.13 L
S
GR
GS
[0.75 0 0 0.75 301.47897 535.27458] CT
0.467 0.675 0.188 RC
N
f1188474679
f
GR
GS
[0.75 0 0 0.75 0 -0.25] CT
0 0.447 0.741 RC
1 LJ
2.667 LW
N
402.223 715.351 M
402.597 717.458 L
S
GR
GS
[0.75 0 0 0.75 301.66713 536.26335] CT
0.635 0.078 0.184 RC
N
f1188474679
f
GR
GS
[0.75 0 0 0.75 0 -0.25] CT
0 0.447 0.741 RC
1 LJ
2.667 LW
N
402.442 716.677 M
402.765 718.792 L
S
GR
GS
[0.75 0 0 0.75 301.83124 537.25739] CT
0.851 0.325 0.098 RC
N
f1188474679
f
GR
GS
[0.75 0 0 0.75 0 -0.25] CT
0 0.447 0.741 RC
1 LJ
2.667 LW
N
402.629 718.008 M
402.902 720.131 L
S
GR
GS
[0.75 0 0 0.75 301.97168 538.25604] CT
0.494 0.184 0.557 RC
N
f1188474679
f
GR
GS
[0.75 0 0 0.75 0 -0.25] CT
0 0.447 0.741 RC
1 LJ
2.667 LW
N
402.785 719.345 M
403.009 721.473 L
S
GR
GS
[0.75 0 0 0.75 302.08894 539.25864] CT
0.302 0.745 0.933 RC
N
f1188474679
f
GR
GS
[0.75 0 0 0.75 0 -0.25] CT
0 0.447 0.741 RC
1 LJ
2.667 LW
N
402.911 720.686 M
403.088 722.819 L
S
GR
GS
[0.75 0 0 0.75 302.18344 540.26453] CT
0 0.447 0.741 RC
N
f1188474679
f
GR
GS
[0.75 0 0 0.75 0 -0.25] CT
0 0.447 0.741 RC
1 LJ
2.667 LW
N
403.008 722.031 M
403.137 724.167 L
S
GR
GS
[0.75 0 0 0.75 302.25572 541.27303] CT
0.929 0.694 0.125 RC
N
f1188474679
f
GR
GS
[0.75 0 0 0.75 0 -0.25] CT
0 0.447 0.741 RC
1 LJ
2.667 LW
N
403.075 723.378 M
403.159 725.516 L
S
GR
GS
[0.75 0 0 0.75 302.30626 542.28358] CT
0.467 0.675 0.188 RC
N
f1188474679
f
GR
GS
[0.75 0 0 0.75 0 -0.25] CT
0 0.447 0.741 RC
1 LJ
2.667 LW
N
403.114 724.727 M
403.154 726.867 L
S
GR
GS
[0.75 0 0 0.75 302.33556 543.29561] CT
0.635 0.078 0.184 RC
N
f1188474679
f
GR
GS
[0.75 0 0 0.75 0 -0.25] CT
0 0.447 0.741 RC
1 LJ
2.667 LW
N
403.126 726.078 M
403.122 728.218 L
S
GR
GS
[0.75 0 0 0.75 302.34416 544.30864] CT
0.851 0.325 0.098 RC
N
f1188474679
f
GR
GS
[0.75 0 0 0.75 0 -0.25] CT
0 0.447 0.741 RC
1 LJ
2.667 LW
N
403.11 727.429 M
403.065 729.569 L
S
GR
GS
[0.75 0 0 0.75 302.33256 545.32208] CT
0.494 0.184 0.557 RC
N
f1188474679
f
GR
GS
[0.75 0 0 0.75 0 -0.25] CT
0 0.447 0.741 RC
1 LJ
2.667 LW
N
403.068 728.781 M
402.982 730.919 L
S
GR
GS
[0.75 0 0 0.75 302.30132 546.33562] CT
0.302 0.745 0.933 RC
N
f1188474679
f
GR
GS
[0.75 0 0 0.75 0 -0.25] CT
0 0.447 0.741 RC
1 LJ
2.667 LW
N
403.001 730.132 M
402.875 732.268 L
S
GR
GS
[0.75 0 0 0.75 302.25092 547.34874] CT
0 0.447 0.741 RC
N
f1188474679
f
GR
GS
[0.75 0 0 0.75 0 -0.25] CT
0 0.447 0.741 RC
1 LJ
2.667 LW
N
402.909 731.482 M
402.744 733.615 L
S
GR
GS
[0.75 0 0 0.75 302.18193 548.36118] CT
0.929 0.694 0.125 RC
N
f1188474679
f
GR
GS
[0.75 0 0 0.75 0 -0.25] CT
0 0.447 0.741 RC
1 LJ
2.667 LW
N
402.793 732.83 M
402.591 734.96 L
S
GR
GS
[0.75 0 0 0.75 302.09484 549.37247] CT
0.467 0.675 0.188 RC
N
f1188474679
f
GR
GS
[0.75 0 0 0.75 0 -0.25] CT
0 0.447 0.741 RC
1 LJ
2.667 LW
N
402.654 734.176 M
402.415 736.303 L
S
GR
GS
[0.75 0 0 0.75 301.99017 550.38229] CT
0.635 0.078 0.184 RC
N
f1188474679
f
GR
GS
[0.75 0 0 0.75 0 -0.25] CT
0 0.447 0.741 RC
1 LJ
2.667 LW
N
402.491 735.521 M
402.217 737.643 L
S
GR
GS
[0.75 0 0 0.75 301.86845 551.39038] CT
0.851 0.325 0.098 RC
N
f1188474679
f
GR
GS
[0.75 0 0 0.75 0 -0.25] CT
0 0.447 0.741 RC
1 LJ
2.667 LW
N
402.307 736.862 M
401.998 738.979 L
S
GR
GS
[0.75 0 0 0.75 301.73019 552.39641] CT
0.494 0.184 0.557 RC
N
f1188474679
f
GR
GS
[0.75 0 0 0.75 0 -0.25] CT
0 0.447 0.741 RC
1 LJ
2.667 LW
N
402.101 738.2 M
401.759 740.313 L
S
GR
GS
[0.75 0 0 0.75 301.57585 553.4001] CT
0.302 0.745 0.933 RC
N
f1188474679
f
GR
GS
[0.75 0 0 0.75 0 -0.25] CT
0 0.447 0.741 RC
1 LJ
2.667 LW
N
401.875 739.535 M
401.5 741.642 L
S
GR
GS
[0.75 0 0 0.75 301.40598 554.40123] CT
0 0.447 0.741 RC
N
f1188474679
f
GR
GS
[0.75 0 0 0.75 0 -0.25] CT
0 0.447 0.741 RC
1 LJ
2.667 LW
N
401.628 740.866 M
401.223 742.967 L
S
GR
GS
[0.75 0 0 0.75 301.22102 555.39966] CT
0.929 0.694 0.125 RC
N
f1188474679
f
GR
GS
[0.75 0 0 0.75 0 -0.25] CT
0 0.447 0.741 RC
1 LJ
2.667 LW
N
401.362 742.193 M
400.926 744.289 L
S
GR
GS
[0.75 0 0 0.75 301.02145 556.39511] CT
0.467 0.675 0.188 RC
N
f1188474679
f
GR
GS
[0.75 0 0 0.75 0 -0.25] CT
0 0.447 0.741 RC
1 LJ
2.667 LW
N
401.077 743.517 M
400.612 745.605 L
S
GR
GS
[0.75 0 0 0.75 300.80777 557.38745] CT
0.635 0.078 0.184 RC
N
f1188474679
f
GR
GS
[0.75 0 0 0.75 0 -0.25] CT
0 0.447 0.741 RC
1 LJ
2.667 LW
N
400.774 744.836 M
400.28 746.918 L
S
GR
GS
[0.75 0 0 0.75 300.58035 558.37668] CT
0.851 0.325 0.098 RC
N
f1188474679
f
GR
GS
[0.75 0 0 0.75 0 -0.25] CT
0 0.447 0.741 RC
1 LJ
2.667 LW
N
400.453 746.15 M
399.932 748.226 L
S
GR
GS
[0.75 0 0 0.75 300.33968 559.36261] CT
0.494 0.184 0.557 RC
N
f1188474679
f
GR
GS
[0.75 0 0 0.75 0 -0.25] CT
0 0.447 0.741 RC
1 LJ
2.667 LW
N
400.115 747.46 M
399.567 749.529 L
S
GR
GS
[0.75 0 0 0.75 300.0862 560.34515] CT
0.302 0.745 0.933 RC
N
f1188474679
f
GR
GS
[0.75 0 0 0.75 0 -0.25] CT
0 0.447 0.741 RC
1 LJ
2.667 LW
N
399.76 748.766 M
399.187 750.827 L
S
GR
GS
[0.75 0 0 0.75 299.82033 561.32417] CT
0 0.447 0.741 RC
N
f1188474679
f
GR
GS
[0.75 0 0 0.75 0 -0.25] CT
0 0.447 0.741 RC
1 LJ
2.667 LW
N
399.39 750.066 M
398.791 752.121 L
S
GR
GS
[0.75 0 0 0.75 299.54247 562.29967] CT
0.929 0.694 0.125 RC
N
f1188474679
f
GR
GS
[0.75 0 0 0.75 0 -0.25] CT
0 0.447 0.741 RC
1 LJ
2.667 LW
N
399.004 751.362 M
398.381 753.409 L
S
GR
GS
[0.75 0 0 0.75 299.25307 563.27155] CT
0.467 0.675 0.188 RC
N
f1188474679
f
GR
GS
[0.75 0 0 0.75 0 -0.25] CT
0 0.447 0.741 RC
1 LJ
2.667 LW
N
398.603 752.653 M
397.957 754.693 L
S
GR
GS
[0.75 0 0 0.75 298.95248 564.23981] CT
0.635 0.078 0.184 RC
N
f1188474679
f
GR
GS
[0.75 0 0 0.75 0 -0.25] CT
0 0.447 0.741 RC
1 LJ
2.667 LW
N
398.188 753.939 M
397.52 755.972 L
S
GR
GS
[0.75 0 0 0.75 298.64113 565.20441] CT
0.851 0.325 0.098 RC
N
f1188474679
f
GR
GS
[0.75 0 0 0.75 0 -0.25] CT
0 0.447 0.741 RC
1 LJ
2.667 LW
N
397.759 755.22 M
397.069 757.246 L
S
GR
GS
[0.75 0 0 0.75 298.31941 566.16521] CT
0.494 0.184 0.557 RC
N
f1188474679
f
GR
GS
[0.75 0 0 0.75 0 -0.25] CT
0 0.447 0.741 RC
1 LJ
2.667 LW
N
397.317 756.496 M
396.606 758.515 L
S
GR
GS
[0.75 0 0 0.75 297.98769 567.1223] CT
0.302 0.745 0.933 RC
N
f1188474679
f
GR
GS
[0.75 0 0 0.75 0 -0.25] CT
0 0.447 0.741 RC
1 LJ
2.667 LW
N
396.862 757.767 M
396.13 759.779 L
S
GR
GS
[0.75 0 0 0.75 297.64632 568.07559] CT
0 0.447 0.741 RC
N
f1188474679
f
GR
GS
[0.75 0 0 0.75 0 -0.25] CT
0 0.447 0.741 RC
1 LJ
2.667 LW
N
396.394 759.034 M
395.643 761.037 L
S
GR
GS
[0.75 0 0 0.75 297.29565 569.02522] CT
0.929 0.694 0.125 RC
N
f1188474679
f
GR
GS
[0.75 0 0 0.75 0 -0.25] CT
0 0.447 0.741 RC
1 LJ
2.667 LW
N
395.915 760.295 M
395.145 762.292 L
S
GR
GS
[0.75 0 0 0.75 296.93605 569.9711] CT
0.467 0.675 0.188 RC
N
f1188474679
f
GR
GS
[0.75 0 0 0.75 0 -0.25] CT
0 0.447 0.741 RC
1 LJ
2.667 LW
N
395.424 761.551 M
394.636 763.541 L
S
GR
GS
[0.75 0 0 0.75 296.56783 570.91327] CT
0.635 0.078 0.184 RC
N
f1188474679
f
GR
GS
[0.75 0 0 0.75 0 -0.25] CT
0 0.447 0.741 RC
1 LJ
2.667 LW
N
394.922 762.802 M
394.116 764.785 L
S
GR
GS
[0.75 0 0 0.75 296.19131 571.85168] CT
0.851 0.325 0.098 RC
N
f1188474679
f
GR
GS
[0.75 0 0 0.75 0 -0.25] CT
0 0.447 0.741 RC
1 LJ
2.667 LW
N
394.409 764.049 M
393.587 766.024 L
S
GR
GS
[0.75 0 0 0.75 295.80684 572.78648] CT
0.494 0.184 0.557 RC
N
f1188474679
f
GR
GS
[0.75 0 0 0.75 0 -0.25] CT
0 0.447 0.741 RC
1 LJ
2.667 LW
N
393.886 765.29 M
393.048 767.259 L
S
GR
GS
[0.75 0 0 0.75 295.41472 573.71753] CT
0.302 0.745 0.933 RC
N
f1188474679
f
GR
GS
[0.75 0 0 0.75 0 -0.25] CT
0 0.447 0.741 RC
1 LJ
2.667 LW
N
393.354 766.527 M
392.499 768.489 L
S
GR
GS
[0.75 0 0 0.75 295.01525 574.64496] CT
0 0.447 0.741 RC
N
f1188474679
f
GR
GS
[0.75 0 0 0.75 0 -0.25] CT
0 0.447 0.741 RC
1 LJ
2.667 LW
N
392.812 767.758 M
391.942 769.714 L
S
GR
GS
[0.75 0 0 0.75 294.60864 575.56886] CT
0.929 0.694 0.125 RC
N
f1188474679
f
GR
GS
[0.75 0 0 0.75 0 -0.25] CT
0 0.447 0.741 RC
1 LJ
2.667 LW
N
392.26 768.986 M
391.376 770.934 L
S
GR
GS
[0.75 0 0 0.75 294.19526 576.48924] CT
0.467 0.675 0.188 RC
N
f1188474679
f
GR
GS
[0.75 0 0 0.75 0 -0.25] CT
0 0.447 0.741 RC
1 LJ
2.667 LW
N
391.7 770.208 M
390.802 772.151 L
S
GR
GS
[0.75 0 0 0.75 293.77533 577.4061] CT
0.635 0.078 0.184 RC
N
f1188474679
f
GR
GS
[0.75 0 0 0.75 0 -0.25] CT
0 0.447 0.741 RC
1 LJ
2.667 LW
N
391.132 771.426 M
390.221 773.362 L
S
GR
GS
[0.75 0 0 0.75 293.34913 578.31956] CT
0.851 0.325 0.098 RC
N
f1188474679
f
GR
GS
[0.75 0 0 0.75 0 -0.25] CT
0 0.447 0.741 RC
1 LJ
2.667 LW
N
390.556 772.639 M
389.631 774.569 L
S
GR
GS
[0.75 0 0 0.75 292.91689 579.22955] CT
0.494 0.184 0.557 RC
N
f1188474679
f
GR
GS
[0.75 0 0 0.75 0 -0.25] CT
0 0.447 0.741 RC
1 LJ
2.667 LW
N
389.972 773.848 M
389.035 775.772 L
S
GR
GS
[0.75 0 0 0.75 292.4789 580.13625] CT
0.302 0.745 0.933 RC
N
f1188474679
f
GR
GS
[0.75 0 0 0.75 0 -0.25] CT
0 0.447 0.741 RC
1 LJ
2.667 LW
N
389.38 775.053 M
388.431 776.971 L
S
GR
GS
[0.75 0 0 0.75 292.03532 581.0396] CT
0 0.447 0.741 RC
N
f1188474679
f
GR
GS
[0.75 0 0 0.75 0 -0.25] CT
0 0.447 0.741 RC
1 LJ
2.667 LW
N
388.782 776.253 M
387.821 778.165 L
S
GR
GS
[0.75 0 0 0.75 291.58646 581.93965] CT
0.929 0.694 0.125 RC
N
f1188474679
f
GR
GS
[0.75 0 0 0.75 0 -0.25] CT
0 0.447 0.741 RC
1 LJ
2.667 LW
N
388.177 777.449 M
387.205 779.355 L
S
GR
GS
[0.75 0 0 0.75 291.13248 582.83655] CT
0.467 0.675 0.188 RC
N
f1188474679
f
GR
GS
[0.75 0 0 0.75 0 -0.25] CT
0 0.447 0.741 RC
1 LJ
2.667 LW
N
387.565 778.64 M
386.582 780.541 L
S
GR
GS
[0.75 0 0 0.75 290.67357 583.73033] CT
0.635 0.078 0.184 RC
N
f1188474679
f
GR
GS
[0.75 0 0 0.75 0 -0.25] CT
0 0.447 0.741 RC
1 LJ
2.667 LW
N
386.947 779.828 M
385.953 781.724 L
S
GR
GS
[0.75 0 0 0.75 290.20997 584.62105] CT
0.851 0.325 0.098 RC
N
f1188474679
f
GR
GS
[0.75 0 0 0.75 0 -0.25] CT
0 0.447 0.741 RC
1 LJ
2.667 LW
N
386.322 781.012 M
385.319 782.902 L
S
GR
GS
[0.75 0 0 0.75 289.74186 585.50879] CT
0.494 0.184 0.557 RC
N
f1188474679
f
GR
GS
[0.75 0 0 0.75 0 -0.25] CT
0 0.447 0.741 RC
1 LJ
2.667 LW
N
385.693 782.191 M
384.68 784.077 L
S
GR
GS
[0.75 0 0 0.75 289.26945 586.39351] CT
0.302 0.745 0.933 RC
N
f1188474679
f
GR
GS
[0.75 0 0 0.75 0 -0.25] CT
0 0.447 0.741 RC
1 LJ
2.667 LW
N
385.057 783.367 M
384.035 785.247 L
S
GR
GS
[0.75 0 0 0.75 288.79289 587.27539] CT
0 0.447 0.741 RC
N
f1188474679
f
GR
GS
[0.75 0 0 0.75 0 -0.25] CT
0 0.447 0.741 RC
1 LJ
2.667 LW
N
384.417 784.539 M
383.846 785.577 L
S
GR
GS
[0.75 0 0 0.75 288.31238 588.15439] CT
0.929 0.694 0.125 RC
N
f1188474679
f
GR
%%Trailer
%%Pages: 1
%%EOF
