%!PS-Adobe-3.0 EPSF-3.0
%%Creator: (MATLAB, The Mathworks, Inc. Version 9.9.0.1592791 \(R2020b\) Update 5. Operating System: Windows 10)
%%Title: (C:/Users/marti/Documents/GitHub/bio-inspired-autonomous-systems/Assignment 02 - Braitenberg Vehicle/figures/fear_1700.eps)
%%CreationDate: 2021-03-23T10:43:31
%%Pages: (atend)
%%BoundingBox:     0     0  1440   722
%%LanguageLevel: 3
%%EndComments
%%BeginProlog
%%BeginResource: procset (Apache XML Graphics Std ProcSet) 1.2 0
%%Version: 1.2 0
%%Copyright: (Copyright 2001-2003,2010 The Apache Software Foundation. License terms: http://www.apache.org/licenses/LICENSE-2.0)
/bd{bind def}bind def
/ld{load def}bd
/GR/grestore ld
/GS/gsave ld
/RM/rmoveto ld
/C/curveto ld
/t/show ld
/L/lineto ld
/ML/setmiterlimit ld
/CT/concat ld
/f/fill ld
/N/newpath ld
/S/stroke ld
/CC/setcmykcolor ld
/A/ashow ld
/cp/closepath ld
/RC/setrgbcolor ld
/LJ/setlinejoin ld
/GC/setgray ld
/LW/setlinewidth ld
/M/moveto ld
/re {4 2 roll M
1 index 0 rlineto
0 exch rlineto
neg 0 rlineto
cp } bd
/_ctm matrix def
/_tm matrix def
/BT { _ctm currentmatrix pop matrix _tm copy pop 0 0 moveto } bd
/ET { _ctm setmatrix } bd
/iTm { _ctm setmatrix _tm concat } bd
/Tm { _tm astore pop iTm 0 0 moveto } bd
/ux 0.0 def
/uy 0.0 def
/F {
  /Tp exch def
  /Tf exch def
  Tf findfont Tp scalefont setfont
  /cf Tf def  /cs Tp def
} bd
/ULS {currentpoint /uy exch def /ux exch def} bd
/ULE {
  /Tcx currentpoint pop def
  gsave
  newpath
  cf findfont cs scalefont dup
  /FontMatrix get 0 get /Ts exch def /FontInfo get dup
  /UnderlinePosition get Ts mul /To exch def
  /UnderlineThickness get Ts mul /Tt exch def
  ux uy To add moveto  Tcx uy To add lineto
  Tt setlinewidth stroke
  grestore
} bd
/OLE {
  /Tcx currentpoint pop def
  gsave
  newpath
  cf findfont cs scalefont dup
  /FontMatrix get 0 get /Ts exch def /FontInfo get dup
  /UnderlinePosition get Ts mul /To exch def
  /UnderlineThickness get Ts mul /Tt exch def
  ux uy To add cs add moveto Tcx uy To add cs add lineto
  Tt setlinewidth stroke
  grestore
} bd
/SOE {
  /Tcx currentpoint pop def
  gsave
  newpath
  cf findfont cs scalefont dup
  /FontMatrix get 0 get /Ts exch def /FontInfo get dup
  /UnderlinePosition get Ts mul /To exch def
  /UnderlineThickness get Ts mul /Tt exch def
  ux uy To add cs 10 mul 26 idiv add moveto Tcx uy To add cs 10 mul 26 idiv add lineto
  Tt setlinewidth stroke
  grestore
} bd
/QT {
/Y22 exch store
/X22 exch store
/Y21 exch store
/X21 exch store
currentpoint
/Y21 load 2 mul add 3 div exch
/X21 load 2 mul add 3 div exch
/X21 load 2 mul /X22 load add 3 div
/Y21 load 2 mul /Y22 load add 3 div
/X22 load /Y22 load curveto
} bd
/SSPD {
dup length /d exch dict def
{
/v exch def
/k exch def
currentpagedevice k known {
/cpdv currentpagedevice k get def
v cpdv ne {
/upd false def
/nullv v type /nulltype eq def
/nullcpdv cpdv type /nulltype eq def
nullv nullcpdv or
{
/upd true def
} {
/sametype v type cpdv type eq def
sametype {
v type /arraytype eq {
/vlen v length def
/cpdvlen cpdv length def
vlen cpdvlen eq {
0 1 vlen 1 sub {
/i exch def
/obj v i get def
/cpdobj cpdv i get def
obj cpdobj ne {
/upd true def
exit
} if
} for
} {
/upd true def
} ifelse
} {
v type /dicttype eq {
v {
/dv exch def
/dk exch def
/cpddv cpdv dk get def
dv cpddv ne {
/upd true def
exit
} if
} forall
} {
/upd true def
} ifelse
} ifelse
} if
} ifelse
upd true eq {
d k v put
} if
} if
} if
} forall
d length 0 gt {
d setpagedevice
} if
} bd
/RE { % /NewFontName [NewEncodingArray] /FontName RE -
  findfont dup length dict begin
  {
    1 index /FID ne
    {def} {pop pop} ifelse
  } forall
  /Encoding exch def
  /FontName 1 index def
  currentdict definefont pop
  end
} bind def
%%EndResource
%%BeginResource: procset (Apache XML Graphics EPS ProcSet) 1.0 0
%%Version: 1.0 0
%%Copyright: (Copyright 2002-2003 The Apache Software Foundation. License terms: http://www.apache.org/licenses/LICENSE-2.0)
/BeginEPSF { %def
/b4_Inc_state save def         % Save state for cleanup
/dict_count countdictstack def % Count objects on dict stack
/op_count count 1 sub def      % Count objects on operand stack
userdict begin                 % Push userdict on dict stack
/showpage { } def              % Redefine showpage, { } = null proc
0 setgray 0 setlinecap         % Prepare graphics state
1 setlinewidth 0 setlinejoin
10 setmiterlimit [ ] 0 setdash newpath
/languagelevel where           % If level not equal to 1 then
{pop languagelevel             % set strokeadjust and
1 ne                           % overprint to their defaults.
{false setstrokeadjust false setoverprint
} if
} if
} bd
/EndEPSF { %def
count op_count sub {pop} repeat            % Clean up stacks
countdictstack dict_count sub {end} repeat
b4_Inc_state restore
} bd
%%EndResource
%FOPBeginFontDict
%%IncludeResource: font Courier-Oblique
%%IncludeResource: font Courier-BoldOblique
%%IncludeResource: font Courier-Bold
%%IncludeResource: font ZapfDingbats
%%IncludeResource: font Symbol
%%IncludeResource: font Helvetica
%%IncludeResource: font Helvetica-Oblique
%%IncludeResource: font Helvetica-Bold
%%IncludeResource: font Helvetica-BoldOblique
%%IncludeResource: font Times-Roman
%%IncludeResource: font Times-Italic
%%IncludeResource: font Times-Bold
%%IncludeResource: font Times-BoldItalic
%%IncludeResource: font Courier
%FOPEndFontDict
%%BeginResource: encoding WinAnsiEncoding
/WinAnsiEncoding [
/.notdef /.notdef /.notdef /.notdef /.notdef
/.notdef /.notdef /.notdef /.notdef /.notdef
/.notdef /.notdef /.notdef /.notdef /.notdef
/.notdef /.notdef /.notdef /.notdef /.notdef
/.notdef /.notdef /.notdef /.notdef /.notdef
/.notdef /.notdef /.notdef /.notdef /.notdef
/.notdef /.notdef /space /exclam /quotedbl
/numbersign /dollar /percent /ampersand /quotesingle
/parenleft /parenright /asterisk /plus /comma
/hyphen /period /slash /zero /one
/two /three /four /five /six
/seven /eight /nine /colon /semicolon
/less /equal /greater /question /at
/A /B /C /D /E
/F /G /H /I /J
/K /L /M /N /O
/P /Q /R /S /T
/U /V /W /X /Y
/Z /bracketleft /backslash /bracketright /asciicircum
/underscore /quoteleft /a /b /c
/d /e /f /g /h
/i /j /k /l /m
/n /o /p /q /r
/s /t /u /v /w
/x /y /z /braceleft /bar
/braceright /asciitilde /bullet /Euro /bullet
/quotesinglbase /florin /quotedblbase /ellipsis /dagger
/daggerdbl /circumflex /perthousand /Scaron /guilsinglleft
/OE /bullet /Zcaron /bullet /bullet
/quoteleft /quoteright /quotedblleft /quotedblright /bullet
/endash /emdash /asciitilde /trademark /scaron
/guilsinglright /oe /bullet /zcaron /Ydieresis
/space /exclamdown /cent /sterling /currency
/yen /brokenbar /section /dieresis /copyright
/ordfeminine /guillemotleft /logicalnot /sfthyphen /registered
/macron /degree /plusminus /twosuperior /threesuperior
/acute /mu /paragraph /middot /cedilla
/onesuperior /ordmasculine /guillemotright /onequarter /onehalf
/threequarters /questiondown /Agrave /Aacute /Acircumflex
/Atilde /Adieresis /Aring /AE /Ccedilla
/Egrave /Eacute /Ecircumflex /Edieresis /Igrave
/Iacute /Icircumflex /Idieresis /Eth /Ntilde
/Ograve /Oacute /Ocircumflex /Otilde /Odieresis
/multiply /Oslash /Ugrave /Uacute /Ucircumflex
/Udieresis /Yacute /Thorn /germandbls /agrave
/aacute /acircumflex /atilde /adieresis /aring
/ae /ccedilla /egrave /eacute /ecircumflex
/edieresis /igrave /iacute /icircumflex /idieresis
/eth /ntilde /ograve /oacute /ocircumflex
/otilde /odieresis /divide /oslash /ugrave
/uacute /ucircumflex /udieresis /yacute /thorn
/ydieresis
] def
%%EndResource
%FOPBeginFontReencode
/Courier-Oblique findfont
dup length dict begin
  {1 index /FID ne {def} {pop pop} ifelse} forall
  /Encoding WinAnsiEncoding def
  currentdict
end
/Courier-Oblique exch definefont pop
/Courier-BoldOblique findfont
dup length dict begin
  {1 index /FID ne {def} {pop pop} ifelse} forall
  /Encoding WinAnsiEncoding def
  currentdict
end
/Courier-BoldOblique exch definefont pop
/Courier-Bold findfont
dup length dict begin
  {1 index /FID ne {def} {pop pop} ifelse} forall
  /Encoding WinAnsiEncoding def
  currentdict
end
/Courier-Bold exch definefont pop
/Helvetica findfont
dup length dict begin
  {1 index /FID ne {def} {pop pop} ifelse} forall
  /Encoding WinAnsiEncoding def
  currentdict
end
/Helvetica exch definefont pop
/Helvetica-Oblique findfont
dup length dict begin
  {1 index /FID ne {def} {pop pop} ifelse} forall
  /Encoding WinAnsiEncoding def
  currentdict
end
/Helvetica-Oblique exch definefont pop
/Helvetica-Bold findfont
dup length dict begin
  {1 index /FID ne {def} {pop pop} ifelse} forall
  /Encoding WinAnsiEncoding def
  currentdict
end
/Helvetica-Bold exch definefont pop
/Helvetica-BoldOblique findfont
dup length dict begin
  {1 index /FID ne {def} {pop pop} ifelse} forall
  /Encoding WinAnsiEncoding def
  currentdict
end
/Helvetica-BoldOblique exch definefont pop
/Times-Roman findfont
dup length dict begin
  {1 index /FID ne {def} {pop pop} ifelse} forall
  /Encoding WinAnsiEncoding def
  currentdict
end
/Times-Roman exch definefont pop
/Times-Italic findfont
dup length dict begin
  {1 index /FID ne {def} {pop pop} ifelse} forall
  /Encoding WinAnsiEncoding def
  currentdict
end
/Times-Italic exch definefont pop
/Times-Bold findfont
dup length dict begin
  {1 index /FID ne {def} {pop pop} ifelse} forall
  /Encoding WinAnsiEncoding def
  currentdict
end
/Times-Bold exch definefont pop
/Times-BoldItalic findfont
dup length dict begin
  {1 index /FID ne {def} {pop pop} ifelse} forall
  /Encoding WinAnsiEncoding def
  currentdict
end
/Times-BoldItalic exch definefont pop
/Courier findfont
dup length dict begin
  {1 index /FID ne {def} {pop pop} ifelse} forall
  /Encoding WinAnsiEncoding def
  currentdict
end
/Courier exch definefont pop
%FOPEndFontReencode
%%EndProlog
%%Page: 1 1
%%PageBoundingBox: 0 0 1440 722
%%BeginPageSetup
[1 0 0 -1 0 722] CT
%%EndPageSetup
GS
[0.75 0 0 0.75 0 -0.25] CT
1 GC
N
0 0 1920 963 re
f
GR
GS
[0.75 0 0 0.75 0 -0.25] CT
1 GC
N
0 0 1920 963 re
f
GR
GS
[0.75 0 0 0.75 0 -0.25] CT
1 GC
N
1095 401 M
1738 401 L
1738 72 L
1095 72 L
cp
f
GR
GS
[0.75 0 0 0.75 0 -0.25] CT
0.873 GC
1 LJ
0.667 LW
N
1150.532 401 M
1150.532 72 L
S
GR
GS
[0.75 0 0 0.75 0 -0.25] CT
0.873 GC
1 LJ
0.667 LW
N
1208.986 401 M
1208.986 72 L
S
GR
GS
[0.75 0 0 0.75 0 -0.25] CT
0.873 GC
1 LJ
0.667 LW
N
1267.441 401 M
1267.441 72 L
S
GR
GS
[0.75 0 0 0.75 0 -0.25] CT
0.873 GC
1 LJ
0.667 LW
N
1325.896 401 M
1325.896 72 L
S
GR
GS
[0.75 0 0 0.75 0 -0.25] CT
0.873 GC
1 LJ
0.667 LW
N
1384.35 401 M
1384.35 72 L
S
GR
GS
[0.75 0 0 0.75 0 -0.25] CT
0.873 GC
1 LJ
0.667 LW
N
1442.805 401 M
1442.805 72 L
S
GR
GS
[0.75 0 0 0.75 0 -0.25] CT
0.873 GC
1 LJ
0.667 LW
N
1501.259 401 M
1501.259 72 L
S
GR
GS
[0.75 0 0 0.75 0 -0.25] CT
0.873 GC
1 LJ
0.667 LW
N
1559.714 401 M
1559.714 72 L
S
GR
GS
[0.75 0 0 0.75 0 -0.25] CT
0.873 GC
1 LJ
0.667 LW
N
1618.168 401 M
1618.168 72 L
S
GR
GS
[0.75 0 0 0.75 0 -0.25] CT
0.873 GC
1 LJ
0.667 LW
N
1676.623 401 M
1676.623 72 L
S
GR
GS
[0.75 0 0 0.75 0 -0.25] CT
0.873 GC
1 LJ
0.667 LW
N
1735.077 401 M
1735.077 72 L
S
GR
GS
[0.75 0 0 0.75 0 -0.25] CT
0.873 GC
1 LJ
0.667 LW
N
1738 401 M
1095 401 L
S
GR
GS
[0.75 0 0 0.75 0 -0.25] CT
0.873 GC
1 LJ
0.667 LW
N
1738 335.2 M
1095 335.2 L
S
GR
GS
[0.75 0 0 0.75 0 -0.25] CT
0.873 GC
1 LJ
0.667 LW
N
1738 269.4 M
1095 269.4 L
S
GR
GS
[0.75 0 0 0.75 0 -0.25] CT
0.873 GC
1 LJ
0.667 LW
N
1738 203.6 M
1095 203.6 L
S
GR
GS
[0.75 0 0 0.75 0 -0.25] CT
0.873 GC
1 LJ
0.667 LW
N
1738 137.8 M
1095 137.8 L
S
GR
GS
[0.75 0 0 0.75 0 -0.25] CT
0.873 GC
1 LJ
0.667 LW
N
1738 72 M
1095 72 L
S
GR
GS
[0.75 0 0 0.75 0 -0.25] CT
0.149 GC
2 setlinecap
1 LJ
0.667 LW
N
1095 401 M
1738 401 L
S
GR
GS
[0.75 0 0 0.75 0 -0.25] CT
0.149 GC
2 setlinecap
1 LJ
0.667 LW
N
1150.532 401 M
1150.532 394.57 L
S
GR
GS
[0.75 0 0 0.75 0 -0.25] CT
0.149 GC
2 setlinecap
1 LJ
0.667 LW
N
1208.986 401 M
1208.986 394.57 L
S
GR
GS
[0.75 0 0 0.75 0 -0.25] CT
0.149 GC
2 setlinecap
1 LJ
0.667 LW
N
1267.441 401 M
1267.441 394.57 L
S
GR
GS
[0.75 0 0 0.75 0 -0.25] CT
0.149 GC
2 setlinecap
1 LJ
0.667 LW
N
1325.896 401 M
1325.896 394.57 L
S
GR
GS
[0.75 0 0 0.75 0 -0.25] CT
0.149 GC
2 setlinecap
1 LJ
0.667 LW
N
1384.35 401 M
1384.35 394.57 L
S
GR
GS
[0.75 0 0 0.75 0 -0.25] CT
0.149 GC
2 setlinecap
1 LJ
0.667 LW
N
1442.805 401 M
1442.805 394.57 L
S
GR
GS
[0.75 0 0 0.75 0 -0.25] CT
0.149 GC
2 setlinecap
1 LJ
0.667 LW
N
1501.259 401 M
1501.259 394.57 L
S
GR
GS
[0.75 0 0 0.75 0 -0.25] CT
0.149 GC
2 setlinecap
1 LJ
0.667 LW
N
1559.714 401 M
1559.714 394.57 L
S
GR
GS
[0.75 0 0 0.75 0 -0.25] CT
0.149 GC
2 setlinecap
1 LJ
0.667 LW
N
1618.168 401 M
1618.168 394.57 L
S
GR
GS
[0.75 0 0 0.75 0 -0.25] CT
0.149 GC
2 setlinecap
1 LJ
0.667 LW
N
1676.623 401 M
1676.623 394.57 L
S
GR
GS
[0.75 0 0 0.75 0 -0.25] CT
0.149 GC
2 setlinecap
1 LJ
0.667 LW
N
1735.077 401 M
1735.077 394.57 L
S
GR
GS
[0.75 0 0 0.75 862.8989 304.50001] CT
0.149 GC
/Helvetica 13.333 F
GS
[1 0 0 1 0 0] CT
-7.5 14 moveto 
1 -1 scale
(20) t 
GR
GR
GS
[0.75 0 0 0.75 906.73975 304.50001] CT
0.149 GC
/Helvetica 13.333 F
GS
[1 0 0 1 0 0] CT
-7.5 14 moveto 
1 -1 scale
(40) t 
GR
GR
GS
[0.75 0 0 0.75 950.58069 304.50001] CT
0.149 GC
/Helvetica 13.333 F
GS
[1 0 0 1 0 0] CT
-7.5 14 moveto 
1 -1 scale
(60) t 
GR
GR
GS
[0.75 0 0 0.75 994.42163 304.50001] CT
0.149 GC
/Helvetica 13.333 F
GS
[1 0 0 1 0 0] CT
-7.5 14 moveto 
1 -1 scale
(80) t 
GR
GR
GS
[0.75 0 0 0.75 1038.26248 304.50001] CT
0.149 GC
/Helvetica 13.333 F
GS
[1 0 0 1 0 0] CT
-11.5 14 moveto 
1 -1 scale
(100) t 
GR
GR
GS
[0.75 0 0 0.75 1082.10342 304.50001] CT
0.149 GC
/Helvetica 13.333 F
GS
[1 0 0 1 0 0] CT
-11.5 14 moveto 
1 -1 scale
(120) t 
GR
GR
GS
[0.75 0 0 0.75 1125.94427 304.50001] CT
0.149 GC
/Helvetica 13.333 F
GS
[1 0 0 1 0 0] CT
-11.5 14 moveto 
1 -1 scale
(140) t 
GR
GR
GS
[0.75 0 0 0.75 1169.78522 304.50001] CT
0.149 GC
/Helvetica 13.333 F
GS
[1 0 0 1 0 0] CT
-11.5 14 moveto 
1 -1 scale
(160) t 
GR
GR
GS
[0.75 0 0 0.75 1213.62616 304.50001] CT
0.149 GC
/Helvetica 13.333 F
GS
[1 0 0 1 0 0] CT
-11.5 14 moveto 
1 -1 scale
(180) t 
GR
GR
GS
[0.75 0 0 0.75 1257.46701 304.50001] CT
0.149 GC
/Helvetica 13.333 F
GS
[1 0 0 1 0 0] CT
-11.5 14 moveto 
1 -1 scale
(200) t 
GR
GR
GS
[0.75 0 0 0.75 1301.30795 304.50001] CT
0.149 GC
/Helvetica 13.333 F
GS
[1 0 0 1 0 0] CT
-11.5 14 moveto 
1 -1 scale
(220) t 
GR
GR
GS
[0.75 0 0 0.75 0 -0.25] CT
0.149 GC
2 setlinecap
1 LJ
0.667 LW
N
1095 401 M
1095 72 L
S
GR
GS
[0.75 0 0 0.75 0 -0.25] CT
0.149 GC
2 setlinecap
1 LJ
0.667 LW
N
1095 401 M
1101.43 401 L
S
GR
GS
[0.75 0 0 0.75 0 -0.25] CT
0.149 GC
2 setlinecap
1 LJ
0.667 LW
N
1095 335.2 M
1101.43 335.2 L
S
GR
GS
[0.75 0 0 0.75 0 -0.25] CT
0.149 GC
2 setlinecap
1 LJ
0.667 LW
N
1095 269.4 M
1101.43 269.4 L
S
GR
GS
[0.75 0 0 0.75 0 -0.25] CT
0.149 GC
2 setlinecap
1 LJ
0.667 LW
N
1095 203.6 M
1101.43 203.6 L
S
GR
GS
[0.75 0 0 0.75 0 -0.25] CT
0.149 GC
2 setlinecap
1 LJ
0.667 LW
N
1095 137.8 M
1101.43 137.8 L
S
GR
GS
[0.75 0 0 0.75 0 -0.25] CT
0.149 GC
2 setlinecap
1 LJ
0.667 LW
N
1095 72 M
1101.43 72 L
S
GR
GS
[0.75 0 0 0.75 817.24997 300.5] CT
0.149 GC
/Helvetica 13.333 F
GS
[1 0 0 1 0 0] CT
-12 5.5 moveto 
1 -1 scale
(-1) t 
GR
GR
GS
[0.75 0 0 0.75 817.24997 251.15001] CT
0.149 GC
/Helvetica 13.333 F
GS
[1 0 0 1 0 0] CT
-23 5.5 moveto 
1 -1 scale
(-0.5) t 
GR
GR
GS
[0.75 0 0 0.75 817.24997 201.8] CT
0.149 GC
/Helvetica 13.333 F
GS
[1 0 0 1 0 0] CT
-8 5.5 moveto 
1 -1 scale
(0) t 
GR
GR
GS
[0.75 0 0 0.75 817.24997 152.45] CT
0.149 GC
/Helvetica 13.333 F
GS
[1 0 0 1 0 0] CT
-19 5.5 moveto 
1 -1 scale
(0.5) t 
GR
GR
GS
[0.75 0 0 0.75 817.24997 103.1] CT
0.149 GC
/Helvetica 13.333 F
GS
[1 0 0 1 0 0] CT
-8 5.5 moveto 
1 -1 scale
(1) t 
GR
GR
GS
[0.75 0 0 0.75 817.24997 53.75] CT
0.149 GC
/Helvetica 13.333 F
GS
[1 0 0 1 0 0] CT
-19 5.5 moveto 
1 -1 scale
(1.5) t 
GR
GR
GS
[0.75 0 0 0.75 1062.37601 51.6875] CT
/Helvetica-Bold 14.667 F
GS
[1 0 0 1 0 0] CT
-181.5 -4 moveto 
1 -1 scale
(Motor velocities: left motor \(red\), right motor \(black\)) t 
GR
GR
GS
[0.75 0 0 0.75 0 -0.25] CT
1 0 0 RC
1 LJ
2.667 LW
N
1095 113.542 M
1097.923 110.939 L
1100.845 108.378 L
1103.768 105.955 L
1106.691 103.696 L
1109.614 101.718 L
1112.536 100.139 L
1115.459 99.071 L
1118.382 98.606 L
1121.305 98.844 L
1124.227 99.772 L
1127.15 101.319 L
1130.073 103.379 L
1132.995 105.808 L
1135.918 108.449 L
1138.841 111.257 L
1141.764 114.101 L
1144.686 116.963 L
1147.609 119.813 L
1150.532 122.618 L
1153.455 125.352 L
1156.377 127.996 L
1159.3 130.535 L
1162.223 132.96 L
1165.146 135.266 L
1168.068 137.45 L
1170.991 139.511 L
1173.914 141.451 L
1176.836 143.271 L
1179.759 144.976 L
1182.682 146.569 L
1185.604 148.055 L
1188.527 149.441 L
1191.45 150.73 L
1194.373 151.929 L
1197.295 153.042 L
1200.218 154.076 L
1203.141 155.035 L
1206.064 155.925 L
1208.986 156.75 L
1211.909 157.515 L
1214.832 158.225 L
1217.755 158.883 L
1220.677 159.494 L
1223.6 160.06 L
1226.523 160.587 L
1229.445 161.075 L
1232.368 161.53 L
1235.291 161.953 L
1238.214 162.347 L
1241.136 162.715 L
1244.059 163.058 L
1246.982 163.379 L
1249.905 163.679 L
1252.827 163.96 L
1255.75 164.224 L
1258.673 164.473 L
1261.595 164.707 L
1264.518 164.927 L
1267.441 165.136 L
1270.364 165.333 L
1273.286 165.521 L
1276.209 165.699 L
1279.132 165.869 L
1282.055 166.031 L
1284.977 166.186 L
1287.9 166.334 L
1290.823 166.477 L
1293.745 166.614 L
1296.668 166.747 L
1299.591 166.875 L
1302.514 166.998 L
1305.436 167.118 L
1308.359 167.235 L
1311.282 167.348 L
1314.205 167.459 L
1317.127 167.567 L
1320.05 167.673 L
1322.973 167.776 L
1325.896 167.878 L
1328.818 167.978 L
1331.741 168.076 L
1334.664 168.172 L
1337.586 168.267 L
1340.509 168.361 L
1343.432 168.454 L
1346.354 168.546 L
1349.277 168.637 L
1352.2 168.727 L
1355.123 168.816 L
1358.045 168.904 L
1360.968 168.992 L
1363.891 169.079 L
1366.814 169.166 L
1369.736 169.252 L
1372.659 169.337 L
1375.582 169.423 L
1378.505 169.507 L
1381.427 169.592 L
1384.35 169.676 L
1387.273 169.76 L
1390.195 169.843 L
1393.118 169.927 L
1396.041 170.01 L
1398.964 170.093 L
1401.886 170.175 L
1404.809 170.258 L
1407.732 170.34 L
1410.655 170.422 L
1413.577 170.504 L
1416.5 170.586 L
1419.423 170.668 L
1422.345 170.75 L
1425.268 170.832 L
1428.191 170.913 L
1431.114 170.995 L
1434.036 171.076 L
1436.959 171.157 L
1439.882 171.238 L
1442.805 171.32 L
1445.727 171.401 L
1448.65 171.482 L
1451.573 171.563 L
1454.495 171.644 L
1457.418 171.725 L
1460.341 171.806 L
1463.264 171.887 L
1466.186 171.967 L
1469.109 172.048 L
1472.032 172.129 L
1474.955 172.21 L
1477.877 172.291 L
1480.8 172.371 L
1483.723 172.452 L
1486.646 172.533 L
1489.568 172.613 L
1492.491 172.694 L
1495.414 172.774 L
1498.336 172.855 L
1501.259 172.935 L
1504.182 173.016 L
1507.104 173.097 L
1510.027 173.177 L
1512.95 173.257 L
1515.873 173.338 L
1518.795 173.418 L
1521.718 173.499 L
1524.641 173.579 L
1527.564 173.66 L
1530.486 173.74 L
1533.409 173.82 L
1536.332 173.901 L
1539.255 173.981 L
1542.177 174.062 L
1545.1 174.142 L
1548.023 174.222 L
1550.945 174.302 L
1553.868 174.383 L
1556.791 174.463 L
1559.714 174.543 L
1562.636 174.624 L
1565.559 174.704 L
1568.482 174.784 L
1571.405 174.864 L
1574.327 174.944 L
1577.25 175.025 L
1580.173 175.105 L
1583.095 175.185 L
1586.018 175.265 L
1588.941 175.345 L
1591.864 175.425 L
1594.786 175.505 L
1597.709 175.585 L
1600.632 175.666 L
1603.555 175.746 L
1606.477 175.826 L
1609.4 175.906 L
1612.323 175.986 L
1615.245 176.066 L
1618.168 176.146 L
1621.091 176.226 L
1624.014 176.306 L
1626.936 176.386 L
1629.859 176.466 L
1632.782 176.546 L
1635.705 176.626 L
1638.627 176.706 L
1641.55 176.785 L
1644.473 176.865 L
1647.396 176.945 L
1650.318 177.025 L
1653.241 177.105 L
1656.164 177.185 L
1659.086 177.265 L
1662.009 177.344 L
1664.932 177.424 L
1667.854 177.504 L
1670.777 177.584 L
1673.7 177.663 L
1676.623 177.743 L
1679.545 177.823 L
1682.468 177.903 L
1685.391 177.982 L
1688.314 178.062 L
1691.236 178.142 L
1694.159 178.221 L
1697.082 178.301 L
1700.005 178.381 L
1702.927 178.46 L
1705.85 178.54 L
1708.773 178.62 L
1711.695 178.699 L
1714.618 178.779 L
1717.541 178.858 L
1720.464 178.938 L
1723.386 179.017 L
1726.309 179.097 L
1729.232 179.176 L
1732.155 179.256 L
1735.077 179.335 L
1738 179.415 L
S
GR
GS
[0.75 0 0 0.75 0 -0.25] CT
1 LJ
2.667 LW
N
1095 260.55 M
1097.923 271.631 L
1100.845 283.933 L
1103.768 297.371 L
1106.691 311.703 L
1109.614 326.249 L
1112.536 339.689 L
1115.459 349.953 L
1118.382 354.654 L
1121.305 352.221 L
1124.227 343.088 L
1127.15 329.443 L
1130.073 313.843 L
1132.995 298.179 L
1135.918 283.475 L
1138.841 270.102 L
1141.764 258.187 L
1144.686 247.676 L
1147.609 238.438 L
1150.532 230.329 L
1153.455 223.207 L
1156.377 216.946 L
1159.3 211.431 L
1162.223 206.564 L
1165.146 202.262 L
1168.068 198.452 L
1170.991 195.071 L
1173.914 192.066 L
1176.836 189.392 L
1179.759 187.008 L
1182.682 184.882 L
1185.604 182.982 L
1188.527 181.283 L
1191.45 179.764 L
1194.373 178.403 L
1197.295 177.185 L
1200.218 176.093 L
1203.141 175.115 L
1206.064 174.238 L
1208.986 173.453 L
1211.909 172.749 L
1214.832 172.12 L
1217.755 171.557 L
1220.677 171.054 L
1223.6 170.605 L
1226.523 170.205 L
1229.445 169.849 L
1232.368 169.533 L
1235.291 169.253 L
1238.214 169.007 L
1241.136 168.789 L
1244.059 168.599 L
1246.982 168.433 L
1249.905 168.29 L
1252.827 168.166 L
1255.75 168.061 L
1258.673 167.973 L
1261.595 167.9 L
1264.518 167.84 L
1267.441 167.793 L
1270.364 167.757 L
1273.286 167.732 L
1276.209 167.716 L
1279.132 167.709 L
1282.055 167.709 L
1284.977 167.717 L
1287.9 167.731 L
1290.823 167.751 L
1293.745 167.777 L
1296.668 167.807 L
1299.591 167.842 L
1302.514 167.881 L
1305.436 167.923 L
1308.359 167.969 L
1311.282 168.019 L
1314.205 168.07 L
1317.127 168.125 L
1320.05 168.182 L
1322.973 168.24 L
1325.896 168.301 L
1328.818 168.364 L
1331.741 168.428 L
1334.664 168.494 L
1337.586 168.561 L
1340.509 168.629 L
1343.432 168.698 L
1346.354 168.769 L
1349.277 168.84 L
1352.2 168.912 L
1355.123 168.985 L
1358.045 169.059 L
1360.968 169.133 L
1363.891 169.208 L
1366.814 169.283 L
1369.736 169.359 L
1372.659 169.435 L
1375.582 169.512 L
1378.505 169.589 L
1381.427 169.666 L
1384.35 169.743 L
1387.273 169.821 L
1390.195 169.9 L
1393.118 169.978 L
1396.041 170.057 L
1398.964 170.135 L
1401.886 170.214 L
1404.809 170.293 L
1407.732 170.373 L
1410.655 170.452 L
1413.577 170.531 L
1416.5 170.611 L
1419.423 170.691 L
1422.345 170.77 L
1425.268 170.85 L
1428.191 170.93 L
1431.114 171.01 L
1434.036 171.09 L
1436.959 171.17 L
1439.882 171.25 L
1442.805 171.33 L
1445.727 171.411 L
1448.65 171.491 L
1451.573 171.571 L
1454.495 171.651 L
1457.418 171.732 L
1460.341 171.812 L
1463.264 171.892 L
1466.186 171.973 L
1469.109 172.053 L
1472.032 172.133 L
1474.955 172.214 L
1477.877 172.294 L
1480.8 172.374 L
1483.723 172.455 L
1486.646 172.535 L
1489.568 172.616 L
1492.491 172.696 L
1495.414 172.776 L
1498.336 172.857 L
1501.259 172.937 L
1504.182 173.018 L
1507.104 173.098 L
1510.027 173.178 L
1512.95 173.259 L
1515.873 173.339 L
1518.795 173.419 L
1521.718 173.5 L
1524.641 173.58 L
1527.564 173.66 L
1530.486 173.741 L
1533.409 173.821 L
1536.332 173.901 L
1539.255 173.982 L
1542.177 174.062 L
1545.1 174.142 L
1548.023 174.223 L
1550.945 174.303 L
1553.868 174.383 L
1556.791 174.463 L
1559.714 174.544 L
1562.636 174.624 L
1565.559 174.704 L
1568.482 174.784 L
1571.405 174.864 L
1574.327 174.945 L
1577.25 175.025 L
1580.173 175.105 L
1583.095 175.185 L
1586.018 175.265 L
1588.941 175.345 L
1591.864 175.425 L
1594.786 175.505 L
1597.709 175.586 L
1600.632 175.666 L
1603.555 175.746 L
1606.477 175.826 L
1609.4 175.906 L
1612.323 175.986 L
1615.245 176.066 L
1618.168 176.146 L
1621.091 176.226 L
1624.014 176.306 L
1626.936 176.386 L
1629.859 176.466 L
1632.782 176.546 L
1635.705 176.626 L
1638.627 176.706 L
1641.55 176.785 L
1644.473 176.865 L
1647.396 176.945 L
1650.318 177.025 L
1653.241 177.105 L
1656.164 177.185 L
1659.086 177.265 L
1662.009 177.344 L
1664.932 177.424 L
1667.854 177.504 L
1670.777 177.584 L
1673.7 177.664 L
1676.623 177.743 L
1679.545 177.823 L
1682.468 177.903 L
1685.391 177.982 L
1688.314 178.062 L
1691.236 178.142 L
1694.159 178.221 L
1697.082 178.301 L
1700.005 178.381 L
1702.927 178.46 L
1705.85 178.54 L
1708.773 178.62 L
1711.695 178.699 L
1714.618 178.779 L
1717.541 178.858 L
1720.464 178.938 L
1723.386 179.017 L
1726.309 179.097 L
1729.232 179.176 L
1732.155 179.256 L
1735.077 179.335 L
1738 179.415 L
S
GR
GS
[0.75 0 0 0.75 0 -0.25] CT
1 GC
N
1095 857 M
1738 857 L
1738 529 L
1095 529 L
cp
f
GR
GS
[0.75 0 0 0.75 0 -0.25] CT
0.873 GC
1 LJ
0.667 LW
N
1150.532 857 M
1150.532 529 L
S
GR
GS
[0.75 0 0 0.75 0 -0.25] CT
0.873 GC
1 LJ
0.667 LW
N
1208.986 857 M
1208.986 529 L
S
GR
GS
[0.75 0 0 0.75 0 -0.25] CT
0.873 GC
1 LJ
0.667 LW
N
1267.441 857 M
1267.441 529 L
S
GR
GS
[0.75 0 0 0.75 0 -0.25] CT
0.873 GC
1 LJ
0.667 LW
N
1325.896 857 M
1325.896 529 L
S
GR
GS
[0.75 0 0 0.75 0 -0.25] CT
0.873 GC
1 LJ
0.667 LW
N
1384.35 857 M
1384.35 529 L
S
GR
GS
[0.75 0 0 0.75 0 -0.25] CT
0.873 GC
1 LJ
0.667 LW
N
1442.805 857 M
1442.805 529 L
S
GR
GS
[0.75 0 0 0.75 0 -0.25] CT
0.873 GC
1 LJ
0.667 LW
N
1501.259 857 M
1501.259 529 L
S
GR
GS
[0.75 0 0 0.75 0 -0.25] CT
0.873 GC
1 LJ
0.667 LW
N
1559.714 857 M
1559.714 529 L
S
GR
GS
[0.75 0 0 0.75 0 -0.25] CT
0.873 GC
1 LJ
0.667 LW
N
1618.168 857 M
1618.168 529 L
S
GR
GS
[0.75 0 0 0.75 0 -0.25] CT
0.873 GC
1 LJ
0.667 LW
N
1676.623 857 M
1676.623 529 L
S
GR
GS
[0.75 0 0 0.75 0 -0.25] CT
0.873 GC
1 LJ
0.667 LW
N
1735.077 857 M
1735.077 529 L
S
GR
GS
[0.75 0 0 0.75 0 -0.25] CT
0.873 GC
1 LJ
0.667 LW
N
1738 857 M
1095 857 L
S
GR
GS
[0.75 0 0 0.75 0 -0.25] CT
0.873 GC
1 LJ
0.667 LW
N
1738 810.143 M
1095 810.143 L
S
GR
GS
[0.75 0 0 0.75 0 -0.25] CT
0.873 GC
1 LJ
0.667 LW
N
1738 763.286 M
1095 763.286 L
S
GR
GS
[0.75 0 0 0.75 0 -0.25] CT
0.873 GC
1 LJ
0.667 LW
N
1738 716.429 M
1095 716.429 L
S
GR
GS
[0.75 0 0 0.75 0 -0.25] CT
0.873 GC
1 LJ
0.667 LW
N
1738 669.571 M
1095 669.571 L
S
GR
GS
[0.75 0 0 0.75 0 -0.25] CT
0.873 GC
1 LJ
0.667 LW
N
1738 622.714 M
1095 622.714 L
S
GR
GS
[0.75 0 0 0.75 0 -0.25] CT
0.873 GC
1 LJ
0.667 LW
N
1738 575.857 M
1095 575.857 L
S
GR
GS
[0.75 0 0 0.75 0 -0.25] CT
0.873 GC
1 LJ
0.667 LW
N
1738 529 M
1095 529 L
S
GR
GS
[0.75 0 0 0.75 0 -0.25] CT
0.149 GC
2 setlinecap
1 LJ
0.667 LW
N
1095 857 M
1738 857 L
S
GR
GS
[0.75 0 0 0.75 0 -0.25] CT
0.149 GC
2 setlinecap
1 LJ
0.667 LW
N
1150.532 857 M
1150.532 850.57 L
S
GR
GS
[0.75 0 0 0.75 0 -0.25] CT
0.149 GC
2 setlinecap
1 LJ
0.667 LW
N
1208.986 857 M
1208.986 850.57 L
S
GR
GS
[0.75 0 0 0.75 0 -0.25] CT
0.149 GC
2 setlinecap
1 LJ
0.667 LW
N
1267.441 857 M
1267.441 850.57 L
S
GR
GS
[0.75 0 0 0.75 0 -0.25] CT
0.149 GC
2 setlinecap
1 LJ
0.667 LW
N
1325.896 857 M
1325.896 850.57 L
S
GR
GS
[0.75 0 0 0.75 0 -0.25] CT
0.149 GC
2 setlinecap
1 LJ
0.667 LW
N
1384.35 857 M
1384.35 850.57 L
S
GR
GS
[0.75 0 0 0.75 0 -0.25] CT
0.149 GC
2 setlinecap
1 LJ
0.667 LW
N
1442.805 857 M
1442.805 850.57 L
S
GR
GS
[0.75 0 0 0.75 0 -0.25] CT
0.149 GC
2 setlinecap
1 LJ
0.667 LW
N
1501.259 857 M
1501.259 850.57 L
S
GR
GS
[0.75 0 0 0.75 0 -0.25] CT
0.149 GC
2 setlinecap
1 LJ
0.667 LW
N
1559.714 857 M
1559.714 850.57 L
S
GR
GS
[0.75 0 0 0.75 0 -0.25] CT
0.149 GC
2 setlinecap
1 LJ
0.667 LW
N
1618.168 857 M
1618.168 850.57 L
S
GR
GS
[0.75 0 0 0.75 0 -0.25] CT
0.149 GC
2 setlinecap
1 LJ
0.667 LW
N
1676.623 857 M
1676.623 850.57 L
S
GR
GS
[0.75 0 0 0.75 0 -0.25] CT
0.149 GC
2 setlinecap
1 LJ
0.667 LW
N
1735.077 857 M
1735.077 850.57 L
S
GR
GS
[0.75 0 0 0.75 862.8989 646.49998] CT
0.149 GC
/Helvetica 13.333 F
GS
[1 0 0 1 0 0] CT
-7.5 14 moveto 
1 -1 scale
(20) t 
GR
GR
GS
[0.75 0 0 0.75 906.73975 646.49998] CT
0.149 GC
/Helvetica 13.333 F
GS
[1 0 0 1 0 0] CT
-7.5 14 moveto 
1 -1 scale
(40) t 
GR
GR
GS
[0.75 0 0 0.75 950.58069 646.49998] CT
0.149 GC
/Helvetica 13.333 F
GS
[1 0 0 1 0 0] CT
-7.5 14 moveto 
1 -1 scale
(60) t 
GR
GR
GS
[0.75 0 0 0.75 994.42163 646.49998] CT
0.149 GC
/Helvetica 13.333 F
GS
[1 0 0 1 0 0] CT
-7.5 14 moveto 
1 -1 scale
(80) t 
GR
GR
GS
[0.75 0 0 0.75 1038.26248 646.49998] CT
0.149 GC
/Helvetica 13.333 F
GS
[1 0 0 1 0 0] CT
-11.5 14 moveto 
1 -1 scale
(100) t 
GR
GR
GS
[0.75 0 0 0.75 1082.10342 646.49998] CT
0.149 GC
/Helvetica 13.333 F
GS
[1 0 0 1 0 0] CT
-11.5 14 moveto 
1 -1 scale
(120) t 
GR
GR
GS
[0.75 0 0 0.75 1125.94427 646.49998] CT
0.149 GC
/Helvetica 13.333 F
GS
[1 0 0 1 0 0] CT
-11.5 14 moveto 
1 -1 scale
(140) t 
GR
GR
GS
[0.75 0 0 0.75 1169.78522 646.49998] CT
0.149 GC
/Helvetica 13.333 F
GS
[1 0 0 1 0 0] CT
-11.5 14 moveto 
1 -1 scale
(160) t 
GR
GR
GS
[0.75 0 0 0.75 1213.62616 646.49998] CT
0.149 GC
/Helvetica 13.333 F
GS
[1 0 0 1 0 0] CT
-11.5 14 moveto 
1 -1 scale
(180) t 
GR
GR
GS
[0.75 0 0 0.75 1257.46701 646.49998] CT
0.149 GC
/Helvetica 13.333 F
GS
[1 0 0 1 0 0] CT
-11.5 14 moveto 
1 -1 scale
(200) t 
GR
GR
GS
[0.75 0 0 0.75 1301.30795 646.49998] CT
0.149 GC
/Helvetica 13.333 F
GS
[1 0 0 1 0 0] CT
-11.5 14 moveto 
1 -1 scale
(220) t 
GR
GR
GS
[0.75 0 0 0.75 0 -0.25] CT
0.149 GC
2 setlinecap
1 LJ
0.667 LW
N
1095 857 M
1095 529 L
S
GR
GS
[0.75 0 0 0.75 0 -0.25] CT
0.149 GC
2 setlinecap
1 LJ
0.667 LW
N
1095 857 M
1101.43 857 L
S
GR
GS
[0.75 0 0 0.75 0 -0.25] CT
0.149 GC
2 setlinecap
1 LJ
0.667 LW
N
1095 810.143 M
1101.43 810.143 L
S
GR
GS
[0.75 0 0 0.75 0 -0.25] CT
0.149 GC
2 setlinecap
1 LJ
0.667 LW
N
1095 763.286 M
1101.43 763.286 L
S
GR
GS
[0.75 0 0 0.75 0 -0.25] CT
0.149 GC
2 setlinecap
1 LJ
0.667 LW
N
1095 716.429 M
1101.43 716.429 L
S
GR
GS
[0.75 0 0 0.75 0 -0.25] CT
0.149 GC
2 setlinecap
1 LJ
0.667 LW
N
1095 669.571 M
1101.43 669.571 L
S
GR
GS
[0.75 0 0 0.75 0 -0.25] CT
0.149 GC
2 setlinecap
1 LJ
0.667 LW
N
1095 622.714 M
1101.43 622.714 L
S
GR
GS
[0.75 0 0 0.75 0 -0.25] CT
0.149 GC
2 setlinecap
1 LJ
0.667 LW
N
1095 575.857 M
1101.43 575.857 L
S
GR
GS
[0.75 0 0 0.75 0 -0.25] CT
0.149 GC
2 setlinecap
1 LJ
0.667 LW
N
1095 529 M
1101.43 529 L
S
GR
GS
[0.75 0 0 0.75 817.24997 642.5] CT
0.149 GC
/Helvetica 13.333 F
GS
[1 0 0 1 0 0] CT
-23 5.5 moveto 
1 -1 scale
(-3.5) t 
GR
GR
GS
[0.75 0 0 0.75 817.24997 607.35716] CT
0.149 GC
/Helvetica 13.333 F
GS
[1 0 0 1 0 0] CT
-12 5.5 moveto 
1 -1 scale
(-3) t 
GR
GR
GS
[0.75 0 0 0.75 817.24997 572.21428] CT
0.149 GC
/Helvetica 13.333 F
GS
[1 0 0 1 0 0] CT
-23 5.5 moveto 
1 -1 scale
(-2.5) t 
GR
GR
GS
[0.75 0 0 0.75 817.24997 537.07144] CT
0.149 GC
/Helvetica 13.333 F
GS
[1 0 0 1 0 0] CT
-12 5.5 moveto 
1 -1 scale
(-2) t 
GR
GR
GS
[0.75 0 0 0.75 817.24997 501.92856] CT
0.149 GC
/Helvetica 13.333 F
GS
[1 0 0 1 0 0] CT
-23 5.5 moveto 
1 -1 scale
(-1.5) t 
GR
GR
GS
[0.75 0 0 0.75 817.24997 466.78572] CT
0.149 GC
/Helvetica 13.333 F
GS
[1 0 0 1 0 0] CT
-12 5.5 moveto 
1 -1 scale
(-1) t 
GR
GR
GS
[0.75 0 0 0.75 817.24997 431.64284] CT
0.149 GC
/Helvetica 13.333 F
GS
[1 0 0 1 0 0] CT
-23 5.5 moveto 
1 -1 scale
(-0.5) t 
GR
GR
GS
[0.75 0 0 0.75 817.24997 396.5] CT
0.149 GC
/Helvetica 13.333 F
GS
[1 0 0 1 0 0] CT
-8 5.5 moveto 
1 -1 scale
(0) t 
GR
GR
GS
[0.75 0 0 0.75 1062.37601 394.4375] CT
/Helvetica-Bold 14.667 F
GS
[1 0 0 1 0 0] CT
-215 -4 moveto 
1 -1 scale
(Sound inputs: left microphone \(red\), right microphone \(black\)) t 
GR
GR
GS
[0.75 0 0 0.75 0 -0.25] CT
1 0 0 RC
1 LJ
2.667 LW
N
1095 602.603 M
1097.923 609.222 L
1100.845 616.451 L
1103.768 624.34 L
1106.691 632.934 L
1109.614 642.264 L
1112.536 652.323 L
1115.459 663.046 L
1118.382 674.269 L
1121.305 685.719 L
1124.227 697.051 L
1127.15 707.938 L
1130.073 718.154 L
1132.995 727.589 L
1135.918 736.221 L
1138.841 744.083 L
1141.764 751.224 L
1144.686 757.707 L
1147.609 763.593 L
1150.532 768.938 L
1153.455 773.793 L
1156.377 778.206 L
1159.3 782.219 L
1162.223 785.87 L
1165.146 789.192 L
1168.068 792.217 L
1170.991 794.971 L
1173.914 797.48 L
1176.836 799.766 L
1179.759 801.85 L
1182.682 803.748 L
1185.604 805.479 L
1188.527 807.057 L
1191.45 808.496 L
1194.373 809.807 L
1197.295 811.003 L
1200.218 812.094 L
1203.141 813.089 L
1206.064 813.996 L
1208.986 814.823 L
1211.909 815.578 L
1214.832 816.266 L
1217.755 816.893 L
1220.677 817.466 L
1223.6 817.988 L
1226.523 818.464 L
1229.445 818.899 L
1232.368 819.295 L
1235.291 819.657 L
1238.214 819.986 L
1241.136 820.287 L
1244.059 820.562 L
1246.982 820.812 L
1249.905 821.04 L
1252.827 821.248 L
1255.75 821.438 L
1258.673 821.611 L
1261.595 821.77 L
1264.518 821.914 L
1267.441 822.045 L
1270.364 822.165 L
1273.286 822.275 L
1276.209 822.374 L
1279.132 822.466 L
1282.055 822.549 L
1284.977 822.624 L
1287.9 822.693 L
1290.823 822.757 L
1293.745 822.814 L
1296.668 822.867 L
1299.591 822.914 L
1302.514 822.958 L
1305.436 822.998 L
1308.359 823.034 L
1311.282 823.067 L
1314.205 823.098 L
1317.127 823.125 L
1320.05 823.15 L
1322.973 823.173 L
1325.896 823.194 L
1328.818 823.213 L
1331.741 823.231 L
1334.664 823.247 L
1337.586 823.261 L
1340.509 823.274 L
1343.432 823.286 L
1346.354 823.298 L
1349.277 823.308 L
1352.2 823.317 L
1355.123 823.325 L
1358.045 823.333 L
1360.968 823.34 L
1363.891 823.346 L
1366.814 823.352 L
1369.736 823.357 L
1372.659 823.362 L
1375.582 823.366 L
1378.505 823.37 L
1381.427 823.374 L
1384.35 823.377 L
1387.273 823.38 L
1390.195 823.383 L
1393.118 823.386 L
1396.041 823.388 L
1398.964 823.39 L
1401.886 823.392 L
1404.809 823.394 L
1407.732 823.395 L
1410.655 823.397 L
1413.577 823.398 L
1416.5 823.399 L
1419.423 823.401 L
1422.345 823.402 L
1425.268 823.402 L
1428.191 823.403 L
1431.114 823.404 L
1434.036 823.405 L
1436.959 823.405 L
1439.882 823.406 L
1442.805 823.407 L
1445.727 823.407 L
1448.65 823.407 L
1451.573 823.408 L
1454.495 823.408 L
1457.418 823.409 L
1460.341 823.409 L
1463.264 823.409 L
1466.186 823.409 L
1469.109 823.41 L
1472.032 823.41 L
1474.955 823.41 L
1477.877 823.41 L
1480.8 823.41 L
1483.723 823.411 L
1486.646 823.411 L
1489.568 823.411 L
1492.491 823.411 L
1495.414 823.411 L
1498.336 823.411 L
1501.259 823.411 L
1504.182 823.411 L
1507.104 823.411 L
1510.027 823.411 L
1512.95 823.411 L
1515.873 823.412 L
1518.795 823.412 L
1521.718 823.412 L
1524.641 823.412 L
1527.564 823.412 L
1530.486 823.412 L
1533.409 823.412 L
1536.332 823.412 L
1539.255 823.412 L
1542.177 823.412 L
1545.1 823.412 L
1548.023 823.412 L
1550.945 823.412 L
1553.868 823.412 L
1556.791 823.412 L
1559.714 823.412 L
1562.636 823.412 L
1565.559 823.412 L
1568.482 823.412 L
1571.405 823.412 L
1574.327 823.412 L
1577.25 823.412 L
1580.173 823.412 L
1583.095 823.412 L
1586.018 823.412 L
1588.941 823.412 L
1591.864 823.412 L
1594.786 823.412 L
1597.709 823.412 L
1600.632 823.412 L
1603.555 823.412 L
1606.477 823.412 L
1609.4 823.412 L
1612.323 823.412 L
1615.245 823.412 L
1618.168 823.412 L
1621.091 823.412 L
1624.014 823.412 L
1626.936 823.412 L
1629.859 823.412 L
1632.782 823.412 L
1635.705 823.412 L
1638.627 823.412 L
1641.55 823.412 L
1644.473 823.412 L
1647.396 823.412 L
1650.318 823.412 L
1653.241 823.412 L
1656.164 823.412 L
1659.086 823.412 L
1662.009 823.412 L
1664.932 823.412 L
1667.854 823.412 L
1670.777 823.412 L
1673.7 823.412 L
1676.623 823.412 L
1679.545 823.412 L
1682.468 823.412 L
1685.391 823.412 L
1688.314 823.412 L
1691.236 823.412 L
1694.159 823.412 L
1697.082 823.412 L
1700.005 823.412 L
1702.927 823.412 L
1705.85 823.412 L
1708.773 823.412 L
1711.695 823.412 L
1714.618 823.412 L
1717.541 823.412 L
1720.464 823.412 L
1723.386 823.412 L
1726.309 823.412 L
1729.232 823.412 L
1732.155 823.412 L
1735.077 823.412 L
1738 823.412 L
S
GR
GS
[0.75 0 0 0.75 0 -0.25] CT
1 LJ
2.667 LW
N
1095 556.063 M
1097.923 557.906 L
1100.845 559.753 L
1103.768 561.56 L
1106.691 563.266 L
1109.614 564.79 L
1112.536 566.037 L
1115.459 566.897 L
1118.382 567.265 L
1121.305 567.077 L
1124.227 566.331 L
1127.15 565.1 L
1130.073 563.503 L
1132.995 561.663 L
1135.918 559.69 L
1138.841 557.666 L
1141.764 555.652 L
1144.686 553.689 L
1147.609 551.805 L
1150.532 550.016 L
1153.455 548.331 L
1156.377 546.755 L
1159.3 545.287 L
1162.223 543.926 L
1165.146 542.667 L
1168.068 541.506 L
1170.991 540.438 L
1173.914 539.456 L
1176.836 538.555 L
1179.759 537.729 L
1182.682 536.972 L
1185.604 536.279 L
1188.527 535.646 L
1191.45 535.066 L
1194.373 534.537 L
1197.295 534.053 L
1200.218 533.611 L
1203.141 533.208 L
1206.064 532.839 L
1208.986 532.503 L
1211.909 532.196 L
1214.832 531.916 L
1217.755 531.66 L
1220.677 531.427 L
1223.6 531.214 L
1226.523 531.02 L
1229.445 530.842 L
1232.368 530.681 L
1235.291 530.533 L
1238.214 530.399 L
1241.136 530.276 L
1244.059 530.164 L
1246.982 530.062 L
1249.905 529.969 L
1252.827 529.884 L
1255.75 529.806 L
1258.673 529.735 L
1261.595 529.671 L
1264.518 529.612 L
1267.441 529.558 L
1270.364 529.509 L
1273.286 529.465 L
1276.209 529.424 L
1279.132 529.387 L
1282.055 529.353 L
1284.977 529.322 L
1287.9 529.294 L
1290.823 529.268 L
1293.745 529.244 L
1296.668 529.223 L
1299.591 529.203 L
1302.514 529.185 L
1305.436 529.169 L
1308.359 529.154 L
1311.282 529.141 L
1314.205 529.128 L
1317.127 529.117 L
1320.05 529.107 L
1322.973 529.098 L
1325.896 529.089 L
1328.818 529.081 L
1331.741 529.074 L
1334.664 529.068 L
1337.586 529.062 L
1340.509 529.056 L
1343.432 529.051 L
1346.354 529.047 L
1349.277 529.043 L
1352.2 529.039 L
1355.123 529.036 L
1358.045 529.032 L
1360.968 529.03 L
1363.891 529.027 L
1366.814 529.025 L
1369.736 529.022 L
1372.659 529.021 L
1375.582 529.019 L
1378.505 529.017 L
1381.427 529.016 L
1384.35 529.014 L
1387.273 529.013 L
1390.195 529.012 L
1393.118 529.011 L
1396.041 529.01 L
1398.964 529.009 L
1401.886 529.008 L
1404.809 529.007 L
1407.732 529.007 L
1410.655 529.006 L
1413.577 529.006 L
1416.5 529.005 L
1419.423 529.005 L
1422.345 529.004 L
1425.268 529.004 L
1428.191 529.004 L
1431.114 529.003 L
1434.036 529.003 L
1436.959 529.003 L
1439.882 529.003 L
1442.805 529.002 L
1445.727 529.002 L
1448.65 529.002 L
1451.573 529.002 L
1454.495 529.002 L
1457.418 529.001 L
1460.341 529.001 L
1463.264 529.001 L
1466.186 529.001 L
1469.109 529.001 L
1472.032 529.001 L
1474.955 529.001 L
1477.877 529.001 L
1480.8 529.001 L
1483.723 529.001 L
1486.646 529.001 L
1489.568 529.001 L
1492.491 529 L
1495.414 529 L
1498.336 529 L
1501.259 529 L
1504.182 529 L
1507.104 529 L
1510.027 529 L
1512.95 529 L
1515.873 529 L
1518.795 529 L
1521.718 529 L
1524.641 529 L
1527.564 529 L
1530.486 529 L
1533.409 529 L
1536.332 529 L
1539.255 529 L
1542.177 529 L
1545.1 529 L
1548.023 529 L
1550.945 529 L
1553.868 529 L
1556.791 529 L
1559.714 529 L
1562.636 529 L
1565.559 529 L
1568.482 529 L
1571.405 529 L
1574.327 529 L
1577.25 529 L
1580.173 529 L
1583.095 529 L
1586.018 529 L
1588.941 529 L
1591.864 529 L
1594.786 529 L
1597.709 529 L
1600.632 529 L
1603.555 529 L
1606.477 529 L
1609.4 529 L
1612.323 529 L
1615.245 529 L
1618.168 529 L
1621.091 529 L
1624.014 529 L
1626.936 529 L
1629.859 529 L
1632.782 529 L
1635.705 529 L
1638.627 529 L
1641.55 529 L
1644.473 529 L
1647.396 529 L
1650.318 529 L
1653.241 529 L
1656.164 529 L
1659.086 529 L
1662.009 529 L
1664.932 529 L
1667.854 529 L
1670.777 529 L
1673.7 529 L
1676.623 529 L
1679.545 529 L
1682.468 529 L
1685.391 529 L
1688.314 529 L
1691.236 529 L
1694.159 529 L
1697.082 529 L
1700.005 529 L
1702.927 529 L
1705.85 529 L
1708.773 529 L
1711.695 529 L
1714.618 529 L
1717.541 529 L
1720.464 529 L
1723.386 529 L
1726.309 529 L
1729.232 529 L
1732.155 529 L
1735.077 529 L
1738 529 L
S
GR
GS
[0.75 0 0 0.75 0 -0.25] CT
1 GC
N
250 785.5 M
892 785.5 L
892 143.5 L
250 143.5 L
cp
f
GR
GS
[0.75 0 0 0.75 0 -0.25] CT
0.873 GC
1 LJ
0.667 LW
N
250 785.5 M
250 143.5 L
S
GR
GS
[0.75 0 0 0.75 0 -0.25] CT
0.873 GC
1 LJ
0.667 LW
N
357 785.5 M
357 143.5 L
S
GR
GS
[0.75 0 0 0.75 0 -0.25] CT
0.873 GC
1 LJ
0.667 LW
N
464 785.5 M
464 143.5 L
S
GR
GS
[0.75 0 0 0.75 0 -0.25] CT
0.873 GC
1 LJ
0.667 LW
N
571 785.5 M
571 143.5 L
S
GR
GS
[0.75 0 0 0.75 0 -0.25] CT
0.873 GC
1 LJ
0.667 LW
N
678 785.5 M
678 143.5 L
S
GR
GS
[0.75 0 0 0.75 0 -0.25] CT
0.873 GC
1 LJ
0.667 LW
N
785 785.5 M
785 143.5 L
S
GR
GS
[0.75 0 0 0.75 0 -0.25] CT
0.873 GC
1 LJ
0.667 LW
N
892 785.5 M
892 143.5 L
S
GR
GS
[0.75 0 0 0.75 0 -0.25] CT
0.873 GC
1 LJ
0.667 LW
N
892 785.5 M
250 785.5 L
S
GR
GS
[0.75 0 0 0.75 0 -0.25] CT
0.873 GC
1 LJ
0.667 LW
N
892 678.5 M
250 678.5 L
S
GR
GS
[0.75 0 0 0.75 0 -0.25] CT
0.873 GC
1 LJ
0.667 LW
N
892 571.5 M
250 571.5 L
S
GR
GS
[0.75 0 0 0.75 0 -0.25] CT
0.873 GC
1 LJ
0.667 LW
N
892 464.5 M
250 464.5 L
S
GR
GS
[0.75 0 0 0.75 0 -0.25] CT
0.873 GC
1 LJ
0.667 LW
N
892 357.5 M
250 357.5 L
S
GR
GS
[0.75 0 0 0.75 0 -0.25] CT
0.873 GC
1 LJ
0.667 LW
N
892 250.5 M
250 250.5 L
S
GR
GS
[0.75 0 0 0.75 0 -0.25] CT
0.873 GC
1 LJ
0.667 LW
N
892 143.5 M
250 143.5 L
S
GR
GS
[0.75 0 0 0.75 0 -0.25] CT
0.149 GC
2 setlinecap
1 LJ
0.667 LW
N
250 785.5 M
892 785.5 L
S
GR
GS
[0.75 0 0 0.75 0 -0.25] CT
0.149 GC
2 setlinecap
1 LJ
0.667 LW
N
250 785.5 M
250 779.08 L
S
GR
GS
[0.75 0 0 0.75 0 -0.25] CT
0.149 GC
2 setlinecap
1 LJ
0.667 LW
N
357 785.5 M
357 779.08 L
S
GR
GS
[0.75 0 0 0.75 0 -0.25] CT
0.149 GC
2 setlinecap
1 LJ
0.667 LW
N
464 785.5 M
464 779.08 L
S
GR
GS
[0.75 0 0 0.75 0 -0.25] CT
0.149 GC
2 setlinecap
1 LJ
0.667 LW
N
571 785.5 M
571 779.08 L
S
GR
GS
[0.75 0 0 0.75 0 -0.25] CT
0.149 GC
2 setlinecap
1 LJ
0.667 LW
N
678 785.5 M
678 779.08 L
S
GR
GS
[0.75 0 0 0.75 0 -0.25] CT
0.149 GC
2 setlinecap
1 LJ
0.667 LW
N
785 785.5 M
785 779.08 L
S
GR
GS
[0.75 0 0 0.75 0 -0.25] CT
0.149 GC
2 setlinecap
1 LJ
0.667 LW
N
892 785.5 M
892 779.08 L
S
GR
GS
[0.75 0 0 0.75 187.5 592.87498] CT
0.149 GC
/Helvetica 13.333 F
GS
[1 0 0 1 0 0] CT
-13.5 14 moveto 
1 -1 scale
(-200) t 
GR
GR
GS
[0.75 0 0 0.75 267.75 592.87498] CT
0.149 GC
/Helvetica 13.333 F
GS
[1 0 0 1 0 0] CT
-13.5 14 moveto 
1 -1 scale
(-100) t 
GR
GR
GS
[0.75 0 0 0.75 348 592.87498] CT
0.149 GC
/Helvetica 13.333 F
GS
[1 0 0 1 0 0] CT
-4 14 moveto 
1 -1 scale
(0) t 
GR
GR
GS
[0.75 0 0 0.75 428.25 592.87498] CT
0.149 GC
/Helvetica 13.333 F
GS
[1 0 0 1 0 0] CT
-11.5 14 moveto 
1 -1 scale
(100) t 
GR
GR
GS
[0.75 0 0 0.75 508.5 592.87498] CT
0.149 GC
/Helvetica 13.333 F
GS
[1 0 0 1 0 0] CT
-11.5 14 moveto 
1 -1 scale
(200) t 
GR
GR
GS
[0.75 0 0 0.75 588.75 592.87498] CT
0.149 GC
/Helvetica 13.333 F
GS
[1 0 0 1 0 0] CT
-11.5 14 moveto 
1 -1 scale
(300) t 
GR
GR
GS
[0.75 0 0 0.75 669 592.87498] CT
0.149 GC
/Helvetica 13.333 F
GS
[1 0 0 1 0 0] CT
-11.5 14 moveto 
1 -1 scale
(400) t 
GR
GR
GS
[0.75 0 0 0.75 0 -0.25] CT
0.149 GC
2 setlinecap
1 LJ
0.667 LW
N
250 785.5 M
250 143.5 L
S
GR
GS
[0.75 0 0 0.75 0 -0.25] CT
0.149 GC
2 setlinecap
1 LJ
0.667 LW
N
250 785.5 M
256.42 785.5 L
S
GR
GS
[0.75 0 0 0.75 0 -0.25] CT
0.149 GC
2 setlinecap
1 LJ
0.667 LW
N
250 678.5 M
256.42 678.5 L
S
GR
GS
[0.75 0 0 0.75 0 -0.25] CT
0.149 GC
2 setlinecap
1 LJ
0.667 LW
N
250 571.5 M
256.42 571.5 L
S
GR
GS
[0.75 0 0 0.75 0 -0.25] CT
0.149 GC
2 setlinecap
1 LJ
0.667 LW
N
250 464.5 M
256.42 464.5 L
S
GR
GS
[0.75 0 0 0.75 0 -0.25] CT
0.149 GC
2 setlinecap
1 LJ
0.667 LW
N
250 357.5 M
256.42 357.5 L
S
GR
GS
[0.75 0 0 0.75 0 -0.25] CT
0.149 GC
2 setlinecap
1 LJ
0.667 LW
N
250 250.5 M
256.42 250.5 L
S
GR
GS
[0.75 0 0 0.75 0 -0.25] CT
0.149 GC
2 setlinecap
1 LJ
0.667 LW
N
250 143.5 M
256.42 143.5 L
S
GR
GS
[0.75 0 0 0.75 183.5 588.875] CT
0.149 GC
/Helvetica 13.333 F
GS
[1 0 0 1 0 0] CT
-27 5.5 moveto 
1 -1 scale
(-200) t 
GR
GR
GS
[0.75 0 0 0.75 183.5 508.625] CT
0.149 GC
/Helvetica 13.333 F
GS
[1 0 0 1 0 0] CT
-27 5.5 moveto 
1 -1 scale
(-100) t 
GR
GR
GS
[0.75 0 0 0.75 183.5 428.375] CT
0.149 GC
/Helvetica 13.333 F
GS
[1 0 0 1 0 0] CT
-8 5.5 moveto 
1 -1 scale
(0) t 
GR
GR
GS
[0.75 0 0 0.75 183.5 348.125] CT
0.149 GC
/Helvetica 13.333 F
GS
[1 0 0 1 0 0] CT
-23 5.5 moveto 
1 -1 scale
(100) t 
GR
GR
GS
[0.75 0 0 0.75 183.5 267.875] CT
0.149 GC
/Helvetica 13.333 F
GS
[1 0 0 1 0 0] CT
-23 5.5 moveto 
1 -1 scale
(200) t 
GR
GR
GS
[0.75 0 0 0.75 183.5 187.625] CT
0.149 GC
/Helvetica 13.333 F
GS
[1 0 0 1 0 0] CT
-23 5.5 moveto 
1 -1 scale
(300) t 
GR
GR
GS
[0.75 0 0 0.75 183.5 107.375] CT
0.149 GC
/Helvetica 13.333 F
GS
[1 0 0 1 0 0] CT
-23 5.5 moveto 
1 -1 scale
(400) t 
GR
GR
GS
[0.75 0 0 0.75 428.25041 105.3125] CT
/Helvetica-Bold 14.667 F
GS
[1 0 0 1 0 0] CT
-43 -4 moveto 
1 -1 scale
(Robot arena) t 
GR
GR
GS
[0.75 0 0 0.75 588.75 187.625] CT
N
-6 -6 M
-6 6 L
6 6 L
6 -6 L
cp
f
GR
GS
[0.75 0 0 0.75 588.75 187.625] CT
10.0 ML
0.667 LW
N
-6 -6 M
-6 6 L
6 6 L
6 -6 L
cp
S
GR
GS
[0.75 0 0 0.75 267.75 508.625] CT
1 0 0 RC
N
6.667 0 M
6.667 -3.682 3.682 -6.667 0 -6.667 C
-3.682 -6.667 -6.667 -3.682 -6.667 0 C
-6.667 3.682 -3.682 6.667 0 6.667 C
3.682 6.667 6.667 3.682 6.667 0 C
cp
f
GR
GS
[0.75 0 0 0.75 267.75 508.625] CT
1 0 0 RC
N
0 -6.333 M
3.498 -6.333 6.333 -3.498 6.333 0 C
6.333 0 L
6.333 3.498 3.498 6.333 0 6.333 C
-3.498 6.333 -6.333 3.498 -6.333 0 C
-6.333 -3.498 -3.498 -6.333 0 -6.333 C
cp
0 -7 M
-3.866 -7 -7 -3.866 -7 0 C
-7 3.866 -3.866 7 0 7 C
3.866 7 7 3.866 7 0 C
7 0 L
7 -3.866 3.866 -7 0 -7 C
cp
f
GR
GS
[0.75 0 0 0.75 0 -0.25] CT
0 0.447 0.741 RC
1 LJ
2.667 LW
N
357.669 678.523 M
359.804 678.673 L
S
GR
GS
[0.75 0 0 0.75 268.25178 508.64253] CT
0.494 0.184 0.557 RC
N
0.5 0 M
0.5 0.276 0.276 0.5 0 0.5 C
-0.276 0.5 -0.5 0.276 -0.5 0 C
-0.5 -0.276 -0.276 -0.5 0 -0.5 C
0.276 -0.5 0.5 -0.276 0.5 0 C
cp
f
GR
GS
[0.75 0 0 0.75 0 -0.25] CT
0 0.447 0.741 RC
1 LJ
2.667 LW
N
358.3 678.592 M
360.418 678.903 L
S
GR
GS
[0.75 0 0 0.75 268.72524 508.69385] CT
0.302 0.745 0.933 RC
N
/f1188474679{0.5 0 M
0.5 0.276 0.276 0.5 0 0.5 C
-0.276 0.5 -0.5 0.276 -0.5 0 C
-0.5 -0.276 -0.276 -0.5 0 -0.5 C
0.276 -0.5 0.5 -0.276 0.5 0 C
cp}def
f1188474679
f
GR
GS
[0.75 0 0 0.75 0 -0.25] CT
0 0.447 0.741 RC
1 LJ
2.667 LW
N
358.885 678.703 M
360.969 679.19 L
S
GR
GS
[0.75 0 0 0.75 269.16392 508.77721] CT
0 0.447 0.741 RC
N
f1188474679
f
GR
GS
[0.75 0 0 0.75 0 -0.25] CT
0 0.447 0.741 RC
1 LJ
2.667 LW
N
359.415 678.852 M
361.446 679.526 L
S
GR
GS
[0.75 0 0 0.75 269.56133 508.88931] CT
0.929 0.694 0.125 RC
N
f1188474679
f
GR
GS
[0.75 0 0 0.75 0 -0.25] CT
0 0.447 0.741 RC
1 LJ
2.667 LW
N
359.883 679.034 M
361.837 679.905 L
S
GR
GS
[0.75 0 0 0.75 269.91199 509.02527] CT
0.467 0.675 0.188 RC
N
f1188474679
f
GR
GS
[0.75 0 0 0.75 0 -0.25] CT
0 0.447 0.741 RC
1 LJ
2.667 LW
N
360.284 679.239 M
362.135 680.313 L
S
GR
GS
[0.75 0 0 0.75 270.21275 509.17899] CT
0.635 0.078 0.184 RC
N
f1188474679
f
GR
GS
[0.75 0 0 0.75 0 -0.25] CT
0 0.447 0.741 RC
1 LJ
2.667 LW
N
360.619 679.46 M
362.336 680.737 L
S
GR
GS
[0.75 0 0 0.75 270.46458 509.34497] CT
0.851 0.325 0.098 RC
N
f1188474679
f
GR
GS
[0.75 0 0 0.75 0 -0.25] CT
0 0.447 0.741 RC
1 LJ
2.667 LW
N
360.899 679.695 M
362.452 681.167 L
S
GR
GS
[0.75 0 0 0.75 270.67394 509.52103] CT
0.494 0.184 0.557 RC
N
f1188474679
f
GR
GS
[0.75 0 0 0.75 0 -0.25] CT
0 0.447 0.741 RC
1 LJ
2.667 LW
N
361.136 679.949 M
362.499 681.599 L
S
GR
GS
[0.75 0 0 0.75 270.85185 509.71155] CT
0.302 0.745 0.933 RC
N
f1188474679
f
GR
GS
[0.75 0 0 0.75 0 -0.25] CT
0 0.447 0.741 RC
1 LJ
2.667 LW
N
361.346 680.237 M
362.501 682.038 L
S
GR
GS
[0.75 0 0 0.75 271.00941 509.92752] CT
0 0.447 0.741 RC
N
f1188474679
f
GR
GS
[0.75 0 0 0.75 0 -0.25] CT
0 0.447 0.741 RC
1 LJ
2.667 LW
N
361.537 680.576 M
362.477 682.499 L
S
GR
GS
[0.75 0 0 0.75 271.15274 510.18231] CT
0.929 0.694 0.125 RC
N
f1188474679
f
GR
GS
[0.75 0 0 0.75 0 -0.25] CT
0 0.447 0.741 RC
1 LJ
2.667 LW
N
361.708 680.981 M
362.434 682.994 L
S
GR
GS
[0.75 0 0 0.75 271.28105 510.48553] CT
0.467 0.675 0.188 RC
N
f1188474679
f
GR
GS
[0.75 0 0 0.75 0 -0.25] CT
0 0.447 0.741 RC
1 LJ
2.667 LW
N
361.852 681.453 M
362.374 683.529 L
S
GR
GS
[0.75 0 0 0.75 271.38922 510.83994] CT
0.635 0.078 0.184 RC
N
f1188474679
f
GR
GS
[0.75 0 0 0.75 0 -0.25] CT
0 0.447 0.741 RC
1 LJ
2.667 LW
N
361.961 681.99 M
362.292 684.105 L
S
GR
GS
[0.75 0 0 0.75 271.47109 511.24263] CT
0.851 0.325 0.098 RC
N
f1188474679
f
GR
GS
[0.75 0 0 0.75 0 -0.25] CT
0 0.447 0.741 RC
1 LJ
2.667 LW
N
362.029 682.583 M
362.182 684.718 L
S
GR
GS
[0.75 0 0 0.75 271.52172 511.68744] CT
0.494 0.184 0.557 RC
N
f1188474679
f
GR
GS
[0.75 0 0 0.75 0 -0.25] CT
0 0.447 0.741 RC
1 LJ
2.667 LW
N
362.051 683.223 M
362.043 685.363 L
S
GR
GS
[0.75 0 0 0.75 271.53806 512.16708] CT
0.302 0.745 0.933 RC
N
f1188474679
f
GR
GS
[0.75 0 0 0.75 0 -0.25] CT
0 0.447 0.741 RC
1 LJ
2.667 LW
N
362.025 683.899 M
361.871 686.034 L
S
GR
GS
[0.75 0 0 0.75 271.51881 512.67433] CT
0 0.447 0.741 RC
N
f1188474679
f
GR
GS
[0.75 0 0 0.75 0 -0.25] CT
0 0.447 0.741 RC
1 LJ
2.667 LW
N
361.952 684.603 M
361.666 686.724 L
S
GR
GS
[0.75 0 0 0.75 271.46416 513.20245] CT
0.929 0.694 0.125 RC
N
f1188474679
f
GR
GS
[0.75 0 0 0.75 0 -0.25] CT
0 0.447 0.741 RC
1 LJ
2.667 LW
N
361.834 685.328 M
361.428 687.429 L
S
GR
GS
[0.75 0 0 0.75 271.37519 513.74564] CT
0.467 0.675 0.188 RC
N
f1188474679
f
GR
GS
[0.75 0 0 0.75 0 -0.25] CT
0 0.447 0.741 RC
1 LJ
2.667 LW
N
361.672 686.065 M
361.159 688.143 L
S
GR
GS
[0.75 0 0 0.75 271.25368 514.29903] CT
0.635 0.078 0.184 RC
N
f1188474679
f
GR
GS
[0.75 0 0 0.75 0 -0.25] CT
0 0.447 0.741 RC
1 LJ
2.667 LW
N
361.469 686.812 M
360.861 688.864 L
S
GR
GS
[0.75 0 0 0.75 271.10184 514.85878] CT
0.851 0.325 0.098 RC
N
f1188474679
f
GR
GS
[0.75 0 0 0.75 0 -0.25] CT
0 0.447 0.741 RC
1 LJ
2.667 LW
N
361.229 687.562 M
360.535 689.587 L
S
GR
GS
[0.75 0 0 0.75 270.92194 515.42178] CT
0.494 0.184 0.557 RC
N
f1188474679
f
GR
GS
[0.75 0 0 0.75 0 -0.25] CT
0 0.447 0.741 RC
1 LJ
2.667 LW
N
360.955 688.314 M
360.184 690.31 L
S
GR
GS
[0.75 0 0 0.75 270.71638 515.98561] CT
0.302 0.745 0.933 RC
N
f1188474679
f
GR
GS
[0.75 0 0 0.75 0 -0.25] CT
0 0.447 0.741 RC
1 LJ
2.667 LW
N
360.65 689.065 M
359.809 691.032 L
S
GR
GS
[0.75 0 0 0.75 270.48747 516.54839] CT
0 0.447 0.741 RC
N
f1188474679
f
GR
GS
[0.75 0 0 0.75 0 -0.25] CT
0 0.447 0.741 RC
1 LJ
2.667 LW
N
360.317 689.812 M
359.414 691.752 L
S
GR
GS
[0.75 0 0 0.75 270.23744 517.10878] CT
0.929 0.694 0.125 RC
N
f1188474679
f
GR
GS
[0.75 0 0 0.75 0 -0.25] CT
0 0.447 0.741 RC
1 LJ
2.667 LW
N
359.958 690.554 M
358.999 692.468 L
S
GR
GS
[0.75 0 0 0.75 269.96832 517.66579] CT
0.467 0.675 0.188 RC
N
f1188474679
f
GR
GS
[0.75 0 0 0.75 0 -0.25] CT
0 0.447 0.741 RC
1 LJ
2.667 LW
N
359.576 691.292 M
358.567 693.179 L
S
GR
GS
[0.75 0 0 0.75 269.68204 518.21872] CT
0.635 0.078 0.184 RC
N
f1188474679
f
GR
GS
[0.75 0 0 0.75 0 -0.25] CT
0 0.447 0.741 RC
1 LJ
2.667 LW
N
359.174 692.023 M
358.12 693.885 L
S
GR
GS
[0.75 0 0 0.75 269.38033 518.76712] CT
0.851 0.325 0.098 RC
N
f1188474679
f
GR
GS
[0.75 0 0 0.75 0 -0.25] CT
0 0.447 0.741 RC
1 LJ
2.667 LW
N
358.753 692.748 M
357.659 694.586 L
S
GR
GS
[0.75 0 0 0.75 269.06481 519.31067] CT
0.494 0.184 0.557 RC
N
f1188474679
f
GR
GS
[0.75 0 0 0.75 0 -0.25] CT
0 0.447 0.741 RC
1 LJ
2.667 LW
N
358.316 693.466 M
357.185 695.282 L
S
GR
GS
[0.75 0 0 0.75 268.73689 519.84927] CT
0.302 0.745 0.933 RC
N
f1188474679
f
GR
GS
[0.75 0 0 0.75 0 -0.25] CT
0 0.447 0.741 RC
1 LJ
2.667 LW
N
357.864 694.177 M
356.7 695.973 L
S
GR
GS
[0.75 0 0 0.75 268.3979 520.38293] CT
0 0.447 0.741 RC
N
f1188474679
f
GR
GS
[0.75 0 0 0.75 0 -0.25] CT
0 0.447 0.741 RC
1 LJ
2.667 LW
N
357.399 694.882 M
356.205 696.658 L
S
GR
GS
[0.75 0 0 0.75 268.04899 520.91161] CT
0.929 0.694 0.125 RC
N
f1188474679
f
GR
GS
[0.75 0 0 0.75 0 -0.25] CT
0 0.447 0.741 RC
1 LJ
2.667 LW
N
356.922 695.581 M
355.701 697.339 L
S
GR
GS
[0.75 0 0 0.75 267.69118 521.43552] CT
0.467 0.675 0.188 RC
N
f1188474679
f
GR
GS
[0.75 0 0 0.75 0 -0.25] CT
0 0.447 0.741 RC
1 LJ
2.667 LW
N
356.434 696.273 M
355.19 698.014 L
S
GR
GS
[0.75 0 0 0.75 267.32545 521.95476] CT
0.635 0.078 0.184 RC
N
f1188474679
f
GR
GS
[0.75 0 0 0.75 0 -0.25] CT
0 0.447 0.741 RC
1 LJ
2.667 LW
N
355.937 696.959 M
354.671 698.685 L
S
GR
GS
[0.75 0 0 0.75 266.9526 522.46956] CT
0.851 0.325 0.098 RC
N
f1188474679
f
GR
GS
[0.75 0 0 0.75 0 -0.25] CT
0 0.447 0.741 RC
1 LJ
2.667 LW
N
355.431 697.64 M
354.145 699.351 L
S
GR
GS
[0.75 0 0 0.75 266.57341 522.98006] CT
0.494 0.184 0.557 RC
N
f1188474679
f
GR
GS
[0.75 0 0 0.75 0 -0.25] CT
0 0.447 0.741 RC
1 LJ
2.667 LW
N
354.918 698.315 M
353.614 700.012 L
S
GR
GS
[0.75 0 0 0.75 266.18852 523.48653] CT
0.302 0.745 0.933 RC
N
f1188474679
f
GR
GS
[0.75 0 0 0.75 0 -0.25] CT
0 0.447 0.741 RC
1 LJ
2.667 LW
N
354.398 698.986 M
353.078 700.67 L
S
GR
GS
[0.75 0 0 0.75 265.79858 523.9892] CT
0 0.447 0.741 RC
N
f1188474679
f
GR
GS
[0.75 0 0 0.75 0 -0.25] CT
0 0.447 0.741 RC
1 LJ
2.667 LW
N
353.872 699.651 M
352.538 701.324 L
S
GR
GS
[0.75 0 0 0.75 265.40408 524.4882] CT
0.929 0.694 0.125 RC
N
f1188474679
f
GR
GS
[0.75 0 0 0.75 0 -0.25] CT
0 0.447 0.741 RC
1 LJ
2.667 LW
N
353.341 700.312 M
351.993 701.974 L
S
GR
GS
[0.75 0 0 0.75 265.00552 524.98387] CT
0.467 0.675 0.188 RC
N
f1188474679
f
GR
GS
[0.75 0 0 0.75 0 -0.25] CT
0 0.447 0.741 RC
1 LJ
2.667 LW
N
352.804 700.968 M
351.445 702.621 L
S
GR
GS
[0.75 0 0 0.75 264.60333 525.47633] CT
0.635 0.078 0.184 RC
N
f1188474679
f
GR
GS
[0.75 0 0 0.75 0 -0.25] CT
0 0.447 0.741 RC
1 LJ
2.667 LW
N
352.264 701.621 M
350.893 703.265 L
S
GR
GS
[0.75 0 0 0.75 264.19791 525.96582] CT
0.851 0.325 0.098 RC
N
f1188474679
f
GR
GS
[0.75 0 0 0.75 0 -0.25] CT
0 0.447 0.741 RC
1 LJ
2.667 LW
N
351.719 702.27 M
350.339 703.905 L
S
GR
GS
[0.75 0 0 0.75 263.78959 526.45251] CT
0.494 0.184 0.557 RC
N
f1188474679
f
GR
GS
[0.75 0 0 0.75 0 -0.25] CT
0 0.447 0.741 RC
1 LJ
2.667 LW
N
351.172 702.915 M
349.782 704.543 L
S
GR
GS
[0.75 0 0 0.75 263.3787 526.9366] CT
0.302 0.745 0.933 RC
N
f1188474679
f
GR
GS
[0.75 0 0 0.75 0 -0.25] CT
0 0.447 0.741 RC
1 LJ
2.667 LW
N
350.621 703.558 M
349.223 705.178 L
S
GR
GS
[0.75 0 0 0.75 262.9655 527.41826] CT
0 0.447 0.741 RC
N
f1188474679
f
GR
GS
[0.75 0 0 0.75 0 -0.25] CT
0 0.447 0.741 RC
1 LJ
2.667 LW
N
350.067 704.197 M
348.662 705.811 L
S
GR
GS
[0.75 0 0 0.75 262.55024 527.89763] CT
0.929 0.694 0.125 RC
N
f1188474679
f
GR
GS
[0.75 0 0 0.75 0 -0.25] CT
0 0.447 0.741 RC
1 LJ
2.667 LW
N
349.511 704.833 M
348.099 706.442 L
S
GR
GS
[0.75 0 0 0.75 262.13317 528.37489] CT
0.467 0.675 0.188 RC
N
f1188474679
f
GR
GS
[0.75 0 0 0.75 0 -0.25] CT
0 0.447 0.741 RC
1 LJ
2.667 LW
N
348.953 705.467 M
347.535 707.07 L
S
GR
GS
[0.75 0 0 0.75 261.71448 528.85014] CT
0.635 0.078 0.184 RC
N
f1188474679
f
GR
GS
[0.75 0 0 0.75 0 -0.25] CT
0 0.447 0.741 RC
1 LJ
2.667 LW
N
348.392 706.098 M
346.969 707.696 L
S
GR
GS
[0.75 0 0 0.75 261.29436 529.32356] CT
0.851 0.325 0.098 RC
N
f1188474679
f
GR
GS
[0.75 0 0 0.75 0 -0.25] CT
0 0.447 0.741 RC
1 LJ
2.667 LW
N
347.831 706.727 M
346.402 708.321 L
S
GR
GS
[0.75 0 0 0.75 260.87295 529.79524] CT
0.494 0.184 0.557 RC
N
f1188474679
f
GR
GS
[0.75 0 0 0.75 0 -0.25] CT
0 0.447 0.741 RC
1 LJ
2.667 LW
N
347.267 707.354 M
345.834 708.943 L
S
GR
GS
[0.75 0 0 0.75 260.45045 530.26532] CT
0.302 0.745 0.933 RC
N
f1188474679
f
GR
GS
[0.75 0 0 0.75 0 -0.25] CT
0 0.447 0.741 RC
1 LJ
2.667 LW
N
346.703 707.979 M
345.266 709.564 L
S
GR
GS
[0.75 0 0 0.75 260.02695 530.73389] CT
0 0.447 0.741 RC
N
f1188474679
f
GR
GS
[0.75 0 0 0.75 0 -0.25] CT
0 0.447 0.741 RC
1 LJ
2.667 LW
N
346.137 708.601 M
344.696 710.184 L
S
GR
GS
[0.75 0 0 0.75 259.60258 531.20103] CT
0.929 0.694 0.125 RC
N
f1188474679
f
GR
GS
[0.75 0 0 0.75 0 -0.25] CT
0 0.447 0.741 RC
1 LJ
2.667 LW
N
345.57 709.222 M
344.126 710.802 L
S
GR
GS
[0.75 0 0 0.75 259.17748 531.66685] CT
0.467 0.675 0.188 RC
N
f1188474679
f
GR
GS
[0.75 0 0 0.75 0 -0.25] CT
0 0.447 0.741 RC
1 LJ
2.667 LW
N
345.002 709.842 M
343.555 711.418 L
S
GR
GS
[0.75 0 0 0.75 258.75174 532.13139] CT
0.635 0.078 0.184 RC
N
f1188474679
f
GR
GS
[0.75 0 0 0.75 0 -0.25] CT
0 0.447 0.741 RC
1 LJ
2.667 LW
N
344.434 710.46 M
342.984 712.033 L
S
GR
GS
[0.75 0 0 0.75 258.32542 532.59479] CT
0.851 0.325 0.098 RC
N
f1188474679
f
GR
GS
[0.75 0 0 0.75 0 -0.25] CT
0 0.447 0.741 RC
1 LJ
2.667 LW
N
343.865 711.076 M
342.412 712.647 L
S
GR
GS
[0.75 0 0 0.75 257.89863 533.05708] CT
0.494 0.184 0.557 RC
N
f1188474679
f
GR
GS
[0.75 0 0 0.75 0 -0.25] CT
0 0.447 0.741 RC
1 LJ
2.667 LW
N
343.295 711.691 M
341.84 713.26 L
S
GR
GS
[0.75 0 0 0.75 257.47144 533.51837] CT
0.302 0.745 0.933 RC
N
f1188474679
f
GR
GS
[0.75 0 0 0.75 0 -0.25] CT
0 0.447 0.741 RC
1 LJ
2.667 LW
N
342.725 712.305 M
341.268 713.872 L
S
GR
GS
[0.75 0 0 0.75 257.04391 533.97861] CT
0 0.447 0.741 RC
N
f1188474679
f
GR
GS
[0.75 0 0 0.75 0 -0.25] CT
0 0.447 0.741 RC
1 LJ
2.667 LW
N
342.155 712.917 M
340.695 714.482 L
S
GR
GS
[0.75 0 0 0.75 256.61613 534.43797] CT
0.929 0.694 0.125 RC
N
f1188474679
f
GR
GS
[0.75 0 0 0.75 0 -0.25] CT
0 0.447 0.741 RC
1 LJ
2.667 LW
N
341.584 713.529 M
340.123 715.092 L
S
GR
GS
[0.75 0 0 0.75 256.18813 534.89647] CT
0.467 0.675 0.188 RC
N
f1188474679
f
GR
GS
[0.75 0 0 0.75 0 -0.25] CT
0 0.447 0.741 RC
1 LJ
2.667 LW
N
341.013 714.139 M
339.55 715.701 L
S
GR
GS
[0.75 0 0 0.75 255.75993 535.3541] CT
0.635 0.078 0.184 RC
N
f1188474679
f
GR
GS
[0.75 0 0 0.75 0 -0.25] CT
0 0.447 0.741 RC
1 LJ
2.667 LW
N
340.442 714.748 M
338.978 716.308 L
S
GR
GS
[0.75 0 0 0.75 255.33163 535.81094] CT
0.851 0.325 0.098 RC
N
f1188474679
f
GR
GS
[0.75 0 0 0.75 0 -0.25] CT
0 0.447 0.741 RC
1 LJ
2.667 LW
N
339.871 715.356 M
338.405 716.915 L
S
GR
GS
[0.75 0 0 0.75 254.90325 536.26706] CT
0.494 0.184 0.557 RC
N
f1188474679
f
GR
GS
[0.75 0 0 0.75 0 -0.25] CT
0 0.447 0.741 RC
1 LJ
2.667 LW
N
339.3 715.963 M
337.833 717.521 L
S
GR
GS
[0.75 0 0 0.75 254.47483 536.7224] CT
0.302 0.745 0.933 RC
N
f1188474679
f
GR
GS
[0.75 0 0 0.75 0 -0.25] CT
0 0.447 0.741 RC
1 LJ
2.667 LW
N
338.729 716.569 M
337.26 718.126 L
S
GR
GS
[0.75 0 0 0.75 254.04641 537.17709] CT
0 0.447 0.741 RC
N
f1188474679
f
GR
GS
[0.75 0 0 0.75 0 -0.25] CT
0 0.447 0.741 RC
1 LJ
2.667 LW
N
338.157 717.175 M
336.688 718.731 L
S
GR
GS
[0.75 0 0 0.75 253.61801 537.63115] CT
0.929 0.694 0.125 RC
N
f1188474679
f
GR
GS
[0.75 0 0 0.75 0 -0.25] CT
0 0.447 0.741 RC
1 LJ
2.667 LW
N
337.586 717.779 M
336.116 719.334 L
S
GR
GS
[0.75 0 0 0.75 253.18966 538.08452] CT
0.467 0.675 0.188 RC
N
f1188474679
f
GR
GS
[0.75 0 0 0.75 0 -0.25] CT
0 0.447 0.741 RC
1 LJ
2.667 LW
N
337.015 718.383 M
335.544 719.937 L
S
GR
GS
[0.75 0 0 0.75 252.7614 538.53734] CT
0.635 0.078 0.184 RC
N
f1188474679
f
GR
GS
[0.75 0 0 0.75 0 -0.25] CT
0 0.447 0.741 RC
1 LJ
2.667 LW
N
336.444 718.986 M
334.973 720.54 L
S
GR
GS
[0.75 0 0 0.75 252.33321 538.98952] CT
0.851 0.325 0.098 RC
N
f1188474679
f
GR
GS
[0.75 0 0 0.75 0 -0.25] CT
0 0.447 0.741 RC
1 LJ
2.667 LW
N
335.874 719.588 M
334.401 721.141 L
S
GR
GS
[0.75 0 0 0.75 251.90517 539.44115] CT
0.494 0.184 0.557 RC
N
f1188474679
f
GR
GS
[0.75 0 0 0.75 0 -0.25] CT
0 0.447 0.741 RC
1 LJ
2.667 LW
N
335.303 720.19 M
333.83 721.742 L
S
GR
GS
[0.75 0 0 0.75 251.47726 539.89227] CT
0.302 0.745 0.933 RC
N
f1188474679
f
GR
GS
[0.75 0 0 0.75 0 -0.25] CT
0 0.447 0.741 RC
1 LJ
2.667 LW
N
334.733 720.79 M
333.259 722.342 L
S
GR
GS
[0.75 0 0 0.75 251.04952 540.3428] CT
0 0.447 0.741 RC
N
f1188474679
f
GR
GS
[0.75 0 0 0.75 0 -0.25] CT
0 0.447 0.741 RC
1 LJ
2.667 LW
N
334.163 721.39 M
332.688 722.942 L
S
GR
GS
[0.75 0 0 0.75 250.62195 540.79283] CT
0.929 0.694 0.125 RC
N
f1188474679
f
GR
GS
[0.75 0 0 0.75 0 -0.25] CT
0 0.447 0.741 RC
1 LJ
2.667 LW
N
333.593 721.99 M
332.118 723.541 L
S
GR
GS
[0.75 0 0 0.75 250.19458 541.2424] CT
0.467 0.675 0.188 RC
N
f1188474679
f
GR
GS
[0.75 0 0 0.75 0 -0.25] CT
0 0.447 0.741 RC
1 LJ
2.667 LW
N
333.023 722.589 M
331.548 724.139 L
S
GR
GS
[0.75 0 0 0.75 249.76742 541.69142] CT
0.635 0.078 0.184 RC
N
f1188474679
f
GR
GS
[0.75 0 0 0.75 0 -0.25] CT
0 0.447 0.741 RC
1 LJ
2.667 LW
N
332.454 723.187 M
330.978 724.737 L
S
GR
GS
[0.75 0 0 0.75 249.34046 542.14003] CT
0.851 0.325 0.098 RC
N
f1188474679
f
GR
GS
[0.75 0 0 0.75 0 -0.25] CT
0 0.447 0.741 RC
1 LJ
2.667 LW
N
331.885 723.784 M
330.409 725.334 L
S
GR
GS
[0.75 0 0 0.75 248.91373 542.58813] CT
0.494 0.184 0.557 RC
N
f1188474679
f
GR
GS
[0.75 0 0 0.75 0 -0.25] CT
0 0.447 0.741 RC
1 LJ
2.667 LW
N
331.316 724.381 M
329.84 725.93 L
S
GR
GS
[0.75 0 0 0.75 248.48726 543.03578] CT
0.302 0.745 0.933 RC
N
f1188474679
f
GR
GS
[0.75 0 0 0.75 0 -0.25] CT
0 0.447 0.741 RC
1 LJ
2.667 LW
N
330.748 724.977 M
329.271 726.526 L
S
GR
GS
[0.75 0 0 0.75 248.06101 543.48297] CT
0 0.447 0.741 RC
N
f1188474679
f
GR
GS
[0.75 0 0 0.75 0 -0.25] CT
0 0.447 0.741 RC
1 LJ
2.667 LW
N
330.18 725.573 M
328.703 727.122 L
S
GR
GS
[0.75 0 0 0.75 247.63504 543.92975] CT
0.929 0.694 0.125 RC
N
f1188474679
f
GR
GS
[0.75 0 0 0.75 0 -0.25] CT
0 0.447 0.741 RC
1 LJ
2.667 LW
N
329.612 726.168 M
328.135 727.716 L
S
GR
GS
[0.75 0 0 0.75 247.20932 544.37607] CT
0.467 0.675 0.188 RC
N
f1188474679
f
GR
GS
[0.75 0 0 0.75 0 -0.25] CT
0 0.447 0.741 RC
1 LJ
2.667 LW
N
329.045 726.763 M
327.568 728.311 L
S
GR
GS
[0.75 0 0 0.75 246.78385 544.82198] CT
0.635 0.078 0.184 RC
N
f1188474679
f
GR
GS
[0.75 0 0 0.75 0 -0.25] CT
0 0.447 0.741 RC
1 LJ
2.667 LW
N
328.478 727.357 M
327.001 728.905 L
S
GR
GS
[0.75 0 0 0.75 246.35868 545.26743] CT
0.851 0.325 0.098 RC
N
f1188474679
f
GR
GS
[0.75 0 0 0.75 0 -0.25] CT
0 0.447 0.741 RC
1 LJ
2.667 LW
N
327.912 727.95 M
326.434 729.498 L
S
GR
GS
[0.75 0 0 0.75 245.93378 545.71251] CT
0.494 0.184 0.557 RC
N
f1188474679
f
GR
GS
[0.75 0 0 0.75 0 -0.25] CT
0 0.447 0.741 RC
1 LJ
2.667 LW
N
327.346 728.543 M
325.868 730.091 L
S
GR
GS
[0.75 0 0 0.75 245.50919 546.15718] CT
0.302 0.745 0.933 RC
N
f1188474679
f
GR
GS
[0.75 0 0 0.75 0 -0.25] CT
0 0.447 0.741 RC
1 LJ
2.667 LW
N
326.78 729.135 M
325.302 730.683 L
S
GR
GS
[0.75 0 0 0.75 245.08486 546.60144] CT
0 0.447 0.741 RC
N
f1188474679
f
GR
GS
[0.75 0 0 0.75 0 -0.25] CT
0 0.447 0.741 RC
1 LJ
2.667 LW
N
326.214 729.727 M
324.736 731.274 L
S
GR
GS
[0.75 0 0 0.75 244.66086 547.04529] CT
0.929 0.694 0.125 RC
N
f1188474679
f
GR
GS
[0.75 0 0 0.75 0 -0.25] CT
0 0.447 0.741 RC
1 LJ
2.667 LW
N
325.65 730.318 M
324.171 731.866 L
S
GR
GS
[0.75 0 0 0.75 244.23715 547.48872] CT
0.467 0.675 0.188 RC
N
f1188474679
f
GR
GS
[0.75 0 0 0.75 0 -0.25] CT
0 0.447 0.741 RC
1 LJ
2.667 LW
N
325.085 730.909 M
323.606 732.456 L
S
GR
GS
[0.75 0 0 0.75 243.81374 547.93179] CT
0.635 0.078 0.184 RC
N
f1188474679
f
GR
GS
[0.75 0 0 0.75 0 -0.25] CT
0 0.447 0.741 RC
1 LJ
2.667 LW
N
324.521 731.499 M
323.042 733.046 L
S
GR
GS
[0.75 0 0 0.75 243.39063 548.3745] CT
0.851 0.325 0.098 RC
N
f1188474679
f
GR
GS
[0.75 0 0 0.75 0 -0.25] CT
0 0.447 0.741 RC
1 LJ
2.667 LW
N
323.957 732.089 M
322.478 733.636 L
S
GR
GS
[0.75 0 0 0.75 242.96784 548.81679] CT
0.494 0.184 0.557 RC
N
f1188474679
f
GR
GS
[0.75 0 0 0.75 0 -0.25] CT
0 0.447 0.741 RC
1 LJ
2.667 LW
N
323.394 732.678 M
321.915 734.225 L
S
GR
GS
[0.75 0 0 0.75 242.54535 549.25867] CT
0.302 0.745 0.933 RC
N
f1188474679
f
GR
GS
[0.75 0 0 0.75 0 -0.25] CT
0 0.447 0.741 RC
1 LJ
2.667 LW
N
322.831 733.267 M
321.352 734.814 L
S
GR
GS
[0.75 0 0 0.75 242.1232 549.70018] CT
0 0.447 0.741 RC
N
f1188474679
f
GR
GS
[0.75 0 0 0.75 0 -0.25] CT
0 0.447 0.741 RC
1 LJ
2.667 LW
N
322.268 733.855 M
320.789 735.402 L
S
GR
GS
[0.75 0 0 0.75 241.70135 550.14133] CT
0.929 0.694 0.125 RC
N
f1188474679
f
GR
GS
[0.75 0 0 0.75 0 -0.25] CT
0 0.447 0.741 RC
1 LJ
2.667 LW
N
321.706 734.443 M
320.227 735.989 L
S
GR
GS
[0.75 0 0 0.75 241.27982 550.58211] CT
0.467 0.675 0.188 RC
N
f1188474679
f
GR
GS
[0.75 0 0 0.75 0 -0.25] CT
0 0.447 0.741 RC
1 LJ
2.667 LW
N
321.145 735.03 M
319.666 736.576 L
S
GR
GS
[0.75 0 0 0.75 240.8586 551.02248] CT
0.635 0.078 0.184 RC
N
f1188474679
f
GR
GS
[0.75 0 0 0.75 0 -0.25] CT
0 0.447 0.741 RC
1 LJ
2.667 LW
N
320.584 735.617 M
319.104 737.163 L
S
GR
GS
[0.75 0 0 0.75 240.43771 551.46252] CT
0.851 0.325 0.098 RC
N
f1188474679
f
GR
GS
[0.75 0 0 0.75 0 -0.25] CT
0 0.447 0.741 RC
1 LJ
2.667 LW
N
320.023 736.203 M
318.544 737.749 L
S
GR
GS
[0.75 0 0 0.75 240.01717 551.90216] CT
0.494 0.184 0.557 RC
N
f1188474679
f
GR
GS
[0.75 0 0 0.75 0 -0.25] CT
0 0.447 0.741 RC
1 LJ
2.667 LW
N
319.463 736.789 M
317.983 738.335 L
S
GR
GS
[0.75 0 0 0.75 239.59692 552.34143] CT
0.302 0.745 0.933 RC
N
f1188474679
f
GR
GS
[0.75 0 0 0.75 0 -0.25] CT
0 0.447 0.741 RC
1 LJ
2.667 LW
N
318.903 737.374 M
317.423 738.92 L
S
GR
GS
[0.75 0 0 0.75 239.17703 552.78033] CT
0 0.447 0.741 RC
N
f1188474679
f
GR
GS
[0.75 0 0 0.75 0 -0.25] CT
0 0.447 0.741 RC
1 LJ
2.667 LW
N
318.343 737.958 M
316.864 739.505 L
S
GR
GS
[0.75 0 0 0.75 238.75745 553.21887] CT
0.929 0.694 0.125 RC
N
f1188474679
f
GR
GS
[0.75 0 0 0.75 0 -0.25] CT
0 0.447 0.741 RC
1 LJ
2.667 LW
N
317.784 738.543 M
316.305 740.089 L
S
GR
GS
[0.75 0 0 0.75 238.3382 553.65704] CT
0.467 0.675 0.188 RC
N
f1188474679
f
GR
GS
[0.75 0 0 0.75 0 -0.25] CT
0 0.447 0.741 RC
1 LJ
2.667 LW
N
317.226 739.126 M
315.746 740.673 L
S
GR
GS
[0.75 0 0 0.75 237.91928 554.09485] CT
0.635 0.078 0.184 RC
N
f1188474679
f
GR
GS
[0.75 0 0 0.75 0 -0.25] CT
0 0.447 0.741 RC
1 LJ
2.667 LW
N
316.668 739.71 M
315.188 741.256 L
S
GR
GS
[0.75 0 0 0.75 237.5007 554.53229] CT
0.851 0.325 0.098 RC
N
f1188474679
f
GR
GS
[0.75 0 0 0.75 0 -0.25] CT
0 0.447 0.741 RC
1 LJ
2.667 LW
N
316.11 740.293 M
314.63 741.839 L
S
GR
GS
[0.75 0 0 0.75 237.08244 554.96941] CT
0.494 0.184 0.557 RC
N
f1188474679
f
GR
GS
[0.75 0 0 0.75 0 -0.25] CT
0 0.447 0.741 RC
1 LJ
2.667 LW
N
315.553 740.875 M
314.073 742.421 L
S
GR
GS
[0.75 0 0 0.75 236.66453 555.40611] CT
0.302 0.745 0.933 RC
N
f1188474679
f
GR
GS
[0.75 0 0 0.75 0 -0.25] CT
0 0.447 0.741 RC
1 LJ
2.667 LW
N
314.996 741.457 M
313.516 743.003 L
S
GR
GS
[0.75 0 0 0.75 236.24693 555.84245] CT
0 0.447 0.741 RC
N
f1188474679
f
GR
GS
[0.75 0 0 0.75 0 -0.25] CT
0 0.447 0.741 RC
1 LJ
2.667 LW
N
314.44 742.038 M
312.96 743.584 L
S
GR
GS
[0.75 0 0 0.75 235.82968 556.27843] CT
0.929 0.694 0.125 RC
N
f1188474679
f
GR
GS
[0.75 0 0 0.75 0 -0.25] CT
0 0.447 0.741 RC
1 LJ
2.667 LW
N
313.884 742.619 M
312.404 744.165 L
S
GR
GS
[0.75 0 0 0.75 235.41277 556.71408] CT
0.467 0.675 0.188 RC
N
f1188474679
f
GR
GS
[0.75 0 0 0.75 0 -0.25] CT
0 0.447 0.741 RC
1 LJ
2.667 LW
N
313.328 743.199 M
311.849 744.745 L
S
GR
GS
[0.75 0 0 0.75 234.99619 557.14932] CT
0.635 0.078 0.184 RC
N
f1188474679
f
GR
GS
[0.75 0 0 0.75 0 -0.25] CT
0 0.447 0.741 RC
1 LJ
2.667 LW
N
312.773 743.779 M
311.294 745.325 L
S
GR
GS
[0.75 0 0 0.75 234.57994 557.58424] CT
0.851 0.325 0.098 RC
N
f1188474679
f
GR
GS
[0.75 0 0 0.75 0 -0.25] CT
0 0.447 0.741 RC
1 LJ
2.667 LW
N
312.219 744.358 M
310.739 745.904 L
S
GR
GS
[0.75 0 0 0.75 234.16404 558.0188] CT
0.494 0.184 0.557 RC
N
f1188474679
f
GR
GS
[0.75 0 0 0.75 0 -0.25] CT
0 0.447 0.741 RC
1 LJ
2.667 LW
N
311.665 744.937 M
310.185 746.483 L
S
GR
GS
[0.75 0 0 0.75 233.74846 558.45299] CT
0.302 0.745 0.933 RC
N
f1188474679
f
GR
GS
[0.75 0 0 0.75 0 -0.25] CT
0 0.447 0.741 RC
1 LJ
2.667 LW
N
311.111 745.516 M
309.631 747.062 L
S
GR
GS
[0.75 0 0 0.75 233.33322 558.88681] CT
0 0.447 0.741 RC
N
f1188474679
f
GR
GS
[0.75 0 0 0.75 0 -0.25] CT
0 0.447 0.741 RC
1 LJ
2.667 LW
N
310.558 746.094 M
309.078 747.64 L
S
GR
GS
[0.75 0 0 0.75 232.91833 559.32027] CT
0.929 0.694 0.125 RC
N
f1188474679
f
GR
GS
[0.75 0 0 0.75 0 -0.25] CT
0 0.447 0.741 RC
1 LJ
2.667 LW
N
310.005 746.671 M
308.525 748.217 L
S
GR
GS
[0.75 0 0 0.75 232.50375 559.7534] CT
0.467 0.675 0.188 RC
N
f1188474679
f
GR
GS
[0.75 0 0 0.75 0 -0.25] CT
0 0.447 0.741 RC
1 LJ
2.667 LW
N
309.453 747.248 M
307.973 748.794 L
S
GR
GS
[0.75 0 0 0.75 232.08952 560.18613] CT
0.635 0.078 0.184 RC
N
f1188474679
f
GR
GS
[0.75 0 0 0.75 0 -0.25] CT
0 0.447 0.741 RC
1 LJ
2.667 LW
N
308.901 747.825 M
307.421 749.371 L
S
GR
GS
[0.75 0 0 0.75 231.67564 560.61853] CT
0.851 0.325 0.098 RC
N
f1188474679
f
GR
GS
[0.75 0 0 0.75 0 -0.25] CT
0 0.447 0.741 RC
1 LJ
2.667 LW
N
308.349 748.401 M
306.87 749.947 L
S
GR
GS
[0.75 0 0 0.75 231.26209 561.05057] CT
0.494 0.184 0.557 RC
N
f1188474679
f
GR
GS
[0.75 0 0 0.75 0 -0.25] CT
0 0.447 0.741 RC
1 LJ
2.667 LW
N
307.798 748.976 M
306.319 750.522 L
S
GR
GS
[0.75 0 0 0.75 230.84887 561.48224] CT
0.302 0.745 0.933 RC
N
f1188474679
f
GR
GS
[0.75 0 0 0.75 0 -0.25] CT
0 0.447 0.741 RC
1 LJ
2.667 LW
N
307.248 749.551 M
305.768 751.097 L
S
GR
GS
[0.75 0 0 0.75 230.43601 561.91359] CT
0 0.447 0.741 RC
N
f1188474679
f
GR
GS
[0.75 0 0 0.75 0 -0.25] CT
0 0.447 0.741 RC
1 LJ
2.667 LW
N
306.698 750.126 M
305.218 751.672 L
S
GR
GS
[0.75 0 0 0.75 230.02345 562.34453] CT
0.929 0.694 0.125 RC
N
f1188474679
f
GR
GS
[0.75 0 0 0.75 0 -0.25] CT
0 0.447 0.741 RC
1 LJ
2.667 LW
N
306.148 750.7 M
304.669 752.246 L
S
GR
GS
[0.75 0 0 0.75 229.61126 562.77515] CT
0.467 0.675 0.188 RC
N
f1188474679
f
GR
GS
[0.75 0 0 0.75 0 -0.25] CT
0 0.447 0.741 RC
1 LJ
2.667 LW
N
305.599 751.274 M
304.119 752.82 L
S
GR
GS
[0.75 0 0 0.75 229.19941 563.2054] CT
0.635 0.078 0.184 RC
N
f1188474679
f
GR
GS
[0.75 0 0 0.75 0 -0.25] CT
0 0.447 0.741 RC
1 LJ
2.667 LW
N
305.051 751.847 M
303.571 753.393 L
S
GR
GS
[0.75 0 0 0.75 228.78788 563.63528] CT
0.851 0.325 0.098 RC
N
f1188474679
f
GR
GS
[0.75 0 0 0.75 0 -0.25] CT
0 0.447 0.741 RC
1 LJ
2.667 LW
N
304.502 752.42 M
303.022 753.966 L
S
GR
GS
[0.75 0 0 0.75 228.37672 564.0648] CT
0.494 0.184 0.557 RC
N
f1188474679
f
GR
GS
[0.75 0 0 0.75 0 -0.25] CT
0 0.447 0.741 RC
1 LJ
2.667 LW
N
303.954 752.992 M
302.475 754.538 L
S
GR
GS
[0.75 0 0 0.75 227.96585 564.494] CT
0.302 0.745 0.933 RC
N
f1188474679
f
GR
GS
[0.75 0 0 0.75 0 -0.25] CT
0 0.447 0.741 RC
1 LJ
2.667 LW
N
303.407 753.564 M
301.927 755.11 L
S
GR
GS
[0.75 0 0 0.75 227.55535 564.92284] CT
0 0.447 0.741 RC
N
f1188474679
f
GR
GS
[0.75 0 0 0.75 0 -0.25] CT
0 0.447 0.741 RC
1 LJ
2.667 LW
N
302.86 754.135 M
301.38 755.681 L
S
GR
GS
[0.75 0 0 0.75 227.1452 565.3513] CT
0.929 0.694 0.125 RC
N
f1188474679
f
GR
GS
[0.75 0 0 0.75 0 -0.25] CT
0 0.447 0.741 RC
1 LJ
2.667 LW
N
302.314 754.706 M
300.834 756.252 L
S
GR
GS
[0.75 0 0 0.75 226.73536 565.7794] CT
0.467 0.675 0.188 RC
N
f1188474679
f
GR
GS
[0.75 0 0 0.75 0 -0.25] CT
0 0.447 0.741 RC
1 LJ
2.667 LW
N
301.768 755.276 M
300.288 756.822 L
S
GR
GS
[0.75 0 0 0.75 226.32587 566.20718] CT
0.635 0.078 0.184 RC
N
f1188474679
f
GR
GS
[0.75 0 0 0.75 0 -0.25] CT
0 0.447 0.741 RC
1 LJ
2.667 LW
N
301.222 755.846 M
299.742 757.392 L
S
GR
GS
[0.75 0 0 0.75 225.91672 566.6346] CT
0.851 0.325 0.098 RC
N
f1188474679
f
GR
GS
[0.75 0 0 0.75 0 -0.25] CT
0 0.447 0.741 RC
1 LJ
2.667 LW
N
300.677 756.416 M
299.197 757.961 L
S
GR
GS
[0.75 0 0 0.75 225.50791 567.06165] CT
0.494 0.184 0.557 RC
N
f1188474679
f
GR
GS
[0.75 0 0 0.75 0 -0.25] CT
0 0.447 0.741 RC
1 LJ
2.667 LW
N
300.133 756.984 M
298.653 758.53 L
S
GR
GS
[0.75 0 0 0.75 225.09945 567.48833] CT
0.302 0.745 0.933 RC
N
f1188474679
f
GR
GS
[0.75 0 0 0.75 0 -0.25] CT
0 0.447 0.741 RC
1 LJ
2.667 LW
N
299.588 757.553 M
298.109 759.099 L
S
GR
GS
[0.75 0 0 0.75 224.69131 567.91469] CT
0 0.447 0.741 RC
N
f1188474679
f
GR
GS
[0.75 0 0 0.75 0 -0.25] CT
0 0.447 0.741 RC
1 LJ
2.667 LW
N
299.045 758.121 M
297.565 759.667 L
S
GR
GS
[0.75 0 0 0.75 224.28353 568.34064] CT
0.929 0.694 0.125 RC
N
f1188474679
f
GR
GS
[0.75 0 0 0.75 0 -0.25] CT
0 0.447 0.741 RC
1 LJ
2.667 LW
N
298.501 758.688 M
297.022 760.234 L
S
GR
GS
[0.75 0 0 0.75 223.87608 568.76627] CT
0.467 0.675 0.188 RC
N
f1188474679
f
GR
GS
[0.75 0 0 0.75 0 -0.25] CT
0 0.447 0.741 RC
1 LJ
2.667 LW
N
297.959 759.255 M
296.479 760.801 L
S
GR
GS
[0.75 0 0 0.75 223.46894 569.19157] CT
0.635 0.078 0.184 RC
N
f1188474679
f
GR
GS
[0.75 0 0 0.75 0 -0.25] CT
0 0.447 0.741 RC
1 LJ
2.667 LW
N
297.416 759.822 M
295.936 761.368 L
S
GR
GS
[0.75 0 0 0.75 223.06217 569.61647] CT
0.851 0.325 0.098 RC
N
f1188474679
f
GR
GS
[0.75 0 0 0.75 0 -0.25] CT
0 0.447 0.741 RC
1 LJ
2.667 LW
N
296.874 760.388 M
295.394 761.934 L
S
GR
GS
[0.75 0 0 0.75 222.65575 570.04105] CT
0.494 0.184 0.557 RC
N
f1188474679
f
GR
GS
[0.75 0 0 0.75 0 -0.25] CT
0 0.447 0.741 RC
1 LJ
2.667 LW
N
296.333 760.954 M
294.853 762.5 L
S
GR
GS
[0.75 0 0 0.75 222.24964 570.46526] CT
0.302 0.745 0.933 RC
N
f1188474679
f
GR
GS
[0.75 0 0 0.75 0 -0.25] CT
0 0.447 0.741 RC
1 LJ
2.667 LW
N
295.792 761.519 M
294.312 763.065 L
S
GR
GS
[0.75 0 0 0.75 221.84388 570.8891] CT
0 0.447 0.741 RC
N
f1188474679
f
GR
GS
[0.75 0 0 0.75 0 -0.25] CT
0 0.447 0.741 RC
1 LJ
2.667 LW
N
295.251 762.083 M
293.771 763.629 L
S
GR
GS
[0.75 0 0 0.75 221.43846 571.31262] CT
0.929 0.694 0.125 RC
N
f1188474679
f
GR
GS
[0.75 0 0 0.75 0 -0.25] CT
0 0.447 0.741 RC
1 LJ
2.667 LW
N
294.711 762.648 M
293.231 764.194 L
S
GR
GS
[0.75 0 0 0.75 221.03336 571.73573] CT
0.467 0.675 0.188 RC
N
f1188474679
f
GR
GS
[0.75 0 0 0.75 0 -0.25] CT
0 0.447 0.741 RC
1 LJ
2.667 LW
N
294.172 763.211 M
292.692 764.757 L
S
GR
GS
[0.75 0 0 0.75 220.62863 572.15852] CT
0.635 0.078 0.184 RC
N
f1188474679
f
GR
GS
[0.75 0 0 0.75 0 -0.25] CT
0 0.447 0.741 RC
1 LJ
2.667 LW
N
293.632 763.775 M
292.152 765.32 L
S
GR
GS
[0.75 0 0 0.75 220.22422 572.58099] CT
0.851 0.325 0.098 RC
N
f1188474679
f
GR
GS
[0.75 0 0 0.75 0 -0.25] CT
0 0.447 0.741 RC
1 LJ
2.667 LW
N
293.094 764.337 M
291.614 765.883 L
S
GR
GS
[0.75 0 0 0.75 219.82015 573.00305] CT
0.494 0.184 0.557 RC
N
f1188474679
f
GR
GS
[0.75 0 0 0.75 0 -0.25] CT
0 0.447 0.741 RC
1 LJ
2.667 LW
N
292.555 764.9 M
291.075 766.446 L
S
GR
GS
[0.75 0 0 0.75 219.41643 573.42479] CT
0.302 0.745 0.933 RC
N
f1188474679
f
GR
GS
[0.75 0 0 0.75 0 -0.25] CT
0 0.447 0.741 RC
1 LJ
2.667 LW
N
292.017 765.462 M
290.538 767.007 L
S
GR
GS
[0.75 0 0 0.75 219.01305 573.84616] CT
0 0.447 0.741 RC
N
f1188474679
f
GR
GS
[0.75 0 0 0.75 0 -0.25] CT
0 0.447 0.741 RC
1 LJ
2.667 LW
N
291.48 766.023 M
290 767.569 L
S
GR
GS
[0.75 0 0 0.75 218.61001 574.26721] CT
0.929 0.694 0.125 RC
N
f1188474679
f
GR
GS
[0.75 0 0 0.75 0 -0.25] CT
0 0.447 0.741 RC
1 LJ
2.667 LW
N
290.943 766.584 M
289.463 768.13 L
S
GR
GS
[0.75 0 0 0.75 218.20729 574.68785] CT
0.467 0.675 0.188 RC
N
f1188474679
f
GR
GS
[0.75 0 0 0.75 0 -0.25] CT
0 0.447 0.741 RC
1 LJ
2.667 LW
N
290.407 767.144 M
288.927 768.69 L
S
GR
GS
[0.75 0 0 0.75 217.80492 575.10817] CT
0.635 0.078 0.184 RC
N
f1188474679
f
GR
GS
[0.75 0 0 0.75 0 -0.25] CT
0 0.447 0.741 RC
1 LJ
2.667 LW
N
289.871 767.704 M
288.391 769.25 L
S
GR
GS
[0.75 0 0 0.75 217.40289 575.52812] CT
0.851 0.325 0.098 RC
N
f1188474679
f
GR
GS
[0.75 0 0 0.75 0 -0.25] CT
0 0.447 0.741 RC
1 LJ
2.667 LW
N
289.335 768.264 M
287.855 769.81 L
S
GR
GS
[0.75 0 0 0.75 217.00117 575.94775] CT
0.494 0.184 0.557 RC
N
f1188474679
f
GR
GS
[0.75 0 0 0.75 0 -0.25] CT
0 0.447 0.741 RC
1 LJ
2.667 LW
N
288.8 768.823 M
287.32 770.369 L
S
GR
GS
[0.75 0 0 0.75 216.59983 576.36697] CT
0.302 0.745 0.933 RC
N
f1188474679
f
GR
GS
[0.75 0 0 0.75 0 -0.25] CT
0 0.447 0.741 RC
1 LJ
2.667 LW
N
288.265 769.381 M
286.785 770.927 L
S
GR
GS
[0.75 0 0 0.75 216.19881 576.78592] CT
0 0.447 0.741 RC
N
f1188474679
f
GR
GS
[0.75 0 0 0.75 0 -0.25] CT
0 0.447 0.741 RC
1 LJ
2.667 LW
N
287.731 769.939 M
286.251 771.485 L
S
GR
GS
[0.75 0 0 0.75 215.79813 577.20445] CT
0.929 0.694 0.125 RC
N
f1188474679
f
GR
GS
[0.75 0 0 0.75 0 -0.25] CT
0 0.447 0.741 RC
1 LJ
2.667 LW
N
287.197 770.497 M
285.717 772.043 L
S
GR
GS
[0.75 0 0 0.75 215.39779 577.62262] CT
0.467 0.675 0.188 RC
N
f1188474679
f
GR
GS
[0.75 0 0 0.75 0 -0.25] CT
0 0.447 0.741 RC
1 LJ
2.667 LW
N
286.664 771.054 M
285.184 772.6 L
S
GR
GS
[0.75 0 0 0.75 214.9978 578.04047] CT
0.635 0.078 0.184 RC
N
f1188474679
f
GR
GS
[0.75 0 0 0.75 0 -0.25] CT
0 0.447 0.741 RC
1 LJ
2.667 LW
N
286.131 771.611 M
284.651 773.156 L
S
GR
GS
[0.75 0 0 0.75 214.59812 578.45795] CT
0.851 0.325 0.098 RC
N
f1188474679
f
GR
GS
[0.75 0 0 0.75 0 -0.25] CT
0 0.447 0.741 RC
1 LJ
2.667 LW
N
285.598 772.167 M
284.119 773.713 L
S
GR
GS
[0.75 0 0 0.75 214.19879 578.87511] CT
0.494 0.184 0.557 RC
N
f1188474679
f
GR
GS
[0.75 0 0 0.75 0 -0.25] CT
0 0.447 0.741 RC
1 LJ
2.667 LW
N
285.066 772.722 M
283.587 774.268 L
S
GR
GS
[0.75 0 0 0.75 213.7998 579.29185] CT
0.302 0.745 0.933 RC
N
f1188474679
f
GR
GS
[0.75 0 0 0.75 0 -0.25] CT
0 0.447 0.741 RC
1 LJ
2.667 LW
N
284.535 773.278 M
283.055 774.824 L
S
GR
GS
[0.75 0 0 0.75 213.40116 579.70828] CT
0 0.447 0.741 RC
N
f1188474679
f
GR
GS
[0.75 0 0 0.75 0 -0.25] CT
0 0.447 0.741 RC
1 LJ
2.667 LW
N
284.004 773.832 M
282.524 775.378 L
S
GR
GS
[0.75 0 0 0.75 213.00284 580.12434] CT
0.929 0.694 0.125 RC
N
f1188474679
f
GR
GS
[0.75 0 0 0.75 0 -0.25] CT
0 0.447 0.741 RC
1 LJ
2.667 LW
N
283.473 774.387 M
281.993 775.933 L
S
GR
GS
[0.75 0 0 0.75 212.60488 580.54008] CT
0.467 0.675 0.188 RC
N
f1188474679
f
GR
GS
[0.75 0 0 0.75 0 -0.25] CT
0 0.447 0.741 RC
1 LJ
2.667 LW
N
282.943 774.941 M
281.463 776.486 L
S
GR
GS
[0.75 0 0 0.75 212.20724 580.95541] CT
0.635 0.078 0.184 RC
N
f1188474679
f
GR
GS
[0.75 0 0 0.75 0 -0.25] CT
0 0.447 0.741 RC
1 LJ
2.667 LW
N
282.413 775.494 M
280.933 777.04 L
S
GR
GS
[0.75 0 0 0.75 211.80995 581.37042] CT
0.851 0.325 0.098 RC
N
f1188474679
f
GR
GS
[0.75 0 0 0.75 0 -0.25] CT
0 0.447 0.741 RC
1 LJ
2.667 LW
N
281.884 776.047 M
280.404 777.593 L
S
GR
GS
[0.75 0 0 0.75 211.41298 581.78511] CT
0.494 0.184 0.557 RC
N
f1188474679
f
GR
GS
[0.75 0 0 0.75 0 -0.25] CT
0 0.447 0.741 RC
1 LJ
2.667 LW
N
281.355 776.599 M
279.875 778.145 L
S
GR
GS
[0.75 0 0 0.75 211.01637 582.19939] CT
0.302 0.745 0.933 RC
N
f1188474679
f
GR
GS
[0.75 0 0 0.75 0 -0.25] CT
0 0.447 0.741 RC
1 LJ
2.667 LW
N
280.827 777.151 M
279.347 778.697 L
S
GR
GS
[0.75 0 0 0.75 210.62006 582.61339] CT
0 0.447 0.741 RC
N
f1188474679
f
GR
GS
[0.75 0 0 0.75 0 -0.25] CT
0 0.447 0.741 RC
1 LJ
2.667 LW
N
280.299 777.703 M
278.819 779.248 L
S
GR
GS
[0.75 0 0 0.75 210.22414 583.02698] CT
0.929 0.694 0.125 RC
N
f1188474679
f
GR
GS
[0.75 0 0 0.75 0 -0.25] CT
0 0.447 0.741 RC
1 LJ
2.667 LW
N
279.771 778.254 M
278.292 779.799 L
S
GR
GS
[0.75 0 0 0.75 209.82852 583.4402] CT
0.467 0.675 0.188 RC
N
f1188474679
f
GR
GS
[0.75 0 0 0.75 0 -0.25] CT
0 0.447 0.741 RC
1 LJ
2.667 LW
N
279.244 778.804 M
277.764 780.35 L
S
GR
GS
[0.75 0 0 0.75 209.43327 583.8531] CT
0.635 0.078 0.184 RC
N
f1188474679
f
GR
GS
[0.75 0 0 0.75 0 -0.25] CT
0 0.447 0.741 RC
1 LJ
2.667 LW
N
278.718 779.354 M
277.238 780.9 L
S
GR
GS
[0.75 0 0 0.75 209.03831 584.26564] CT
0.851 0.325 0.098 RC
N
f1188474679
f
GR
GS
[0.75 0 0 0.75 0 -0.25] CT
0 0.447 0.741 RC
1 LJ
2.667 LW
N
278.192 779.904 M
276.712 781.45 L
S
GR
GS
[0.75 0 0 0.75 208.64371 584.67781] CT
0.494 0.184 0.557 RC
N
f1188474679
f
GR
GS
[0.75 0 0 0.75 0 -0.25] CT
0 0.447 0.741 RC
1 LJ
2.667 LW
N
277.666 780.453 M
276.186 781.999 L
S
GR
GS
[0.75 0 0 0.75 208.24947 585.08966] CT
0.302 0.745 0.933 RC
N
f1188474679
f
GR
GS
[0.75 0 0 0.75 0 -0.25] CT
0 0.447 0.741 RC
1 LJ
2.667 LW
N
277.141 781.002 M
275.661 782.547 L
S
GR
GS
[0.75 0 0 0.75 207.85554 585.50114] CT
0 0.447 0.741 RC
N
f1188474679
f
GR
GS
[0.75 0 0 0.75 0 -0.25] CT
0 0.447 0.741 RC
1 LJ
2.667 LW
N
276.616 781.55 M
275.136 783.096 L
S
GR
GS
[0.75 0 0 0.75 207.46195 585.91226] CT
0.929 0.694 0.125 RC
N
f1188474679
f
GR
GS
[0.75 0 0 0.75 0 -0.25] CT
0 0.447 0.741 RC
1 LJ
2.667 LW
N
276.092 782.097 M
274.612 783.643 L
S
GR
GS
[0.75 0 0 0.75 207.06871 586.32306] CT
0.467 0.675 0.188 RC
N
f1188474679
f
GR
GS
[0.75 0 0 0.75 0 -0.25] CT
0 0.447 0.741 RC
1 LJ
2.667 LW
N
275.568 782.645 M
274.088 784.19 L
S
GR
GS
[0.75 0 0 0.75 206.67581 586.73349] CT
0.635 0.078 0.184 RC
N
f1188474679
f
GR
GS
[0.75 0 0 0.75 0 -0.25] CT
0 0.447 0.741 RC
1 LJ
2.667 LW
N
275.044 783.191 M
273.564 784.737 L
S
GR
GS
[0.75 0 0 0.75 206.28323 587.14355] CT
0.851 0.325 0.098 RC
N
f1188474679
f
GR
GS
[0.75 0 0 0.75 0 -0.25] CT
0 0.447 0.741 RC
1 LJ
2.667 LW
N
274.521 783.738 M
273.041 785.284 L
S
GR
GS
[0.75 0 0 0.75 205.891 587.5533] CT
0.494 0.184 0.557 RC
N
f1188474679
f
GR
GS
[0.75 0 0 0.75 0 -0.25] CT
0 0.447 0.741 RC
1 LJ
2.667 LW
N
273.999 784.284 M
272.761 785.577 L
S
GR
GS
[0.75 0 0 0.75 205.49911 587.96263] CT
0.302 0.745 0.933 RC
N
f1188474679
f
GR
GS
[0.75 0 0 0.75 0 -0.25] CT
0 0.447 0.741 RC
1 LJ
2.667 LW
N
273.477 784.829 M
272.761 785.577 L
S
GR
GS
[0.75 0 0 0.75 205.10756 588.37169] CT
0 0.447 0.741 RC
N
f1188474679
f
GR
GS
[0.75 0 0 0.75 0 -0.25] CT
0 0.447 0.741 RC
1 LJ
2.667 LW
N
272.955 785.374 M
272.761 785.577 L
S
GR
GS
[0.75 0 0 0.75 204.71631 588.78033] CT
0.929 0.694 0.125 RC
N
f1188474679
f
GR
%%Trailer
%%Pages: 1
%%EOF
