%!PS-Adobe-3.0 EPSF-3.0
%%Creator: (MATLAB, The Mathworks, Inc. Version 9.9.0.1592791 \(R2020b\) Update 5. Operating System: Windows 10)
%%Title: (C:/Users/marti/Documents/GitHub/bio-inspired-autonomous-systems/Assignment 02 - Braitenberg Vehicle/figures/fear_2200_traj.eps)
%%CreationDate: 2021-03-23T10:55:46
%%Pages: (atend)
%%BoundingBox:     0     0   420   315
%%LanguageLevel: 3
%%EndComments
%%BeginProlog
%%BeginResource: procset (Apache XML Graphics Std ProcSet) 1.2 0
%%Version: 1.2 0
%%Copyright: (Copyright 2001-2003,2010 The Apache Software Foundation. License terms: http://www.apache.org/licenses/LICENSE-2.0)
/bd{bind def}bind def
/ld{load def}bd
/GR/grestore ld
/GS/gsave ld
/RM/rmoveto ld
/C/curveto ld
/t/show ld
/L/lineto ld
/ML/setmiterlimit ld
/CT/concat ld
/f/fill ld
/N/newpath ld
/S/stroke ld
/CC/setcmykcolor ld
/A/ashow ld
/cp/closepath ld
/RC/setrgbcolor ld
/LJ/setlinejoin ld
/GC/setgray ld
/LW/setlinewidth ld
/M/moveto ld
/re {4 2 roll M
1 index 0 rlineto
0 exch rlineto
neg 0 rlineto
cp } bd
/_ctm matrix def
/_tm matrix def
/BT { _ctm currentmatrix pop matrix _tm copy pop 0 0 moveto } bd
/ET { _ctm setmatrix } bd
/iTm { _ctm setmatrix _tm concat } bd
/Tm { _tm astore pop iTm 0 0 moveto } bd
/ux 0.0 def
/uy 0.0 def
/F {
  /Tp exch def
  /Tf exch def
  Tf findfont Tp scalefont setfont
  /cf Tf def  /cs Tp def
} bd
/ULS {currentpoint /uy exch def /ux exch def} bd
/ULE {
  /Tcx currentpoint pop def
  gsave
  newpath
  cf findfont cs scalefont dup
  /FontMatrix get 0 get /Ts exch def /FontInfo get dup
  /UnderlinePosition get Ts mul /To exch def
  /UnderlineThickness get Ts mul /Tt exch def
  ux uy To add moveto  Tcx uy To add lineto
  Tt setlinewidth stroke
  grestore
} bd
/OLE {
  /Tcx currentpoint pop def
  gsave
  newpath
  cf findfont cs scalefont dup
  /FontMatrix get 0 get /Ts exch def /FontInfo get dup
  /UnderlinePosition get Ts mul /To exch def
  /UnderlineThickness get Ts mul /Tt exch def
  ux uy To add cs add moveto Tcx uy To add cs add lineto
  Tt setlinewidth stroke
  grestore
} bd
/SOE {
  /Tcx currentpoint pop def
  gsave
  newpath
  cf findfont cs scalefont dup
  /FontMatrix get 0 get /Ts exch def /FontInfo get dup
  /UnderlinePosition get Ts mul /To exch def
  /UnderlineThickness get Ts mul /Tt exch def
  ux uy To add cs 10 mul 26 idiv add moveto Tcx uy To add cs 10 mul 26 idiv add lineto
  Tt setlinewidth stroke
  grestore
} bd
/QT {
/Y22 exch store
/X22 exch store
/Y21 exch store
/X21 exch store
currentpoint
/Y21 load 2 mul add 3 div exch
/X21 load 2 mul add 3 div exch
/X21 load 2 mul /X22 load add 3 div
/Y21 load 2 mul /Y22 load add 3 div
/X22 load /Y22 load curveto
} bd
/SSPD {
dup length /d exch dict def
{
/v exch def
/k exch def
currentpagedevice k known {
/cpdv currentpagedevice k get def
v cpdv ne {
/upd false def
/nullv v type /nulltype eq def
/nullcpdv cpdv type /nulltype eq def
nullv nullcpdv or
{
/upd true def
} {
/sametype v type cpdv type eq def
sametype {
v type /arraytype eq {
/vlen v length def
/cpdvlen cpdv length def
vlen cpdvlen eq {
0 1 vlen 1 sub {
/i exch def
/obj v i get def
/cpdobj cpdv i get def
obj cpdobj ne {
/upd true def
exit
} if
} for
} {
/upd true def
} ifelse
} {
v type /dicttype eq {
v {
/dv exch def
/dk exch def
/cpddv cpdv dk get def
dv cpddv ne {
/upd true def
exit
} if
} forall
} {
/upd true def
} ifelse
} ifelse
} if
} ifelse
upd true eq {
d k v put
} if
} if
} if
} forall
d length 0 gt {
d setpagedevice
} if
} bd
/RE { % /NewFontName [NewEncodingArray] /FontName RE -
  findfont dup length dict begin
  {
    1 index /FID ne
    {def} {pop pop} ifelse
  } forall
  /Encoding exch def
  /FontName 1 index def
  currentdict definefont pop
  end
} bind def
%%EndResource
%%BeginResource: procset (Apache XML Graphics EPS ProcSet) 1.0 0
%%Version: 1.0 0
%%Copyright: (Copyright 2002-2003 The Apache Software Foundation. License terms: http://www.apache.org/licenses/LICENSE-2.0)
/BeginEPSF { %def
/b4_Inc_state save def         % Save state for cleanup
/dict_count countdictstack def % Count objects on dict stack
/op_count count 1 sub def      % Count objects on operand stack
userdict begin                 % Push userdict on dict stack
/showpage { } def              % Redefine showpage, { } = null proc
0 setgray 0 setlinecap         % Prepare graphics state
1 setlinewidth 0 setlinejoin
10 setmiterlimit [ ] 0 setdash newpath
/languagelevel where           % If level not equal to 1 then
{pop languagelevel             % set strokeadjust and
1 ne                           % overprint to their defaults.
{false setstrokeadjust false setoverprint
} if
} if
} bd
/EndEPSF { %def
count op_count sub {pop} repeat            % Clean up stacks
countdictstack dict_count sub {end} repeat
b4_Inc_state restore
} bd
%%EndResource
%FOPBeginFontDict
%%IncludeResource: font Courier-Oblique
%%IncludeResource: font Courier-BoldOblique
%%IncludeResource: font Courier-Bold
%%IncludeResource: font ZapfDingbats
%%IncludeResource: font Symbol
%%IncludeResource: font Helvetica
%%IncludeResource: font Helvetica-Oblique
%%IncludeResource: font Helvetica-Bold
%%IncludeResource: font Helvetica-BoldOblique
%%IncludeResource: font Times-Roman
%%IncludeResource: font Times-Italic
%%IncludeResource: font Times-Bold
%%IncludeResource: font Times-BoldItalic
%%IncludeResource: font Courier
%FOPEndFontDict
%%BeginResource: encoding WinAnsiEncoding
/WinAnsiEncoding [
/.notdef /.notdef /.notdef /.notdef /.notdef
/.notdef /.notdef /.notdef /.notdef /.notdef
/.notdef /.notdef /.notdef /.notdef /.notdef
/.notdef /.notdef /.notdef /.notdef /.notdef
/.notdef /.notdef /.notdef /.notdef /.notdef
/.notdef /.notdef /.notdef /.notdef /.notdef
/.notdef /.notdef /space /exclam /quotedbl
/numbersign /dollar /percent /ampersand /quotesingle
/parenleft /parenright /asterisk /plus /comma
/hyphen /period /slash /zero /one
/two /three /four /five /six
/seven /eight /nine /colon /semicolon
/less /equal /greater /question /at
/A /B /C /D /E
/F /G /H /I /J
/K /L /M /N /O
/P /Q /R /S /T
/U /V /W /X /Y
/Z /bracketleft /backslash /bracketright /asciicircum
/underscore /quoteleft /a /b /c
/d /e /f /g /h
/i /j /k /l /m
/n /o /p /q /r
/s /t /u /v /w
/x /y /z /braceleft /bar
/braceright /asciitilde /bullet /Euro /bullet
/quotesinglbase /florin /quotedblbase /ellipsis /dagger
/daggerdbl /circumflex /perthousand /Scaron /guilsinglleft
/OE /bullet /Zcaron /bullet /bullet
/quoteleft /quoteright /quotedblleft /quotedblright /bullet
/endash /emdash /asciitilde /trademark /scaron
/guilsinglright /oe /bullet /zcaron /Ydieresis
/space /exclamdown /cent /sterling /currency
/yen /brokenbar /section /dieresis /copyright
/ordfeminine /guillemotleft /logicalnot /sfthyphen /registered
/macron /degree /plusminus /twosuperior /threesuperior
/acute /mu /paragraph /middot /cedilla
/onesuperior /ordmasculine /guillemotright /onequarter /onehalf
/threequarters /questiondown /Agrave /Aacute /Acircumflex
/Atilde /Adieresis /Aring /AE /Ccedilla
/Egrave /Eacute /Ecircumflex /Edieresis /Igrave
/Iacute /Icircumflex /Idieresis /Eth /Ntilde
/Ograve /Oacute /Ocircumflex /Otilde /Odieresis
/multiply /Oslash /Ugrave /Uacute /Ucircumflex
/Udieresis /Yacute /Thorn /germandbls /agrave
/aacute /acircumflex /atilde /adieresis /aring
/ae /ccedilla /egrave /eacute /ecircumflex
/edieresis /igrave /iacute /icircumflex /idieresis
/eth /ntilde /ograve /oacute /ocircumflex
/otilde /odieresis /divide /oslash /ugrave
/uacute /ucircumflex /udieresis /yacute /thorn
/ydieresis
] def
%%EndResource
%FOPBeginFontReencode
/Courier-Oblique findfont
dup length dict begin
  {1 index /FID ne {def} {pop pop} ifelse} forall
  /Encoding WinAnsiEncoding def
  currentdict
end
/Courier-Oblique exch definefont pop
/Courier-BoldOblique findfont
dup length dict begin
  {1 index /FID ne {def} {pop pop} ifelse} forall
  /Encoding WinAnsiEncoding def
  currentdict
end
/Courier-BoldOblique exch definefont pop
/Courier-Bold findfont
dup length dict begin
  {1 index /FID ne {def} {pop pop} ifelse} forall
  /Encoding WinAnsiEncoding def
  currentdict
end
/Courier-Bold exch definefont pop
/Helvetica findfont
dup length dict begin
  {1 index /FID ne {def} {pop pop} ifelse} forall
  /Encoding WinAnsiEncoding def
  currentdict
end
/Helvetica exch definefont pop
/Helvetica-Oblique findfont
dup length dict begin
  {1 index /FID ne {def} {pop pop} ifelse} forall
  /Encoding WinAnsiEncoding def
  currentdict
end
/Helvetica-Oblique exch definefont pop
/Helvetica-Bold findfont
dup length dict begin
  {1 index /FID ne {def} {pop pop} ifelse} forall
  /Encoding WinAnsiEncoding def
  currentdict
end
/Helvetica-Bold exch definefont pop
/Helvetica-BoldOblique findfont
dup length dict begin
  {1 index /FID ne {def} {pop pop} ifelse} forall
  /Encoding WinAnsiEncoding def
  currentdict
end
/Helvetica-BoldOblique exch definefont pop
/Times-Roman findfont
dup length dict begin
  {1 index /FID ne {def} {pop pop} ifelse} forall
  /Encoding WinAnsiEncoding def
  currentdict
end
/Times-Roman exch definefont pop
/Times-Italic findfont
dup length dict begin
  {1 index /FID ne {def} {pop pop} ifelse} forall
  /Encoding WinAnsiEncoding def
  currentdict
end
/Times-Italic exch definefont pop
/Times-Bold findfont
dup length dict begin
  {1 index /FID ne {def} {pop pop} ifelse} forall
  /Encoding WinAnsiEncoding def
  currentdict
end
/Times-Bold exch definefont pop
/Times-BoldItalic findfont
dup length dict begin
  {1 index /FID ne {def} {pop pop} ifelse} forall
  /Encoding WinAnsiEncoding def
  currentdict
end
/Times-BoldItalic exch definefont pop
/Courier findfont
dup length dict begin
  {1 index /FID ne {def} {pop pop} ifelse} forall
  /Encoding WinAnsiEncoding def
  currentdict
end
/Courier exch definefont pop
%FOPEndFontReencode
%%EndProlog
%%Page: 1 1
%%PageBoundingBox: 0 0 420 315
%%BeginPageSetup
[1 0 0 -1 0 315] CT
%%EndPageSetup
GS
[0.75 0 0 0.75 0 0] CT
1 GC
N
0 0 560 420 re
f
GR
GS
[0.75 0 0 0.75 0 0] CT
1 GC
N
0 0 560 420 re
f
GR
GS
[0.75 0 0 0.75 0 0] CT
1 GC
N
119 374 M
461 374 L
461 32 L
119 32 L
cp
f
GR
GS
[0.75 0 0 0.75 0 0] CT
0.873 GC
1 LJ
0.667 LW
N
119 374 M
119 32 L
S
GR
GS
[0.75 0 0 0.75 0 0] CT
0.873 GC
1 LJ
0.667 LW
N
176 374 M
176 32 L
S
GR
GS
[0.75 0 0 0.75 0 0] CT
0.873 GC
1 LJ
0.667 LW
N
233 374 M
233 32 L
S
GR
GS
[0.75 0 0 0.75 0 0] CT
0.873 GC
1 LJ
0.667 LW
N
290 374 M
290 32 L
S
GR
GS
[0.75 0 0 0.75 0 0] CT
0.873 GC
1 LJ
0.667 LW
N
347 374 M
347 32 L
S
GR
GS
[0.75 0 0 0.75 0 0] CT
0.873 GC
1 LJ
0.667 LW
N
404 374 M
404 32 L
S
GR
GS
[0.75 0 0 0.75 0 0] CT
0.873 GC
1 LJ
0.667 LW
N
461 374 M
461 32 L
S
GR
GS
[0.75 0 0 0.75 0 0] CT
0.873 GC
1 LJ
0.667 LW
N
461 374 M
119 374 L
S
GR
GS
[0.75 0 0 0.75 0 0] CT
0.873 GC
1 LJ
0.667 LW
N
461 317 M
119 317 L
S
GR
GS
[0.75 0 0 0.75 0 0] CT
0.873 GC
1 LJ
0.667 LW
N
461 260 M
119 260 L
S
GR
GS
[0.75 0 0 0.75 0 0] CT
0.873 GC
1 LJ
0.667 LW
N
461 203 M
119 203 L
S
GR
GS
[0.75 0 0 0.75 0 0] CT
0.873 GC
1 LJ
0.667 LW
N
461 146 M
119 146 L
S
GR
GS
[0.75 0 0 0.75 0 0] CT
0.873 GC
1 LJ
0.667 LW
N
461 89 M
119 89 L
S
GR
GS
[0.75 0 0 0.75 0 0] CT
0.873 GC
1 LJ
0.667 LW
N
461 32 M
119 32 L
S
GR
GS
[0.75 0 0 0.75 0 0] CT
0.149 GC
2 setlinecap
1 LJ
0.667 LW
N
119 374 M
461 374 L
S
GR
GS
[0.75 0 0 0.75 0 0] CT
0.149 GC
2 setlinecap
1 LJ
0.667 LW
N
119 374 M
119 370.58 L
S
GR
GS
[0.75 0 0 0.75 0 0] CT
0.149 GC
2 setlinecap
1 LJ
0.667 LW
N
176 374 M
176 370.58 L
S
GR
GS
[0.75 0 0 0.75 0 0] CT
0.149 GC
2 setlinecap
1 LJ
0.667 LW
N
233 374 M
233 370.58 L
S
GR
GS
[0.75 0 0 0.75 0 0] CT
0.149 GC
2 setlinecap
1 LJ
0.667 LW
N
290 374 M
290 370.58 L
S
GR
GS
[0.75 0 0 0.75 0 0] CT
0.149 GC
2 setlinecap
1 LJ
0.667 LW
N
347 374 M
347 370.58 L
S
GR
GS
[0.75 0 0 0.75 0 0] CT
0.149 GC
2 setlinecap
1 LJ
0.667 LW
N
404 374 M
404 370.58 L
S
GR
GS
[0.75 0 0 0.75 0 0] CT
0.149 GC
2 setlinecap
1 LJ
0.667 LW
N
461 374 M
461 370.58 L
S
GR
GS
[0.75 0 0 0.75 89.25 284.50001] CT
0.149 GC
/Helvetica 13.333 F
GS
[1 0 0 1 0 0] CT
-13.5 14 moveto 
1 -1 scale
(-200) t 
GR
GR
GS
[0.75 0 0 0.75 132 284.50001] CT
0.149 GC
/Helvetica 13.333 F
GS
[1 0 0 1 0 0] CT
-13.5 14 moveto 
1 -1 scale
(-100) t 
GR
GR
GS
[0.75 0 0 0.75 174.75 284.50001] CT
0.149 GC
/Helvetica 13.333 F
GS
[1 0 0 1 0 0] CT
-4 14 moveto 
1 -1 scale
(0) t 
GR
GR
GS
[0.75 0 0 0.75 217.5 284.50001] CT
0.149 GC
/Helvetica 13.333 F
GS
[1 0 0 1 0 0] CT
-11.5 14 moveto 
1 -1 scale
(100) t 
GR
GR
GS
[0.75 0 0 0.75 260.25 284.50001] CT
0.149 GC
/Helvetica 13.333 F
GS
[1 0 0 1 0 0] CT
-11.5 14 moveto 
1 -1 scale
(200) t 
GR
GR
GS
[0.75 0 0 0.75 303 284.50001] CT
0.149 GC
/Helvetica 13.333 F
GS
[1 0 0 1 0 0] CT
-11.5 14 moveto 
1 -1 scale
(300) t 
GR
GR
GS
[0.75 0 0 0.75 345.75 284.50001] CT
0.149 GC
/Helvetica 13.333 F
GS
[1 0 0 1 0 0] CT
-11.5 14 moveto 
1 -1 scale
(400) t 
GR
GR
GS
[0.75 0 0 0.75 0 0] CT
0.149 GC
2 setlinecap
1 LJ
0.667 LW
N
119 374 M
119 32 L
S
GR
GS
[0.75 0 0 0.75 0 0] CT
0.149 GC
2 setlinecap
1 LJ
0.667 LW
N
119 374 M
122.42 374 L
S
GR
GS
[0.75 0 0 0.75 0 0] CT
0.149 GC
2 setlinecap
1 LJ
0.667 LW
N
119 317 M
122.42 317 L
S
GR
GS
[0.75 0 0 0.75 0 0] CT
0.149 GC
2 setlinecap
1 LJ
0.667 LW
N
119 260 M
122.42 260 L
S
GR
GS
[0.75 0 0 0.75 0 0] CT
0.149 GC
2 setlinecap
1 LJ
0.667 LW
N
119 203 M
122.42 203 L
S
GR
GS
[0.75 0 0 0.75 0 0] CT
0.149 GC
2 setlinecap
1 LJ
0.667 LW
N
119 146 M
122.42 146 L
S
GR
GS
[0.75 0 0 0.75 0 0] CT
0.149 GC
2 setlinecap
1 LJ
0.667 LW
N
119 89 M
122.42 89 L
S
GR
GS
[0.75 0 0 0.75 0 0] CT
0.149 GC
2 setlinecap
1 LJ
0.667 LW
N
119 32 M
122.42 32 L
S
GR
GS
[0.75 0 0 0.75 85.25 280.5] CT
0.149 GC
/Helvetica 13.333 F
GS
[1 0 0 1 0 0] CT
-27 5.5 moveto 
1 -1 scale
(-200) t 
GR
GR
GS
[0.75 0 0 0.75 85.25 237.75] CT
0.149 GC
/Helvetica 13.333 F
GS
[1 0 0 1 0 0] CT
-27 5.5 moveto 
1 -1 scale
(-100) t 
GR
GR
GS
[0.75 0 0 0.75 85.25 195] CT
0.149 GC
/Helvetica 13.333 F
GS
[1 0 0 1 0 0] CT
-8 5.5 moveto 
1 -1 scale
(0) t 
GR
GR
GS
[0.75 0 0 0.75 85.25 152.25] CT
0.149 GC
/Helvetica 13.333 F
GS
[1 0 0 1 0 0] CT
-23 5.5 moveto 
1 -1 scale
(100) t 
GR
GR
GS
[0.75 0 0 0.75 85.25 109.5] CT
0.149 GC
/Helvetica 13.333 F
GS
[1 0 0 1 0 0] CT
-23 5.5 moveto 
1 -1 scale
(200) t 
GR
GR
GS
[0.75 0 0 0.75 85.25 66.75] CT
0.149 GC
/Helvetica 13.333 F
GS
[1 0 0 1 0 0] CT
-23 5.5 moveto 
1 -1 scale
(300) t 
GR
GR
GS
[0.75 0 0 0.75 85.25 24] CT
0.149 GC
/Helvetica 13.333 F
GS
[1 0 0 1 0 0] CT
-23 5.5 moveto 
1 -1 scale
(400) t 
GR
GR
GS
[0.75 0 0 0.75 303 66.75] CT
N
-6 -6 M
-6 6 L
6 6 L
6 -6 L
cp
f
GR
GS
[0.75 0 0 0.75 303 66.75] CT
10.0 ML
0.667 LW
N
-6 -6 M
-6 6 L
6 6 L
6 -6 L
cp
S
GR
GS
[0.75 0 0 0.75 132 237.75] CT
1 0 0 RC
N
6.667 0 M
6.667 -3.682 3.682 -6.667 0 -6.667 C
-3.682 -6.667 -6.667 -3.682 -6.667 0 C
-6.667 3.682 -3.682 6.667 0 6.667 C
3.682 6.667 6.667 3.682 6.667 0 C
cp
f
GR
GS
[0.75 0 0 0.75 132 237.75] CT
1 0 0 RC
N
0 -6.333 M
3.498 -6.333 6.333 -3.498 6.333 0 C
6.333 0 L
6.333 3.498 3.498 6.333 0 6.333 C
-3.498 6.333 -6.333 3.498 -6.333 0 C
-6.333 -3.498 -3.498 -6.333 0 -6.333 C
cp
0 -7 M
-3.866 -7 -7 -3.866 -7 0 C
-7 3.866 -3.866 7 0 7 C
3.866 7 7 3.866 7 0 C
7 0 L
7 -3.866 3.866 -7 0 -7 C
cp
f
GR
GS
[0.75 0 0 0.75 0 0] CT
0 0.447 0.741 RC
1 LJ
2.667 LW
N
176.718 317.008 M
177.857 317.034 L
S
GR
GS
[0.75 0 0 0.75 132.53815 237.75602] CT
0.494 0.184 0.557 RC
N
0.5 0 M
0.5 0.276 0.276 0.5 0 0.5 C
-0.276 0.5 -0.5 0.276 -0.5 0 C
-0.5 -0.276 -0.276 -0.5 0 -0.5 C
0.276 -0.5 0.5 -0.276 0.5 0 C
cp
f
GR
GS
[0.75 0 0 0.75 0 0] CT
0 0.447 0.741 RC
1 LJ
2.667 LW
N
177.434 317.032 M
178.573 317.084 L
S
GR
GS
[0.75 0 0 0.75 133.07558 237.77419] CT
0.302 0.745 0.933 RC
N
/f1188474679{0.5 0 M
0.5 0.276 0.276 0.5 0 0.5 C
-0.276 0.5 -0.5 0.276 -0.5 0 C
-0.5 -0.276 -0.276 -0.5 0 -0.5 C
0.276 -0.5 0.5 -0.276 0.5 0 C
cp}def
f1188474679
f
GR
GS
[0.75 0 0 0.75 0 0] CT
0 0.447 0.741 RC
1 LJ
2.667 LW
N
178.149 317.073 M
179.287 317.151 L
S
GR
GS
[0.75 0 0 0.75 133.61199 237.80479] CT
0 0.447 0.741 RC
N
f1188474679
f
GR
GS
[0.75 0 0 0.75 0 0] CT
0 0.447 0.741 RC
1 LJ
2.667 LW
N
178.863 317.131 M
179.998 317.236 L
S
GR
GS
[0.75 0 0 0.75 134.147 237.84812] CT
0.929 0.694 0.125 RC
N
f1188474679
f
GR
GS
[0.75 0 0 0.75 0 0] CT
0 0.447 0.741 RC
1 LJ
2.667 LW
N
179.574 317.206 M
180.706 317.339 L
S
GR
GS
[0.75 0 0 0.75 134.68029 237.90438] CT
0.467 0.675 0.188 RC
N
f1188474679
f
GR
GS
[0.75 0 0 0.75 0 0] CT
0 0.447 0.741 RC
1 LJ
2.667 LW
N
180.282 317.298 M
181.41 317.46 L
S
GR
GS
[0.75 0 0 0.75 135.21146 237.97382] CT
0.635 0.078 0.184 RC
N
f1188474679
f
GR
GS
[0.75 0 0 0.75 0 0] CT
0 0.447 0.741 RC
1 LJ
2.667 LW
N
180.987 317.409 M
182.111 317.6 L
S
GR
GS
[0.75 0 0 0.75 135.74015 238.05672] CT
0.851 0.325 0.098 RC
N
f1188474679
f
GR
GS
[0.75 0 0 0.75 0 0] CT
0 0.447 0.741 RC
1 LJ
2.667 LW
N
181.688 317.538 M
182.806 317.758 L
S
GR
GS
[0.75 0 0 0.75 136.26591 238.15327] CT
0.494 0.184 0.557 RC
N
f1188474679
f
GR
GS
[0.75 0 0 0.75 0 0] CT
0 0.447 0.741 RC
1 LJ
2.667 LW
N
182.384 317.685 M
183.497 317.936 L
S
GR
GS
[0.75 0 0 0.75 136.78831 238.26363] CT
0.302 0.745 0.933 RC
N
f1188474679
f
GR
GS
[0.75 0 0 0.75 0 0] CT
0 0.447 0.741 RC
1 LJ
2.667 LW
N
183.076 317.851 M
184.181 318.132 L
S
GR
GS
[0.75 0 0 0.75 137.30697 238.38805] CT
0 0.447 0.741 RC
N
f1188474679
f
GR
GS
[0.75 0 0 0.75 0 0] CT
0 0.447 0.741 RC
1 LJ
2.667 LW
N
183.762 318.036 M
184.858 318.347 L
S
GR
GS
[0.75 0 0 0.75 137.82144 238.52664] CT
0.929 0.694 0.125 RC
N
f1188474679
f
GR
GS
[0.75 0 0 0.75 0 0] CT
0 0.447 0.741 RC
1 LJ
2.667 LW
N
184.442 318.239 M
185.529 318.582 L
S
GR
GS
[0.75 0 0 0.75 138.33125 238.67953] CT
0.467 0.675 0.188 RC
N
f1188474679
f
GR
GS
[0.75 0 0 0.75 0 0] CT
0 0.447 0.741 RC
1 LJ
2.667 LW
N
185.115 318.462 M
186.191 318.837 L
S
GR
GS
[0.75 0 0 0.75 138.83593 238.84685] CT
0.635 0.078 0.184 RC
N
f1188474679
f
GR
GS
[0.75 0 0 0.75 0 0] CT
0 0.447 0.741 RC
1 LJ
2.667 LW
N
185.78 318.705 M
186.845 319.111 L
S
GR
GS
[0.75 0 0 0.75 139.33506 239.02867] CT
0.851 0.325 0.098 RC
N
f1188474679
f
GR
GS
[0.75 0 0 0.75 0 0] CT
0 0.447 0.741 RC
1 LJ
2.667 LW
N
186.438 318.967 M
187.49 319.404 L
S
GR
GS
[0.75 0 0 0.75 139.82815 239.22503] CT
0.494 0.184 0.557 RC
N
f1188474679
f
GR
GS
[0.75 0 0 0.75 0 0] CT
0 0.447 0.741 RC
1 LJ
2.667 LW
N
187.086 319.248 M
188.125 319.717 L
S
GR
GS
[0.75 0 0 0.75 140.31469 239.43597] CT
0.302 0.745 0.933 RC
N
f1188474679
f
GR
GS
[0.75 0 0 0.75 0 0] CT
0 0.447 0.741 RC
1 LJ
2.667 LW
N
187.726 319.549 M
188.75 320.049 L
S
GR
GS
[0.75 0 0 0.75 140.7942 239.66146] CT
0 0.447 0.741 RC
N
f1188474679
f
GR
GS
[0.75 0 0 0.75 0 0] CT
0 0.447 0.741 RC
1 LJ
2.667 LW
N
188.355 319.869 M
189.363 320.401 L
S
GR
GS
[0.75 0 0 0.75 141.26619 239.90144] CT
0.929 0.694 0.125 RC
N
f1188474679
f
GR
GS
[0.75 0 0 0.75 0 0] CT
0 0.447 0.741 RC
1 LJ
2.667 LW
N
188.974 320.208 M
189.964 320.772 L
S
GR
GS
[0.75 0 0 0.75 141.73019 240.15589] CT
0.467 0.675 0.188 RC
N
f1188474679
f
GR
GS
[0.75 0 0 0.75 0 0] CT
0 0.447 0.741 RC
1 LJ
2.667 LW
N
189.581 320.566 M
190.553 321.161 L
S
GR
GS
[0.75 0 0 0.75 142.18568 240.42464] CT
0.635 0.078 0.184 RC
N
f1188474679
f
GR
GS
[0.75 0 0 0.75 0 0] CT
0 0.447 0.741 RC
1 LJ
2.667 LW
N
190.176 320.943 M
191.129 321.569 L
S
GR
GS
[0.75 0 0 0.75 142.63218 240.70759] CT
0.851 0.325 0.098 RC
N
f1188474679
f
GR
GS
[0.75 0 0 0.75 0 0] CT
0 0.447 0.741 RC
1 LJ
2.667 LW
N
190.759 321.339 M
191.691 321.995 L
S
GR
GS
[0.75 0 0 0.75 143.06921 241.00452] CT
0.494 0.184 0.557 RC
N
f1188474679
f
GR
GS
[0.75 0 0 0.75 0 0] CT
0 0.447 0.741 RC
1 LJ
2.667 LW
N
191.328 321.754 M
192.239 322.439 L
S
GR
GS
[0.75 0 0 0.75 143.4963 241.31525] CT
0.302 0.745 0.933 RC
N
f1188474679
f
GR
GS
[0.75 0 0 0.75 0 0] CT
0 0.447 0.741 RC
1 LJ
2.667 LW
N
191.884 322.186 M
192.772 322.901 L
S
GR
GS
[0.75 0 0 0.75 143.913 241.6395] CT
0 0.447 0.741 RC
N
f1188474679
f
GR
GS
[0.75 0 0 0.75 0 0] CT
0 0.447 0.741 RC
1 LJ
2.667 LW
N
192.425 322.636 M
193.29 323.379 L
S
GR
GS
[0.75 0 0 0.75 144.3189 241.97704] CT
0.929 0.694 0.125 RC
N
f1188474679
f
GR
GS
[0.75 0 0 0.75 0 0] CT
0 0.447 0.741 RC
1 LJ
2.667 LW
N
192.951 323.103 M
193.791 323.874 L
S
GR
GS
[0.75 0 0 0.75 144.71357 242.32755] CT
0.467 0.675 0.188 RC
N
f1188474679
f
GR
GS
[0.75 0 0 0.75 0 0] CT
0 0.447 0.741 RC
1 LJ
2.667 LW
N
193.462 323.588 M
194.277 324.385 L
S
GR
GS
[0.75 0 0 0.75 145.09662 242.69069] CT
0.635 0.078 0.184 RC
N
f1188474679
f
GR
GS
[0.75 0 0 0.75 0 0] CT
0 0.447 0.741 RC
1 LJ
2.667 LW
N
193.957 324.088 M
194.745 324.912 L
S
GR
GS
[0.75 0 0 0.75 145.46768 243.06612] CT
0.851 0.325 0.098 RC
N
f1188474679
f
GR
GS
[0.75 0 0 0.75 0 0] CT
0 0.447 0.741 RC
1 LJ
2.667 LW
N
194.435 324.605 M
195.196 325.453 L
S
GR
GS
[0.75 0 0 0.75 145.82642 243.45348] CT
0.494 0.184 0.557 RC
N
f1188474679
f
GR
GS
[0.75 0 0 0.75 0 0] CT
0 0.447 0.741 RC
1 LJ
2.667 LW
N
194.897 325.136 M
195.63 326.009 L
S
GR
GS
[0.75 0 0 0.75 146.17251 243.85233] CT
0.302 0.745 0.933 RC
N
f1188474679
f
GR
GS
[0.75 0 0 0.75 0 0] CT
0 0.447 0.741 RC
1 LJ
2.667 LW
N
195.341 325.683 M
196.046 326.579 L
S
GR
GS
[0.75 0 0 0.75 146.50568 244.26228] CT
0 0.447 0.741 RC
N
f1188474679
f
GR
GS
[0.75 0 0 0.75 0 0] CT
0 0.447 0.741 RC
1 LJ
2.667 LW
N
195.768 326.244 M
196.443 327.162 L
S
GR
GS
[0.75 0 0 0.75 146.82567 244.68288] CT
0.929 0.694 0.125 RC
N
f1188474679
f
GR
GS
[0.75 0 0 0.75 0 0] CT
0 0.447 0.741 RC
1 LJ
2.667 LW
N
196.176 326.818 M
196.823 327.757 L
S
GR
GS
[0.75 0 0 0.75 147.13225 245.11366] CT
0.467 0.675 0.188 RC
N
f1188474679
f
GR
GS
[0.75 0 0 0.75 0 0] CT
0 0.447 0.741 RC
1 LJ
2.667 LW
N
196.567 327.406 M
197.183 328.365 L
S
GR
GS
[0.75 0 0 0.75 147.42523 245.55416] CT
0.635 0.078 0.184 RC
N
f1188474679
f
GR
GS
[0.75 0 0 0.75 0 0] CT
0 0.447 0.741 RC
1 LJ
2.667 LW
N
196.939 328.005 M
197.525 328.983 L
S
GR
GS
[0.75 0 0 0.75 147.70444 246.00389] CT
0.851 0.325 0.098 RC
N
f1188474679
f
GR
GS
[0.75 0 0 0.75 0 0] CT
0 0.447 0.741 RC
1 LJ
2.667 LW
N
197.293 328.616 M
197.849 329.612 L
S
GR
GS
[0.75 0 0 0.75 147.96974 246.46236] CT
0.494 0.184 0.557 RC
N
f1188474679
f
GR
GS
[0.75 0 0 0.75 0 0] CT
0 0.447 0.741 RC
1 LJ
2.667 LW
N
197.628 329.239 M
198.153 330.251 L
S
GR
GS
[0.75 0 0 0.75 148.22107 246.92912] CT
0.302 0.745 0.933 RC
N
f1188474679
f
GR
GS
[0.75 0 0 0.75 0 0] CT
0 0.447 0.741 RC
1 LJ
2.667 LW
N
197.944 329.872 M
198.439 330.899 L
S
GR
GS
[0.75 0 0 0.75 148.45837 247.40369] CT
0 0.447 0.741 RC
N
f1188474679
f
GR
GS
[0.75 0 0 0.75 0 0] CT
0 0.447 0.741 RC
1 LJ
2.667 LW
N
198.242 330.514 M
198.706 331.555 L
S
GR
GS
[0.75 0 0 0.75 148.68158 247.88553] CT
0.929 0.694 0.125 RC
N
f1188474679
f
GR
GS
[0.75 0 0 0.75 0 0] CT
0 0.447 0.741 RC
1 LJ
2.667 LW
N
198.521 331.166 M
198.954 332.22 L
S
GR
GS
[0.75 0 0 0.75 148.89075 248.37415] CT
0.467 0.675 0.188 RC
N
f1188474679
f
GR
GS
[0.75 0 0 0.75 0 0] CT
0 0.447 0.741 RC
1 LJ
2.667 LW
N
198.781 331.826 M
199.184 332.892 L
S
GR
GS
[0.75 0 0 0.75 149.08588 248.86913] CT
0.635 0.078 0.184 RC
N
f1188474679
f
GR
GS
[0.75 0 0 0.75 0 0] CT
0 0.447 0.741 RC
1 LJ
2.667 LW
N
199.023 332.493 M
199.395 333.571 L
S
GR
GS
[0.75 0 0 0.75 149.26707 249.36999] CT
0.851 0.325 0.098 RC
N
f1188474679
f
GR
GS
[0.75 0 0 0.75 0 0] CT
0 0.447 0.741 RC
1 LJ
2.667 LW
N
199.246 333.168 M
199.589 334.256 L
S
GR
GS
[0.75 0 0 0.75 149.4344 249.87625] CT
0.494 0.184 0.557 RC
N
f1188474679
f
GR
GS
[0.75 0 0 0.75 0 0] CT
0 0.447 0.741 RC
1 LJ
2.667 LW
N
199.451 333.85 M
199.764 334.946 L
S
GR
GS
[0.75 0 0 0.75 149.58797 250.38746] CT
0.302 0.745 0.933 RC
N
f1188474679
f
GR
GS
[0.75 0 0 0.75 0 0] CT
0 0.447 0.741 RC
1 LJ
2.667 LW
N
199.637 334.538 M
199.921 335.642 L
S
GR
GS
[0.75 0 0 0.75 149.72794 250.9032] CT
0 0.447 0.741 RC
N
f1188474679
f
GR
GS
[0.75 0 0 0.75 0 0] CT
0 0.447 0.741 RC
1 LJ
2.667 LW
N
199.806 335.231 M
200.061 336.342 L
S
GR
GS
[0.75 0 0 0.75 149.85448 251.42303] CT
0.929 0.694 0.125 RC
N
f1188474679
f
GR
GS
[0.75 0 0 0.75 0 0] CT
0 0.447 0.741 RC
1 LJ
2.667 LW
N
199.957 335.929 M
200.184 337.046 L
S
GR
GS
[0.75 0 0 0.75 149.96776 251.94651] CT
0.467 0.675 0.188 RC
N
f1188474679
f
GR
GS
[0.75 0 0 0.75 0 0] CT
0 0.447 0.741 RC
1 LJ
2.667 LW
N
200.091 336.631 M
200.29 337.753 L
S
GR
GS
[0.75 0 0 0.75 150.06801 252.47324] CT
0.635 0.078 0.184 RC
N
f1188474679
f
GR
GS
[0.75 0 0 0.75 0 0] CT
0 0.447 0.741 RC
1 LJ
2.667 LW
N
200.207 337.337 M
200.379 338.464 L
S
GR
GS
[0.75 0 0 0.75 150.15542 253.00278] CT
0.851 0.325 0.098 RC
N
f1188474679
f
GR
GS
[0.75 0 0 0.75 0 0] CT
0 0.447 0.741 RC
1 LJ
2.667 LW
N
200.307 338.046 M
200.452 339.177 L
S
GR
GS
[0.75 0 0 0.75 150.23024 253.53477] CT
0.494 0.184 0.557 RC
N
f1188474679
f
GR
GS
[0.75 0 0 0.75 0 0] CT
0 0.447 0.741 RC
1 LJ
2.667 LW
N
200.39 338.758 M
200.51 339.892 L
S
GR
GS
[0.75 0 0 0.75 150.29269 254.06886] CT
0.302 0.745 0.933 RC
N
f1188474679
f
GR
GS
[0.75 0 0 0.75 0 0] CT
0 0.447 0.741 RC
1 LJ
2.667 LW
N
200.457 339.473 M
200.551 340.609 L
S
GR
GS
[0.75 0 0 0.75 150.34305 254.6047] CT
0 0.447 0.741 RC
N
f1188474679
f
GR
GS
[0.75 0 0 0.75 0 0] CT
0 0.447 0.741 RC
1 LJ
2.667 LW
N
200.509 340.189 M
200.578 341.327 L
S
GR
GS
[0.75 0 0 0.75 150.38156 255.14193] CT
0.929 0.694 0.125 RC
N
f1188474679
f
GR
GS
[0.75 0 0 0.75 0 0] CT
0 0.447 0.741 RC
1 LJ
2.667 LW
N
200.545 340.907 M
200.589 342.046 L
S
GR
GS
[0.75 0 0 0.75 150.40847 255.68026] CT
0.467 0.675 0.188 RC
N
f1188474679
f
GR
GS
[0.75 0 0 0.75 0 0] CT
0 0.447 0.741 RC
1 LJ
2.667 LW
N
200.565 341.626 M
200.587 342.766 L
S
GR
GS
[0.75 0 0 0.75 150.42408 256.21939] CT
0.635 0.078 0.184 RC
N
f1188474679
f
GR
GS
[0.75 0 0 0.75 0 0] CT
0 0.447 0.741 RC
1 LJ
2.667 LW
N
200.572 342.345 M
200.57 343.485 L
S
GR
GS
[0.75 0 0 0.75 150.42866 256.75903] CT
0.851 0.325 0.098 RC
N
f1188474679
f
GR
GS
[0.75 0 0 0.75 0 0] CT
0 0.447 0.741 RC
1 LJ
2.667 LW
N
200.563 343.065 M
200.539 344.205 L
S
GR
GS
[0.75 0 0 0.75 150.42248 257.29891] CT
0.494 0.184 0.557 RC
N
f1188474679
f
GR
GS
[0.75 0 0 0.75 0 0] CT
0 0.447 0.741 RC
1 LJ
2.667 LW
N
200.541 343.785 M
200.495 344.924 L
S
GR
GS
[0.75 0 0 0.75 150.40584 257.83882] CT
0.302 0.745 0.933 RC
N
f1188474679
f
GR
GS
[0.75 0 0 0.75 0 0] CT
0 0.447 0.741 RC
1 LJ
2.667 LW
N
200.505 344.505 M
200.438 345.643 L
S
GR
GS
[0.75 0 0 0.75 150.37899 258.37855] CT
0 0.447 0.741 RC
N
f1188474679
f
GR
GS
[0.75 0 0 0.75 0 0] CT
0 0.447 0.741 RC
1 LJ
2.667 LW
N
200.456 345.224 M
200.369 346.36 L
S
GR
GS
[0.75 0 0 0.75 150.34224 258.91786] CT
0.929 0.694 0.125 RC
N
f1188474679
f
GR
GS
[0.75 0 0 0.75 0 0] CT
0 0.447 0.741 RC
1 LJ
2.667 LW
N
200.394 345.942 M
200.287 347.077 L
S
GR
GS
[0.75 0 0 0.75 150.29585 259.45658] CT
0.467 0.675 0.188 RC
N
f1188474679
f
GR
GS
[0.75 0 0 0.75 0 0] CT
0 0.447 0.741 RC
1 LJ
2.667 LW
N
200.32 346.659 M
200.193 347.792 L
S
GR
GS
[0.75 0 0 0.75 150.2401 259.99454] CT
0.635 0.078 0.184 RC
N
f1188474679
f
GR
GS
[0.75 0 0 0.75 0 0] CT
0 0.447 0.741 RC
1 LJ
2.667 LW
N
200.234 347.375 M
200.088 348.506 L
S
GR
GS
[0.75 0 0 0.75 150.17525 260.53155] CT
0.851 0.325 0.098 RC
N
f1188474679
f
GR
GS
[0.75 0 0 0.75 0 0] CT
0 0.447 0.741 RC
1 LJ
2.667 LW
N
200.135 348.09 M
199.971 349.218 L
S
GR
GS
[0.75 0 0 0.75 150.10159 261.06747] CT
0.494 0.184 0.557 RC
N
f1188474679
f
GR
GS
[0.75 0 0 0.75 0 0] CT
0 0.447 0.741 RC
1 LJ
2.667 LW
N
200.026 348.803 M
199.844 349.928 L
S
GR
GS
[0.75 0 0 0.75 150.01937 261.60214] CT
0.302 0.745 0.933 RC
N
f1188474679
f
GR
GS
[0.75 0 0 0.75 0 0] CT
0 0.447 0.741 RC
1 LJ
2.667 LW
N
199.905 349.514 M
199.706 350.636 L
S
GR
GS
[0.75 0 0 0.75 149.92889 262.13548] CT
0 0.447 0.741 RC
N
f1188474679
f
GR
GS
[0.75 0 0 0.75 0 0] CT
0 0.447 0.741 RC
1 LJ
2.667 LW
N
199.774 350.223 M
199.558 351.342 L
S
GR
GS
[0.75 0 0 0.75 149.83035 262.66734] CT
0.929 0.694 0.125 RC
N
f1188474679
f
GR
GS
[0.75 0 0 0.75 0 0] CT
0 0.447 0.741 RC
1 LJ
2.667 LW
N
199.632 350.93 M
199.4 352.046 L
S
GR
GS
[0.75 0 0 0.75 149.72405 263.19761] CT
0.467 0.675 0.188 RC
N
f1188474679
f
GR
GS
[0.75 0 0 0.75 0 0] CT
0 0.447 0.741 RC
1 LJ
2.667 LW
N
199.48 351.635 M
199.232 352.748 L
S
GR
GS
[0.75 0 0 0.75 149.61021 263.72626] CT
0.635 0.078 0.184 RC
N
f1188474679
f
GR
GS
[0.75 0 0 0.75 0 0] CT
0 0.447 0.741 RC
1 LJ
2.667 LW
N
199.319 352.338 M
199.056 353.447 L
S
GR
GS
[0.75 0 0 0.75 149.48907 264.25321] CT
0.851 0.325 0.098 RC
N
f1188474679
f
GR
GS
[0.75 0 0 0.75 0 0] CT
0 0.447 0.741 RC
1 LJ
2.667 LW
N
199.148 353.038 M
198.87 354.144 L
S
GR
GS
[0.75 0 0 0.75 149.36086 264.77843] CT
0.494 0.184 0.557 RC
N
f1188474679
f
GR
GS
[0.75 0 0 0.75 0 0] CT
0 0.447 0.741 RC
1 LJ
2.667 LW
N
198.968 353.736 M
198.676 354.838 L
S
GR
GS
[0.75 0 0 0.75 149.22583 265.30186] CT
0.302 0.745 0.933 RC
N
f1188474679
f
GR
GS
[0.75 0 0 0.75 0 0] CT
0 0.447 0.741 RC
1 LJ
2.667 LW
N
198.779 354.431 M
198.473 355.529 L
S
GR
GS
[0.75 0 0 0.75 149.08419 265.82341] CT
0 0.447 0.741 RC
N
f1188474679
f
GR
GS
[0.75 0 0 0.75 0 0] CT
0 0.447 0.741 RC
1 LJ
2.667 LW
N
198.582 355.124 M
198.263 356.219 L
S
GR
GS
[0.75 0 0 0.75 148.93618 266.34304] CT
0.929 0.694 0.125 RC
N
f1188474679
f
GR
GS
[0.75 0 0 0.75 0 0] CT
0 0.447 0.741 RC
1 LJ
2.667 LW
N
198.376 355.814 M
198.044 356.905 L
S
GR
GS
[0.75 0 0 0.75 148.78201 266.86079] CT
0.467 0.675 0.188 RC
N
f1188474679
f
GR
GS
[0.75 0 0 0.75 0 0] CT
0 0.447 0.741 RC
1 LJ
2.667 LW
N
198.163 356.502 M
197.818 357.589 L
S
GR
GS
[0.75 0 0 0.75 148.62188 267.37658] CT
0.635 0.078 0.184 RC
N
f1188474679
f
GR
GS
[0.75 0 0 0.75 0 0] CT
0 0.447 0.741 RC
1 LJ
2.667 LW
N
197.941 357.187 M
197.585 358.27 L
S
GR
GS
[0.75 0 0 0.75 148.45602 267.89042] CT
0.851 0.325 0.098 RC
N
f1188474679
f
GR
GS
[0.75 0 0 0.75 0 0] CT
0 0.447 0.741 RC
1 LJ
2.667 LW
N
197.713 357.87 M
197.345 358.949 L
S
GR
GS
[0.75 0 0 0.75 148.28463 268.40227] CT
0.494 0.184 0.557 RC
N
f1188474679
f
GR
GS
[0.75 0 0 0.75 0 0] CT
0 0.447 0.741 RC
1 LJ
2.667 LW
N
197.477 358.549 M
197.098 359.625 L
S
GR
GS
[0.75 0 0 0.75 148.10793 268.9121] CT
0.302 0.745 0.933 RC
N
f1188474679
f
GR
GS
[0.75 0 0 0.75 0 0] CT
0 0.447 0.741 RC
1 LJ
2.667 LW
N
197.235 359.227 M
196.845 360.298 L
S
GR
GS
[0.75 0 0 0.75 147.92608 269.41994] CT
0 0.447 0.741 RC
N
f1188474679
f
GR
GS
[0.75 0 0 0.75 0 0] CT
0 0.447 0.741 RC
1 LJ
2.667 LW
N
196.986 359.901 M
196.586 360.969 L
S
GR
GS
[0.75 0 0 0.75 147.73928 269.92582] CT
0.929 0.694 0.125 RC
N
f1188474679
f
GR
GS
[0.75 0 0 0.75 0 0] CT
0 0.447 0.741 RC
1 LJ
2.667 LW
N
196.73 360.573 M
196.32 361.637 L
S
GR
GS
[0.75 0 0 0.75 147.5477 270.4297] CT
0.467 0.675 0.188 RC
N
f1188474679
f
GR
GS
[0.75 0 0 0.75 0 0] CT
0 0.447 0.741 RC
1 LJ
2.667 LW
N
196.469 361.242 M
196.049 362.302 L
S
GR
GS
[0.75 0 0 0.75 147.35155 270.93159] CT
0.635 0.078 0.184 RC
N
f1188474679
f
GR
GS
[0.75 0 0 0.75 0 0] CT
0 0.447 0.741 RC
1 LJ
2.667 LW
N
196.201 361.909 M
195.772 362.965 L
S
GR
GS
[0.75 0 0 0.75 147.15098 271.43152] CT
0.851 0.325 0.098 RC
N
f1188474679
f
GR
GS
[0.75 0 0 0.75 0 0] CT
0 0.447 0.741 RC
1 LJ
2.667 LW
N
195.928 362.573 M
195.49 363.625 L
S
GR
GS
[0.75 0 0 0.75 146.94617 271.92947] CT
0.494 0.184 0.557 RC
N
f1188474679
f
GR
GS
[0.75 0 0 0.75 0 0] CT
0 0.447 0.741 RC
1 LJ
2.667 LW
N
195.65 363.234 M
195.203 364.283 L
S
GR
GS
[0.75 0 0 0.75 146.73729 272.42546] CT
0.302 0.745 0.933 RC
N
f1188474679
f
GR
GS
[0.75 0 0 0.75 0 0] CT
0 0.447 0.741 RC
1 LJ
2.667 LW
N
195.366 363.893 M
194.911 364.938 L
S
GR
GS
[0.75 0 0 0.75 146.52448 272.91953] CT
0 0.447 0.741 RC
N
f1188474679
f
GR
GS
[0.75 0 0 0.75 0 0] CT
0 0.447 0.741 RC
1 LJ
2.667 LW
N
195.077 364.549 M
194.614 365.591 L
S
GR
GS
[0.75 0 0 0.75 146.30788 273.41169] CT
0.929 0.694 0.125 RC
N
f1188474679
f
GR
GS
[0.75 0 0 0.75 0 0] CT
0 0.447 0.741 RC
1 LJ
2.667 LW
N
194.784 365.203 M
194.313 366.241 L
S
GR
GS
[0.75 0 0 0.75 146.08767 273.90198] CT
0.467 0.675 0.188 RC
N
f1188474679
f
GR
GS
[0.75 0 0 0.75 0 0] CT
0 0.447 0.741 RC
1 LJ
2.667 LW
N
194.485 365.854 M
194.007 366.889 L
S
GR
GS
[0.75 0 0 0.75 145.86396 274.39041] CT
0.635 0.078 0.184 RC
N
f1188474679
f
GR
GS
[0.75 0 0 0.75 0 0] CT
0 0.447 0.741 RC
1 LJ
2.667 LW
N
194.183 366.503 M
193.697 367.534 L
S
GR
GS
[0.75 0 0 0.75 145.63692 274.87699] CT
0.851 0.325 0.098 RC
N
f1188474679
f
GR
GS
[0.75 0 0 0.75 0 0] CT
0 0.447 0.741 RC
1 LJ
2.667 LW
N
193.876 367.149 M
193.383 368.177 L
S
GR
GS
[0.75 0 0 0.75 145.40666 275.36179] CT
0.494 0.184 0.557 RC
N
f1188474679
f
GR
GS
[0.75 0 0 0.75 0 0] CT
0 0.447 0.741 RC
1 LJ
2.667 LW
N
193.564 367.793 M
193.065 368.818 L
S
GR
GS
[0.75 0 0 0.75 145.17333 275.84477] CT
0.302 0.745 0.933 RC
N
f1188474679
f
GR
GS
[0.75 0 0 0.75 0 0] CT
0 0.447 0.741 RC
1 LJ
2.667 LW
N
193.249 368.435 M
192.744 369.456 L
S
GR
GS
[0.75 0 0 0.75 144.93704 276.326] CT
0 0.447 0.741 RC
N
f1188474679
f
GR
GS
[0.75 0 0 0.75 0 0] CT
0 0.447 0.741 RC
1 LJ
2.667 LW
N
192.931 369.074 M
192.419 370.093 L
S
GR
GS
[0.75 0 0 0.75 144.69793 276.80548] CT
0.929 0.694 0.125 RC
N
f1188474679
f
GR
GS
[0.75 0 0 0.75 0 0] CT
0 0.447 0.741 RC
1 LJ
2.667 LW
N
192.608 369.711 M
192.09 370.727 L
S
GR
GS
[0.75 0 0 0.75 144.45608 277.28327] CT
0.467 0.675 0.188 RC
N
f1188474679
f
GR
GS
[0.75 0 0 0.75 0 0] CT
0 0.447 0.741 RC
1 LJ
2.667 LW
N
192.282 370.346 M
191.759 371.359 L
S
GR
GS
[0.75 0 0 0.75 144.21162 277.75939] CT
0.635 0.078 0.184 RC
N
f1188474679
f
GR
GS
[0.75 0 0 0.75 0 0] CT
0 0.447 0.741 RC
1 LJ
2.667 LW
N
191.953 370.979 M
191.424 371.988 L
S
GR
GS
[0.75 0 0 0.75 143.96466 278.23389] CT
0.851 0.325 0.098 RC
N
f1188474679
f
GR
GS
[0.75 0 0 0.75 0 0] CT
0 0.447 0.741 RC
1 LJ
2.667 LW
N
191.62 371.609 M
191.086 372.616 L
S
GR
GS
[0.75 0 0 0.75 143.71529 278.70678] CT
0.494 0.184 0.557 RC
N
f1188474679
f
GR
GS
[0.75 0 0 0.75 0 0] CT
0 0.447 0.741 RC
1 LJ
2.667 LW
N
191.285 372.237 M
190.745 373.242 L
S
GR
GS
[0.75 0 0 0.75 143.46363 279.17809] CT
0.302 0.745 0.933 RC
N
f1188474679
f
GR
GS
[0.75 0 0 0.75 0 0] CT
0 0.447 0.741 RC
1 LJ
2.667 LW
N
190.946 372.864 M
190.402 373.865 L
S
GR
GS
[0.75 0 0 0.75 143.20976 279.64787] CT
0 0.447 0.741 RC
N
f1188474679
f
GR
GS
[0.75 0 0 0.75 0 0] CT
0 0.447 0.741 RC
1 LJ
2.667 LW
N
190.605 373.488 M
190.301 374.041 L
S
GR
GS
[0.75 0 0 0.75 142.95379 280.11612] CT
0.929 0.694 0.125 RC
N
f1188474679
f
GR
%%Trailer
%%Pages: 1
%%EOF
