%!PS-Adobe-3.0 EPSF-3.0
%%Creator: (MATLAB, The Mathworks, Inc. Version 9.9.0.1592791 \(R2020b\) Update 5. Operating System: Windows 10)
%%Title: (C:/Users/marti/Documents/GitHub/bio-inspired-autonomous-systems/Assignment 02 - Braitenberg Vehicle/figures/fear.eps)
%%CreationDate: 2021-03-23T10:05:07
%%Pages: (atend)
%%BoundingBox:     0     0  1440   722
%%LanguageLevel: 3
%%EndComments
%%BeginProlog
%%BeginResource: procset (Apache XML Graphics Std ProcSet) 1.2 0
%%Version: 1.2 0
%%Copyright: (Copyright 2001-2003,2010 The Apache Software Foundation. License terms: http://www.apache.org/licenses/LICENSE-2.0)
/bd{bind def}bind def
/ld{load def}bd
/GR/grestore ld
/GS/gsave ld
/RM/rmoveto ld
/C/curveto ld
/t/show ld
/L/lineto ld
/ML/setmiterlimit ld
/CT/concat ld
/f/fill ld
/N/newpath ld
/S/stroke ld
/CC/setcmykcolor ld
/A/ashow ld
/cp/closepath ld
/RC/setrgbcolor ld
/LJ/setlinejoin ld
/GC/setgray ld
/LW/setlinewidth ld
/M/moveto ld
/re {4 2 roll M
1 index 0 rlineto
0 exch rlineto
neg 0 rlineto
cp } bd
/_ctm matrix def
/_tm matrix def
/BT { _ctm currentmatrix pop matrix _tm copy pop 0 0 moveto } bd
/ET { _ctm setmatrix } bd
/iTm { _ctm setmatrix _tm concat } bd
/Tm { _tm astore pop iTm 0 0 moveto } bd
/ux 0.0 def
/uy 0.0 def
/F {
  /Tp exch def
  /Tf exch def
  Tf findfont Tp scalefont setfont
  /cf Tf def  /cs Tp def
} bd
/ULS {currentpoint /uy exch def /ux exch def} bd
/ULE {
  /Tcx currentpoint pop def
  gsave
  newpath
  cf findfont cs scalefont dup
  /FontMatrix get 0 get /Ts exch def /FontInfo get dup
  /UnderlinePosition get Ts mul /To exch def
  /UnderlineThickness get Ts mul /Tt exch def
  ux uy To add moveto  Tcx uy To add lineto
  Tt setlinewidth stroke
  grestore
} bd
/OLE {
  /Tcx currentpoint pop def
  gsave
  newpath
  cf findfont cs scalefont dup
  /FontMatrix get 0 get /Ts exch def /FontInfo get dup
  /UnderlinePosition get Ts mul /To exch def
  /UnderlineThickness get Ts mul /Tt exch def
  ux uy To add cs add moveto Tcx uy To add cs add lineto
  Tt setlinewidth stroke
  grestore
} bd
/SOE {
  /Tcx currentpoint pop def
  gsave
  newpath
  cf findfont cs scalefont dup
  /FontMatrix get 0 get /Ts exch def /FontInfo get dup
  /UnderlinePosition get Ts mul /To exch def
  /UnderlineThickness get Ts mul /Tt exch def
  ux uy To add cs 10 mul 26 idiv add moveto Tcx uy To add cs 10 mul 26 idiv add lineto
  Tt setlinewidth stroke
  grestore
} bd
/QT {
/Y22 exch store
/X22 exch store
/Y21 exch store
/X21 exch store
currentpoint
/Y21 load 2 mul add 3 div exch
/X21 load 2 mul add 3 div exch
/X21 load 2 mul /X22 load add 3 div
/Y21 load 2 mul /Y22 load add 3 div
/X22 load /Y22 load curveto
} bd
/SSPD {
dup length /d exch dict def
{
/v exch def
/k exch def
currentpagedevice k known {
/cpdv currentpagedevice k get def
v cpdv ne {
/upd false def
/nullv v type /nulltype eq def
/nullcpdv cpdv type /nulltype eq def
nullv nullcpdv or
{
/upd true def
} {
/sametype v type cpdv type eq def
sametype {
v type /arraytype eq {
/vlen v length def
/cpdvlen cpdv length def
vlen cpdvlen eq {
0 1 vlen 1 sub {
/i exch def
/obj v i get def
/cpdobj cpdv i get def
obj cpdobj ne {
/upd true def
exit
} if
} for
} {
/upd true def
} ifelse
} {
v type /dicttype eq {
v {
/dv exch def
/dk exch def
/cpddv cpdv dk get def
dv cpddv ne {
/upd true def
exit
} if
} forall
} {
/upd true def
} ifelse
} ifelse
} if
} ifelse
upd true eq {
d k v put
} if
} if
} if
} forall
d length 0 gt {
d setpagedevice
} if
} bd
/RE { % /NewFontName [NewEncodingArray] /FontName RE -
  findfont dup length dict begin
  {
    1 index /FID ne
    {def} {pop pop} ifelse
  } forall
  /Encoding exch def
  /FontName 1 index def
  currentdict definefont pop
  end
} bind def
%%EndResource
%%BeginResource: procset (Apache XML Graphics EPS ProcSet) 1.0 0
%%Version: 1.0 0
%%Copyright: (Copyright 2002-2003 The Apache Software Foundation. License terms: http://www.apache.org/licenses/LICENSE-2.0)
/BeginEPSF { %def
/b4_Inc_state save def         % Save state for cleanup
/dict_count countdictstack def % Count objects on dict stack
/op_count count 1 sub def      % Count objects on operand stack
userdict begin                 % Push userdict on dict stack
/showpage { } def              % Redefine showpage, { } = null proc
0 setgray 0 setlinecap         % Prepare graphics state
1 setlinewidth 0 setlinejoin
10 setmiterlimit [ ] 0 setdash newpath
/languagelevel where           % If level not equal to 1 then
{pop languagelevel             % set strokeadjust and
1 ne                           % overprint to their defaults.
{false setstrokeadjust false setoverprint
} if
} if
} bd
/EndEPSF { %def
count op_count sub {pop} repeat            % Clean up stacks
countdictstack dict_count sub {end} repeat
b4_Inc_state restore
} bd
%%EndResource
%FOPBeginFontDict
%%IncludeResource: font Courier-Oblique
%%IncludeResource: font Courier-BoldOblique
%%IncludeResource: font Courier-Bold
%%IncludeResource: font ZapfDingbats
%%IncludeResource: font Symbol
%%IncludeResource: font Helvetica
%%IncludeResource: font Helvetica-Oblique
%%IncludeResource: font Helvetica-Bold
%%IncludeResource: font Helvetica-BoldOblique
%%IncludeResource: font Times-Roman
%%IncludeResource: font Times-Italic
%%IncludeResource: font Times-Bold
%%IncludeResource: font Times-BoldItalic
%%IncludeResource: font Courier
%FOPEndFontDict
%%BeginResource: encoding WinAnsiEncoding
/WinAnsiEncoding [
/.notdef /.notdef /.notdef /.notdef /.notdef
/.notdef /.notdef /.notdef /.notdef /.notdef
/.notdef /.notdef /.notdef /.notdef /.notdef
/.notdef /.notdef /.notdef /.notdef /.notdef
/.notdef /.notdef /.notdef /.notdef /.notdef
/.notdef /.notdef /.notdef /.notdef /.notdef
/.notdef /.notdef /space /exclam /quotedbl
/numbersign /dollar /percent /ampersand /quotesingle
/parenleft /parenright /asterisk /plus /comma
/hyphen /period /slash /zero /one
/two /three /four /five /six
/seven /eight /nine /colon /semicolon
/less /equal /greater /question /at
/A /B /C /D /E
/F /G /H /I /J
/K /L /M /N /O
/P /Q /R /S /T
/U /V /W /X /Y
/Z /bracketleft /backslash /bracketright /asciicircum
/underscore /quoteleft /a /b /c
/d /e /f /g /h
/i /j /k /l /m
/n /o /p /q /r
/s /t /u /v /w
/x /y /z /braceleft /bar
/braceright /asciitilde /bullet /Euro /bullet
/quotesinglbase /florin /quotedblbase /ellipsis /dagger
/daggerdbl /circumflex /perthousand /Scaron /guilsinglleft
/OE /bullet /Zcaron /bullet /bullet
/quoteleft /quoteright /quotedblleft /quotedblright /bullet
/endash /emdash /asciitilde /trademark /scaron
/guilsinglright /oe /bullet /zcaron /Ydieresis
/space /exclamdown /cent /sterling /currency
/yen /brokenbar /section /dieresis /copyright
/ordfeminine /guillemotleft /logicalnot /sfthyphen /registered
/macron /degree /plusminus /twosuperior /threesuperior
/acute /mu /paragraph /middot /cedilla
/onesuperior /ordmasculine /guillemotright /onequarter /onehalf
/threequarters /questiondown /Agrave /Aacute /Acircumflex
/Atilde /Adieresis /Aring /AE /Ccedilla
/Egrave /Eacute /Ecircumflex /Edieresis /Igrave
/Iacute /Icircumflex /Idieresis /Eth /Ntilde
/Ograve /Oacute /Ocircumflex /Otilde /Odieresis
/multiply /Oslash /Ugrave /Uacute /Ucircumflex
/Udieresis /Yacute /Thorn /germandbls /agrave
/aacute /acircumflex /atilde /adieresis /aring
/ae /ccedilla /egrave /eacute /ecircumflex
/edieresis /igrave /iacute /icircumflex /idieresis
/eth /ntilde /ograve /oacute /ocircumflex
/otilde /odieresis /divide /oslash /ugrave
/uacute /ucircumflex /udieresis /yacute /thorn
/ydieresis
] def
%%EndResource
%FOPBeginFontReencode
/Courier-Oblique findfont
dup length dict begin
  {1 index /FID ne {def} {pop pop} ifelse} forall
  /Encoding WinAnsiEncoding def
  currentdict
end
/Courier-Oblique exch definefont pop
/Courier-BoldOblique findfont
dup length dict begin
  {1 index /FID ne {def} {pop pop} ifelse} forall
  /Encoding WinAnsiEncoding def
  currentdict
end
/Courier-BoldOblique exch definefont pop
/Courier-Bold findfont
dup length dict begin
  {1 index /FID ne {def} {pop pop} ifelse} forall
  /Encoding WinAnsiEncoding def
  currentdict
end
/Courier-Bold exch definefont pop
/Helvetica findfont
dup length dict begin
  {1 index /FID ne {def} {pop pop} ifelse} forall
  /Encoding WinAnsiEncoding def
  currentdict
end
/Helvetica exch definefont pop
/Helvetica-Oblique findfont
dup length dict begin
  {1 index /FID ne {def} {pop pop} ifelse} forall
  /Encoding WinAnsiEncoding def
  currentdict
end
/Helvetica-Oblique exch definefont pop
/Helvetica-Bold findfont
dup length dict begin
  {1 index /FID ne {def} {pop pop} ifelse} forall
  /Encoding WinAnsiEncoding def
  currentdict
end
/Helvetica-Bold exch definefont pop
/Helvetica-BoldOblique findfont
dup length dict begin
  {1 index /FID ne {def} {pop pop} ifelse} forall
  /Encoding WinAnsiEncoding def
  currentdict
end
/Helvetica-BoldOblique exch definefont pop
/Times-Roman findfont
dup length dict begin
  {1 index /FID ne {def} {pop pop} ifelse} forall
  /Encoding WinAnsiEncoding def
  currentdict
end
/Times-Roman exch definefont pop
/Times-Italic findfont
dup length dict begin
  {1 index /FID ne {def} {pop pop} ifelse} forall
  /Encoding WinAnsiEncoding def
  currentdict
end
/Times-Italic exch definefont pop
/Times-Bold findfont
dup length dict begin
  {1 index /FID ne {def} {pop pop} ifelse} forall
  /Encoding WinAnsiEncoding def
  currentdict
end
/Times-Bold exch definefont pop
/Times-BoldItalic findfont
dup length dict begin
  {1 index /FID ne {def} {pop pop} ifelse} forall
  /Encoding WinAnsiEncoding def
  currentdict
end
/Times-BoldItalic exch definefont pop
/Courier findfont
dup length dict begin
  {1 index /FID ne {def} {pop pop} ifelse} forall
  /Encoding WinAnsiEncoding def
  currentdict
end
/Courier exch definefont pop
%FOPEndFontReencode
%%EndProlog
%%Page: 1 1
%%PageBoundingBox: 0 0 1440 722
%%BeginPageSetup
[1 0 0 -1 0 722] CT
%%EndPageSetup
GS
[0.75 0 0 0.75 0 -0.25] CT
1 GC
N
0 0 1920 963 re
f
GR
GS
[0.75 0 0 0.75 0 -0.25] CT
1 GC
N
0 0 1920 963 re
f
GR
GS
[0.75 0 0 0.75 0 -0.25] CT
1 GC
N
1095 401 M
1738 401 L
1738 72 L
1095 72 L
cp
f
GR
GS
[0.75 0 0 0.75 0 -0.25] CT
0.873 GC
1 LJ
0.667 LW
N
1152.089 401 M
1152.089 72 L
S
GR
GS
[0.75 0 0 0.75 0 -0.25] CT
0.873 GC
1 LJ
0.667 LW
N
1212.182 401 M
1212.182 72 L
S
GR
GS
[0.75 0 0 0.75 0 -0.25] CT
0.873 GC
1 LJ
0.667 LW
N
1272.276 401 M
1272.276 72 L
S
GR
GS
[0.75 0 0 0.75 0 -0.25] CT
0.873 GC
1 LJ
0.667 LW
N
1332.369 401 M
1332.369 72 L
S
GR
GS
[0.75 0 0 0.75 0 -0.25] CT
0.873 GC
1 LJ
0.667 LW
N
1392.463 401 M
1392.463 72 L
S
GR
GS
[0.75 0 0 0.75 0 -0.25] CT
0.873 GC
1 LJ
0.667 LW
N
1452.556 401 M
1452.556 72 L
S
GR
GS
[0.75 0 0 0.75 0 -0.25] CT
0.873 GC
1 LJ
0.667 LW
N
1512.65 401 M
1512.65 72 L
S
GR
GS
[0.75 0 0 0.75 0 -0.25] CT
0.873 GC
1 LJ
0.667 LW
N
1572.743 401 M
1572.743 72 L
S
GR
GS
[0.75 0 0 0.75 0 -0.25] CT
0.873 GC
1 LJ
0.667 LW
N
1632.836 401 M
1632.836 72 L
S
GR
GS
[0.75 0 0 0.75 0 -0.25] CT
0.873 GC
1 LJ
0.667 LW
N
1692.93 401 M
1692.93 72 L
S
GR
GS
[0.75 0 0 0.75 0 -0.25] CT
0.873 GC
1 LJ
0.667 LW
N
1738 401 M
1095 401 L
S
GR
GS
[0.75 0 0 0.75 0 -0.25] CT
0.873 GC
1 LJ
0.667 LW
N
1738 291.333 M
1095 291.333 L
S
GR
GS
[0.75 0 0 0.75 0 -0.25] CT
0.873 GC
1 LJ
0.667 LW
N
1738 181.667 M
1095 181.667 L
S
GR
GS
[0.75 0 0 0.75 0 -0.25] CT
0.873 GC
1 LJ
0.667 LW
N
1738 72 M
1095 72 L
S
GR
GS
[0.75 0 0 0.75 0 -0.25] CT
0.149 GC
2 setlinecap
1 LJ
0.667 LW
N
1095 401 M
1738 401 L
S
GR
GS
[0.75 0 0 0.75 0 -0.25] CT
0.149 GC
2 setlinecap
1 LJ
0.667 LW
N
1152.089 401 M
1152.089 394.57 L
S
GR
GS
[0.75 0 0 0.75 0 -0.25] CT
0.149 GC
2 setlinecap
1 LJ
0.667 LW
N
1212.182 401 M
1212.182 394.57 L
S
GR
GS
[0.75 0 0 0.75 0 -0.25] CT
0.149 GC
2 setlinecap
1 LJ
0.667 LW
N
1272.276 401 M
1272.276 394.57 L
S
GR
GS
[0.75 0 0 0.75 0 -0.25] CT
0.149 GC
2 setlinecap
1 LJ
0.667 LW
N
1332.369 401 M
1332.369 394.57 L
S
GR
GS
[0.75 0 0 0.75 0 -0.25] CT
0.149 GC
2 setlinecap
1 LJ
0.667 LW
N
1392.463 401 M
1392.463 394.57 L
S
GR
GS
[0.75 0 0 0.75 0 -0.25] CT
0.149 GC
2 setlinecap
1 LJ
0.667 LW
N
1452.556 401 M
1452.556 394.57 L
S
GR
GS
[0.75 0 0 0.75 0 -0.25] CT
0.149 GC
2 setlinecap
1 LJ
0.667 LW
N
1512.65 401 M
1512.65 394.57 L
S
GR
GS
[0.75 0 0 0.75 0 -0.25] CT
0.149 GC
2 setlinecap
1 LJ
0.667 LW
N
1572.743 401 M
1572.743 394.57 L
S
GR
GS
[0.75 0 0 0.75 0 -0.25] CT
0.149 GC
2 setlinecap
1 LJ
0.667 LW
N
1632.836 401 M
1632.836 394.57 L
S
GR
GS
[0.75 0 0 0.75 0 -0.25] CT
0.149 GC
2 setlinecap
1 LJ
0.667 LW
N
1692.93 401 M
1692.93 394.57 L
S
GR
GS
[0.75 0 0 0.75 864.06656 304.50001] CT
0.149 GC
/Helvetica 13.333 F
GS
[1 0 0 1 0 0] CT
-7.5 14 moveto 
1 -1 scale
(20) t 
GR
GR
GS
[0.75 0 0 0.75 909.13669 304.50001] CT
0.149 GC
/Helvetica 13.333 F
GS
[1 0 0 1 0 0] CT
-7.5 14 moveto 
1 -1 scale
(40) t 
GR
GR
GS
[0.75 0 0 0.75 954.20682 304.50001] CT
0.149 GC
/Helvetica 13.333 F
GS
[1 0 0 1 0 0] CT
-7.5 14 moveto 
1 -1 scale
(60) t 
GR
GR
GS
[0.75 0 0 0.75 999.27686 304.50001] CT
0.149 GC
/Helvetica 13.333 F
GS
[1 0 0 1 0 0] CT
-7.5 14 moveto 
1 -1 scale
(80) t 
GR
GR
GS
[0.75 0 0 0.75 1044.34698 304.50001] CT
0.149 GC
/Helvetica 13.333 F
GS
[1 0 0 1 0 0] CT
-11.5 14 moveto 
1 -1 scale
(100) t 
GR
GR
GS
[0.75 0 0 0.75 1089.41702 304.50001] CT
0.149 GC
/Helvetica 13.333 F
GS
[1 0 0 1 0 0] CT
-11.5 14 moveto 
1 -1 scale
(120) t 
GR
GR
GS
[0.75 0 0 0.75 1134.48715 304.50001] CT
0.149 GC
/Helvetica 13.333 F
GS
[1 0 0 1 0 0] CT
-11.5 14 moveto 
1 -1 scale
(140) t 
GR
GR
GS
[0.75 0 0 0.75 1179.55728 304.50001] CT
0.149 GC
/Helvetica 13.333 F
GS
[1 0 0 1 0 0] CT
-11.5 14 moveto 
1 -1 scale
(160) t 
GR
GR
GS
[0.75 0 0 0.75 1224.62732 304.50001] CT
0.149 GC
/Helvetica 13.333 F
GS
[1 0 0 1 0 0] CT
-11.5 14 moveto 
1 -1 scale
(180) t 
GR
GR
GS
[0.75 0 0 0.75 1269.69745 304.50001] CT
0.149 GC
/Helvetica 13.333 F
GS
[1 0 0 1 0 0] CT
-11.5 14 moveto 
1 -1 scale
(200) t 
GR
GR
GS
[0.75 0 0 0.75 0 -0.25] CT
0.149 GC
2 setlinecap
1 LJ
0.667 LW
N
1095 401 M
1095 72 L
S
GR
GS
[0.75 0 0 0.75 0 -0.25] CT
0.149 GC
2 setlinecap
1 LJ
0.667 LW
N
1095 401 M
1101.43 401 L
S
GR
GS
[0.75 0 0 0.75 0 -0.25] CT
0.149 GC
2 setlinecap
1 LJ
0.667 LW
N
1095 291.333 M
1101.43 291.333 L
S
GR
GS
[0.75 0 0 0.75 0 -0.25] CT
0.149 GC
2 setlinecap
1 LJ
0.667 LW
N
1095 181.667 M
1101.43 181.667 L
S
GR
GS
[0.75 0 0 0.75 0 -0.25] CT
0.149 GC
2 setlinecap
1 LJ
0.667 LW
N
1095 72 M
1101.43 72 L
S
GR
GS
[0.75 0 0 0.75 817.24997 300.5] CT
0.149 GC
/Helvetica 13.333 F
GS
[1 0 0 1 0 0] CT
-8 5.5 moveto 
1 -1 scale
(0) t 
GR
GR
GS
[0.75 0 0 0.75 817.24997 218.25001] CT
0.149 GC
/Helvetica 13.333 F
GS
[1 0 0 1 0 0] CT
-19 5.5 moveto 
1 -1 scale
(0.5) t 
GR
GR
GS
[0.75 0 0 0.75 817.24997 136] CT
0.149 GC
/Helvetica 13.333 F
GS
[1 0 0 1 0 0] CT
-8 5.5 moveto 
1 -1 scale
(1) t 
GR
GR
GS
[0.75 0 0 0.75 817.24997 53.75] CT
0.149 GC
/Helvetica 13.333 F
GS
[1 0 0 1 0 0] CT
-19 5.5 moveto 
1 -1 scale
(1.5) t 
GR
GR
GS
[0.75 0 0 0.75 1062.37601 51.68751] CT
/Helvetica-Bold 14.667 F
GS
[1 0 0 1 0 0] CT
-181.5 -4 moveto 
1 -1 scale
(Motor velocities: left motor \(red\), right motor \(black\)) t 
GR
GR
GS
[0.75 0 0 0.75 0 -0.25] CT
1 0 0 RC
1 LJ
2.667 LW
N
1095 85.652 M
1098.005 84.891 L
1101.009 84.141 L
1104.014 83.405 L
1107.019 82.657 L
1110.023 81.916 L
1113.028 81.193 L
1116.033 80.49 L
1119.037 79.81 L
1122.042 79.153 L
1125.047 78.522 L
1128.051 77.919 L
1131.056 77.346 L
1134.061 76.795 L
1137.065 76.26 L
1140.07 75.76 L
1143.075 75.299 L
1146.079 74.878 L
1149.084 74.499 L
1152.089 74.162 L
1155.094 73.87 L
1158.098 73.622 L
1161.103 73.42 L
1164.107 73.265 L
1167.112 73.158 L
1170.117 73.098 L
1173.121 73.086 L
1176.126 73.122 L
1179.131 73.207 L
1182.135 73.339 L
1185.14 73.519 L
1188.145 73.746 L
1191.15 74.019 L
1194.154 74.337 L
1197.159 74.7 L
1200.164 75.106 L
1203.168 75.553 L
1206.173 76.042 L
1209.178 76.569 L
1212.182 77.124 L
1215.187 77.692 L
1218.192 78.293 L
1221.196 78.923 L
1224.201 79.581 L
1227.206 80.265 L
1230.21 80.974 L
1233.215 81.704 L
1236.22 82.454 L
1239.224 83.22 L
1242.229 83.966 L
1245.234 84.728 L
1248.238 85.501 L
1251.243 86.286 L
1254.248 87.08 L
1257.252 87.882 L
1260.257 88.691 L
1263.262 89.505 L
1266.266 90.31 L
1269.271 91.096 L
1272.276 91.883 L
1275.28 92.672 L
1278.285 93.462 L
1281.29 94.25 L
1284.294 95.037 L
1287.299 95.822 L
1290.304 96.603 L
1293.308 97.381 L
1296.313 98.143 L
1299.318 98.884 L
1302.322 99.62 L
1305.327 100.35 L
1308.332 101.075 L
1311.336 101.793 L
1314.341 102.505 L
1317.346 103.209 L
1320.35 103.906 L
1323.355 104.594 L
1326.36 105.274 L
1329.365 105.946 L
1332.369 106.609 L
1335.374 107.263 L
1338.379 107.907 L
1341.383 108.543 L
1344.388 109.169 L
1347.393 109.786 L
1350.397 110.393 L
1353.402 110.991 L
1356.406 111.58 L
1359.411 112.16 L
1362.416 112.73 L
1365.421 113.291 L
1368.425 113.843 L
1371.43 114.385 L
1374.435 114.919 L
1377.439 115.445 L
1380.444 115.962 L
1383.449 116.47 L
1386.453 116.97 L
1389.458 117.462 L
1392.463 117.945 L
1395.467 118.421 L
1398.472 118.889 L
1401.477 119.349 L
1404.481 119.802 L
1407.486 120.248 L
1410.491 120.687 L
1413.495 121.119 L
1416.5 121.545 L
1419.505 121.965 L
1422.509 122.378 L
1425.514 122.785 L
1428.519 123.187 L
1431.523 123.582 L
1434.528 123.973 L
1437.533 124.358 L
1440.537 124.738 L
1443.542 125.112 L
1446.547 125.482 L
1449.551 125.848 L
1452.556 126.208 L
1455.561 126.565 L
1458.565 126.917 L
1461.57 127.265 L
1464.575 127.609 L
1467.579 127.949 L
1470.584 128.285 L
1473.589 128.618 L
1476.594 128.947 L
1479.598 129.272 L
1482.603 129.595 L
1485.607 129.914 L
1488.612 130.23 L
1491.617 130.543 L
1494.621 130.854 L
1497.626 131.161 L
1500.631 131.466 L
1503.635 131.768 L
1506.64 132.068 L
1509.645 132.365 L
1512.65 132.66 L
1515.654 132.953 L
1518.659 133.243 L
1521.664 133.532 L
1524.668 133.818 L
1527.673 134.102 L
1530.678 134.385 L
1533.682 134.665 L
1536.687 134.944 L
1539.692 135.221 L
1542.696 135.497 L
1545.701 135.77 L
1548.706 136.043 L
1551.71 136.313 L
1554.715 136.583 L
1557.72 136.851 L
1560.724 137.117 L
1563.729 137.382 L
1566.734 137.646 L
1569.738 137.909 L
1572.743 138.171 L
1575.748 138.431 L
1578.752 138.691 L
1581.757 138.949 L
1584.762 139.207 L
1587.766 139.463 L
1590.771 139.719 L
1593.776 139.973 L
1596.78 140.227 L
1599.785 140.48 L
1602.79 140.732 L
1605.794 140.983 L
1608.799 141.233 L
1611.804 141.483 L
1614.808 141.732 L
1617.813 141.981 L
1620.818 142.229 L
1623.822 142.476 L
1626.827 142.722 L
1629.832 142.968 L
1632.836 143.214 L
1635.841 143.458 L
1638.846 143.703 L
1641.85 143.947 L
1644.855 144.19 L
1647.86 144.433 L
1650.865 144.676 L
1653.869 144.918 L
1656.874 145.159 L
1659.879 145.401 L
1662.883 145.641 L
1665.888 145.882 L
1668.893 146.122 L
1671.897 146.362 L
1674.902 146.602 L
1677.906 146.841 L
1680.911 147.08 L
1683.916 147.318 L
1686.921 147.557 L
1689.925 147.795 L
1692.93 148.033 L
1695.935 148.27 L
1698.939 148.508 L
1701.944 148.745 L
1704.949 148.982 L
1707.953 149.219 L
1710.958 149.455 L
1713.963 149.692 L
1716.967 149.928 L
1719.972 150.164 L
1722.977 150.4 L
1725.981 150.636 L
1728.986 150.871 L
1731.991 151.107 L
1734.995 151.342 L
1738 151.578 L
S
GR
GS
[0.75 0 0 0.75 0 -0.25] CT
1 LJ
2.667 LW
N
1095 164.095 M
1098.005 165.305 L
1101.009 166.541 L
1104.014 167.8 L
1107.019 169.077 L
1110.023 170.37 L
1113.028 171.673 L
1116.033 172.983 L
1119.037 174.293 L
1122.042 175.526 L
1125.047 176.728 L
1128.051 177.911 L
1131.056 179.056 L
1134.061 180.099 L
1137.065 181.104 L
1140.07 182.063 L
1143.075 182.969 L
1146.079 183.76 L
1149.084 184.479 L
1152.089 185.129 L
1155.094 185.702 L
1158.098 186.194 L
1161.103 186.599 L
1164.107 186.913 L
1167.112 187.133 L
1170.117 187.246 L
1173.121 187.268 L
1176.126 187.2 L
1179.131 187.032 L
1182.135 186.763 L
1185.14 186.4 L
1188.145 185.946 L
1191.15 185.407 L
1194.154 184.787 L
1197.159 184.093 L
1200.164 183.33 L
1203.168 182.458 L
1206.173 181.508 L
1209.178 180.506 L
1212.182 179.462 L
1215.187 178.341 L
1218.192 177.145 L
1221.196 175.926 L
1224.201 174.692 L
1227.206 173.364 L
1230.21 172.024 L
1233.215 170.687 L
1236.22 169.359 L
1239.224 168.046 L
1242.229 166.752 L
1245.234 165.479 L
1248.238 164.232 L
1251.243 163.013 L
1254.248 161.825 L
1257.252 160.669 L
1260.257 159.547 L
1263.262 158.46 L
1266.266 157.41 L
1269.271 156.395 L
1272.276 155.418 L
1275.28 154.477 L
1278.285 153.572 L
1281.29 152.703 L
1284.294 151.871 L
1287.299 151.074 L
1290.304 150.312 L
1293.308 149.584 L
1296.313 148.889 L
1299.318 148.227 L
1302.322 147.55 L
1305.327 146.882 L
1308.332 146.247 L
1311.336 145.643 L
1314.341 145.069 L
1317.346 144.475 L
1320.35 143.901 L
1323.355 143.357 L
1326.36 142.842 L
1329.365 142.355 L
1332.369 141.884 L
1335.374 141.399 L
1338.379 140.941 L
1341.383 140.51 L
1344.388 140.104 L
1347.393 139.723 L
1350.397 139.364 L
1353.402 139.011 L
1356.406 138.656 L
1359.411 138.324 L
1362.416 138.014 L
1365.421 137.725 L
1368.425 137.455 L
1371.43 137.205 L
1374.435 136.973 L
1377.439 136.759 L
1380.444 136.542 L
1383.449 136.332 L
1386.453 136.138 L
1389.458 135.961 L
1392.463 135.799 L
1395.467 135.653 L
1398.472 135.521 L
1401.477 135.402 L
1404.481 135.297 L
1407.486 135.205 L
1410.491 135.124 L
1413.495 135.056 L
1416.5 134.998 L
1419.505 134.951 L
1422.509 134.915 L
1425.514 134.888 L
1428.519 134.871 L
1431.523 134.863 L
1434.528 134.864 L
1437.533 134.873 L
1440.537 134.89 L
1443.542 134.914 L
1446.547 134.947 L
1449.551 134.986 L
1452.556 135.032 L
1455.561 135.085 L
1458.565 135.144 L
1461.57 135.209 L
1464.575 135.28 L
1467.579 135.357 L
1470.584 135.439 L
1473.589 135.527 L
1476.594 135.619 L
1479.598 135.716 L
1482.603 135.818 L
1485.607 135.924 L
1488.612 136.035 L
1491.617 136.149 L
1494.621 136.268 L
1497.626 136.391 L
1500.631 136.517 L
1503.635 136.647 L
1506.64 136.78 L
1509.645 136.917 L
1512.65 137.056 L
1515.654 137.199 L
1518.659 137.345 L
1521.664 137.494 L
1524.668 137.645 L
1527.673 137.799 L
1530.678 137.956 L
1533.682 138.115 L
1536.687 138.277 L
1539.692 138.44 L
1542.696 138.607 L
1545.701 138.775 L
1548.706 138.945 L
1551.71 139.117 L
1554.715 139.291 L
1557.72 139.467 L
1560.724 139.645 L
1563.729 139.825 L
1566.734 140.006 L
1569.738 140.189 L
1572.743 140.373 L
1575.748 140.559 L
1578.752 140.747 L
1581.757 140.935 L
1584.762 141.126 L
1587.766 141.317 L
1590.771 141.51 L
1593.776 141.704 L
1596.78 141.899 L
1599.785 142.095 L
1602.79 142.293 L
1605.794 142.491 L
1608.799 142.691 L
1611.804 142.892 L
1614.808 143.093 L
1617.813 143.296 L
1620.818 143.499 L
1623.822 143.703 L
1626.827 143.908 L
1629.832 144.114 L
1632.836 144.321 L
1635.841 144.529 L
1638.846 144.737 L
1641.85 144.946 L
1644.855 145.156 L
1647.86 145.366 L
1650.865 145.577 L
1653.869 145.789 L
1656.874 146.001 L
1659.879 146.214 L
1662.883 146.428 L
1665.888 146.642 L
1668.893 146.856 L
1671.897 147.072 L
1674.902 147.287 L
1677.906 147.503 L
1680.911 147.72 L
1683.916 147.937 L
1686.921 148.155 L
1689.925 148.373 L
1692.93 148.591 L
1695.935 148.81 L
1698.939 149.029 L
1701.944 149.249 L
1704.949 149.469 L
1707.953 149.69 L
1710.958 149.91 L
1713.963 150.132 L
1716.967 150.353 L
1719.972 150.575 L
1722.977 150.797 L
1725.981 151.019 L
1728.986 151.242 L
1731.991 151.465 L
1734.995 151.689 L
1738 151.912 L
S
GR
GS
[0.75 0 0 0.75 0 -0.25] CT
1 GC
N
1095 857 M
1738 857 L
1738 529 L
1095 529 L
cp
f
GR
GS
[0.75 0 0 0.75 0 -0.25] CT
0.873 GC
1 LJ
0.667 LW
N
1152.089 857 M
1152.089 529 L
S
GR
GS
[0.75 0 0 0.75 0 -0.25] CT
0.873 GC
1 LJ
0.667 LW
N
1212.182 857 M
1212.182 529 L
S
GR
GS
[0.75 0 0 0.75 0 -0.25] CT
0.873 GC
1 LJ
0.667 LW
N
1272.276 857 M
1272.276 529 L
S
GR
GS
[0.75 0 0 0.75 0 -0.25] CT
0.873 GC
1 LJ
0.667 LW
N
1332.369 857 M
1332.369 529 L
S
GR
GS
[0.75 0 0 0.75 0 -0.25] CT
0.873 GC
1 LJ
0.667 LW
N
1392.463 857 M
1392.463 529 L
S
GR
GS
[0.75 0 0 0.75 0 -0.25] CT
0.873 GC
1 LJ
0.667 LW
N
1452.556 857 M
1452.556 529 L
S
GR
GS
[0.75 0 0 0.75 0 -0.25] CT
0.873 GC
1 LJ
0.667 LW
N
1512.65 857 M
1512.65 529 L
S
GR
GS
[0.75 0 0 0.75 0 -0.25] CT
0.873 GC
1 LJ
0.667 LW
N
1572.743 857 M
1572.743 529 L
S
GR
GS
[0.75 0 0 0.75 0 -0.25] CT
0.873 GC
1 LJ
0.667 LW
N
1632.836 857 M
1632.836 529 L
S
GR
GS
[0.75 0 0 0.75 0 -0.25] CT
0.873 GC
1 LJ
0.667 LW
N
1692.93 857 M
1692.93 529 L
S
GR
GS
[0.75 0 0 0.75 0 -0.25] CT
0.873 GC
1 LJ
0.667 LW
N
1738 857 M
1095 857 L
S
GR
GS
[0.75 0 0 0.75 0 -0.25] CT
0.873 GC
1 LJ
0.667 LW
N
1738 810.143 M
1095 810.143 L
S
GR
GS
[0.75 0 0 0.75 0 -0.25] CT
0.873 GC
1 LJ
0.667 LW
N
1738 763.286 M
1095 763.286 L
S
GR
GS
[0.75 0 0 0.75 0 -0.25] CT
0.873 GC
1 LJ
0.667 LW
N
1738 716.429 M
1095 716.429 L
S
GR
GS
[0.75 0 0 0.75 0 -0.25] CT
0.873 GC
1 LJ
0.667 LW
N
1738 669.571 M
1095 669.571 L
S
GR
GS
[0.75 0 0 0.75 0 -0.25] CT
0.873 GC
1 LJ
0.667 LW
N
1738 622.714 M
1095 622.714 L
S
GR
GS
[0.75 0 0 0.75 0 -0.25] CT
0.873 GC
1 LJ
0.667 LW
N
1738 575.857 M
1095 575.857 L
S
GR
GS
[0.75 0 0 0.75 0 -0.25] CT
0.873 GC
1 LJ
0.667 LW
N
1738 529 M
1095 529 L
S
GR
GS
[0.75 0 0 0.75 0 -0.25] CT
0.149 GC
2 setlinecap
1 LJ
0.667 LW
N
1095 857 M
1738 857 L
S
GR
GS
[0.75 0 0 0.75 0 -0.25] CT
0.149 GC
2 setlinecap
1 LJ
0.667 LW
N
1152.089 857 M
1152.089 850.57 L
S
GR
GS
[0.75 0 0 0.75 0 -0.25] CT
0.149 GC
2 setlinecap
1 LJ
0.667 LW
N
1212.182 857 M
1212.182 850.57 L
S
GR
GS
[0.75 0 0 0.75 0 -0.25] CT
0.149 GC
2 setlinecap
1 LJ
0.667 LW
N
1272.276 857 M
1272.276 850.57 L
S
GR
GS
[0.75 0 0 0.75 0 -0.25] CT
0.149 GC
2 setlinecap
1 LJ
0.667 LW
N
1332.369 857 M
1332.369 850.57 L
S
GR
GS
[0.75 0 0 0.75 0 -0.25] CT
0.149 GC
2 setlinecap
1 LJ
0.667 LW
N
1392.463 857 M
1392.463 850.57 L
S
GR
GS
[0.75 0 0 0.75 0 -0.25] CT
0.149 GC
2 setlinecap
1 LJ
0.667 LW
N
1452.556 857 M
1452.556 850.57 L
S
GR
GS
[0.75 0 0 0.75 0 -0.25] CT
0.149 GC
2 setlinecap
1 LJ
0.667 LW
N
1512.65 857 M
1512.65 850.57 L
S
GR
GS
[0.75 0 0 0.75 0 -0.25] CT
0.149 GC
2 setlinecap
1 LJ
0.667 LW
N
1572.743 857 M
1572.743 850.57 L
S
GR
GS
[0.75 0 0 0.75 0 -0.25] CT
0.149 GC
2 setlinecap
1 LJ
0.667 LW
N
1632.836 857 M
1632.836 850.57 L
S
GR
GS
[0.75 0 0 0.75 0 -0.25] CT
0.149 GC
2 setlinecap
1 LJ
0.667 LW
N
1692.93 857 M
1692.93 850.57 L
S
GR
GS
[0.75 0 0 0.75 864.06656 646.49998] CT
0.149 GC
/Helvetica 13.333 F
GS
[1 0 0 1 0 0] CT
-7.5 14 moveto 
1 -1 scale
(20) t 
GR
GR
GS
[0.75 0 0 0.75 909.13669 646.49998] CT
0.149 GC
/Helvetica 13.333 F
GS
[1 0 0 1 0 0] CT
-7.5 14 moveto 
1 -1 scale
(40) t 
GR
GR
GS
[0.75 0 0 0.75 954.20682 646.49998] CT
0.149 GC
/Helvetica 13.333 F
GS
[1 0 0 1 0 0] CT
-7.5 14 moveto 
1 -1 scale
(60) t 
GR
GR
GS
[0.75 0 0 0.75 999.27686 646.49998] CT
0.149 GC
/Helvetica 13.333 F
GS
[1 0 0 1 0 0] CT
-7.5 14 moveto 
1 -1 scale
(80) t 
GR
GR
GS
[0.75 0 0 0.75 1044.34698 646.49998] CT
0.149 GC
/Helvetica 13.333 F
GS
[1 0 0 1 0 0] CT
-11.5 14 moveto 
1 -1 scale
(100) t 
GR
GR
GS
[0.75 0 0 0.75 1089.41702 646.49998] CT
0.149 GC
/Helvetica 13.333 F
GS
[1 0 0 1 0 0] CT
-11.5 14 moveto 
1 -1 scale
(120) t 
GR
GR
GS
[0.75 0 0 0.75 1134.48715 646.49998] CT
0.149 GC
/Helvetica 13.333 F
GS
[1 0 0 1 0 0] CT
-11.5 14 moveto 
1 -1 scale
(140) t 
GR
GR
GS
[0.75 0 0 0.75 1179.55728 646.49998] CT
0.149 GC
/Helvetica 13.333 F
GS
[1 0 0 1 0 0] CT
-11.5 14 moveto 
1 -1 scale
(160) t 
GR
GR
GS
[0.75 0 0 0.75 1224.62732 646.49998] CT
0.149 GC
/Helvetica 13.333 F
GS
[1 0 0 1 0 0] CT
-11.5 14 moveto 
1 -1 scale
(180) t 
GR
GR
GS
[0.75 0 0 0.75 1269.69745 646.49998] CT
0.149 GC
/Helvetica 13.333 F
GS
[1 0 0 1 0 0] CT
-11.5 14 moveto 
1 -1 scale
(200) t 
GR
GR
GS
[0.75 0 0 0.75 0 -0.25] CT
0.149 GC
2 setlinecap
1 LJ
0.667 LW
N
1095 857 M
1095 529 L
S
GR
GS
[0.75 0 0 0.75 0 -0.25] CT
0.149 GC
2 setlinecap
1 LJ
0.667 LW
N
1095 857 M
1101.43 857 L
S
GR
GS
[0.75 0 0 0.75 0 -0.25] CT
0.149 GC
2 setlinecap
1 LJ
0.667 LW
N
1095 810.143 M
1101.43 810.143 L
S
GR
GS
[0.75 0 0 0.75 0 -0.25] CT
0.149 GC
2 setlinecap
1 LJ
0.667 LW
N
1095 763.286 M
1101.43 763.286 L
S
GR
GS
[0.75 0 0 0.75 0 -0.25] CT
0.149 GC
2 setlinecap
1 LJ
0.667 LW
N
1095 716.429 M
1101.43 716.429 L
S
GR
GS
[0.75 0 0 0.75 0 -0.25] CT
0.149 GC
2 setlinecap
1 LJ
0.667 LW
N
1095 669.571 M
1101.43 669.571 L
S
GR
GS
[0.75 0 0 0.75 0 -0.25] CT
0.149 GC
2 setlinecap
1 LJ
0.667 LW
N
1095 622.714 M
1101.43 622.714 L
S
GR
GS
[0.75 0 0 0.75 0 -0.25] CT
0.149 GC
2 setlinecap
1 LJ
0.667 LW
N
1095 575.857 M
1101.43 575.857 L
S
GR
GS
[0.75 0 0 0.75 0 -0.25] CT
0.149 GC
2 setlinecap
1 LJ
0.667 LW
N
1095 529 M
1101.43 529 L
S
GR
GS
[0.75 0 0 0.75 817.24997 642.5] CT
0.149 GC
/Helvetica 13.333 F
GS
[1 0 0 1 0 0] CT
-23 5.5 moveto 
1 -1 scale
(-3.5) t 
GR
GR
GS
[0.75 0 0 0.75 817.24997 607.35716] CT
0.149 GC
/Helvetica 13.333 F
GS
[1 0 0 1 0 0] CT
-12 5.5 moveto 
1 -1 scale
(-3) t 
GR
GR
GS
[0.75 0 0 0.75 817.24997 572.21428] CT
0.149 GC
/Helvetica 13.333 F
GS
[1 0 0 1 0 0] CT
-23 5.5 moveto 
1 -1 scale
(-2.5) t 
GR
GR
GS
[0.75 0 0 0.75 817.24997 537.07144] CT
0.149 GC
/Helvetica 13.333 F
GS
[1 0 0 1 0 0] CT
-12 5.5 moveto 
1 -1 scale
(-2) t 
GR
GR
GS
[0.75 0 0 0.75 817.24997 501.92856] CT
0.149 GC
/Helvetica 13.333 F
GS
[1 0 0 1 0 0] CT
-23 5.5 moveto 
1 -1 scale
(-1.5) t 
GR
GR
GS
[0.75 0 0 0.75 817.24997 466.78572] CT
0.149 GC
/Helvetica 13.333 F
GS
[1 0 0 1 0 0] CT
-12 5.5 moveto 
1 -1 scale
(-1) t 
GR
GR
GS
[0.75 0 0 0.75 817.24997 431.64284] CT
0.149 GC
/Helvetica 13.333 F
GS
[1 0 0 1 0 0] CT
-23 5.5 moveto 
1 -1 scale
(-0.5) t 
GR
GR
GS
[0.75 0 0 0.75 817.24997 396.5] CT
0.149 GC
/Helvetica 13.333 F
GS
[1 0 0 1 0 0] CT
-8 5.5 moveto 
1 -1 scale
(0) t 
GR
GR
GS
[0.75 0 0 0.75 1062.37601 394.4375] CT
/Helvetica-Bold 14.667 F
GS
[1 0 0 1 0 0] CT
-215 -4 moveto 
1 -1 scale
(Sound inputs: left microphone \(red\), right microphone \(black\)) t 
GR
GR
GS
[0.75 0 0 0.75 0 -0.25] CT
1 0 0 RC
1 LJ
2.667 LW
N
1095 602.603 M
1098.005 604.847 L
1101.009 607.148 L
1104.014 609.504 L
1107.019 611.918 L
1110.023 614.39 L
1113.028 616.919 L
1116.033 619.506 L
1119.037 622.149 L
1122.042 624.85 L
1125.047 627.604 L
1128.051 630.409 L
1131.056 633.266 L
1134.061 636.171 L
1137.065 639.122 L
1140.07 642.116 L
1143.075 645.152 L
1146.079 648.226 L
1149.084 651.335 L
1152.089 654.475 L
1155.094 657.643 L
1158.098 660.835 L
1161.103 664.048 L
1164.107 667.278 L
1167.112 670.522 L
1170.117 673.775 L
1173.121 677.032 L
1176.126 680.29 L
1179.131 683.546 L
1182.135 686.793 L
1185.14 690.03 L
1188.145 693.251 L
1191.15 696.452 L
1194.154 699.63 L
1197.159 702.781 L
1200.164 705.903 L
1203.168 708.99 L
1206.173 712.041 L
1209.178 715.05 L
1212.182 718.016 L
1215.187 720.936 L
1218.192 723.808 L
1221.196 726.629 L
1224.201 729.397 L
1227.206 732.112 L
1230.21 734.769 L
1233.215 737.369 L
1236.22 739.909 L
1239.224 742.391 L
1242.229 744.813 L
1245.234 747.177 L
1248.238 749.484 L
1251.243 751.732 L
1254.248 753.924 L
1257.252 756.059 L
1260.257 758.138 L
1263.262 760.161 L
1266.266 762.131 L
1269.271 764.047 L
1272.276 765.911 L
1275.28 767.725 L
1278.285 769.49 L
1281.29 771.205 L
1284.294 772.873 L
1287.299 774.495 L
1290.304 776.071 L
1293.308 777.603 L
1296.313 779.091 L
1299.318 780.538 L
1302.322 781.944 L
1305.327 783.309 L
1308.332 784.634 L
1311.336 785.921 L
1314.341 787.169 L
1317.346 788.38 L
1320.35 789.554 L
1323.355 790.692 L
1326.36 791.794 L
1329.365 792.862 L
1332.369 793.897 L
1335.374 794.9 L
1338.379 795.869 L
1341.383 796.808 L
1344.388 797.716 L
1347.393 798.594 L
1350.397 799.444 L
1353.402 800.266 L
1356.406 801.061 L
1359.411 801.83 L
1362.416 802.572 L
1365.421 803.289 L
1368.425 803.982 L
1371.43 804.651 L
1374.435 805.298 L
1377.439 805.923 L
1380.444 806.527 L
1383.449 807.111 L
1386.453 807.673 L
1389.458 808.216 L
1392.463 808.74 L
1395.467 809.246 L
1398.472 809.734 L
1401.477 810.205 L
1404.481 810.66 L
1407.486 811.098 L
1410.491 811.522 L
1413.495 811.93 L
1416.5 812.325 L
1419.505 812.705 L
1422.509 813.073 L
1425.514 813.428 L
1428.519 813.77 L
1431.523 814.1 L
1434.528 814.419 L
1437.533 814.727 L
1440.537 815.025 L
1443.542 815.312 L
1446.547 815.589 L
1449.551 815.856 L
1452.556 816.115 L
1455.561 816.364 L
1458.565 816.604 L
1461.57 816.837 L
1464.575 817.061 L
1467.579 817.278 L
1470.584 817.487 L
1473.589 817.689 L
1476.594 817.884 L
1479.598 818.073 L
1482.603 818.254 L
1485.607 818.43 L
1488.612 818.6 L
1491.617 818.763 L
1494.621 818.921 L
1497.626 819.074 L
1500.631 819.222 L
1503.635 819.364 L
1506.64 819.502 L
1509.645 819.634 L
1512.65 819.763 L
1515.654 819.887 L
1518.659 820.006 L
1521.664 820.122 L
1524.668 820.233 L
1527.673 820.341 L
1530.678 820.445 L
1533.682 820.546 L
1536.687 820.643 L
1539.692 820.737 L
1542.696 820.828 L
1545.701 820.915 L
1548.706 821 L
1551.71 821.081 L
1554.715 821.16 L
1557.72 821.236 L
1560.724 821.31 L
1563.729 821.381 L
1566.734 821.45 L
1569.738 821.516 L
1572.743 821.58 L
1575.748 821.642 L
1578.752 821.702 L
1581.757 821.76 L
1584.762 821.815 L
1587.766 821.869 L
1590.771 821.921 L
1593.776 821.972 L
1596.78 822.02 L
1599.785 822.067 L
1602.79 822.113 L
1605.794 822.157 L
1608.799 822.199 L
1611.804 822.24 L
1614.808 822.279 L
1617.813 822.318 L
1620.818 822.354 L
1623.822 822.39 L
1626.827 822.424 L
1629.832 822.458 L
1632.836 822.49 L
1635.841 822.521 L
1638.846 822.551 L
1641.85 822.58 L
1644.855 822.608 L
1647.86 822.635 L
1650.865 822.661 L
1653.869 822.686 L
1656.874 822.711 L
1659.879 822.734 L
1662.883 822.757 L
1665.888 822.779 L
1668.893 822.801 L
1671.897 822.821 L
1674.902 822.841 L
1677.906 822.86 L
1680.911 822.879 L
1683.916 822.897 L
1686.921 822.914 L
1689.925 822.931 L
1692.93 822.947 L
1695.935 822.963 L
1698.939 822.978 L
1701.944 822.992 L
1704.949 823.006 L
1707.953 823.02 L
1710.958 823.033 L
1713.963 823.046 L
1716.967 823.058 L
1719.972 823.07 L
1722.977 823.081 L
1725.981 823.093 L
1728.986 823.103 L
1731.991 823.114 L
1734.995 823.124 L
1738 823.133 L
S
GR
GS
[0.75 0 0 0.75 0 -0.25] CT
1 LJ
2.667 LW
N
1095 564.023 M
1098.005 564.852 L
1101.009 565.68 L
1104.014 566.505 L
1107.019 567.326 L
1110.023 568.14 L
1113.028 568.945 L
1116.033 569.738 L
1119.037 570.516 L
1122.042 571.277 L
1125.047 572.017 L
1128.051 572.733 L
1131.056 573.421 L
1134.061 574.079 L
1137.065 574.703 L
1140.07 575.289 L
1143.075 575.836 L
1146.079 576.339 L
1149.084 576.796 L
1152.089 577.205 L
1155.094 577.562 L
1158.098 577.866 L
1161.103 578.114 L
1164.107 578.306 L
1167.112 578.439 L
1170.117 578.514 L
1173.121 578.529 L
1176.126 578.483 L
1179.131 578.379 L
1182.135 578.215 L
1185.14 577.993 L
1188.145 577.714 L
1191.15 577.379 L
1194.154 576.991 L
1197.159 576.552 L
1200.164 576.064 L
1203.168 575.53 L
1206.173 574.953 L
1209.178 574.336 L
1212.182 573.682 L
1215.187 572.995 L
1218.192 572.277 L
1221.196 571.532 L
1224.201 570.764 L
1227.206 569.975 L
1230.21 569.17 L
1233.215 568.351 L
1236.22 567.521 L
1239.224 566.683 L
1242.229 565.84 L
1245.234 564.993 L
1248.238 564.145 L
1251.243 563.297 L
1254.248 562.452 L
1257.252 561.612 L
1260.257 560.777 L
1263.262 559.949 L
1266.266 559.129 L
1269.271 558.319 L
1272.276 557.519 L
1275.28 556.73 L
1278.285 555.953 L
1281.29 555.187 L
1284.294 554.435 L
1287.299 553.696 L
1290.304 552.97 L
1293.308 552.259 L
1296.313 551.561 L
1299.318 550.878 L
1302.322 550.209 L
1305.327 549.554 L
1308.332 548.915 L
1311.336 548.291 L
1314.341 547.682 L
1317.346 547.087 L
1320.35 546.508 L
1323.355 545.944 L
1326.36 545.396 L
1329.365 544.862 L
1332.369 544.343 L
1335.374 543.838 L
1338.379 543.348 L
1341.383 542.873 L
1344.388 542.412 L
1347.393 541.964 L
1350.397 541.53 L
1353.402 541.109 L
1356.406 540.701 L
1359.411 540.306 L
1362.416 539.924 L
1365.421 539.554 L
1368.425 539.196 L
1371.43 538.849 L
1374.435 538.514 L
1377.439 538.19 L
1380.444 537.876 L
1383.449 537.572 L
1386.453 537.279 L
1389.458 536.996 L
1392.463 536.723 L
1395.467 536.459 L
1398.472 536.204 L
1401.477 535.957 L
1404.481 535.719 L
1407.486 535.489 L
1410.491 535.268 L
1413.495 535.053 L
1416.5 534.846 L
1419.505 534.646 L
1422.509 534.453 L
1425.514 534.267 L
1428.519 534.087 L
1431.523 533.913 L
1434.528 533.746 L
1437.533 533.584 L
1440.537 533.427 L
1443.542 533.276 L
1446.547 533.13 L
1449.551 532.989 L
1452.556 532.853 L
1455.561 532.722 L
1458.565 532.595 L
1461.57 532.472 L
1464.575 532.354 L
1467.579 532.24 L
1470.584 532.129 L
1473.589 532.023 L
1476.594 531.92 L
1479.598 531.821 L
1482.603 531.725 L
1485.607 531.632 L
1488.612 531.542 L
1491.617 531.456 L
1494.621 531.372 L
1497.626 531.292 L
1500.631 531.214 L
1503.635 531.139 L
1506.64 531.066 L
1509.645 530.996 L
1512.65 530.928 L
1515.654 530.863 L
1518.659 530.8 L
1521.664 530.739 L
1524.668 530.68 L
1527.673 530.623 L
1530.678 530.568 L
1533.682 530.515 L
1536.687 530.463 L
1539.692 530.414 L
1542.696 530.366 L
1545.701 530.32 L
1548.706 530.275 L
1551.71 530.232 L
1554.715 530.19 L
1557.72 530.15 L
1560.724 530.111 L
1563.729 530.073 L
1566.734 530.037 L
1569.738 530.002 L
1572.743 529.968 L
1575.748 529.935 L
1578.752 529.904 L
1581.757 529.873 L
1584.762 529.844 L
1587.766 529.815 L
1590.771 529.788 L
1593.776 529.761 L
1596.78 529.736 L
1599.785 529.711 L
1602.79 529.687 L
1605.794 529.664 L
1608.799 529.641 L
1611.804 529.62 L
1614.808 529.599 L
1617.813 529.578 L
1620.818 529.559 L
1623.822 529.54 L
1626.827 529.522 L
1629.832 529.504 L
1632.836 529.487 L
1635.841 529.471 L
1638.846 529.455 L
1641.85 529.44 L
1644.855 529.425 L
1647.86 529.411 L
1650.865 529.397 L
1653.869 529.383 L
1656.874 529.371 L
1659.879 529.358 L
1662.883 529.346 L
1665.888 529.334 L
1668.893 529.323 L
1671.897 529.312 L
1674.902 529.302 L
1677.906 529.292 L
1680.911 529.282 L
1683.916 529.272 L
1686.921 529.263 L
1689.925 529.254 L
1692.93 529.246 L
1695.935 529.238 L
1698.939 529.23 L
1701.944 529.222 L
1704.949 529.214 L
1707.953 529.207 L
1710.958 529.2 L
1713.963 529.194 L
1716.967 529.187 L
1719.972 529.181 L
1722.977 529.175 L
1725.981 529.169 L
1728.986 529.163 L
1731.991 529.158 L
1734.995 529.152 L
1738 529.147 L
S
GR
GS
[0.75 0 0 0.75 0 -0.25] CT
1 GC
N
250 785.5 M
892 785.5 L
892 143.5 L
250 143.5 L
cp
f
GR
GS
[0.75 0 0 0.75 0 -0.25] CT
0.873 GC
1 LJ
0.667 LW
N
250 785.5 M
250 143.5 L
S
GR
GS
[0.75 0 0 0.75 0 -0.25] CT
0.873 GC
1 LJ
0.667 LW
N
357 785.5 M
357 143.5 L
S
GR
GS
[0.75 0 0 0.75 0 -0.25] CT
0.873 GC
1 LJ
0.667 LW
N
464 785.5 M
464 143.5 L
S
GR
GS
[0.75 0 0 0.75 0 -0.25] CT
0.873 GC
1 LJ
0.667 LW
N
571 785.5 M
571 143.5 L
S
GR
GS
[0.75 0 0 0.75 0 -0.25] CT
0.873 GC
1 LJ
0.667 LW
N
678 785.5 M
678 143.5 L
S
GR
GS
[0.75 0 0 0.75 0 -0.25] CT
0.873 GC
1 LJ
0.667 LW
N
785 785.5 M
785 143.5 L
S
GR
GS
[0.75 0 0 0.75 0 -0.25] CT
0.873 GC
1 LJ
0.667 LW
N
892 785.5 M
892 143.5 L
S
GR
GS
[0.75 0 0 0.75 0 -0.25] CT
0.873 GC
1 LJ
0.667 LW
N
892 785.5 M
250 785.5 L
S
GR
GS
[0.75 0 0 0.75 0 -0.25] CT
0.873 GC
1 LJ
0.667 LW
N
892 678.5 M
250 678.5 L
S
GR
GS
[0.75 0 0 0.75 0 -0.25] CT
0.873 GC
1 LJ
0.667 LW
N
892 571.5 M
250 571.5 L
S
GR
GS
[0.75 0 0 0.75 0 -0.25] CT
0.873 GC
1 LJ
0.667 LW
N
892 464.5 M
250 464.5 L
S
GR
GS
[0.75 0 0 0.75 0 -0.25] CT
0.873 GC
1 LJ
0.667 LW
N
892 357.5 M
250 357.5 L
S
GR
GS
[0.75 0 0 0.75 0 -0.25] CT
0.873 GC
1 LJ
0.667 LW
N
892 250.5 M
250 250.5 L
S
GR
GS
[0.75 0 0 0.75 0 -0.25] CT
0.873 GC
1 LJ
0.667 LW
N
892 143.5 M
250 143.5 L
S
GR
GS
[0.75 0 0 0.75 0 -0.25] CT
0.149 GC
2 setlinecap
1 LJ
0.667 LW
N
250 785.5 M
892 785.5 L
S
GR
GS
[0.75 0 0 0.75 0 -0.25] CT
0.149 GC
2 setlinecap
1 LJ
0.667 LW
N
250 785.5 M
250 779.08 L
S
GR
GS
[0.75 0 0 0.75 0 -0.25] CT
0.149 GC
2 setlinecap
1 LJ
0.667 LW
N
357 785.5 M
357 779.08 L
S
GR
GS
[0.75 0 0 0.75 0 -0.25] CT
0.149 GC
2 setlinecap
1 LJ
0.667 LW
N
464 785.5 M
464 779.08 L
S
GR
GS
[0.75 0 0 0.75 0 -0.25] CT
0.149 GC
2 setlinecap
1 LJ
0.667 LW
N
571 785.5 M
571 779.08 L
S
GR
GS
[0.75 0 0 0.75 0 -0.25] CT
0.149 GC
2 setlinecap
1 LJ
0.667 LW
N
678 785.5 M
678 779.08 L
S
GR
GS
[0.75 0 0 0.75 0 -0.25] CT
0.149 GC
2 setlinecap
1 LJ
0.667 LW
N
785 785.5 M
785 779.08 L
S
GR
GS
[0.75 0 0 0.75 0 -0.25] CT
0.149 GC
2 setlinecap
1 LJ
0.667 LW
N
892 785.5 M
892 779.08 L
S
GR
GS
[0.75 0 0 0.75 187.5 592.87498] CT
0.149 GC
/Helvetica 13.333 F
GS
[1 0 0 1 0 0] CT
-13.5 14 moveto 
1 -1 scale
(-200) t 
GR
GR
GS
[0.75 0 0 0.75 267.75 592.87498] CT
0.149 GC
/Helvetica 13.333 F
GS
[1 0 0 1 0 0] CT
-13.5 14 moveto 
1 -1 scale
(-100) t 
GR
GR
GS
[0.75 0 0 0.75 348 592.87498] CT
0.149 GC
/Helvetica 13.333 F
GS
[1 0 0 1 0 0] CT
-4 14 moveto 
1 -1 scale
(0) t 
GR
GR
GS
[0.75 0 0 0.75 428.25 592.87498] CT
0.149 GC
/Helvetica 13.333 F
GS
[1 0 0 1 0 0] CT
-11.5 14 moveto 
1 -1 scale
(100) t 
GR
GR
GS
[0.75 0 0 0.75 508.5 592.87498] CT
0.149 GC
/Helvetica 13.333 F
GS
[1 0 0 1 0 0] CT
-11.5 14 moveto 
1 -1 scale
(200) t 
GR
GR
GS
[0.75 0 0 0.75 588.75 592.87498] CT
0.149 GC
/Helvetica 13.333 F
GS
[1 0 0 1 0 0] CT
-11.5 14 moveto 
1 -1 scale
(300) t 
GR
GR
GS
[0.75 0 0 0.75 669 592.87498] CT
0.149 GC
/Helvetica 13.333 F
GS
[1 0 0 1 0 0] CT
-11.5 14 moveto 
1 -1 scale
(400) t 
GR
GR
GS
[0.75 0 0 0.75 0 -0.25] CT
0.149 GC
2 setlinecap
1 LJ
0.667 LW
N
250 785.5 M
250 143.5 L
S
GR
GS
[0.75 0 0 0.75 0 -0.25] CT
0.149 GC
2 setlinecap
1 LJ
0.667 LW
N
250 785.5 M
256.42 785.5 L
S
GR
GS
[0.75 0 0 0.75 0 -0.25] CT
0.149 GC
2 setlinecap
1 LJ
0.667 LW
N
250 678.5 M
256.42 678.5 L
S
GR
GS
[0.75 0 0 0.75 0 -0.25] CT
0.149 GC
2 setlinecap
1 LJ
0.667 LW
N
250 571.5 M
256.42 571.5 L
S
GR
GS
[0.75 0 0 0.75 0 -0.25] CT
0.149 GC
2 setlinecap
1 LJ
0.667 LW
N
250 464.5 M
256.42 464.5 L
S
GR
GS
[0.75 0 0 0.75 0 -0.25] CT
0.149 GC
2 setlinecap
1 LJ
0.667 LW
N
250 357.5 M
256.42 357.5 L
S
GR
GS
[0.75 0 0 0.75 0 -0.25] CT
0.149 GC
2 setlinecap
1 LJ
0.667 LW
N
250 250.5 M
256.42 250.5 L
S
GR
GS
[0.75 0 0 0.75 0 -0.25] CT
0.149 GC
2 setlinecap
1 LJ
0.667 LW
N
250 143.5 M
256.42 143.5 L
S
GR
GS
[0.75 0 0 0.75 183.5 588.875] CT
0.149 GC
/Helvetica 13.333 F
GS
[1 0 0 1 0 0] CT
-27 5.5 moveto 
1 -1 scale
(-200) t 
GR
GR
GS
[0.75 0 0 0.75 183.5 508.625] CT
0.149 GC
/Helvetica 13.333 F
GS
[1 0 0 1 0 0] CT
-27 5.5 moveto 
1 -1 scale
(-100) t 
GR
GR
GS
[0.75 0 0 0.75 183.5 428.375] CT
0.149 GC
/Helvetica 13.333 F
GS
[1 0 0 1 0 0] CT
-8 5.5 moveto 
1 -1 scale
(0) t 
GR
GR
GS
[0.75 0 0 0.75 183.5 348.125] CT
0.149 GC
/Helvetica 13.333 F
GS
[1 0 0 1 0 0] CT
-23 5.5 moveto 
1 -1 scale
(100) t 
GR
GR
GS
[0.75 0 0 0.75 183.5 267.875] CT
0.149 GC
/Helvetica 13.333 F
GS
[1 0 0 1 0 0] CT
-23 5.5 moveto 
1 -1 scale
(200) t 
GR
GR
GS
[0.75 0 0 0.75 183.5 187.625] CT
0.149 GC
/Helvetica 13.333 F
GS
[1 0 0 1 0 0] CT
-23 5.5 moveto 
1 -1 scale
(300) t 
GR
GR
GS
[0.75 0 0 0.75 183.5 107.375] CT
0.149 GC
/Helvetica 13.333 F
GS
[1 0 0 1 0 0] CT
-23 5.5 moveto 
1 -1 scale
(400) t 
GR
GR
GS
[0.75 0 0 0.75 428.25041 105.3125] CT
/Helvetica-Bold 14.667 F
GS
[1 0 0 1 0 0] CT
-43 -4 moveto 
1 -1 scale
(Robot arena) t 
GR
GR
GS
[0.75 0 0 0.75 588.75 187.625] CT
N
-6 -6 M
-6 6 L
6 6 L
6 -6 L
cp
f
GR
GS
[0.75 0 0 0.75 588.75 187.625] CT
10.0 ML
0.667 LW
N
-6 -6 M
-6 6 L
6 6 L
6 -6 L
cp
S
GR
GS
[0.75 0 0 0.75 267.75 508.625] CT
1 0 0 RC
N
6.667 0 M
6.667 -3.682 3.682 -6.667 0 -6.667 C
-3.682 -6.667 -6.667 -3.682 -6.667 0 C
-6.667 3.682 -3.682 6.667 0 6.667 C
3.682 6.667 6.667 3.682 6.667 0 C
cp
f
GR
GS
[0.75 0 0 0.75 267.75 508.625] CT
1 0 0 RC
N
0 -6.333 M
3.498 -6.333 6.333 -3.498 6.333 0 C
6.333 0 L
6.333 3.498 3.498 6.333 0 6.333 C
-3.498 6.333 -6.333 3.498 -6.333 0 C
-6.333 -3.498 -3.498 -6.333 0 -6.333 C
cp
0 -7 M
-3.866 -7 -7 -3.866 -7 0 C
-7 3.866 -3.866 7 0 7 C
3.866 7 7 3.866 7 0 C
7 0 L
7 -3.866 3.866 -7 0 -7 C
cp
f
GR
GS
[0.75 0 0 0.75 0 -0.25] CT
0 0.447 0.741 RC
1 LJ
2.667 LW
N
358.347 678.515 M
360.486 678.563 L
S
GR
GS
[0.75 0 0 0.75 268.76022 508.63631] CT
0.494 0.184 0.557 RC
N
0.5 0 M
0.5 0.276 0.276 0.5 0 0.5 C
-0.276 0.5 -0.5 0.276 -0.5 0 C
-0.5 -0.276 -0.276 -0.5 0 -0.5 C
0.276 -0.5 0.5 -0.276 0.5 0 C
cp
f
GR
GS
[0.75 0 0 0.75 0 -0.25] CT
0 0.447 0.741 RC
1 LJ
2.667 LW
N
359.692 678.561 M
361.83 678.657 L
S
GR
GS
[0.75 0 0 0.75 269.76908 508.67041] CT
0.302 0.745 0.933 RC
N
/f1188474679{0.5 0 M
0.5 0.276 0.276 0.5 0 0.5 C
-0.276 0.5 -0.5 0.276 -0.5 0 C
-0.5 -0.276 -0.276 -0.5 0 -0.5 C
0.276 -0.5 0.5 -0.276 0.5 0 C
cp}def
f1188474679
f
GR
GS
[0.75 0 0 0.75 0 -0.25] CT
0 0.447 0.741 RC
1 LJ
2.667 LW
N
361.035 678.637 M
363.17 678.784 L
S
GR
GS
[0.75 0 0 0.75 270.776 508.72786] CT
0 0.447 0.741 RC
N
f1188474679
f
GR
GS
[0.75 0 0 0.75 0 -0.25] CT
0 0.447 0.741 RC
1 LJ
2.667 LW
N
362.374 678.746 M
364.505 678.944 L
S
GR
GS
[0.75 0 0 0.75 271.78033 508.80916] CT
0.929 0.694 0.125 RC
N
f1188474679
f
GR
GS
[0.75 0 0 0.75 0 -0.25] CT
0 0.447 0.741 RC
1 LJ
2.667 LW
N
363.709 678.886 M
365.834 679.137 L
S
GR
GS
[0.75 0 0 0.75 272.78142 508.91481] CT
0.467 0.675 0.188 RC
N
f1188474679
f
GR
GS
[0.75 0 0 0.75 0 -0.25] CT
0 0.447 0.741 RC
1 LJ
2.667 LW
N
365.038 679.06 M
367.156 679.364 L
S
GR
GS
[0.75 0 0 0.75 273.77854 509.04518] CT
0.635 0.078 0.184 RC
N
f1188474679
f
GR
GS
[0.75 0 0 0.75 0 -0.25] CT
0 0.447 0.741 RC
1 LJ
2.667 LW
N
366.361 679.268 M
368.471 679.626 L
S
GR
GS
[0.75 0 0 0.75 274.77097 509.20078] CT
0.851 0.325 0.098 RC
N
f1188474679
f
GR
GS
[0.75 0 0 0.75 0 -0.25] CT
0 0.447 0.741 RC
1 LJ
2.667 LW
N
367.677 679.509 M
369.777 679.923 L
S
GR
GS
[0.75 0 0 0.75 275.75793 509.382] CT
0.494 0.184 0.557 RC
N
f1188474679
f
GR
GS
[0.75 0 0 0.75 0 -0.25] CT
0 0.447 0.741 RC
1 LJ
2.667 LW
N
368.985 679.786 M
371.072 680.256 L
S
GR
GS
[0.75 0 0 0.75 276.73858 509.58919] CT
0.302 0.745 0.933 RC
N
f1188474679
f
GR
GS
[0.75 0 0 0.75 0 -0.25] CT
0 0.447 0.741 RC
1 LJ
2.667 LW
N
370.283 680.097 M
372.357 680.625 L
S
GR
GS
[0.75 0 0 0.75 277.7122 509.82274] CT
0 0.447 0.741 RC
N
f1188474679
f
GR
GS
[0.75 0 0 0.75 0 -0.25] CT
0 0.447 0.741 RC
1 LJ
2.667 LW
N
371.571 680.444 M
373.629 681.029 L
S
GR
GS
[0.75 0 0 0.75 278.67796 510.08289] CT
0.929 0.694 0.125 RC
N
f1188474679
f
GR
GS
[0.75 0 0 0.75 0 -0.25] CT
0 0.447 0.741 RC
1 LJ
2.667 LW
N
372.847 680.827 M
374.887 681.47 L
S
GR
GS
[0.75 0 0 0.75 279.63499 510.3699] CT
0.467 0.675 0.188 RC
N
f1188474679
f
GR
GS
[0.75 0 0 0.75 0 -0.25] CT
0 0.447 0.741 RC
1 LJ
2.667 LW
N
374.11 681.245 M
376.131 681.948 L
S
GR
GS
[0.75 0 0 0.75 280.58237 510.68402] CT
0.635 0.078 0.184 RC
N
f1188474679
f
GR
GS
[0.75 0 0 0.75 0 -0.25] CT
0 0.447 0.741 RC
1 LJ
2.667 LW
N
375.359 681.7 M
377.359 682.462 L
S
GR
GS
[0.75 0 0 0.75 281.51933 511.02533] CT
0.851 0.325 0.098 RC
N
f1188474679
f
GR
GS
[0.75 0 0 0.75 0 -0.25] CT
0 0.447 0.741 RC
1 LJ
2.667 LW
N
376.593 682.192 M
378.569 683.013 L
S
GR
GS
[0.75 0 0 0.75 282.44495 511.39392] CT
0.494 0.184 0.557 RC
N
f1188474679
f
GR
GS
[0.75 0 0 0.75 0 -0.25] CT
0 0.447 0.741 RC
1 LJ
2.667 LW
N
377.811 682.72 M
379.761 683.601 L
S
GR
GS
[0.75 0 0 0.75 283.3583 511.78989] CT
0.302 0.745 0.933 RC
N
f1188474679
f
GR
GS
[0.75 0 0 0.75 0 -0.25] CT
0 0.447 0.741 RC
1 LJ
2.667 LW
N
379.011 683.284 M
380.934 684.224 L
S
GR
GS
[0.75 0 0 0.75 284.2584 512.21318] CT
0 0.447 0.741 RC
N
f1188474679
f
GR
GS
[0.75 0 0 0.75 0 -0.25] CT
0 0.447 0.741 RC
1 LJ
2.667 LW
N
380.193 683.885 M
382.085 684.884 L
S
GR
GS
[0.75 0 0 0.75 285.14442 512.66367] CT
0.929 0.694 0.125 RC
N
f1188474679
f
GR
GS
[0.75 0 0 0.75 0 -0.25] CT
0 0.447 0.741 RC
1 LJ
2.667 LW
N
381.354 684.522 M
383.214 685.58 L
S
GR
GS
[0.75 0 0 0.75 286.01543 513.14134] CT
0.467 0.675 0.188 RC
N
f1188474679
f
GR
GS
[0.75 0 0 0.75 0 -0.25] CT
0 0.447 0.741 RC
1 LJ
2.667 LW
N
382.494 685.194 M
384.32 686.311 L
S
GR
GS
[0.75 0 0 0.75 286.87047 513.64584] CT
0.635 0.078 0.184 RC
N
f1188474679
f
GR
GS
[0.75 0 0 0.75 0 -0.25] CT
0 0.447 0.741 RC
1 LJ
2.667 LW
N
383.612 685.903 M
385.401 687.077 L
S
GR
GS
[0.75 0 0 0.75 287.70863 514.17699] CT
0.851 0.325 0.098 RC
N
f1188474679
f
GR
GS
[0.75 0 0 0.75 0 -0.25] CT
0 0.447 0.741 RC
1 LJ
2.667 LW
N
384.705 686.646 M
386.456 687.877 L
S
GR
GS
[0.75 0 0 0.75 288.52904 514.73436] CT
0.494 0.184 0.557 RC
N
f1188474679
f
GR
GS
[0.75 0 0 0.75 0 -0.25] CT
0 0.447 0.741 RC
1 LJ
2.667 LW
N
385.774 687.424 M
387.484 688.71 L
S
GR
GS
[0.75 0 0 0.75 289.33076 515.31764] CT
0.302 0.745 0.933 RC
N
f1188474679
f
GR
GS
[0.75 0 0 0.75 0 -0.25] CT
0 0.447 0.741 RC
1 LJ
2.667 LW
N
386.817 688.235 M
388.485 689.577 L
S
GR
GS
[0.75 0 0 0.75 290.11301 515.92633] CT
0 0.447 0.741 RC
N
f1188474679
f
GR
GS
[0.75 0 0 0.75 0 -0.25] CT
0 0.447 0.741 RC
1 LJ
2.667 LW
N
387.833 689.08 M
389.456 690.475 L
S
GR
GS
[0.75 0 0 0.75 290.87496 516.55997] CT
0.929 0.694 0.125 RC
N
f1188474679
f
GR
GS
[0.75 0 0 0.75 0 -0.25] CT
0 0.447 0.741 RC
1 LJ
2.667 LW
N
388.821 689.957 M
390.398 691.404 L
S
GR
GS
[0.75 0 0 0.75 291.61583 517.21791] CT
0.467 0.675 0.188 RC
N
f1188474679
f
GR
GS
[0.75 0 0 0.75 0 -0.25] CT
0 0.447 0.741 RC
1 LJ
2.667 LW
N
389.78 690.866 M
391.309 692.364 L
S
GR
GS
[0.75 0 0 0.75 292.33488 517.89961] CT
0.635 0.078 0.184 RC
N
f1188474679
f
GR
GS
[0.75 0 0 0.75 0 -0.25] CT
0 0.447 0.741 RC
1 LJ
2.667 LW
N
390.709 691.806 M
392.188 693.352 L
S
GR
GS
[0.75 0 0 0.75 293.03144 518.60439] CT
0.851 0.325 0.098 RC
N
f1188474679
f
GR
GS
[0.75 0 0 0.75 0 -0.25] CT
0 0.447 0.741 RC
1 LJ
2.667 LW
N
391.606 692.775 M
393.035 694.369 L
S
GR
GS
[0.75 0 0 0.75 293.70486 519.33154] CT
0.494 0.184 0.557 RC
N
f1188474679
f
GR
GS
[0.75 0 0 0.75 0 -0.25] CT
0 0.447 0.741 RC
1 LJ
2.667 LW
N
392.473 693.774 M
393.849 695.412 L
S
GR
GS
[0.75 0 0 0.75 294.35454 520.08026] CT
0.302 0.745 0.933 RC
N
f1188474679
f
GR
GS
[0.75 0 0 0.75 0 -0.25] CT
0 0.447 0.741 RC
1 LJ
2.667 LW
N
393.307 694.8 M
394.629 696.482 L
S
GR
GS
[0.75 0 0 0.75 294.97998 520.84981] CT
0 0.447 0.741 RC
N
f1188474679
f
GR
GS
[0.75 0 0 0.75 0 -0.25] CT
0 0.447 0.741 RC
1 LJ
2.667 LW
N
394.108 695.852 M
395.376 697.576 L
S
GR
GS
[0.75 0 0 0.75 295.58066 521.63936] CT
0.929 0.694 0.125 RC
N
f1188474679
f
GR
GS
[0.75 0 0 0.75 0 -0.25] CT
0 0.447 0.741 RC
1 LJ
2.667 LW
N
394.875 696.931 M
396.088 698.694 L
S
GR
GS
[0.75 0 0 0.75 296.15616 522.448] CT
0.467 0.675 0.188 RC
N
f1188474679
f
GR
GS
[0.75 0 0 0.75 0 -0.25] CT
0 0.447 0.741 RC
1 LJ
2.667 LW
N
395.608 698.033 M
396.765 699.833 L
S
GR
GS
[0.75 0 0 0.75 296.70614 523.2749] CT
0.635 0.078 0.184 RC
N
f1188474679
f
GR
GS
[0.75 0 0 0.75 0 -0.25] CT
0 0.447 0.741 RC
1 LJ
2.667 LW
N
396.307 699.159 M
397.407 700.994 L
S
GR
GS
[0.75 0 0 0.75 297.23026 524.11916] CT
0.851 0.325 0.098 RC
N
f1188474679
f
GR
GS
[0.75 0 0 0.75 0 -0.25] CT
0 0.447 0.741 RC
1 LJ
2.667 LW
N
396.971 700.306 M
398.014 702.175 L
S
GR
GS
[0.75 0 0 0.75 297.72828 524.9798] CT
0.494 0.184 0.557 RC
N
f1188474679
f
GR
GS
[0.75 0 0 0.75 0 -0.25] CT
0 0.447 0.741 RC
1 LJ
2.667 LW
N
397.6 701.475 M
398.586 703.374 L
S
GR
GS
[0.75 0 0 0.75 298.20007 525.856] CT
0.302 0.745 0.933 RC
N
f1188474679
f
GR
GS
[0.75 0 0 0.75 0 -0.25] CT
0 0.447 0.741 RC
1 LJ
2.667 LW
N
398.194 702.662 M
399.122 704.591 L
S
GR
GS
[0.75 0 0 0.75 298.64552 526.74681] CT
0 0.447 0.741 RC
N
f1188474679
f
GR
GS
[0.75 0 0 0.75 0 -0.25] CT
0 0.447 0.741 RC
1 LJ
2.667 LW
N
398.753 703.868 M
399.623 705.823 L
S
GR
GS
[0.75 0 0 0.75 299.06456 527.65131] CT
0.929 0.694 0.125 RC
N
f1188474679
f
GR
GS
[0.75 0 0 0.75 0 -0.25] CT
0 0.447 0.741 RC
1 LJ
2.667 LW
N
399.276 705.091 M
400.09 707.071 L
S
GR
GS
[0.75 0 0 0.75 299.45718 528.56857] CT
0.467 0.675 0.188 RC
N
f1188474679
f
GR
GS
[0.75 0 0 0.75 0 -0.25] CT
0 0.447 0.741 RC
1 LJ
2.667 LW
N
399.765 706.33 M
400.521 708.332 L
S
GR
GS
[0.75 0 0 0.75 299.82351 529.49774] CT
0.635 0.078 0.184 RC
N
f1188474679
f
GR
GS
[0.75 0 0 0.75 0 -0.25] CT
0 0.447 0.741 RC
1 LJ
2.667 LW
N
400.218 707.584 M
400.918 709.606 L
S
GR
GS
[0.75 0 0 0.75 300.16363 530.43794] CT
0.851 0.325 0.098 RC
N
f1188474679
f
GR
GS
[0.75 0 0 0.75 0 -0.25] CT
0 0.447 0.741 RC
1 LJ
2.667 LW
N
400.637 708.851 M
401.28 710.892 L
S
GR
GS
[0.75 0 0 0.75 300.47775 531.38831] CT
0.494 0.184 0.557 RC
N
f1188474679
f
GR
GS
[0.75 0 0 0.75 0 -0.25] CT
0 0.447 0.741 RC
1 LJ
2.667 LW
N
401.021 710.131 M
401.609 712.188 L
S
GR
GS
[0.75 0 0 0.75 300.766 532.34796] CT
0.302 0.745 0.933 RC
N
f1188474679
f
GR
GS
[0.75 0 0 0.75 0 -0.25] CT
0 0.447 0.741 RC
1 LJ
2.667 LW
N
401.372 711.421 M
401.905 713.494 L
S
GR
GS
[0.75 0 0 0.75 301.02876 533.31609] CT
0 0.447 0.741 RC
N
f1188474679
f
GR
GS
[0.75 0 0 0.75 0 -0.25] CT
0 0.447 0.741 RC
1 LJ
2.667 LW
N
401.688 712.723 M
402.168 714.808 L
S
GR
GS
[0.75 0 0 0.75 301.26629 534.2919] CT
0.929 0.694 0.125 RC
N
f1188474679
f
GR
GS
[0.75 0 0 0.75 0 -0.25] CT
0 0.447 0.741 RC
1 LJ
2.667 LW
N
401.972 714.033 M
402.398 716.13 L
S
GR
GS
[0.75 0 0 0.75 301.47897 535.27458] CT
0.467 0.675 0.188 RC
N
f1188474679
f
GR
GS
[0.75 0 0 0.75 0 -0.25] CT
0 0.447 0.741 RC
1 LJ
2.667 LW
N
402.223 715.351 M
402.597 717.458 L
S
GR
GS
[0.75 0 0 0.75 301.66713 536.26335] CT
0.635 0.078 0.184 RC
N
f1188474679
f
GR
GS
[0.75 0 0 0.75 0 -0.25] CT
0 0.447 0.741 RC
1 LJ
2.667 LW
N
402.442 716.677 M
402.765 718.792 L
S
GR
GS
[0.75 0 0 0.75 301.83124 537.25739] CT
0.851 0.325 0.098 RC
N
f1188474679
f
GR
GS
[0.75 0 0 0.75 0 -0.25] CT
0 0.447 0.741 RC
1 LJ
2.667 LW
N
402.629 718.008 M
402.902 720.131 L
S
GR
GS
[0.75 0 0 0.75 301.97168 538.25604] CT
0.494 0.184 0.557 RC
N
f1188474679
f
GR
GS
[0.75 0 0 0.75 0 -0.25] CT
0 0.447 0.741 RC
1 LJ
2.667 LW
N
402.785 719.345 M
403.009 721.473 L
S
GR
GS
[0.75 0 0 0.75 302.08894 539.25864] CT
0.302 0.745 0.933 RC
N
f1188474679
f
GR
GS
[0.75 0 0 0.75 0 -0.25] CT
0 0.447 0.741 RC
1 LJ
2.667 LW
N
402.911 720.686 M
403.088 722.819 L
S
GR
GS
[0.75 0 0 0.75 302.18344 540.26453] CT
0 0.447 0.741 RC
N
f1188474679
f
GR
GS
[0.75 0 0 0.75 0 -0.25] CT
0 0.447 0.741 RC
1 LJ
2.667 LW
N
403.008 722.031 M
403.137 724.167 L
S
GR
GS
[0.75 0 0 0.75 302.25572 541.27303] CT
0.929 0.694 0.125 RC
N
f1188474679
f
GR
GS
[0.75 0 0 0.75 0 -0.25] CT
0 0.447 0.741 RC
1 LJ
2.667 LW
N
403.075 723.378 M
403.159 725.516 L
S
GR
GS
[0.75 0 0 0.75 302.30626 542.28358] CT
0.467 0.675 0.188 RC
N
f1188474679
f
GR
GS
[0.75 0 0 0.75 0 -0.25] CT
0 0.447 0.741 RC
1 LJ
2.667 LW
N
403.114 724.727 M
403.154 726.867 L
S
GR
GS
[0.75 0 0 0.75 302.33556 543.29561] CT
0.635 0.078 0.184 RC
N
f1188474679
f
GR
GS
[0.75 0 0 0.75 0 -0.25] CT
0 0.447 0.741 RC
1 LJ
2.667 LW
N
403.126 726.078 M
403.122 728.218 L
S
GR
GS
[0.75 0 0 0.75 302.34416 544.30864] CT
0.851 0.325 0.098 RC
N
f1188474679
f
GR
GS
[0.75 0 0 0.75 0 -0.25] CT
0 0.447 0.741 RC
1 LJ
2.667 LW
N
403.11 727.429 M
403.065 729.569 L
S
GR
GS
[0.75 0 0 0.75 302.33256 545.32208] CT
0.494 0.184 0.557 RC
N
f1188474679
f
GR
GS
[0.75 0 0 0.75 0 -0.25] CT
0 0.447 0.741 RC
1 LJ
2.667 LW
N
403.068 728.781 M
402.982 730.919 L
S
GR
GS
[0.75 0 0 0.75 302.30132 546.33562] CT
0.302 0.745 0.933 RC
N
f1188474679
f
GR
GS
[0.75 0 0 0.75 0 -0.25] CT
0 0.447 0.741 RC
1 LJ
2.667 LW
N
403.001 730.132 M
402.875 732.268 L
S
GR
GS
[0.75 0 0 0.75 302.25092 547.34874] CT
0 0.447 0.741 RC
N
f1188474679
f
GR
GS
[0.75 0 0 0.75 0 -0.25] CT
0 0.447 0.741 RC
1 LJ
2.667 LW
N
402.909 731.482 M
402.744 733.615 L
S
GR
GS
[0.75 0 0 0.75 302.18193 548.36118] CT
0.929 0.694 0.125 RC
N
f1188474679
f
GR
GS
[0.75 0 0 0.75 0 -0.25] CT
0 0.447 0.741 RC
1 LJ
2.667 LW
N
402.793 732.83 M
402.591 734.96 L
S
GR
GS
[0.75 0 0 0.75 302.09484 549.37247] CT
0.467 0.675 0.188 RC
N
f1188474679
f
GR
GS
[0.75 0 0 0.75 0 -0.25] CT
0 0.447 0.741 RC
1 LJ
2.667 LW
N
402.654 734.176 M
402.415 736.303 L
S
GR
GS
[0.75 0 0 0.75 301.99017 550.38229] CT
0.635 0.078 0.184 RC
N
f1188474679
f
GR
GS
[0.75 0 0 0.75 0 -0.25] CT
0 0.447 0.741 RC
1 LJ
2.667 LW
N
402.491 735.521 M
402.217 737.643 L
S
GR
GS
[0.75 0 0 0.75 301.86845 551.39038] CT
0.851 0.325 0.098 RC
N
f1188474679
f
GR
GS
[0.75 0 0 0.75 0 -0.25] CT
0 0.447 0.741 RC
1 LJ
2.667 LW
N
402.307 736.862 M
401.998 738.979 L
S
GR
GS
[0.75 0 0 0.75 301.73019 552.39641] CT
0.494 0.184 0.557 RC
N
f1188474679
f
GR
GS
[0.75 0 0 0.75 0 -0.25] CT
0 0.447 0.741 RC
1 LJ
2.667 LW
N
402.101 738.2 M
401.759 740.313 L
S
GR
GS
[0.75 0 0 0.75 301.57585 553.4001] CT
0.302 0.745 0.933 RC
N
f1188474679
f
GR
GS
[0.75 0 0 0.75 0 -0.25] CT
0 0.447 0.741 RC
1 LJ
2.667 LW
N
401.875 739.535 M
401.5 741.642 L
S
GR
GS
[0.75 0 0 0.75 301.40598 554.40123] CT
0 0.447 0.741 RC
N
f1188474679
f
GR
GS
[0.75 0 0 0.75 0 -0.25] CT
0 0.447 0.741 RC
1 LJ
2.667 LW
N
401.628 740.866 M
401.223 742.967 L
S
GR
GS
[0.75 0 0 0.75 301.22102 555.39966] CT
0.929 0.694 0.125 RC
N
f1188474679
f
GR
GS
[0.75 0 0 0.75 0 -0.25] CT
0 0.447 0.741 RC
1 LJ
2.667 LW
N
401.362 742.193 M
400.926 744.289 L
S
GR
GS
[0.75 0 0 0.75 301.02145 556.39511] CT
0.467 0.675 0.188 RC
N
f1188474679
f
GR
GS
[0.75 0 0 0.75 0 -0.25] CT
0 0.447 0.741 RC
1 LJ
2.667 LW
N
401.077 743.517 M
400.612 745.605 L
S
GR
GS
[0.75 0 0 0.75 300.80777 557.38745] CT
0.635 0.078 0.184 RC
N
f1188474679
f
GR
GS
[0.75 0 0 0.75 0 -0.25] CT
0 0.447 0.741 RC
1 LJ
2.667 LW
N
400.774 744.836 M
400.28 746.918 L
S
GR
GS
[0.75 0 0 0.75 300.58035 558.37668] CT
0.851 0.325 0.098 RC
N
f1188474679
f
GR
GS
[0.75 0 0 0.75 0 -0.25] CT
0 0.447 0.741 RC
1 LJ
2.667 LW
N
400.453 746.15 M
399.932 748.226 L
S
GR
GS
[0.75 0 0 0.75 300.33968 559.36261] CT
0.494 0.184 0.557 RC
N
f1188474679
f
GR
GS
[0.75 0 0 0.75 0 -0.25] CT
0 0.447 0.741 RC
1 LJ
2.667 LW
N
400.115 747.46 M
399.567 749.529 L
S
GR
GS
[0.75 0 0 0.75 300.0862 560.34515] CT
0.302 0.745 0.933 RC
N
f1188474679
f
GR
GS
[0.75 0 0 0.75 0 -0.25] CT
0 0.447 0.741 RC
1 LJ
2.667 LW
N
399.76 748.766 M
399.187 750.827 L
S
GR
GS
[0.75 0 0 0.75 299.82033 561.32417] CT
0 0.447 0.741 RC
N
f1188474679
f
GR
GS
[0.75 0 0 0.75 0 -0.25] CT
0 0.447 0.741 RC
1 LJ
2.667 LW
N
399.39 750.066 M
398.791 752.121 L
S
GR
GS
[0.75 0 0 0.75 299.54247 562.29967] CT
0.929 0.694 0.125 RC
N
f1188474679
f
GR
GS
[0.75 0 0 0.75 0 -0.25] CT
0 0.447 0.741 RC
1 LJ
2.667 LW
N
399.004 751.362 M
398.381 753.409 L
S
GR
GS
[0.75 0 0 0.75 299.25307 563.27155] CT
0.467 0.675 0.188 RC
N
f1188474679
f
GR
GS
[0.75 0 0 0.75 0 -0.25] CT
0 0.447 0.741 RC
1 LJ
2.667 LW
N
398.603 752.653 M
397.957 754.693 L
S
GR
GS
[0.75 0 0 0.75 298.95248 564.23981] CT
0.635 0.078 0.184 RC
N
f1188474679
f
GR
GS
[0.75 0 0 0.75 0 -0.25] CT
0 0.447 0.741 RC
1 LJ
2.667 LW
N
398.188 753.939 M
397.52 755.972 L
S
GR
GS
[0.75 0 0 0.75 298.64113 565.20441] CT
0.851 0.325 0.098 RC
N
f1188474679
f
GR
GS
[0.75 0 0 0.75 0 -0.25] CT
0 0.447 0.741 RC
1 LJ
2.667 LW
N
397.759 755.22 M
397.069 757.246 L
S
GR
GS
[0.75 0 0 0.75 298.31941 566.16521] CT
0.494 0.184 0.557 RC
N
f1188474679
f
GR
GS
[0.75 0 0 0.75 0 -0.25] CT
0 0.447 0.741 RC
1 LJ
2.667 LW
N
397.317 756.496 M
396.606 758.515 L
S
GR
GS
[0.75 0 0 0.75 297.98769 567.1223] CT
0.302 0.745 0.933 RC
N
f1188474679
f
GR
GS
[0.75 0 0 0.75 0 -0.25] CT
0 0.447 0.741 RC
1 LJ
2.667 LW
N
396.862 757.767 M
396.13 759.779 L
S
GR
GS
[0.75 0 0 0.75 297.64632 568.07559] CT
0 0.447 0.741 RC
N
f1188474679
f
GR
GS
[0.75 0 0 0.75 0 -0.25] CT
0 0.447 0.741 RC
1 LJ
2.667 LW
N
396.394 759.034 M
395.643 761.037 L
S
GR
GS
[0.75 0 0 0.75 297.29565 569.02522] CT
0.929 0.694 0.125 RC
N
f1188474679
f
GR
GS
[0.75 0 0 0.75 0 -0.25] CT
0 0.447 0.741 RC
1 LJ
2.667 LW
N
395.915 760.295 M
395.145 762.292 L
S
GR
GS
[0.75 0 0 0.75 296.93605 569.9711] CT
0.467 0.675 0.188 RC
N
f1188474679
f
GR
GS
[0.75 0 0 0.75 0 -0.25] CT
0 0.447 0.741 RC
1 LJ
2.667 LW
N
395.424 761.551 M
394.636 763.541 L
S
GR
GS
[0.75 0 0 0.75 296.56783 570.91327] CT
0.635 0.078 0.184 RC
N
f1188474679
f
GR
GS
[0.75 0 0 0.75 0 -0.25] CT
0 0.447 0.741 RC
1 LJ
2.667 LW
N
394.922 762.802 M
394.116 764.785 L
S
GR
GS
[0.75 0 0 0.75 296.19131 571.85168] CT
0.851 0.325 0.098 RC
N
f1188474679
f
GR
GS
[0.75 0 0 0.75 0 -0.25] CT
0 0.447 0.741 RC
1 LJ
2.667 LW
N
394.409 764.049 M
393.587 766.024 L
S
GR
GS
[0.75 0 0 0.75 295.80684 572.78648] CT
0.494 0.184 0.557 RC
N
f1188474679
f
GR
GS
[0.75 0 0 0.75 0 -0.25] CT
0 0.447 0.741 RC
1 LJ
2.667 LW
N
393.886 765.29 M
393.048 767.259 L
S
GR
GS
[0.75 0 0 0.75 295.41472 573.71753] CT
0.302 0.745 0.933 RC
N
f1188474679
f
GR
GS
[0.75 0 0 0.75 0 -0.25] CT
0 0.447 0.741 RC
1 LJ
2.667 LW
N
393.354 766.527 M
392.499 768.489 L
S
GR
GS
[0.75 0 0 0.75 295.01525 574.64496] CT
0 0.447 0.741 RC
N
f1188474679
f
GR
GS
[0.75 0 0 0.75 0 -0.25] CT
0 0.447 0.741 RC
1 LJ
2.667 LW
N
392.812 767.758 M
391.942 769.714 L
S
GR
GS
[0.75 0 0 0.75 294.60864 575.56886] CT
0.929 0.694 0.125 RC
N
f1188474679
f
GR
GS
[0.75 0 0 0.75 0 -0.25] CT
0 0.447 0.741 RC
1 LJ
2.667 LW
N
392.26 768.986 M
391.376 770.934 L
S
GR
GS
[0.75 0 0 0.75 294.19526 576.48924] CT
0.467 0.675 0.188 RC
N
f1188474679
f
GR
GS
[0.75 0 0 0.75 0 -0.25] CT
0 0.447 0.741 RC
1 LJ
2.667 LW
N
391.7 770.208 M
390.802 772.151 L
S
GR
GS
[0.75 0 0 0.75 293.77533 577.4061] CT
0.635 0.078 0.184 RC
N
f1188474679
f
GR
GS
[0.75 0 0 0.75 0 -0.25] CT
0 0.447 0.741 RC
1 LJ
2.667 LW
N
391.132 771.426 M
390.221 773.362 L
S
GR
GS
[0.75 0 0 0.75 293.34913 578.31956] CT
0.851 0.325 0.098 RC
N
f1188474679
f
GR
GS
[0.75 0 0 0.75 0 -0.25] CT
0 0.447 0.741 RC
1 LJ
2.667 LW
N
390.556 772.639 M
389.631 774.569 L
S
GR
GS
[0.75 0 0 0.75 292.91689 579.22955] CT
0.494 0.184 0.557 RC
N
f1188474679
f
GR
GS
[0.75 0 0 0.75 0 -0.25] CT
0 0.447 0.741 RC
1 LJ
2.667 LW
N
389.972 773.848 M
389.035 775.772 L
S
GR
GS
[0.75 0 0 0.75 292.4789 580.13625] CT
0.302 0.745 0.933 RC
N
f1188474679
f
GR
GS
[0.75 0 0 0.75 0 -0.25] CT
0 0.447 0.741 RC
1 LJ
2.667 LW
N
389.38 775.053 M
388.431 776.971 L
S
GR
GS
[0.75 0 0 0.75 292.03532 581.0396] CT
0 0.447 0.741 RC
N
f1188474679
f
GR
GS
[0.75 0 0 0.75 0 -0.25] CT
0 0.447 0.741 RC
1 LJ
2.667 LW
N
388.782 776.253 M
387.821 778.165 L
S
GR
GS
[0.75 0 0 0.75 291.58646 581.93965] CT
0.929 0.694 0.125 RC
N
f1188474679
f
GR
GS
[0.75 0 0 0.75 0 -0.25] CT
0 0.447 0.741 RC
1 LJ
2.667 LW
N
388.177 777.449 M
387.205 779.355 L
S
GR
GS
[0.75 0 0 0.75 291.13248 582.83655] CT
0.467 0.675 0.188 RC
N
f1188474679
f
GR
GS
[0.75 0 0 0.75 0 -0.25] CT
0 0.447 0.741 RC
1 LJ
2.667 LW
N
387.565 778.64 M
386.582 780.541 L
S
GR
GS
[0.75 0 0 0.75 290.67357 583.73033] CT
0.635 0.078 0.184 RC
N
f1188474679
f
GR
GS
[0.75 0 0 0.75 0 -0.25] CT
0 0.447 0.741 RC
1 LJ
2.667 LW
N
386.947 779.828 M
385.953 781.724 L
S
GR
GS
[0.75 0 0 0.75 290.20997 584.62105] CT
0.851 0.325 0.098 RC
N
f1188474679
f
GR
GS
[0.75 0 0 0.75 0 -0.25] CT
0 0.447 0.741 RC
1 LJ
2.667 LW
N
386.322 781.012 M
385.319 782.902 L
S
GR
GS
[0.75 0 0 0.75 289.74186 585.50879] CT
0.494 0.184 0.557 RC
N
f1188474679
f
GR
GS
[0.75 0 0 0.75 0 -0.25] CT
0 0.447 0.741 RC
1 LJ
2.667 LW
N
385.693 782.191 M
384.68 784.077 L
S
GR
GS
[0.75 0 0 0.75 289.26945 586.39351] CT
0.302 0.745 0.933 RC
N
f1188474679
f
GR
GS
[0.75 0 0 0.75 0 -0.25] CT
0 0.447 0.741 RC
1 LJ
2.667 LW
N
385.057 783.367 M
384.035 785.247 L
S
GR
GS
[0.75 0 0 0.75 288.79289 587.27539] CT
0 0.447 0.741 RC
N
f1188474679
f
GR
GS
[0.75 0 0 0.75 0 -0.25] CT
0 0.447 0.741 RC
1 LJ
2.667 LW
N
384.417 784.539 M
383.846 785.577 L
S
GR
GS
[0.75 0 0 0.75 288.31238 588.15439] CT
0.929 0.694 0.125 RC
N
f1188474679
f
GR
%%Trailer
%%Pages: 1
%%EOF
