%!PS-Adobe-3.0 EPSF-3.0
%%Creator: (MATLAB, The Mathworks, Inc. Version 9.9.0.1592791 \(R2020b\) Update 5. Operating System: Windows 10)
%%Title: (C:/Users/marti/Documents/GitHub/bio-inspired-autonomous-systems/Assignment 02 - Braitenberg Vehicle/figures/fear_1900.eps)
%%CreationDate: 2021-03-23T10:44:08
%%Pages: (atend)
%%BoundingBox:     0     0  1440   722
%%LanguageLevel: 3
%%EndComments
%%BeginProlog
%%BeginResource: procset (Apache XML Graphics Std ProcSet) 1.2 0
%%Version: 1.2 0
%%Copyright: (Copyright 2001-2003,2010 The Apache Software Foundation. License terms: http://www.apache.org/licenses/LICENSE-2.0)
/bd{bind def}bind def
/ld{load def}bd
/GR/grestore ld
/GS/gsave ld
/RM/rmoveto ld
/C/curveto ld
/t/show ld
/L/lineto ld
/ML/setmiterlimit ld
/CT/concat ld
/f/fill ld
/N/newpath ld
/S/stroke ld
/CC/setcmykcolor ld
/A/ashow ld
/cp/closepath ld
/RC/setrgbcolor ld
/LJ/setlinejoin ld
/GC/setgray ld
/LW/setlinewidth ld
/M/moveto ld
/re {4 2 roll M
1 index 0 rlineto
0 exch rlineto
neg 0 rlineto
cp } bd
/_ctm matrix def
/_tm matrix def
/BT { _ctm currentmatrix pop matrix _tm copy pop 0 0 moveto } bd
/ET { _ctm setmatrix } bd
/iTm { _ctm setmatrix _tm concat } bd
/Tm { _tm astore pop iTm 0 0 moveto } bd
/ux 0.0 def
/uy 0.0 def
/F {
  /Tp exch def
  /Tf exch def
  Tf findfont Tp scalefont setfont
  /cf Tf def  /cs Tp def
} bd
/ULS {currentpoint /uy exch def /ux exch def} bd
/ULE {
  /Tcx currentpoint pop def
  gsave
  newpath
  cf findfont cs scalefont dup
  /FontMatrix get 0 get /Ts exch def /FontInfo get dup
  /UnderlinePosition get Ts mul /To exch def
  /UnderlineThickness get Ts mul /Tt exch def
  ux uy To add moveto  Tcx uy To add lineto
  Tt setlinewidth stroke
  grestore
} bd
/OLE {
  /Tcx currentpoint pop def
  gsave
  newpath
  cf findfont cs scalefont dup
  /FontMatrix get 0 get /Ts exch def /FontInfo get dup
  /UnderlinePosition get Ts mul /To exch def
  /UnderlineThickness get Ts mul /Tt exch def
  ux uy To add cs add moveto Tcx uy To add cs add lineto
  Tt setlinewidth stroke
  grestore
} bd
/SOE {
  /Tcx currentpoint pop def
  gsave
  newpath
  cf findfont cs scalefont dup
  /FontMatrix get 0 get /Ts exch def /FontInfo get dup
  /UnderlinePosition get Ts mul /To exch def
  /UnderlineThickness get Ts mul /Tt exch def
  ux uy To add cs 10 mul 26 idiv add moveto Tcx uy To add cs 10 mul 26 idiv add lineto
  Tt setlinewidth stroke
  grestore
} bd
/QT {
/Y22 exch store
/X22 exch store
/Y21 exch store
/X21 exch store
currentpoint
/Y21 load 2 mul add 3 div exch
/X21 load 2 mul add 3 div exch
/X21 load 2 mul /X22 load add 3 div
/Y21 load 2 mul /Y22 load add 3 div
/X22 load /Y22 load curveto
} bd
/SSPD {
dup length /d exch dict def
{
/v exch def
/k exch def
currentpagedevice k known {
/cpdv currentpagedevice k get def
v cpdv ne {
/upd false def
/nullv v type /nulltype eq def
/nullcpdv cpdv type /nulltype eq def
nullv nullcpdv or
{
/upd true def
} {
/sametype v type cpdv type eq def
sametype {
v type /arraytype eq {
/vlen v length def
/cpdvlen cpdv length def
vlen cpdvlen eq {
0 1 vlen 1 sub {
/i exch def
/obj v i get def
/cpdobj cpdv i get def
obj cpdobj ne {
/upd true def
exit
} if
} for
} {
/upd true def
} ifelse
} {
v type /dicttype eq {
v {
/dv exch def
/dk exch def
/cpddv cpdv dk get def
dv cpddv ne {
/upd true def
exit
} if
} forall
} {
/upd true def
} ifelse
} ifelse
} if
} ifelse
upd true eq {
d k v put
} if
} if
} if
} forall
d length 0 gt {
d setpagedevice
} if
} bd
/RE { % /NewFontName [NewEncodingArray] /FontName RE -
  findfont dup length dict begin
  {
    1 index /FID ne
    {def} {pop pop} ifelse
  } forall
  /Encoding exch def
  /FontName 1 index def
  currentdict definefont pop
  end
} bind def
%%EndResource
%%BeginResource: procset (Apache XML Graphics EPS ProcSet) 1.0 0
%%Version: 1.0 0
%%Copyright: (Copyright 2002-2003 The Apache Software Foundation. License terms: http://www.apache.org/licenses/LICENSE-2.0)
/BeginEPSF { %def
/b4_Inc_state save def         % Save state for cleanup
/dict_count countdictstack def % Count objects on dict stack
/op_count count 1 sub def      % Count objects on operand stack
userdict begin                 % Push userdict on dict stack
/showpage { } def              % Redefine showpage, { } = null proc
0 setgray 0 setlinecap         % Prepare graphics state
1 setlinewidth 0 setlinejoin
10 setmiterlimit [ ] 0 setdash newpath
/languagelevel where           % If level not equal to 1 then
{pop languagelevel             % set strokeadjust and
1 ne                           % overprint to their defaults.
{false setstrokeadjust false setoverprint
} if
} if
} bd
/EndEPSF { %def
count op_count sub {pop} repeat            % Clean up stacks
countdictstack dict_count sub {end} repeat
b4_Inc_state restore
} bd
%%EndResource
%FOPBeginFontDict
%%IncludeResource: font Courier-Oblique
%%IncludeResource: font Courier-BoldOblique
%%IncludeResource: font Courier-Bold
%%IncludeResource: font ZapfDingbats
%%IncludeResource: font Symbol
%%IncludeResource: font Helvetica
%%IncludeResource: font Helvetica-Oblique
%%IncludeResource: font Helvetica-Bold
%%IncludeResource: font Helvetica-BoldOblique
%%IncludeResource: font Times-Roman
%%IncludeResource: font Times-Italic
%%IncludeResource: font Times-Bold
%%IncludeResource: font Times-BoldItalic
%%IncludeResource: font Courier
%FOPEndFontDict
%%BeginResource: encoding WinAnsiEncoding
/WinAnsiEncoding [
/.notdef /.notdef /.notdef /.notdef /.notdef
/.notdef /.notdef /.notdef /.notdef /.notdef
/.notdef /.notdef /.notdef /.notdef /.notdef
/.notdef /.notdef /.notdef /.notdef /.notdef
/.notdef /.notdef /.notdef /.notdef /.notdef
/.notdef /.notdef /.notdef /.notdef /.notdef
/.notdef /.notdef /space /exclam /quotedbl
/numbersign /dollar /percent /ampersand /quotesingle
/parenleft /parenright /asterisk /plus /comma
/hyphen /period /slash /zero /one
/two /three /four /five /six
/seven /eight /nine /colon /semicolon
/less /equal /greater /question /at
/A /B /C /D /E
/F /G /H /I /J
/K /L /M /N /O
/P /Q /R /S /T
/U /V /W /X /Y
/Z /bracketleft /backslash /bracketright /asciicircum
/underscore /quoteleft /a /b /c
/d /e /f /g /h
/i /j /k /l /m
/n /o /p /q /r
/s /t /u /v /w
/x /y /z /braceleft /bar
/braceright /asciitilde /bullet /Euro /bullet
/quotesinglbase /florin /quotedblbase /ellipsis /dagger
/daggerdbl /circumflex /perthousand /Scaron /guilsinglleft
/OE /bullet /Zcaron /bullet /bullet
/quoteleft /quoteright /quotedblleft /quotedblright /bullet
/endash /emdash /asciitilde /trademark /scaron
/guilsinglright /oe /bullet /zcaron /Ydieresis
/space /exclamdown /cent /sterling /currency
/yen /brokenbar /section /dieresis /copyright
/ordfeminine /guillemotleft /logicalnot /sfthyphen /registered
/macron /degree /plusminus /twosuperior /threesuperior
/acute /mu /paragraph /middot /cedilla
/onesuperior /ordmasculine /guillemotright /onequarter /onehalf
/threequarters /questiondown /Agrave /Aacute /Acircumflex
/Atilde /Adieresis /Aring /AE /Ccedilla
/Egrave /Eacute /Ecircumflex /Edieresis /Igrave
/Iacute /Icircumflex /Idieresis /Eth /Ntilde
/Ograve /Oacute /Ocircumflex /Otilde /Odieresis
/multiply /Oslash /Ugrave /Uacute /Ucircumflex
/Udieresis /Yacute /Thorn /germandbls /agrave
/aacute /acircumflex /atilde /adieresis /aring
/ae /ccedilla /egrave /eacute /ecircumflex
/edieresis /igrave /iacute /icircumflex /idieresis
/eth /ntilde /ograve /oacute /ocircumflex
/otilde /odieresis /divide /oslash /ugrave
/uacute /ucircumflex /udieresis /yacute /thorn
/ydieresis
] def
%%EndResource
%FOPBeginFontReencode
/Courier-Oblique findfont
dup length dict begin
  {1 index /FID ne {def} {pop pop} ifelse} forall
  /Encoding WinAnsiEncoding def
  currentdict
end
/Courier-Oblique exch definefont pop
/Courier-BoldOblique findfont
dup length dict begin
  {1 index /FID ne {def} {pop pop} ifelse} forall
  /Encoding WinAnsiEncoding def
  currentdict
end
/Courier-BoldOblique exch definefont pop
/Courier-Bold findfont
dup length dict begin
  {1 index /FID ne {def} {pop pop} ifelse} forall
  /Encoding WinAnsiEncoding def
  currentdict
end
/Courier-Bold exch definefont pop
/Helvetica findfont
dup length dict begin
  {1 index /FID ne {def} {pop pop} ifelse} forall
  /Encoding WinAnsiEncoding def
  currentdict
end
/Helvetica exch definefont pop
/Helvetica-Oblique findfont
dup length dict begin
  {1 index /FID ne {def} {pop pop} ifelse} forall
  /Encoding WinAnsiEncoding def
  currentdict
end
/Helvetica-Oblique exch definefont pop
/Helvetica-Bold findfont
dup length dict begin
  {1 index /FID ne {def} {pop pop} ifelse} forall
  /Encoding WinAnsiEncoding def
  currentdict
end
/Helvetica-Bold exch definefont pop
/Helvetica-BoldOblique findfont
dup length dict begin
  {1 index /FID ne {def} {pop pop} ifelse} forall
  /Encoding WinAnsiEncoding def
  currentdict
end
/Helvetica-BoldOblique exch definefont pop
/Times-Roman findfont
dup length dict begin
  {1 index /FID ne {def} {pop pop} ifelse} forall
  /Encoding WinAnsiEncoding def
  currentdict
end
/Times-Roman exch definefont pop
/Times-Italic findfont
dup length dict begin
  {1 index /FID ne {def} {pop pop} ifelse} forall
  /Encoding WinAnsiEncoding def
  currentdict
end
/Times-Italic exch definefont pop
/Times-Bold findfont
dup length dict begin
  {1 index /FID ne {def} {pop pop} ifelse} forall
  /Encoding WinAnsiEncoding def
  currentdict
end
/Times-Bold exch definefont pop
/Times-BoldItalic findfont
dup length dict begin
  {1 index /FID ne {def} {pop pop} ifelse} forall
  /Encoding WinAnsiEncoding def
  currentdict
end
/Times-BoldItalic exch definefont pop
/Courier findfont
dup length dict begin
  {1 index /FID ne {def} {pop pop} ifelse} forall
  /Encoding WinAnsiEncoding def
  currentdict
end
/Courier exch definefont pop
%FOPEndFontReencode
%%EndProlog
%%Page: 1 1
%%PageBoundingBox: 0 0 1440 722
%%BeginPageSetup
[1 0 0 -1 0 722] CT
%%EndPageSetup
GS
[0.75 0 0 0.75 0 -0.25] CT
1 GC
N
0 0 1920 963 re
f
GR
GS
[0.75 0 0 0.75 0 -0.25] CT
1 GC
N
0 0 1920 963 re
f
GR
GS
[0.75 0 0 0.75 0 -0.25] CT
1 GC
N
1095 401 M
1738 401 L
1738 72 L
1095 72 L
cp
f
GR
GS
[0.75 0 0 0.75 0 -0.25] CT
0.873 GC
1 LJ
0.667 LW
N
1167.29 401 M
1167.29 72 L
S
GR
GS
[0.75 0 0 0.75 0 -0.25] CT
0.873 GC
1 LJ
0.667 LW
N
1243.385 401 M
1243.385 72 L
S
GR
GS
[0.75 0 0 0.75 0 -0.25] CT
0.873 GC
1 LJ
0.667 LW
N
1319.479 401 M
1319.479 72 L
S
GR
GS
[0.75 0 0 0.75 0 -0.25] CT
0.873 GC
1 LJ
0.667 LW
N
1395.574 401 M
1395.574 72 L
S
GR
GS
[0.75 0 0 0.75 0 -0.25] CT
0.873 GC
1 LJ
0.667 LW
N
1471.669 401 M
1471.669 72 L
S
GR
GS
[0.75 0 0 0.75 0 -0.25] CT
0.873 GC
1 LJ
0.667 LW
N
1547.763 401 M
1547.763 72 L
S
GR
GS
[0.75 0 0 0.75 0 -0.25] CT
0.873 GC
1 LJ
0.667 LW
N
1623.858 401 M
1623.858 72 L
S
GR
GS
[0.75 0 0 0.75 0 -0.25] CT
0.873 GC
1 LJ
0.667 LW
N
1699.953 401 M
1699.953 72 L
S
GR
GS
[0.75 0 0 0.75 0 -0.25] CT
0.873 GC
1 LJ
0.667 LW
N
1738 401 M
1095 401 L
S
GR
GS
[0.75 0 0 0.75 0 -0.25] CT
0.873 GC
1 LJ
0.667 LW
N
1738 354 M
1095 354 L
S
GR
GS
[0.75 0 0 0.75 0 -0.25] CT
0.873 GC
1 LJ
0.667 LW
N
1738 307 M
1095 307 L
S
GR
GS
[0.75 0 0 0.75 0 -0.25] CT
0.873 GC
1 LJ
0.667 LW
N
1738 260 M
1095 260 L
S
GR
GS
[0.75 0 0 0.75 0 -0.25] CT
0.873 GC
1 LJ
0.667 LW
N
1738 213 M
1095 213 L
S
GR
GS
[0.75 0 0 0.75 0 -0.25] CT
0.873 GC
1 LJ
0.667 LW
N
1738 166 M
1095 166 L
S
GR
GS
[0.75 0 0 0.75 0 -0.25] CT
0.873 GC
1 LJ
0.667 LW
N
1738 119 M
1095 119 L
S
GR
GS
[0.75 0 0 0.75 0 -0.25] CT
0.873 GC
1 LJ
0.667 LW
N
1738 72 M
1095 72 L
S
GR
GS
[0.75 0 0 0.75 0 -0.25] CT
0.149 GC
2 setlinecap
1 LJ
0.667 LW
N
1095 401 M
1738 401 L
S
GR
GS
[0.75 0 0 0.75 0 -0.25] CT
0.149 GC
2 setlinecap
1 LJ
0.667 LW
N
1167.29 401 M
1167.29 394.57 L
S
GR
GS
[0.75 0 0 0.75 0 -0.25] CT
0.149 GC
2 setlinecap
1 LJ
0.667 LW
N
1243.385 401 M
1243.385 394.57 L
S
GR
GS
[0.75 0 0 0.75 0 -0.25] CT
0.149 GC
2 setlinecap
1 LJ
0.667 LW
N
1319.479 401 M
1319.479 394.57 L
S
GR
GS
[0.75 0 0 0.75 0 -0.25] CT
0.149 GC
2 setlinecap
1 LJ
0.667 LW
N
1395.574 401 M
1395.574 394.57 L
S
GR
GS
[0.75 0 0 0.75 0 -0.25] CT
0.149 GC
2 setlinecap
1 LJ
0.667 LW
N
1471.669 401 M
1471.669 394.57 L
S
GR
GS
[0.75 0 0 0.75 0 -0.25] CT
0.149 GC
2 setlinecap
1 LJ
0.667 LW
N
1547.763 401 M
1547.763 394.57 L
S
GR
GS
[0.75 0 0 0.75 0 -0.25] CT
0.149 GC
2 setlinecap
1 LJ
0.667 LW
N
1623.858 401 M
1623.858 394.57 L
S
GR
GS
[0.75 0 0 0.75 0 -0.25] CT
0.149 GC
2 setlinecap
1 LJ
0.667 LW
N
1699.953 401 M
1699.953 394.57 L
S
GR
GS
[0.75 0 0 0.75 875.46744 304.50001] CT
0.149 GC
/Helvetica 13.333 F
GS
[1 0 0 1 0 0] CT
-7.5 14 moveto 
1 -1 scale
(20) t 
GR
GR
GS
[0.75 0 0 0.75 932.53848 304.50001] CT
0.149 GC
/Helvetica 13.333 F
GS
[1 0 0 1 0 0] CT
-7.5 14 moveto 
1 -1 scale
(40) t 
GR
GR
GS
[0.75 0 0 0.75 989.60944 304.50001] CT
0.149 GC
/Helvetica 13.333 F
GS
[1 0 0 1 0 0] CT
-7.5 14 moveto 
1 -1 scale
(60) t 
GR
GR
GS
[0.75 0 0 0.75 1046.68048 304.50001] CT
0.149 GC
/Helvetica 13.333 F
GS
[1 0 0 1 0 0] CT
-7.5 14 moveto 
1 -1 scale
(80) t 
GR
GR
GS
[0.75 0 0 0.75 1103.75143 304.50001] CT
0.149 GC
/Helvetica 13.333 F
GS
[1 0 0 1 0 0] CT
-11.5 14 moveto 
1 -1 scale
(100) t 
GR
GR
GS
[0.75 0 0 0.75 1160.82248 304.50001] CT
0.149 GC
/Helvetica 13.333 F
GS
[1 0 0 1 0 0] CT
-11.5 14 moveto 
1 -1 scale
(120) t 
GR
GR
GS
[0.75 0 0 0.75 1217.89352 304.50001] CT
0.149 GC
/Helvetica 13.333 F
GS
[1 0 0 1 0 0] CT
-11.5 14 moveto 
1 -1 scale
(140) t 
GR
GR
GS
[0.75 0 0 0.75 1274.96448 304.50001] CT
0.149 GC
/Helvetica 13.333 F
GS
[1 0 0 1 0 0] CT
-11.5 14 moveto 
1 -1 scale
(160) t 
GR
GR
GS
[0.75 0 0 0.75 0 -0.25] CT
0.149 GC
2 setlinecap
1 LJ
0.667 LW
N
1095 401 M
1095 72 L
S
GR
GS
[0.75 0 0 0.75 0 -0.25] CT
0.149 GC
2 setlinecap
1 LJ
0.667 LW
N
1095 401 M
1101.43 401 L
S
GR
GS
[0.75 0 0 0.75 0 -0.25] CT
0.149 GC
2 setlinecap
1 LJ
0.667 LW
N
1095 354 M
1101.43 354 L
S
GR
GS
[0.75 0 0 0.75 0 -0.25] CT
0.149 GC
2 setlinecap
1 LJ
0.667 LW
N
1095 307 M
1101.43 307 L
S
GR
GS
[0.75 0 0 0.75 0 -0.25] CT
0.149 GC
2 setlinecap
1 LJ
0.667 LW
N
1095 260 M
1101.43 260 L
S
GR
GS
[0.75 0 0 0.75 0 -0.25] CT
0.149 GC
2 setlinecap
1 LJ
0.667 LW
N
1095 213 M
1101.43 213 L
S
GR
GS
[0.75 0 0 0.75 0 -0.25] CT
0.149 GC
2 setlinecap
1 LJ
0.667 LW
N
1095 166 M
1101.43 166 L
S
GR
GS
[0.75 0 0 0.75 0 -0.25] CT
0.149 GC
2 setlinecap
1 LJ
0.667 LW
N
1095 119 M
1101.43 119 L
S
GR
GS
[0.75 0 0 0.75 0 -0.25] CT
0.149 GC
2 setlinecap
1 LJ
0.667 LW
N
1095 72 M
1101.43 72 L
S
GR
GS
[0.75 0 0 0.75 817.24997 300.5] CT
0.149 GC
/Helvetica 13.333 F
GS
[1 0 0 1 0 0] CT
-8 5.5 moveto 
1 -1 scale
(0) t 
GR
GR
GS
[0.75 0 0 0.75 817.24997 265.25] CT
0.149 GC
/Helvetica 13.333 F
GS
[1 0 0 1 0 0] CT
-19 5.5 moveto 
1 -1 scale
(0.2) t 
GR
GR
GS
[0.75 0 0 0.75 817.24997 230] CT
0.149 GC
/Helvetica 13.333 F
GS
[1 0 0 1 0 0] CT
-19 5.5 moveto 
1 -1 scale
(0.4) t 
GR
GR
GS
[0.75 0 0 0.75 817.24997 194.75] CT
0.149 GC
/Helvetica 13.333 F
GS
[1 0 0 1 0 0] CT
-19 5.5 moveto 
1 -1 scale
(0.6) t 
GR
GR
GS
[0.75 0 0 0.75 817.24997 159.5] CT
0.149 GC
/Helvetica 13.333 F
GS
[1 0 0 1 0 0] CT
-19 5.5 moveto 
1 -1 scale
(0.8) t 
GR
GR
GS
[0.75 0 0 0.75 817.24997 124.25] CT
0.149 GC
/Helvetica 13.333 F
GS
[1 0 0 1 0 0] CT
-8 5.5 moveto 
1 -1 scale
(1) t 
GR
GR
GS
[0.75 0 0 0.75 817.24997 88.99999] CT
0.149 GC
/Helvetica 13.333 F
GS
[1 0 0 1 0 0] CT
-19 5.5 moveto 
1 -1 scale
(1.2) t 
GR
GR
GS
[0.75 0 0 0.75 817.24997 53.75001] CT
0.149 GC
/Helvetica 13.333 F
GS
[1 0 0 1 0 0] CT
-19 5.5 moveto 
1 -1 scale
(1.4) t 
GR
GR
GS
[0.75 0 0 0.75 1062.37601 51.68749] CT
/Helvetica-Bold 14.667 F
GS
[1 0 0 1 0 0] CT
-181.5 -4 moveto 
1 -1 scale
(Motor velocities: left motor \(red\), right motor \(black\)) t 
GR
GR
GS
[0.75 0 0 0.75 0 -0.25] CT
1 0 0 RC
1 LJ
2.667 LW
N
1095 111.823 M
1098.805 109.449 L
1102.609 107.124 L
1106.414 104.87 L
1110.219 102.707 L
1114.024 100.654 L
1117.828 98.735 L
1121.633 96.946 L
1125.438 95.318 L
1129.243 93.894 L
1133.047 92.696 L
1136.852 91.741 L
1140.657 91.046 L
1144.462 90.624 L
1148.266 90.481 L
1152.071 90.624 L
1155.876 91.051 L
1159.68 91.758 L
1163.485 92.734 L
1167.29 93.968 L
1171.095 95.441 L
1174.899 97.132 L
1178.704 98.991 L
1182.509 100.997 L
1186.314 103.15 L
1190.118 105.423 L
1193.923 107.793 L
1197.728 110.238 L
1201.533 112.735 L
1205.337 115.265 L
1209.142 117.81 L
1212.947 120.357 L
1216.751 122.89 L
1220.556 125.398 L
1224.361 127.87 L
1228.166 130.296 L
1231.97 132.67 L
1235.775 134.987 L
1239.58 137.205 L
1243.385 139.356 L
1247.189 141.437 L
1250.994 143.447 L
1254.799 145.387 L
1258.604 147.255 L
1262.408 149.052 L
1266.213 150.779 L
1270.018 152.438 L
1273.823 154.028 L
1277.627 155.551 L
1281.432 157.008 L
1285.237 158.398 L
1289.041 159.715 L
1292.846 160.976 L
1296.651 162.182 L
1300.456 163.335 L
1304.26 164.437 L
1308.065 165.49 L
1311.87 166.498 L
1315.675 167.461 L
1319.479 168.382 L
1323.284 169.264 L
1327.089 170.106 L
1330.893 170.911 L
1334.698 171.681 L
1338.503 172.418 L
1342.308 173.122 L
1346.112 173.797 L
1349.917 174.443 L
1353.722 175.063 L
1357.527 175.657 L
1361.331 176.226 L
1365.136 176.774 L
1368.941 177.299 L
1372.746 177.805 L
1376.55 178.291 L
1380.355 178.759 L
1384.16 179.209 L
1387.964 179.643 L
1391.769 180.062 L
1395.574 180.466 L
1399.379 180.856 L
1403.183 181.234 L
1406.988 181.599 L
1410.793 181.952 L
1414.598 182.295 L
1418.402 182.628 L
1422.207 182.952 L
1426.012 183.266 L
1429.817 183.572 L
1433.621 183.87 L
1437.426 184.16 L
1441.231 184.443 L
1445.036 184.72 L
1448.84 184.991 L
1452.645 185.255 L
1456.45 185.515 L
1460.254 185.769 L
1464.059 186.018 L
1467.864 186.263 L
1471.669 186.503 L
1475.473 186.739 L
1479.278 186.972 L
1483.083 187.201 L
1486.888 187.426 L
1490.692 187.649 L
1494.497 187.868 L
1498.302 188.085 L
1502.107 188.299 L
1505.911 188.511 L
1509.716 188.72 L
1513.521 188.927 L
1517.325 189.132 L
1521.13 189.336 L
1524.935 189.537 L
1528.74 189.737 L
1532.544 189.935 L
1536.349 190.131 L
1540.154 190.327 L
1543.959 190.521 L
1547.763 190.713 L
1551.568 190.905 L
1555.373 191.095 L
1559.177 191.285 L
1562.982 191.473 L
1566.787 191.661 L
1570.592 191.847 L
1574.396 192.033 L
1578.201 192.218 L
1582.006 192.403 L
1585.811 192.586 L
1589.615 192.769 L
1593.42 192.952 L
1597.225 193.134 L
1601.03 193.315 L
1604.834 193.496 L
1608.639 193.677 L
1612.444 193.857 L
1616.249 194.037 L
1620.053 194.216 L
1623.858 194.395 L
1627.663 194.574 L
1631.467 194.752 L
1635.272 194.93 L
1639.077 195.108 L
1642.882 195.285 L
1646.686 195.462 L
1650.491 195.639 L
1654.296 195.816 L
1658.101 195.993 L
1661.905 196.169 L
1665.71 196.345 L
1669.515 196.521 L
1673.32 196.697 L
1677.124 196.873 L
1680.929 197.048 L
1684.734 197.224 L
1688.538 197.399 L
1692.343 197.574 L
1696.148 197.749 L
1699.953 197.924 L
1703.757 198.099 L
1707.562 198.274 L
1711.367 198.449 L
1715.172 198.623 L
1718.976 198.798 L
1722.781 198.973 L
1726.586 199.147 L
1730.391 199.321 L
1734.195 199.496 L
1738 199.67 L
S
GR
GS
[0.75 0 0 0.75 0 -0.25] CT
1 LJ
2.667 LW
N
1095 273.177 M
1098.805 278.538 L
1102.609 283.85 L
1106.414 289.294 L
1110.219 294.826 L
1114.024 300.166 L
1117.828 305.238 L
1121.633 310.026 L
1125.438 314.54 L
1129.243 318.636 L
1133.047 322.049 L
1136.852 324.854 L
1140.657 326.947 L
1144.462 328.242 L
1148.266 328.681 L
1152.071 328.241 L
1155.876 326.932 L
1159.68 324.803 L
1163.485 321.932 L
1167.29 318.423 L
1171.095 314.179 L
1174.899 309.501 L
1178.704 304.531 L
1182.509 299.217 L
1186.314 293.609 L
1190.118 287.857 L
1193.923 282.206 L
1197.728 276.62 L
1201.533 271.079 L
1205.337 265.787 L
1209.142 260.763 L
1212.947 256.015 L
1216.751 251.436 L
1220.556 247.044 L
1224.361 242.937 L
1228.166 239.104 L
1231.97 235.514 L
1235.775 232.032 L
1239.58 228.798 L
1243.385 225.662 L
1247.189 222.748 L
1250.994 220.049 L
1254.799 217.549 L
1258.604 215.233 L
1262.408 213.089 L
1266.213 211.104 L
1270.018 209.204 L
1273.823 207.422 L
1277.627 205.775 L
1281.432 204.252 L
1285.237 202.845 L
1289.041 201.544 L
1292.846 200.342 L
1296.651 199.232 L
1300.456 198.206 L
1304.26 197.259 L
1308.065 196.386 L
1311.87 195.581 L
1315.675 194.839 L
1319.479 194.156 L
1323.284 193.51 L
1327.089 192.9 L
1330.893 192.34 L
1334.698 191.828 L
1338.503 191.36 L
1342.308 190.932 L
1346.112 190.543 L
1349.917 190.19 L
1353.722 189.869 L
1357.527 189.58 L
1361.331 189.32 L
1365.136 189.087 L
1368.941 188.879 L
1372.746 188.695 L
1376.55 188.527 L
1380.355 188.372 L
1384.16 188.238 L
1387.964 188.123 L
1391.769 188.027 L
1395.574 187.947 L
1399.379 187.883 L
1403.183 187.833 L
1406.988 187.798 L
1410.793 187.776 L
1414.598 187.765 L
1418.402 187.766 L
1422.207 187.778 L
1426.012 187.8 L
1429.817 187.831 L
1433.621 187.87 L
1437.426 187.918 L
1441.231 187.974 L
1445.036 188.037 L
1448.84 188.107 L
1452.645 188.183 L
1456.45 188.265 L
1460.254 188.352 L
1464.059 188.445 L
1467.864 188.543 L
1471.669 188.645 L
1475.473 188.752 L
1479.278 188.863 L
1483.083 188.977 L
1486.888 189.096 L
1490.692 189.217 L
1494.497 189.342 L
1498.302 189.469 L
1502.107 189.6 L
1505.911 189.733 L
1509.716 189.868 L
1513.521 190.006 L
1517.325 190.146 L
1521.13 190.288 L
1524.935 190.432 L
1528.74 190.577 L
1532.544 190.725 L
1536.349 190.874 L
1540.154 191.024 L
1543.959 191.176 L
1547.763 191.329 L
1551.568 191.483 L
1555.373 191.639 L
1559.177 191.795 L
1562.982 191.953 L
1566.787 192.111 L
1570.592 192.271 L
1574.396 192.431 L
1578.201 192.592 L
1582.006 192.754 L
1585.811 192.917 L
1589.615 193.08 L
1593.42 193.244 L
1597.225 193.408 L
1601.03 193.573 L
1604.834 193.738 L
1608.639 193.904 L
1612.444 194.071 L
1616.249 194.237 L
1620.053 194.405 L
1623.858 194.572 L
1627.663 194.74 L
1631.467 194.908 L
1635.272 195.077 L
1639.077 195.246 L
1642.882 195.415 L
1646.686 195.584 L
1650.491 195.754 L
1654.296 195.924 L
1658.101 196.094 L
1661.905 196.264 L
1665.71 196.435 L
1669.515 196.605 L
1673.32 196.776 L
1677.124 196.947 L
1680.929 197.118 L
1684.734 197.289 L
1688.538 197.461 L
1692.343 197.632 L
1696.148 197.804 L
1699.953 197.976 L
1703.757 198.147 L
1707.562 198.319 L
1711.367 198.491 L
1715.172 198.663 L
1718.976 198.835 L
1722.781 199.008 L
1726.586 199.18 L
1730.391 199.352 L
1734.195 199.525 L
1738 199.697 L
S
GR
GS
[0.75 0 0 0.75 0 -0.25] CT
1 GC
N
1095 857 M
1738 857 L
1738 529 L
1095 529 L
cp
f
GR
GS
[0.75 0 0 0.75 0 -0.25] CT
0.873 GC
1 LJ
0.667 LW
N
1167.29 857 M
1167.29 529 L
S
GR
GS
[0.75 0 0 0.75 0 -0.25] CT
0.873 GC
1 LJ
0.667 LW
N
1243.385 857 M
1243.385 529 L
S
GR
GS
[0.75 0 0 0.75 0 -0.25] CT
0.873 GC
1 LJ
0.667 LW
N
1319.479 857 M
1319.479 529 L
S
GR
GS
[0.75 0 0 0.75 0 -0.25] CT
0.873 GC
1 LJ
0.667 LW
N
1395.574 857 M
1395.574 529 L
S
GR
GS
[0.75 0 0 0.75 0 -0.25] CT
0.873 GC
1 LJ
0.667 LW
N
1471.669 857 M
1471.669 529 L
S
GR
GS
[0.75 0 0 0.75 0 -0.25] CT
0.873 GC
1 LJ
0.667 LW
N
1547.763 857 M
1547.763 529 L
S
GR
GS
[0.75 0 0 0.75 0 -0.25] CT
0.873 GC
1 LJ
0.667 LW
N
1623.858 857 M
1623.858 529 L
S
GR
GS
[0.75 0 0 0.75 0 -0.25] CT
0.873 GC
1 LJ
0.667 LW
N
1699.953 857 M
1699.953 529 L
S
GR
GS
[0.75 0 0 0.75 0 -0.25] CT
0.873 GC
1 LJ
0.667 LW
N
1738 857 M
1095 857 L
S
GR
GS
[0.75 0 0 0.75 0 -0.25] CT
0.873 GC
1 LJ
0.667 LW
N
1738 810.143 M
1095 810.143 L
S
GR
GS
[0.75 0 0 0.75 0 -0.25] CT
0.873 GC
1 LJ
0.667 LW
N
1738 763.286 M
1095 763.286 L
S
GR
GS
[0.75 0 0 0.75 0 -0.25] CT
0.873 GC
1 LJ
0.667 LW
N
1738 716.429 M
1095 716.429 L
S
GR
GS
[0.75 0 0 0.75 0 -0.25] CT
0.873 GC
1 LJ
0.667 LW
N
1738 669.571 M
1095 669.571 L
S
GR
GS
[0.75 0 0 0.75 0 -0.25] CT
0.873 GC
1 LJ
0.667 LW
N
1738 622.714 M
1095 622.714 L
S
GR
GS
[0.75 0 0 0.75 0 -0.25] CT
0.873 GC
1 LJ
0.667 LW
N
1738 575.857 M
1095 575.857 L
S
GR
GS
[0.75 0 0 0.75 0 -0.25] CT
0.873 GC
1 LJ
0.667 LW
N
1738 529 M
1095 529 L
S
GR
GS
[0.75 0 0 0.75 0 -0.25] CT
0.149 GC
2 setlinecap
1 LJ
0.667 LW
N
1095 857 M
1738 857 L
S
GR
GS
[0.75 0 0 0.75 0 -0.25] CT
0.149 GC
2 setlinecap
1 LJ
0.667 LW
N
1167.29 857 M
1167.29 850.57 L
S
GR
GS
[0.75 0 0 0.75 0 -0.25] CT
0.149 GC
2 setlinecap
1 LJ
0.667 LW
N
1243.385 857 M
1243.385 850.57 L
S
GR
GS
[0.75 0 0 0.75 0 -0.25] CT
0.149 GC
2 setlinecap
1 LJ
0.667 LW
N
1319.479 857 M
1319.479 850.57 L
S
GR
GS
[0.75 0 0 0.75 0 -0.25] CT
0.149 GC
2 setlinecap
1 LJ
0.667 LW
N
1395.574 857 M
1395.574 850.57 L
S
GR
GS
[0.75 0 0 0.75 0 -0.25] CT
0.149 GC
2 setlinecap
1 LJ
0.667 LW
N
1471.669 857 M
1471.669 850.57 L
S
GR
GS
[0.75 0 0 0.75 0 -0.25] CT
0.149 GC
2 setlinecap
1 LJ
0.667 LW
N
1547.763 857 M
1547.763 850.57 L
S
GR
GS
[0.75 0 0 0.75 0 -0.25] CT
0.149 GC
2 setlinecap
1 LJ
0.667 LW
N
1623.858 857 M
1623.858 850.57 L
S
GR
GS
[0.75 0 0 0.75 0 -0.25] CT
0.149 GC
2 setlinecap
1 LJ
0.667 LW
N
1699.953 857 M
1699.953 850.57 L
S
GR
GS
[0.75 0 0 0.75 875.46744 646.49998] CT
0.149 GC
/Helvetica 13.333 F
GS
[1 0 0 1 0 0] CT
-7.5 14 moveto 
1 -1 scale
(20) t 
GR
GR
GS
[0.75 0 0 0.75 932.53848 646.49998] CT
0.149 GC
/Helvetica 13.333 F
GS
[1 0 0 1 0 0] CT
-7.5 14 moveto 
1 -1 scale
(40) t 
GR
GR
GS
[0.75 0 0 0.75 989.60944 646.49998] CT
0.149 GC
/Helvetica 13.333 F
GS
[1 0 0 1 0 0] CT
-7.5 14 moveto 
1 -1 scale
(60) t 
GR
GR
GS
[0.75 0 0 0.75 1046.68048 646.49998] CT
0.149 GC
/Helvetica 13.333 F
GS
[1 0 0 1 0 0] CT
-7.5 14 moveto 
1 -1 scale
(80) t 
GR
GR
GS
[0.75 0 0 0.75 1103.75143 646.49998] CT
0.149 GC
/Helvetica 13.333 F
GS
[1 0 0 1 0 0] CT
-11.5 14 moveto 
1 -1 scale
(100) t 
GR
GR
GS
[0.75 0 0 0.75 1160.82248 646.49998] CT
0.149 GC
/Helvetica 13.333 F
GS
[1 0 0 1 0 0] CT
-11.5 14 moveto 
1 -1 scale
(120) t 
GR
GR
GS
[0.75 0 0 0.75 1217.89352 646.49998] CT
0.149 GC
/Helvetica 13.333 F
GS
[1 0 0 1 0 0] CT
-11.5 14 moveto 
1 -1 scale
(140) t 
GR
GR
GS
[0.75 0 0 0.75 1274.96448 646.49998] CT
0.149 GC
/Helvetica 13.333 F
GS
[1 0 0 1 0 0] CT
-11.5 14 moveto 
1 -1 scale
(160) t 
GR
GR
GS
[0.75 0 0 0.75 0 -0.25] CT
0.149 GC
2 setlinecap
1 LJ
0.667 LW
N
1095 857 M
1095 529 L
S
GR
GS
[0.75 0 0 0.75 0 -0.25] CT
0.149 GC
2 setlinecap
1 LJ
0.667 LW
N
1095 857 M
1101.43 857 L
S
GR
GS
[0.75 0 0 0.75 0 -0.25] CT
0.149 GC
2 setlinecap
1 LJ
0.667 LW
N
1095 810.143 M
1101.43 810.143 L
S
GR
GS
[0.75 0 0 0.75 0 -0.25] CT
0.149 GC
2 setlinecap
1 LJ
0.667 LW
N
1095 763.286 M
1101.43 763.286 L
S
GR
GS
[0.75 0 0 0.75 0 -0.25] CT
0.149 GC
2 setlinecap
1 LJ
0.667 LW
N
1095 716.429 M
1101.43 716.429 L
S
GR
GS
[0.75 0 0 0.75 0 -0.25] CT
0.149 GC
2 setlinecap
1 LJ
0.667 LW
N
1095 669.571 M
1101.43 669.571 L
S
GR
GS
[0.75 0 0 0.75 0 -0.25] CT
0.149 GC
2 setlinecap
1 LJ
0.667 LW
N
1095 622.714 M
1101.43 622.714 L
S
GR
GS
[0.75 0 0 0.75 0 -0.25] CT
0.149 GC
2 setlinecap
1 LJ
0.667 LW
N
1095 575.857 M
1101.43 575.857 L
S
GR
GS
[0.75 0 0 0.75 0 -0.25] CT
0.149 GC
2 setlinecap
1 LJ
0.667 LW
N
1095 529 M
1101.43 529 L
S
GR
GS
[0.75 0 0 0.75 817.24997 642.5] CT
0.149 GC
/Helvetica 13.333 F
GS
[1 0 0 1 0 0] CT
-23 5.5 moveto 
1 -1 scale
(-3.5) t 
GR
GR
GS
[0.75 0 0 0.75 817.24997 607.35716] CT
0.149 GC
/Helvetica 13.333 F
GS
[1 0 0 1 0 0] CT
-12 5.5 moveto 
1 -1 scale
(-3) t 
GR
GR
GS
[0.75 0 0 0.75 817.24997 572.21428] CT
0.149 GC
/Helvetica 13.333 F
GS
[1 0 0 1 0 0] CT
-23 5.5 moveto 
1 -1 scale
(-2.5) t 
GR
GR
GS
[0.75 0 0 0.75 817.24997 537.07144] CT
0.149 GC
/Helvetica 13.333 F
GS
[1 0 0 1 0 0] CT
-12 5.5 moveto 
1 -1 scale
(-2) t 
GR
GR
GS
[0.75 0 0 0.75 817.24997 501.92856] CT
0.149 GC
/Helvetica 13.333 F
GS
[1 0 0 1 0 0] CT
-23 5.5 moveto 
1 -1 scale
(-1.5) t 
GR
GR
GS
[0.75 0 0 0.75 817.24997 466.78572] CT
0.149 GC
/Helvetica 13.333 F
GS
[1 0 0 1 0 0] CT
-12 5.5 moveto 
1 -1 scale
(-1) t 
GR
GR
GS
[0.75 0 0 0.75 817.24997 431.64284] CT
0.149 GC
/Helvetica 13.333 F
GS
[1 0 0 1 0 0] CT
-23 5.5 moveto 
1 -1 scale
(-0.5) t 
GR
GR
GS
[0.75 0 0 0.75 817.24997 396.5] CT
0.149 GC
/Helvetica 13.333 F
GS
[1 0 0 1 0 0] CT
-8 5.5 moveto 
1 -1 scale
(0) t 
GR
GR
GS
[0.75 0 0 0.75 1062.37601 394.4375] CT
/Helvetica-Bold 14.667 F
GS
[1 0 0 1 0 0] CT
-215 -4 moveto 
1 -1 scale
(Sound inputs: left microphone \(red\), right microphone \(black\)) t 
GR
GR
GS
[0.75 0 0 0.75 0 -0.25] CT
1 0 0 RC
1 LJ
2.667 LW
N
1095 602.603 M
1098.805 606.731 L
1102.609 611.055 L
1106.414 615.574 L
1110.219 620.288 L
1114.024 625.196 L
1117.828 630.293 L
1121.633 635.566 L
1125.438 641.005 L
1129.243 646.6 L
1133.047 652.334 L
1136.852 658.185 L
1140.657 664.13 L
1144.462 670.146 L
1148.266 676.204 L
1152.071 682.277 L
1155.876 688.335 L
1159.68 694.349 L
1163.485 700.291 L
1167.29 706.135 L
1171.095 711.859 L
1174.899 717.439 L
1178.704 722.857 L
1182.509 728.102 L
1186.314 733.161 L
1190.118 738.024 L
1193.923 742.683 L
1197.728 747.138 L
1201.533 751.389 L
1205.337 755.435 L
1209.142 759.283 L
1212.947 762.938 L
1216.751 766.406 L
1220.556 769.694 L
1224.361 772.805 L
1228.166 775.748 L
1231.97 778.532 L
1235.775 781.163 L
1239.58 783.646 L
1243.385 785.989 L
1247.189 788.198 L
1250.994 790.279 L
1254.799 792.239 L
1258.604 794.085 L
1262.408 795.825 L
1266.213 797.464 L
1270.018 799.008 L
1273.823 800.46 L
1277.627 801.827 L
1281.432 803.112 L
1285.237 804.321 L
1289.041 805.458 L
1292.846 806.528 L
1296.651 807.536 L
1300.456 808.483 L
1304.26 809.376 L
1308.065 810.215 L
1311.87 811.005 L
1315.675 811.749 L
1319.479 812.45 L
1323.284 813.109 L
1327.089 813.729 L
1330.893 814.311 L
1334.698 814.859 L
1338.503 815.374 L
1342.308 815.859 L
1346.112 816.314 L
1349.917 816.742 L
1353.722 817.145 L
1357.527 817.523 L
1361.331 817.879 L
1365.136 818.214 L
1368.941 818.528 L
1372.746 818.824 L
1376.55 819.102 L
1380.355 819.364 L
1384.16 819.609 L
1387.964 819.84 L
1391.769 820.057 L
1395.574 820.26 L
1399.379 820.451 L
1403.183 820.631 L
1406.988 820.799 L
1410.793 820.957 L
1414.598 821.106 L
1418.402 821.246 L
1422.207 821.377 L
1426.012 821.5 L
1429.817 821.616 L
1433.621 821.725 L
1437.426 821.827 L
1441.231 821.923 L
1445.036 822.013 L
1448.84 822.098 L
1452.645 822.177 L
1456.45 822.252 L
1460.254 822.322 L
1464.059 822.388 L
1467.864 822.45 L
1471.669 822.508 L
1475.473 822.563 L
1479.278 822.614 L
1483.083 822.662 L
1486.888 822.708 L
1490.692 822.75 L
1494.497 822.79 L
1498.302 822.828 L
1502.107 822.863 L
1505.911 822.896 L
1509.716 822.927 L
1513.521 822.957 L
1517.325 822.984 L
1521.13 823.01 L
1524.935 823.034 L
1528.74 823.057 L
1532.544 823.079 L
1536.349 823.099 L
1540.154 823.118 L
1543.959 823.135 L
1547.763 823.152 L
1551.568 823.168 L
1555.373 823.183 L
1559.177 823.196 L
1562.982 823.209 L
1566.787 823.222 L
1570.592 823.233 L
1574.396 823.244 L
1578.201 823.254 L
1582.006 823.264 L
1585.811 823.273 L
1589.615 823.281 L
1593.42 823.289 L
1597.225 823.296 L
1601.03 823.303 L
1604.834 823.31 L
1608.639 823.316 L
1612.444 823.322 L
1616.249 823.327 L
1620.053 823.332 L
1623.858 823.337 L
1627.663 823.342 L
1631.467 823.346 L
1635.272 823.35 L
1639.077 823.354 L
1642.882 823.357 L
1646.686 823.361 L
1650.491 823.364 L
1654.296 823.367 L
1658.101 823.369 L
1661.905 823.372 L
1665.71 823.374 L
1669.515 823.377 L
1673.32 823.379 L
1677.124 823.381 L
1680.929 823.383 L
1684.734 823.384 L
1688.538 823.386 L
1692.343 823.388 L
1696.148 823.389 L
1699.953 823.391 L
1703.757 823.392 L
1707.562 823.393 L
1711.367 823.394 L
1715.172 823.395 L
1718.976 823.396 L
1722.781 823.397 L
1726.586 823.398 L
1730.391 823.399 L
1734.195 823.4 L
1738 823.401 L
S
GR
GS
[0.75 0 0 0.75 0 -0.25] CT
1 LJ
2.667 LW
N
1095 559.247 M
1098.805 560.55 L
1102.609 561.849 L
1106.414 563.131 L
1110.219 564.385 L
1114.024 565.595 L
1117.828 566.744 L
1121.633 567.817 L
1125.438 568.794 L
1129.243 569.659 L
1133.047 570.396 L
1136.852 570.988 L
1140.657 571.422 L
1144.462 571.687 L
1148.266 571.776 L
1152.071 571.687 L
1155.876 571.419 L
1159.68 570.977 L
1163.485 570.371 L
1167.29 569.613 L
1171.095 568.718 L
1174.899 567.702 L
1178.704 566.585 L
1182.509 565.383 L
1186.314 564.117 L
1190.118 562.802 L
1193.923 561.458 L
1197.728 560.097 L
1201.533 558.733 L
1205.337 557.378 L
1209.142 556.04 L
1212.947 554.728 L
1216.751 553.445 L
1220.556 552.199 L
1224.361 550.993 L
1228.166 549.83 L
1231.97 548.712 L
1235.775 547.638 L
1239.58 546.612 L
1243.385 545.631 L
1247.189 544.698 L
1250.994 543.811 L
1254.799 542.968 L
1258.604 542.169 L
1262.408 541.411 L
1266.213 540.693 L
1270.018 540.014 L
1273.823 539.372 L
1277.627 538.766 L
1281.432 538.194 L
1285.237 537.654 L
1289.041 537.145 L
1292.846 536.665 L
1296.651 536.212 L
1300.456 535.786 L
1304.26 535.383 L
1308.065 535.004 L
1311.87 534.647 L
1315.675 534.31 L
1319.479 533.993 L
1323.284 533.694 L
1327.089 533.412 L
1330.893 533.148 L
1334.698 532.898 L
1338.503 532.664 L
1342.308 532.444 L
1346.112 532.237 L
1349.917 532.042 L
1353.722 531.859 L
1357.527 531.686 L
1361.331 531.524 L
1365.136 531.372 L
1368.941 531.228 L
1372.746 531.093 L
1376.55 530.967 L
1380.355 530.847 L
1384.16 530.735 L
1387.964 530.63 L
1391.769 530.531 L
1395.574 530.439 L
1399.379 530.351 L
1403.183 530.269 L
1406.988 530.193 L
1410.793 530.12 L
1414.598 530.052 L
1418.402 529.989 L
1422.207 529.929 L
1426.012 529.873 L
1429.817 529.82 L
1433.621 529.77 L
1437.426 529.724 L
1441.231 529.68 L
1445.036 529.639 L
1448.84 529.6 L
1452.645 529.564 L
1456.45 529.53 L
1460.254 529.498 L
1464.059 529.468 L
1467.864 529.439 L
1471.669 529.413 L
1475.473 529.388 L
1479.278 529.364 L
1483.083 529.342 L
1486.888 529.322 L
1490.692 529.302 L
1494.497 529.284 L
1498.302 529.267 L
1502.107 529.251 L
1505.911 529.235 L
1509.716 529.221 L
1513.521 529.208 L
1517.325 529.195 L
1521.13 529.184 L
1524.935 529.172 L
1528.74 529.162 L
1532.544 529.152 L
1536.349 529.143 L
1540.154 529.134 L
1543.959 529.126 L
1547.763 529.119 L
1551.568 529.112 L
1555.373 529.105 L
1559.177 529.098 L
1562.982 529.092 L
1566.787 529.087 L
1570.592 529.082 L
1574.396 529.077 L
1578.201 529.072 L
1582.006 529.068 L
1585.811 529.064 L
1589.615 529.06 L
1593.42 529.056 L
1597.225 529.053 L
1601.03 529.05 L
1604.834 529.047 L
1608.639 529.044 L
1612.444 529.041 L
1616.249 529.039 L
1620.053 529.036 L
1623.858 529.034 L
1627.663 529.032 L
1631.467 529.03 L
1635.272 529.028 L
1639.077 529.027 L
1642.882 529.025 L
1646.686 529.024 L
1650.491 529.022 L
1654.296 529.021 L
1658.101 529.02 L
1661.905 529.018 L
1665.71 529.017 L
1669.515 529.016 L
1673.32 529.015 L
1677.124 529.014 L
1680.929 529.013 L
1684.734 529.013 L
1688.538 529.012 L
1692.343 529.011 L
1696.148 529.01 L
1699.953 529.01 L
1703.757 529.009 L
1707.562 529.009 L
1711.367 529.008 L
1715.172 529.008 L
1718.976 529.007 L
1722.781 529.007 L
1726.586 529.006 L
1730.391 529.006 L
1734.195 529.006 L
1738 529.005 L
S
GR
GS
[0.75 0 0 0.75 0 -0.25] CT
1 GC
N
250 785.5 M
892 785.5 L
892 143.5 L
250 143.5 L
cp
f
GR
GS
[0.75 0 0 0.75 0 -0.25] CT
0.873 GC
1 LJ
0.667 LW
N
250 785.5 M
250 143.5 L
S
GR
GS
[0.75 0 0 0.75 0 -0.25] CT
0.873 GC
1 LJ
0.667 LW
N
357 785.5 M
357 143.5 L
S
GR
GS
[0.75 0 0 0.75 0 -0.25] CT
0.873 GC
1 LJ
0.667 LW
N
464 785.5 M
464 143.5 L
S
GR
GS
[0.75 0 0 0.75 0 -0.25] CT
0.873 GC
1 LJ
0.667 LW
N
571 785.5 M
571 143.5 L
S
GR
GS
[0.75 0 0 0.75 0 -0.25] CT
0.873 GC
1 LJ
0.667 LW
N
678 785.5 M
678 143.5 L
S
GR
GS
[0.75 0 0 0.75 0 -0.25] CT
0.873 GC
1 LJ
0.667 LW
N
785 785.5 M
785 143.5 L
S
GR
GS
[0.75 0 0 0.75 0 -0.25] CT
0.873 GC
1 LJ
0.667 LW
N
892 785.5 M
892 143.5 L
S
GR
GS
[0.75 0 0 0.75 0 -0.25] CT
0.873 GC
1 LJ
0.667 LW
N
892 785.5 M
250 785.5 L
S
GR
GS
[0.75 0 0 0.75 0 -0.25] CT
0.873 GC
1 LJ
0.667 LW
N
892 678.5 M
250 678.5 L
S
GR
GS
[0.75 0 0 0.75 0 -0.25] CT
0.873 GC
1 LJ
0.667 LW
N
892 571.5 M
250 571.5 L
S
GR
GS
[0.75 0 0 0.75 0 -0.25] CT
0.873 GC
1 LJ
0.667 LW
N
892 464.5 M
250 464.5 L
S
GR
GS
[0.75 0 0 0.75 0 -0.25] CT
0.873 GC
1 LJ
0.667 LW
N
892 357.5 M
250 357.5 L
S
GR
GS
[0.75 0 0 0.75 0 -0.25] CT
0.873 GC
1 LJ
0.667 LW
N
892 250.5 M
250 250.5 L
S
GR
GS
[0.75 0 0 0.75 0 -0.25] CT
0.873 GC
1 LJ
0.667 LW
N
892 143.5 M
250 143.5 L
S
GR
GS
[0.75 0 0 0.75 0 -0.25] CT
0.149 GC
2 setlinecap
1 LJ
0.667 LW
N
250 785.5 M
892 785.5 L
S
GR
GS
[0.75 0 0 0.75 0 -0.25] CT
0.149 GC
2 setlinecap
1 LJ
0.667 LW
N
250 785.5 M
250 779.08 L
S
GR
GS
[0.75 0 0 0.75 0 -0.25] CT
0.149 GC
2 setlinecap
1 LJ
0.667 LW
N
357 785.5 M
357 779.08 L
S
GR
GS
[0.75 0 0 0.75 0 -0.25] CT
0.149 GC
2 setlinecap
1 LJ
0.667 LW
N
464 785.5 M
464 779.08 L
S
GR
GS
[0.75 0 0 0.75 0 -0.25] CT
0.149 GC
2 setlinecap
1 LJ
0.667 LW
N
571 785.5 M
571 779.08 L
S
GR
GS
[0.75 0 0 0.75 0 -0.25] CT
0.149 GC
2 setlinecap
1 LJ
0.667 LW
N
678 785.5 M
678 779.08 L
S
GR
GS
[0.75 0 0 0.75 0 -0.25] CT
0.149 GC
2 setlinecap
1 LJ
0.667 LW
N
785 785.5 M
785 779.08 L
S
GR
GS
[0.75 0 0 0.75 0 -0.25] CT
0.149 GC
2 setlinecap
1 LJ
0.667 LW
N
892 785.5 M
892 779.08 L
S
GR
GS
[0.75 0 0 0.75 187.5 592.87498] CT
0.149 GC
/Helvetica 13.333 F
GS
[1 0 0 1 0 0] CT
-13.5 14 moveto 
1 -1 scale
(-200) t 
GR
GR
GS
[0.75 0 0 0.75 267.75 592.87498] CT
0.149 GC
/Helvetica 13.333 F
GS
[1 0 0 1 0 0] CT
-13.5 14 moveto 
1 -1 scale
(-100) t 
GR
GR
GS
[0.75 0 0 0.75 348 592.87498] CT
0.149 GC
/Helvetica 13.333 F
GS
[1 0 0 1 0 0] CT
-4 14 moveto 
1 -1 scale
(0) t 
GR
GR
GS
[0.75 0 0 0.75 428.25 592.87498] CT
0.149 GC
/Helvetica 13.333 F
GS
[1 0 0 1 0 0] CT
-11.5 14 moveto 
1 -1 scale
(100) t 
GR
GR
GS
[0.75 0 0 0.75 508.5 592.87498] CT
0.149 GC
/Helvetica 13.333 F
GS
[1 0 0 1 0 0] CT
-11.5 14 moveto 
1 -1 scale
(200) t 
GR
GR
GS
[0.75 0 0 0.75 588.75 592.87498] CT
0.149 GC
/Helvetica 13.333 F
GS
[1 0 0 1 0 0] CT
-11.5 14 moveto 
1 -1 scale
(300) t 
GR
GR
GS
[0.75 0 0 0.75 669 592.87498] CT
0.149 GC
/Helvetica 13.333 F
GS
[1 0 0 1 0 0] CT
-11.5 14 moveto 
1 -1 scale
(400) t 
GR
GR
GS
[0.75 0 0 0.75 0 -0.25] CT
0.149 GC
2 setlinecap
1 LJ
0.667 LW
N
250 785.5 M
250 143.5 L
S
GR
GS
[0.75 0 0 0.75 0 -0.25] CT
0.149 GC
2 setlinecap
1 LJ
0.667 LW
N
250 785.5 M
256.42 785.5 L
S
GR
GS
[0.75 0 0 0.75 0 -0.25] CT
0.149 GC
2 setlinecap
1 LJ
0.667 LW
N
250 678.5 M
256.42 678.5 L
S
GR
GS
[0.75 0 0 0.75 0 -0.25] CT
0.149 GC
2 setlinecap
1 LJ
0.667 LW
N
250 571.5 M
256.42 571.5 L
S
GR
GS
[0.75 0 0 0.75 0 -0.25] CT
0.149 GC
2 setlinecap
1 LJ
0.667 LW
N
250 464.5 M
256.42 464.5 L
S
GR
GS
[0.75 0 0 0.75 0 -0.25] CT
0.149 GC
2 setlinecap
1 LJ
0.667 LW
N
250 357.5 M
256.42 357.5 L
S
GR
GS
[0.75 0 0 0.75 0 -0.25] CT
0.149 GC
2 setlinecap
1 LJ
0.667 LW
N
250 250.5 M
256.42 250.5 L
S
GR
GS
[0.75 0 0 0.75 0 -0.25] CT
0.149 GC
2 setlinecap
1 LJ
0.667 LW
N
250 143.5 M
256.42 143.5 L
S
GR
GS
[0.75 0 0 0.75 183.5 588.875] CT
0.149 GC
/Helvetica 13.333 F
GS
[1 0 0 1 0 0] CT
-27 5.5 moveto 
1 -1 scale
(-200) t 
GR
GR
GS
[0.75 0 0 0.75 183.5 508.625] CT
0.149 GC
/Helvetica 13.333 F
GS
[1 0 0 1 0 0] CT
-27 5.5 moveto 
1 -1 scale
(-100) t 
GR
GR
GS
[0.75 0 0 0.75 183.5 428.375] CT
0.149 GC
/Helvetica 13.333 F
GS
[1 0 0 1 0 0] CT
-8 5.5 moveto 
1 -1 scale
(0) t 
GR
GR
GS
[0.75 0 0 0.75 183.5 348.125] CT
0.149 GC
/Helvetica 13.333 F
GS
[1 0 0 1 0 0] CT
-23 5.5 moveto 
1 -1 scale
(100) t 
GR
GR
GS
[0.75 0 0 0.75 183.5 267.875] CT
0.149 GC
/Helvetica 13.333 F
GS
[1 0 0 1 0 0] CT
-23 5.5 moveto 
1 -1 scale
(200) t 
GR
GR
GS
[0.75 0 0 0.75 183.5 187.625] CT
0.149 GC
/Helvetica 13.333 F
GS
[1 0 0 1 0 0] CT
-23 5.5 moveto 
1 -1 scale
(300) t 
GR
GR
GS
[0.75 0 0 0.75 183.5 107.375] CT
0.149 GC
/Helvetica 13.333 F
GS
[1 0 0 1 0 0] CT
-23 5.5 moveto 
1 -1 scale
(400) t 
GR
GR
GS
[0.75 0 0 0.75 428.25041 105.3125] CT
/Helvetica-Bold 14.667 F
GS
[1 0 0 1 0 0] CT
-43 -4 moveto 
1 -1 scale
(Robot arena) t 
GR
GR
GS
[0.75 0 0 0.75 588.75 187.625] CT
N
-6 -6 M
-6 6 L
6 6 L
6 -6 L
cp
f
GR
GS
[0.75 0 0 0.75 588.75 187.625] CT
10.0 ML
0.667 LW
N
-6 -6 M
-6 6 L
6 6 L
6 -6 L
cp
S
GR
GS
[0.75 0 0 0.75 267.75 508.625] CT
1 0 0 RC
N
6.667 0 M
6.667 -3.682 3.682 -6.667 0 -6.667 C
-3.682 -6.667 -6.667 -3.682 -6.667 0 C
-6.667 3.682 -3.682 6.667 0 6.667 C
3.682 6.667 6.667 3.682 6.667 0 C
cp
f
GR
GS
[0.75 0 0 0.75 267.75 508.625] CT
1 0 0 RC
N
0 -6.333 M
3.498 -6.333 6.333 -3.498 6.333 0 C
6.333 0 L
6.333 3.498 3.498 6.333 0 6.333 C
-3.498 6.333 -6.333 3.498 -6.333 0 C
-6.333 -3.498 -3.498 -6.333 0 -6.333 C
cp
0 -7 M
-3.866 -7 -7 -3.866 -7 0 C
-7 3.866 -3.866 7 0 7 C
3.866 7 7 3.866 7 0 C
7 0 L
7 -3.866 3.866 -7 0 -7 C
cp
f
GR
GS
[0.75 0 0 0.75 0 -0.25] CT
0 0.447 0.741 RC
1 LJ
2.667 LW
N
357.949 678.52 M
360.087 678.612 L
S
GR
GS
[0.75 0 0 0.75 268.46178 508.64029] CT
0.494 0.184 0.557 RC
N
0.5 0 M
0.5 0.276 0.276 0.5 0 0.5 C
-0.276 0.5 -0.5 0.276 -0.5 0 C
-0.5 -0.276 -0.276 -0.5 0 -0.5 C
0.276 -0.5 0.5 -0.276 0.5 0 C
cp
f
GR
GS
[0.75 0 0 0.75 0 -0.25] CT
0 0.447 0.741 RC
1 LJ
2.667 LW
N
358.889 678.582 M
361.021 678.77 L
S
GR
GS
[0.75 0 0 0.75 269.16712 508.68648] CT
0.302 0.745 0.933 RC
N
/f1188474679{0.5 0 M
0.5 0.276 0.276 0.5 0 0.5 C
-0.276 0.5 -0.5 0.276 -0.5 0 C
-0.5 -0.276 -0.276 -0.5 0 -0.5 C
0.276 -0.5 0.5 -0.276 0.5 0 C
cp}def
f1188474679
f
GR
GS
[0.75 0 0 0.75 0 -0.25] CT
0 0.447 0.741 RC
1 LJ
2.667 LW
N
359.819 678.686 M
361.94 678.974 L
S
GR
GS
[0.75 0 0 0.75 269.86452 508.76448] CT
0 0.447 0.741 RC
N
f1188474679
f
GR
GS
[0.75 0 0 0.75 0 -0.25] CT
0 0.447 0.741 RC
1 LJ
2.667 LW
N
360.736 678.833 M
362.84 679.225 L
S
GR
GS
[0.75 0 0 0.75 270.55197 508.87498] CT
0.929 0.694 0.125 RC
N
f1188474679
f
GR
GS
[0.75 0 0 0.75 0 -0.25] CT
0 0.447 0.741 RC
1 LJ
2.667 LW
N
361.637 679.025 M
363.718 679.523 L
S
GR
GS
[0.75 0 0 0.75 271.2274 509.01859] CT
0.467 0.675 0.188 RC
N
f1188474679
f
GR
GS
[0.75 0 0 0.75 0 -0.25] CT
0 0.447 0.741 RC
1 LJ
2.667 LW
N
362.519 679.261 M
364.57 679.869 L
S
GR
GS
[0.75 0 0 0.75 271.88903 509.19569] CT
0.635 0.078 0.184 RC
N
f1188474679
f
GR
GS
[0.75 0 0 0.75 0 -0.25] CT
0 0.447 0.741 RC
1 LJ
2.667 LW
N
363.38 679.542 M
365.395 680.262 L
S
GR
GS
[0.75 0 0 0.75 272.535 509.40659] CT
0.851 0.325 0.098 RC
N
f1188474679
f
GR
GS
[0.75 0 0 0.75 0 -0.25] CT
0 0.447 0.741 RC
1 LJ
2.667 LW
N
364.218 679.868 M
366.189 680.701 L
S
GR
GS
[0.75 0 0 0.75 273.16342 509.65131] CT
0.494 0.184 0.557 RC
N
f1188474679
f
GR
GS
[0.75 0 0 0.75 0 -0.25] CT
0 0.447 0.741 RC
1 LJ
2.667 LW
N
365.03 680.24 M
366.949 681.186 L
S
GR
GS
[0.75 0 0 0.75 273.77227 509.92967] CT
0.302 0.745 0.933 RC
N
f1188474679
f
GR
GS
[0.75 0 0 0.75 0 -0.25] CT
0 0.447 0.741 RC
1 LJ
2.667 LW
N
365.813 680.655 M
367.672 681.714 L
S
GR
GS
[0.75 0 0 0.75 274.3596 510.24136] CT
0 0.447 0.741 RC
N
f1188474679
f
GR
GS
[0.75 0 0 0.75 0 -0.25] CT
0 0.447 0.741 RC
1 LJ
2.667 LW
N
366.565 681.115 M
368.357 682.285 L
S
GR
GS
[0.75 0 0 0.75 274.92382 510.58592] CT
0.929 0.694 0.125 RC
N
f1188474679
f
GR
GS
[0.75 0 0 0.75 0 -0.25] CT
0 0.447 0.741 RC
1 LJ
2.667 LW
N
367.284 681.617 M
369 682.896 L
S
GR
GS
[0.75 0 0 0.75 275.4632 510.96271] CT
0.467 0.675 0.188 RC
N
f1188474679
f
GR
GS
[0.75 0 0 0.75 0 -0.25] CT
0 0.447 0.741 RC
1 LJ
2.667 LW
N
367.968 682.161 M
369.6 683.546 L
S
GR
GS
[0.75 0 0 0.75 275.97617 511.3709] CT
0.635 0.078 0.184 RC
N
f1188474679
f
GR
GS
[0.75 0 0 0.75 0 -0.25] CT
0 0.447 0.741 RC
1 LJ
2.667 LW
N
368.615 682.746 M
370.156 684.231 L
S
GR
GS
[0.75 0 0 0.75 276.46136 511.80957] CT
0.851 0.325 0.098 RC
N
f1188474679
f
GR
GS
[0.75 0 0 0.75 0 -0.25] CT
0 0.447 0.741 RC
1 LJ
2.667 LW
N
369.223 683.37 M
370.667 684.949 L
S
GR
GS
[0.75 0 0 0.75 276.91745 512.27763] CT
0.494 0.184 0.557 RC
N
f1188474679
f
GR
GS
[0.75 0 0 0.75 0 -0.25] CT
0 0.447 0.741 RC
1 LJ
2.667 LW
N
369.791 684.032 M
371.133 685.699 L
S
GR
GS
[0.75 0 0 0.75 277.34338 512.77403] CT
0.302 0.745 0.933 RC
N
f1188474679
f
GR
GS
[0.75 0 0 0.75 0 -0.25] CT
0 0.447 0.741 RC
1 LJ
2.667 LW
N
370.318 684.73 M
371.552 686.478 L
S
GR
GS
[0.75 0 0 0.75 277.73815 513.29744] CT
0 0.447 0.741 RC
N
f1188474679
f
GR
GS
[0.75 0 0 0.75 0 -0.25] CT
0 0.447 0.741 RC
1 LJ
2.667 LW
N
370.801 685.462 M
371.925 687.283 L
S
GR
GS
[0.75 0 0 0.75 278.10086 513.84644] CT
0.929 0.694 0.125 RC
N
f1188474679
f
GR
GS
[0.75 0 0 0.75 0 -0.25] CT
0 0.447 0.741 RC
1 LJ
2.667 LW
N
371.241 686.226 M
372.252 688.112 L
S
GR
GS
[0.75 0 0 0.75 278.43077 514.41951] CT
0.467 0.675 0.188 RC
N
f1188474679
f
GR
GS
[0.75 0 0 0.75 0 -0.25] CT
0 0.447 0.741 RC
1 LJ
2.667 LW
N
371.636 687.02 M
372.533 688.963 L
S
GR
GS
[0.75 0 0 0.75 278.72729 515.01492] CT
0.635 0.078 0.184 RC
N
f1188474679
f
GR
GS
[0.75 0 0 0.75 0 -0.25] CT
0 0.447 0.741 RC
1 LJ
2.667 LW
N
371.987 687.841 M
372.769 689.833 L
S
GR
GS
[0.75 0 0 0.75 278.99007 515.63112] CT
0.851 0.325 0.098 RC
N
f1188474679
f
GR
GS
[0.75 0 0 0.75 0 -0.25] CT
0 0.447 0.741 RC
1 LJ
2.667 LW
N
372.292 688.688 M
372.96 690.721 L
S
GR
GS
[0.75 0 0 0.75 279.21883 516.26613] CT
0.494 0.184 0.557 RC
N
f1188474679
f
GR
GS
[0.75 0 0 0.75 0 -0.25] CT
0 0.447 0.741 RC
1 LJ
2.667 LW
N
372.551 689.557 M
373.107 691.624 L
S
GR
GS
[0.75 0 0 0.75 279.4135 516.91798] CT
0.302 0.745 0.933 RC
N
f1188474679
f
GR
GS
[0.75 0 0 0.75 0 -0.25] CT
0 0.447 0.741 RC
1 LJ
2.667 LW
N
372.766 690.446 M
373.212 692.539 L
S
GR
GS
[0.75 0 0 0.75 279.57422 517.58481] CT
0 0.447 0.741 RC
N
f1188474679
f
GR
GS
[0.75 0 0 0.75 0 -0.25] CT
0 0.447 0.741 RC
1 LJ
2.667 LW
N
372.935 691.353 M
373.275 693.466 L
S
GR
GS
[0.75 0 0 0.75 279.70136 518.26491] CT
0.929 0.694 0.125 RC
N
f1188474679
f
GR
GS
[0.75 0 0 0.75 0 -0.25] CT
0 0.447 0.741 RC
1 LJ
2.667 LW
N
373.061 692.275 M
373.298 694.402 L
S
GR
GS
[0.75 0 0 0.75 279.79546 518.95631] CT
0.467 0.675 0.188 RC
N
f1188474679
f
GR
GS
[0.75 0 0 0.75 0 -0.25] CT
0 0.447 0.741 RC
1 LJ
2.667 LW
N
373.143 693.209 M
373.281 695.345 L
S
GR
GS
[0.75 0 0 0.75 279.85712 519.65701] CT
0.635 0.078 0.184 RC
N
f1188474679
f
GR
GS
[0.75 0 0 0.75 0 -0.25] CT
0 0.447 0.741 RC
1 LJ
2.667 LW
N
373.183 694.154 M
373.226 696.293 L
S
GR
GS
[0.75 0 0 0.75 279.88721 520.36517] CT
0.851 0.325 0.098 RC
N
f1188474679
f
GR
GS
[0.75 0 0 0.75 0 -0.25] CT
0 0.447 0.741 RC
1 LJ
2.667 LW
N
373.182 695.106 M
373.136 697.245 L
S
GR
GS
[0.75 0 0 0.75 279.88669 521.07915] CT
0.494 0.184 0.557 RC
N
f1188474679
f
GR
GS
[0.75 0 0 0.75 0 -0.25] CT
0 0.447 0.741 RC
1 LJ
2.667 LW
N
373.142 696.063 M
373.01 698.199 L
S
GR
GS
[0.75 0 0 0.75 279.85668 521.7972] CT
0.302 0.745 0.933 RC
N
f1188474679
f
GR
GS
[0.75 0 0 0.75 0 -0.25] CT
0 0.447 0.741 RC
1 LJ
2.667 LW
N
373.064 697.024 M
372.851 699.153 L
S
GR
GS
[0.75 0 0 0.75 279.79832 522.51781] CT
0 0.447 0.741 RC
N
f1188474679
f
GR
GS
[0.75 0 0 0.75 0 -0.25] CT
0 0.447 0.741 RC
1 LJ
2.667 LW
N
372.95 697.986 M
372.661 700.106 L
S
GR
GS
[0.75 0 0 0.75 279.71285 523.23943] CT
0.929 0.694 0.125 RC
N
f1188474679
f
GR
GS
[0.75 0 0 0.75 0 -0.25] CT
0 0.447 0.741 RC
1 LJ
2.667 LW
N
372.802 698.948 M
372.44 701.057 L
S
GR
GS
[0.75 0 0 0.75 279.60157 523.96109] CT
0.467 0.675 0.188 RC
N
f1188474679
f
GR
GS
[0.75 0 0 0.75 0 -0.25] CT
0 0.447 0.741 RC
1 LJ
2.667 LW
N
372.621 699.909 M
372.191 702.005 L
S
GR
GS
[0.75 0 0 0.75 279.46575 524.68184] CT
0.635 0.078 0.184 RC
N
f1188474679
f
GR
GS
[0.75 0 0 0.75 0 -0.25] CT
0 0.447 0.741 RC
1 LJ
2.667 LW
N
372.409 700.868 M
371.915 702.95 L
S
GR
GS
[0.75 0 0 0.75 279.30672 525.40067] CT
0.851 0.325 0.098 RC
N
f1188474679
f
GR
GS
[0.75 0 0 0.75 0 -0.25] CT
0 0.447 0.741 RC
1 LJ
2.667 LW
N
372.168 701.822 M
371.613 703.889 L
S
GR
GS
[0.75 0 0 0.75 279.12575 526.11679] CT
0.494 0.184 0.557 RC
N
f1188474679
f
GR
GS
[0.75 0 0 0.75 0 -0.25] CT
0 0.447 0.741 RC
1 LJ
2.667 LW
N
371.899 702.773 M
371.288 704.824 L
S
GR
GS
[0.75 0 0 0.75 278.92415 526.82948] CT
0.302 0.745 0.933 RC
N
f1188474679
f
GR
GS
[0.75 0 0 0.75 0 -0.25] CT
0 0.447 0.741 RC
1 LJ
2.667 LW
N
371.604 703.718 M
370.941 705.753 L
S
GR
GS
[0.75 0 0 0.75 278.70309 527.53851] CT
0 0.447 0.741 RC
N
f1188474679
f
GR
GS
[0.75 0 0 0.75 0 -0.25] CT
0 0.447 0.741 RC
1 LJ
2.667 LW
N
371.285 704.658 M
370.572 706.676 L
S
GR
GS
[0.75 0 0 0.75 278.46375 528.24342] CT
0.929 0.694 0.125 RC
N
f1188474679
f
GR
GS
[0.75 0 0 0.75 0 -0.25] CT
0 0.447 0.741 RC
1 LJ
2.667 LW
N
370.943 705.592 M
370.184 707.593 L
S
GR
GS
[0.75 0 0 0.75 278.20722 528.94403] CT
0.467 0.675 0.188 RC
N
f1188474679
f
GR
GS
[0.75 0 0 0.75 0 -0.25] CT
0 0.447 0.741 RC
1 LJ
2.667 LW
N
370.579 706.52 M
369.778 708.504 L
S
GR
GS
[0.75 0 0 0.75 277.93462 529.64011] CT
0.635 0.078 0.184 RC
N
f1188474679
f
GR
GS
[0.75 0 0 0.75 0 -0.25] CT
0 0.447 0.741 RC
1 LJ
2.667 LW
N
370.196 707.442 M
369.354 709.409 L
S
GR
GS
[0.75 0 0 0.75 277.64703 530.33138] CT
0.851 0.325 0.098 RC
N
f1188474679
f
GR
GS
[0.75 0 0 0.75 0 -0.25] CT
0 0.447 0.741 RC
1 LJ
2.667 LW
N
369.794 708.357 M
368.914 710.308 L
S
GR
GS
[0.75 0 0 0.75 277.34541 531.0177] CT
0.494 0.184 0.557 RC
N
f1188474679
f
GR
GS
[0.75 0 0 0.75 0 -0.25] CT
0 0.447 0.741 RC
1 LJ
2.667 LW
N
369.374 709.265 M
368.459 711.2 L
S
GR
GS
[0.75 0 0 0.75 277.03075 531.69894] CT
0.302 0.745 0.933 RC
N
f1188474679
f
GR
GS
[0.75 0 0 0.75 0 -0.25] CT
0 0.447 0.741 RC
1 LJ
2.667 LW
N
368.939 710.167 M
367.991 712.086 L
S
GR
GS
[0.75 0 0 0.75 276.7039 532.37515] CT
0 0.447 0.741 RC
N
f1188474679
f
GR
GS
[0.75 0 0 0.75 0 -0.25] CT
0 0.447 0.741 RC
1 LJ
2.667 LW
N
368.488 711.062 M
367.509 712.965 L
S
GR
GS
[0.75 0 0 0.75 276.36575 533.04623] CT
0.929 0.694 0.125 RC
N
f1188474679
f
GR
GS
[0.75 0 0 0.75 0 -0.25] CT
0 0.447 0.741 RC
1 LJ
2.667 LW
N
368.023 711.95 M
367.016 713.838 L
S
GR
GS
[0.75 0 0 0.75 276.01696 533.71233] CT
0.467 0.675 0.188 RC
N
f1188474679
f
GR
GS
[0.75 0 0 0.75 0 -0.25] CT
0 0.447 0.741 RC
1 LJ
2.667 LW
N
367.544 712.831 M
366.511 714.705 L
S
GR
GS
[0.75 0 0 0.75 275.65833 534.37352] CT
0.635 0.078 0.184 RC
N
f1188474679
f
GR
GS
[0.75 0 0 0.75 0 -0.25] CT
0 0.447 0.741 RC
1 LJ
2.667 LW
N
367.054 713.707 M
365.995 715.566 L
S
GR
GS
[0.75 0 0 0.75 275.29049 535.02991] CT
0.851 0.325 0.098 RC
N
f1188474679
f
GR
GS
[0.75 0 0 0.75 0 -0.25] CT
0 0.447 0.741 RC
1 LJ
2.667 LW
N
366.552 714.575 M
365.47 716.422 L
S
GR
GS
[0.75 0 0 0.75 274.91414 535.68158] CT
0.494 0.184 0.557 RC
N
f1188474679
f
GR
GS
[0.75 0 0 0.75 0 -0.25] CT
0 0.447 0.741 RC
1 LJ
2.667 LW
N
366.04 715.438 M
364.936 717.272 L
S
GR
GS
[0.75 0 0 0.75 274.52985 536.32863] CT
0.302 0.745 0.933 RC
N
f1188474679
f
GR
GS
[0.75 0 0 0.75 0 -0.25] CT
0 0.447 0.741 RC
1 LJ
2.667 LW
N
365.518 716.295 M
364.394 718.116 L
S
GR
GS
[0.75 0 0 0.75 274.13816 536.97119] CT
0 0.447 0.741 RC
N
f1188474679
f
GR
GS
[0.75 0 0 0.75 0 -0.25] CT
0 0.447 0.741 RC
1 LJ
2.667 LW
N
364.986 717.146 M
363.843 718.955 L
S
GR
GS
[0.75 0 0 0.75 273.73963 537.60941] CT
0.929 0.694 0.125 RC
N
f1188474679
f
GR
GS
[0.75 0 0 0.75 0 -0.25] CT
0 0.447 0.741 RC
1 LJ
2.667 LW
N
364.446 717.991 M
363.286 719.789 L
S
GR
GS
[0.75 0 0 0.75 273.33472 538.24341] CT
0.467 0.675 0.188 RC
N
f1188474679
f
GR
GS
[0.75 0 0 0.75 0 -0.25] CT
0 0.447 0.741 RC
1 LJ
2.667 LW
N
363.898 718.831 M
362.721 720.618 L
S
GR
GS
[0.75 0 0 0.75 272.92387 538.87334] CT
0.635 0.078 0.184 RC
N
f1188474679
f
GR
GS
[0.75 0 0 0.75 0 -0.25] CT
0 0.447 0.741 RC
1 LJ
2.667 LW
N
363.343 719.666 M
362.15 721.442 L
S
GR
GS
[0.75 0 0 0.75 272.50751 539.49933] CT
0.851 0.325 0.098 RC
N
f1188474679
f
GR
GS
[0.75 0 0 0.75 0 -0.25] CT
0 0.447 0.741 RC
1 LJ
2.667 LW
N
362.781 720.495 M
361.574 722.262 L
S
GR
GS
[0.75 0 0 0.75 272.08605 540.12148] CT
0.494 0.184 0.557 RC
N
f1188474679
f
GR
GS
[0.75 0 0 0.75 0 -0.25] CT
0 0.447 0.741 RC
1 LJ
2.667 LW
N
362.213 721.32 M
360.992 723.077 L
S
GR
GS
[0.75 0 0 0.75 271.65983 540.74001] CT
0.302 0.745 0.933 RC
N
f1188474679
f
GR
GS
[0.75 0 0 0.75 0 -0.25] CT
0 0.447 0.741 RC
1 LJ
2.667 LW
N
361.639 722.14 M
360.405 723.888 L
S
GR
GS
[0.75 0 0 0.75 271.22921 541.35497] CT
0 0.447 0.741 RC
N
f1188474679
f
GR
GS
[0.75 0 0 0.75 0 -0.25] CT
0 0.447 0.741 RC
1 LJ
2.667 LW
N
361.059 722.955 M
359.813 724.695 L
S
GR
GS
[0.75 0 0 0.75 270.79447 541.96658] CT
0.929 0.694 0.125 RC
N
f1188474679
f
GR
GS
[0.75 0 0 0.75 0 -0.25] CT
0 0.447 0.741 RC
1 LJ
2.667 LW
N
360.475 723.767 M
359.218 725.498 L
S
GR
GS
[0.75 0 0 0.75 270.35591 542.57491] CT
0.467 0.675 0.188 RC
N
f1188474679
f
GR
GS
[0.75 0 0 0.75 0 -0.25] CT
0 0.447 0.741 RC
1 LJ
2.667 LW
N
359.885 724.574 M
358.618 726.298 L
S
GR
GS
[0.75 0 0 0.75 269.91378 543.18021] CT
0.635 0.078 0.184 RC
N
f1188474679
f
GR
GS
[0.75 0 0 0.75 0 -0.25] CT
0 0.447 0.741 RC
1 LJ
2.667 LW
N
359.291 725.377 M
358.014 727.094 L
S
GR
GS
[0.75 0 0 0.75 269.46838 543.78253] CT
0.851 0.325 0.098 RC
N
f1188474679
f
GR
GS
[0.75 0 0 0.75 0 -0.25] CT
0 0.447 0.741 RC
1 LJ
2.667 LW
N
358.693 726.176 M
357.407 727.886 L
S
GR
GS
[0.75 0 0 0.75 269.01988 544.38206] CT
0.494 0.184 0.557 RC
N
f1188474679
f
GR
GS
[0.75 0 0 0.75 0 -0.25] CT
0 0.447 0.741 RC
1 LJ
2.667 LW
N
358.091 726.972 M
356.796 728.675 L
S
GR
GS
[0.75 0 0 0.75 268.56857 544.97885] CT
0.302 0.745 0.933 RC
N
f1188474679
f
GR
GS
[0.75 0 0 0.75 0 -0.25] CT
0 0.447 0.741 RC
1 LJ
2.667 LW
N
357.486 727.764 M
356.183 729.462 L
S
GR
GS
[0.75 0 0 0.75 268.11463 545.57307] CT
0 0.447 0.741 RC
N
f1188474679
f
GR
GS
[0.75 0 0 0.75 0 -0.25] CT
0 0.447 0.741 RC
1 LJ
2.667 LW
N
356.878 728.553 M
355.567 730.245 L
S
GR
GS
[0.75 0 0 0.75 267.65826 546.16483] CT
0.929 0.694 0.125 RC
N
f1188474679
f
GR
GS
[0.75 0 0 0.75 0 -0.25] CT
0 0.447 0.741 RC
1 LJ
2.667 LW
N
356.266 729.339 M
354.948 731.025 L
S
GR
GS
[0.75 0 0 0.75 267.19963 546.75415] CT
0.467 0.675 0.188 RC
N
f1188474679
f
GR
GS
[0.75 0 0 0.75 0 -0.25] CT
0 0.447 0.741 RC
1 LJ
2.667 LW
N
355.652 730.122 M
354.328 731.803 L
S
GR
GS
[0.75 0 0 0.75 266.73896 547.34128] CT
0.635 0.078 0.184 RC
N
f1188474679
f
GR
GS
[0.75 0 0 0.75 0 -0.25] CT
0 0.447 0.741 RC
1 LJ
2.667 LW
N
355.035 730.902 M
353.705 732.578 L
S
GR
GS
[0.75 0 0 0.75 266.27634 547.92621] CT
0.851 0.325 0.098 RC
N
f1188474679
f
GR
GS
[0.75 0 0 0.75 0 -0.25] CT
0 0.447 0.741 RC
1 LJ
2.667 LW
N
354.416 731.679 M
353.08 733.35 L
S
GR
GS
[0.75 0 0 0.75 265.81197 548.50903] CT
0.494 0.184 0.557 RC
N
f1188474679
f
GR
GS
[0.75 0 0 0.75 0 -0.25] CT
0 0.447 0.741 RC
1 LJ
2.667 LW
N
353.795 732.453 M
352.453 734.12 L
S
GR
GS
[0.75 0 0 0.75 265.34596 549.08989] CT
0.302 0.745 0.933 RC
N
f1188474679
f
GR
GS
[0.75 0 0 0.75 0 -0.25] CT
0 0.447 0.741 RC
1 LJ
2.667 LW
N
353.171 733.225 M
351.824 734.888 L
S
GR
GS
[0.75 0 0 0.75 264.87845 549.66882] CT
0 0.447 0.741 RC
N
f1188474679
f
GR
GS
[0.75 0 0 0.75 0 -0.25] CT
0 0.447 0.741 RC
1 LJ
2.667 LW
N
352.546 733.995 M
351.194 735.654 L
S
GR
GS
[0.75 0 0 0.75 264.40956 550.24597] CT
0.929 0.694 0.125 RC
N
f1188474679
f
GR
GS
[0.75 0 0 0.75 0 -0.25] CT
0 0.447 0.741 RC
1 LJ
2.667 LW
N
351.919 734.762 M
350.563 736.417 L
S
GR
GS
[0.75 0 0 0.75 263.93939 550.82133] CT
0.467 0.675 0.188 RC
N
f1188474679
f
GR
GS
[0.75 0 0 0.75 0 -0.25] CT
0 0.447 0.741 RC
1 LJ
2.667 LW
N
351.291 735.527 M
349.93 737.179 L
S
GR
GS
[0.75 0 0 0.75 263.46806 551.3951] CT
0.635 0.078 0.184 RC
N
f1188474679
f
GR
GS
[0.75 0 0 0.75 0 -0.25] CT
0 0.447 0.741 RC
1 LJ
2.667 LW
N
350.661 736.29 M
349.296 737.938 L
S
GR
GS
[0.75 0 0 0.75 262.99562 551.96721] CT
0.851 0.325 0.098 RC
N
f1188474679
f
GR
GS
[0.75 0 0 0.75 0 -0.25] CT
0 0.447 0.741 RC
1 LJ
2.667 LW
N
350.03 737.05 M
348.661 738.696 L
S
GR
GS
[0.75 0 0 0.75 262.52222 552.53786] CT
0.494 0.184 0.557 RC
N
f1188474679
f
GR
GS
[0.75 0 0 0.75 0 -0.25] CT
0 0.447 0.741 RC
1 LJ
2.667 LW
N
349.397 737.809 M
348.026 739.452 L
S
GR
GS
[0.75 0 0 0.75 262.04791 553.10699] CT
0.302 0.745 0.933 RC
N
f1188474679
f
GR
GS
[0.75 0 0 0.75 0 -0.25] CT
0 0.447 0.741 RC
1 LJ
2.667 LW
N
348.764 738.566 M
347.389 740.206 L
S
GR
GS
[0.75 0 0 0.75 261.5728 553.67476] CT
0 0.447 0.741 RC
N
f1188474679
f
GR
GS
[0.75 0 0 0.75 0 -0.25] CT
0 0.447 0.741 RC
1 LJ
2.667 LW
N
348.129 739.322 M
346.751 740.959 L
S
GR
GS
[0.75 0 0 0.75 261.09695 554.2412] CT
0.929 0.694 0.125 RC
N
f1188474679
f
GR
GS
[0.75 0 0 0.75 0 -0.25] CT
0 0.447 0.741 RC
1 LJ
2.667 LW
N
347.494 740.075 M
346.113 741.71 L
S
GR
GS
[0.75 0 0 0.75 260.62045 554.8063] CT
0.467 0.675 0.188 RC
N
f1188474679
f
GR
GS
[0.75 0 0 0.75 0 -0.25] CT
0 0.447 0.741 RC
1 LJ
2.667 LW
N
346.858 740.827 M
345.474 742.459 L
S
GR
GS
[0.75 0 0 0.75 260.14334 555.37018] CT
0.635 0.078 0.184 RC
N
f1188474679
f
GR
GS
[0.75 0 0 0.75 0 -0.25] CT
0 0.447 0.741 RC
1 LJ
2.667 LW
N
346.221 741.577 M
344.835 743.208 L
S
GR
GS
[0.75 0 0 0.75 259.66569 555.93286] CT
0.851 0.325 0.098 RC
N
f1188474679
f
GR
GS
[0.75 0 0 0.75 0 -0.25] CT
0 0.447 0.741 RC
1 LJ
2.667 LW
N
345.583 742.326 M
344.195 743.954 L
S
GR
GS
[0.75 0 0 0.75 259.18758 556.4944] CT
0.494 0.184 0.557 RC
N
f1188474679
f
GR
GS
[0.75 0 0 0.75 0 -0.25] CT
0 0.447 0.741 RC
1 LJ
2.667 LW
N
344.945 743.073 M
343.555 744.7 L
S
GR
GS
[0.75 0 0 0.75 258.70903 557.05484] CT
0.302 0.745 0.933 RC
N
f1188474679
f
GR
GS
[0.75 0 0 0.75 0 -0.25] CT
0 0.447 0.741 RC
1 LJ
2.667 LW
N
344.307 743.819 M
342.914 745.444 L
S
GR
GS
[0.75 0 0 0.75 258.23012 557.61423] CT
0 0.447 0.741 RC
N
f1188474679
f
GR
GS
[0.75 0 0 0.75 0 -0.25] CT
0 0.447 0.741 RC
1 LJ
2.667 LW
N
343.668 744.563 M
342.273 746.186 L
S
GR
GS
[0.75 0 0 0.75 257.75089 558.17252] CT
0.929 0.694 0.125 RC
N
f1188474679
f
GR
GS
[0.75 0 0 0.75 0 -0.25] CT
0 0.447 0.741 RC
1 LJ
2.667 LW
N
343.029 745.307 M
341.632 746.928 L
S
GR
GS
[0.75 0 0 0.75 257.27138 558.72989] CT
0.467 0.675 0.188 RC
N
f1188474679
f
GR
GS
[0.75 0 0 0.75 0 -0.25] CT
0 0.447 0.741 RC
1 LJ
2.667 LW
N
342.389 746.048 M
340.99 747.668 L
S
GR
GS
[0.75 0 0 0.75 256.79162 559.28625] CT
0.635 0.078 0.184 RC
N
f1188474679
f
GR
GS
[0.75 0 0 0.75 0 -0.25] CT
0 0.447 0.741 RC
1 LJ
2.667 LW
N
341.749 746.789 M
340.349 748.407 L
S
GR
GS
[0.75 0 0 0.75 256.31168 559.84166] CT
0.851 0.325 0.098 RC
N
f1188474679
f
GR
GS
[0.75 0 0 0.75 0 -0.25] CT
0 0.447 0.741 RC
1 LJ
2.667 LW
N
341.109 747.528 M
339.707 749.146 L
S
GR
GS
[0.75 0 0 0.75 255.83157 560.39619] CT
0.494 0.184 0.557 RC
N
f1188474679
f
GR
GS
[0.75 0 0 0.75 0 -0.25] CT
0 0.447 0.741 RC
1 LJ
2.667 LW
N
340.468 748.266 M
339.066 749.883 L
S
GR
GS
[0.75 0 0 0.75 255.35136 560.94986] CT
0.302 0.745 0.933 RC
N
f1188474679
f
GR
GS
[0.75 0 0 0.75 0 -0.25] CT
0 0.447 0.741 RC
1 LJ
2.667 LW
N
339.828 749.004 M
338.424 750.618 L
S
GR
GS
[0.75 0 0 0.75 254.87103 561.50266] CT
0 0.447 0.741 RC
N
f1188474679
f
GR
GS
[0.75 0 0 0.75 0 -0.25] CT
0 0.447 0.741 RC
1 LJ
2.667 LW
N
339.188 749.74 M
337.782 751.353 L
S
GR
GS
[0.75 0 0 0.75 254.39065 562.05467] CT
0.929 0.694 0.125 RC
N
f1188474679
f
GR
GS
[0.75 0 0 0.75 0 -0.25] CT
0 0.447 0.741 RC
1 LJ
2.667 LW
N
338.547 750.474 M
337.14 752.087 L
S
GR
GS
[0.75 0 0 0.75 253.91022 562.60582] CT
0.467 0.675 0.188 RC
N
f1188474679
f
GR
GS
[0.75 0 0 0.75 0 -0.25] CT
0 0.447 0.741 RC
1 LJ
2.667 LW
N
337.906 751.208 M
336.499 752.82 L
S
GR
GS
[0.75 0 0 0.75 253.4298 563.15623] CT
0.635 0.078 0.184 RC
N
f1188474679
f
GR
GS
[0.75 0 0 0.75 0 -0.25] CT
0 0.447 0.741 RC
1 LJ
2.667 LW
N
337.266 751.941 M
335.857 753.552 L
S
GR
GS
[0.75 0 0 0.75 252.9494 563.70587] CT
0.851 0.325 0.098 RC
N
f1188474679
f
GR
GS
[0.75 0 0 0.75 0 -0.25] CT
0 0.447 0.741 RC
1 LJ
2.667 LW
N
336.625 752.673 M
335.216 754.283 L
S
GR
GS
[0.75 0 0 0.75 252.46902 564.25478] CT
0.494 0.184 0.557 RC
N
f1188474679
f
GR
GS
[0.75 0 0 0.75 0 -0.25] CT
0 0.447 0.741 RC
1 LJ
2.667 LW
N
335.985 753.404 M
334.574 755.013 L
S
GR
GS
[0.75 0 0 0.75 251.98874 564.80295] CT
0.302 0.745 0.933 RC
N
f1188474679
f
GR
GS
[0.75 0 0 0.75 0 -0.25] CT
0 0.447 0.741 RC
1 LJ
2.667 LW
N
335.345 754.134 M
333.933 755.742 L
S
GR
GS
[0.75 0 0 0.75 251.5085 565.35043] CT
0 0.447 0.741 RC
N
f1188474679
f
GR
GS
[0.75 0 0 0.75 0 -0.25] CT
0 0.447 0.741 RC
1 LJ
2.667 LW
N
334.705 754.863 M
333.292 756.471 L
S
GR
GS
[0.75 0 0 0.75 251.0284 565.89719] CT
0.929 0.694 0.125 RC
N
f1188474679
f
GR
GS
[0.75 0 0 0.75 0 -0.25] CT
0 0.447 0.741 RC
1 LJ
2.667 LW
N
334.065 755.591 M
332.651 757.198 L
S
GR
GS
[0.75 0 0 0.75 250.54839 566.4433] CT
0.467 0.675 0.188 RC
N
f1188474679
f
GR
GS
[0.75 0 0 0.75 0 -0.25] CT
0 0.447 0.741 RC
1 LJ
2.667 LW
N
333.425 756.318 M
332.011 757.925 L
S
GR
GS
[0.75 0 0 0.75 250.06853 566.98877] CT
0.635 0.078 0.184 RC
N
f1188474679
f
GR
GS
[0.75 0 0 0.75 0 -0.25] CT
0 0.447 0.741 RC
1 LJ
2.667 LW
N
332.785 757.045 M
331.371 758.651 L
S
GR
GS
[0.75 0 0 0.75 249.58884 567.53355] CT
0.851 0.325 0.098 RC
N
f1188474679
f
GR
GS
[0.75 0 0 0.75 0 -0.25] CT
0 0.447 0.741 RC
1 LJ
2.667 LW
N
332.146 757.77 M
330.731 759.376 L
S
GR
GS
[0.75 0 0 0.75 249.10929 568.0777] CT
0.494 0.184 0.557 RC
N
f1188474679
f
GR
GS
[0.75 0 0 0.75 0 -0.25] CT
0 0.447 0.741 RC
1 LJ
2.667 LW
N
331.507 758.495 M
330.091 760.1 L
S
GR
GS
[0.75 0 0 0.75 248.62994 568.62125] CT
0.302 0.745 0.933 RC
N
f1188474679
f
GR
GS
[0.75 0 0 0.75 0 -0.25] CT
0 0.447 0.741 RC
1 LJ
2.667 LW
N
330.868 759.219 M
329.451 760.823 L
S
GR
GS
[0.75 0 0 0.75 248.15078 569.1642] CT
0 0.447 0.741 RC
N
f1188474679
f
GR
GS
[0.75 0 0 0.75 0 -0.25] CT
0 0.447 0.741 RC
1 LJ
2.667 LW
N
330.229 759.942 M
328.812 761.546 L
S
GR
GS
[0.75 0 0 0.75 247.67182 569.70651] CT
0.929 0.694 0.125 RC
N
f1188474679
f
GR
GS
[0.75 0 0 0.75 0 -0.25] CT
0 0.447 0.741 RC
1 LJ
2.667 LW
N
329.591 760.664 M
328.173 762.268 L
S
GR
GS
[0.75 0 0 0.75 247.19309 570.24823] CT
0.467 0.675 0.188 RC
N
f1188474679
f
GR
GS
[0.75 0 0 0.75 0 -0.25] CT
0 0.447 0.741 RC
1 LJ
2.667 LW
N
328.953 761.386 M
327.535 762.989 L
S
GR
GS
[0.75 0 0 0.75 246.71459 570.7894] CT
0.635 0.078 0.184 RC
N
f1188474679
f
GR
GS
[0.75 0 0 0.75 0 -0.25] CT
0 0.447 0.741 RC
1 LJ
2.667 LW
N
328.315 762.107 M
326.897 763.709 L
S
GR
GS
[0.75 0 0 0.75 246.23632 571.32997] CT
0.851 0.325 0.098 RC
N
f1188474679
f
GR
GS
[0.75 0 0 0.75 0 -0.25] CT
0 0.447 0.741 RC
1 LJ
2.667 LW
N
327.678 762.827 M
326.259 764.429 L
S
GR
GS
[0.75 0 0 0.75 245.75832 571.87] CT
0.494 0.184 0.557 RC
N
f1188474679
f
GR
GS
[0.75 0 0 0.75 0 -0.25] CT
0 0.447 0.741 RC
1 LJ
2.667 LW
N
327.041 763.546 M
325.622 765.148 L
S
GR
GS
[0.75 0 0 0.75 245.28056 572.40942] CT
0.302 0.745 0.933 RC
N
f1188474679
f
GR
GS
[0.75 0 0 0.75 0 -0.25] CT
0 0.447 0.741 RC
1 LJ
2.667 LW
N
326.404 764.264 M
324.985 765.866 L
S
GR
GS
[0.75 0 0 0.75 244.80309 572.94835] CT
0 0.447 0.741 RC
N
f1188474679
f
GR
GS
[0.75 0 0 0.75 0 -0.25] CT
0 0.447 0.741 RC
1 LJ
2.667 LW
N
325.768 764.982 M
324.348 766.583 L
S
GR
GS
[0.75 0 0 0.75 244.32587 573.48668] CT
0.929 0.694 0.125 RC
N
f1188474679
f
GR
GS
[0.75 0 0 0.75 0 -0.25] CT
0 0.447 0.741 RC
1 LJ
2.667 LW
N
325.132 765.699 M
323.712 767.3 L
S
GR
GS
[0.75 0 0 0.75 243.84892 574.02451] CT
0.467 0.675 0.188 RC
N
f1188474679
f
GR
GS
[0.75 0 0 0.75 0 -0.25] CT
0 0.447 0.741 RC
1 LJ
2.667 LW
N
324.496 766.416 M
323.076 768.016 L
S
GR
GS
[0.75 0 0 0.75 243.37228 574.56178] CT
0.635 0.078 0.184 RC
N
f1188474679
f
GR
GS
[0.75 0 0 0.75 0 -0.25] CT
0 0.447 0.741 RC
1 LJ
2.667 LW
N
323.861 767.131 M
322.441 768.732 L
S
GR
GS
[0.75 0 0 0.75 242.89593 575.09856] CT
0.851 0.325 0.098 RC
N
f1188474679
f
GR
GS
[0.75 0 0 0.75 0 -0.25] CT
0 0.447 0.741 RC
1 LJ
2.667 LW
N
323.227 767.846 M
321.806 769.447 L
S
GR
GS
[0.75 0 0 0.75 242.41988 575.63478] CT
0.494 0.184 0.557 RC
N
f1188474679
f
GR
GS
[0.75 0 0 0.75 0 -0.25] CT
0 0.447 0.741 RC
1 LJ
2.667 LW
N
322.592 768.561 M
321.171 770.161 L
S
GR
GS
[0.75 0 0 0.75 241.94412 576.1705] CT
0.302 0.745 0.933 RC
N
f1188474679
f
GR
GS
[0.75 0 0 0.75 0 -0.25] CT
0 0.447 0.741 RC
1 LJ
2.667 LW
N
321.958 769.274 M
320.537 770.874 L
S
GR
GS
[0.75 0 0 0.75 241.46871 576.70572] CT
0 0.447 0.741 RC
N
f1188474679
f
GR
GS
[0.75 0 0 0.75 0 -0.25] CT
0 0.447 0.741 RC
1 LJ
2.667 LW
N
321.325 769.987 M
319.903 771.587 L
S
GR
GS
[0.75 0 0 0.75 240.9936 577.24039] CT
0.929 0.694 0.125 RC
N
f1188474679
f
GR
GS
[0.75 0 0 0.75 0 -0.25] CT
0 0.447 0.741 RC
1 LJ
2.667 LW
N
320.692 770.699 M
319.27 772.299 L
S
GR
GS
[0.75 0 0 0.75 240.51881 577.7746] CT
0.467 0.675 0.188 RC
N
f1188474679
f
GR
GS
[0.75 0 0 0.75 0 -0.25] CT
0 0.447 0.741 RC
1 LJ
2.667 LW
N
320.059 771.411 M
318.637 773.01 L
S
GR
GS
[0.75 0 0 0.75 240.04433 578.30826] CT
0.635 0.078 0.184 RC
N
f1188474679
f
GR
GS
[0.75 0 0 0.75 0 -0.25] CT
0 0.447 0.741 RC
1 LJ
2.667 LW
N
319.427 772.122 M
318.005 773.721 L
S
GR
GS
[0.75 0 0 0.75 239.57021 578.84146] CT
0.851 0.325 0.098 RC
N
f1188474679
f
GR
GS
[0.75 0 0 0.75 0 -0.25] CT
0 0.447 0.741 RC
1 LJ
2.667 LW
N
318.795 772.832 M
317.373 774.431 L
S
GR
GS
[0.75 0 0 0.75 239.09642 579.37416] CT
0.494 0.184 0.557 RC
N
f1188474679
f
GR
GS
[0.75 0 0 0.75 0 -0.25] CT
0 0.447 0.741 RC
1 LJ
2.667 LW
N
318.164 773.542 M
316.741 775.141 L
S
GR
GS
[0.75 0 0 0.75 238.62296 579.9064] CT
0.302 0.745 0.933 RC
N
f1188474679
f
GR
GS
[0.75 0 0 0.75 0 -0.25] CT
0 0.447 0.741 RC
1 LJ
2.667 LW
N
317.533 774.251 M
316.111 775.849 L
S
GR
GS
[0.75 0 0 0.75 238.14983 580.4381] CT
0 0.447 0.741 RC
N
f1188474679
f
GR
GS
[0.75 0 0 0.75 0 -0.25] CT
0 0.447 0.741 RC
1 LJ
2.667 LW
N
316.903 774.959 M
315.48 776.558 L
S
GR
GS
[0.75 0 0 0.75 237.67708 580.96933] CT
0.929 0.694 0.125 RC
N
f1188474679
f
GR
GS
[0.75 0 0 0.75 0 -0.25] CT
0 0.447 0.741 RC
1 LJ
2.667 LW
N
316.273 775.667 M
314.85 777.265 L
S
GR
GS
[0.75 0 0 0.75 237.20464 581.50011] CT
0.467 0.675 0.188 RC
N
f1188474679
f
GR
GS
[0.75 0 0 0.75 0 -0.25] CT
0 0.447 0.741 RC
1 LJ
2.667 LW
N
315.643 776.374 M
314.22 777.972 L
S
GR
GS
[0.75 0 0 0.75 236.73255 582.03038] CT
0.635 0.078 0.184 RC
N
f1188474679
f
GR
GS
[0.75 0 0 0.75 0 -0.25] CT
0 0.447 0.741 RC
1 LJ
2.667 LW
N
315.014 777.08 M
313.591 778.678 L
S
GR
GS
[0.75 0 0 0.75 236.26085 582.5602] CT
0.851 0.325 0.098 RC
N
f1188474679
f
GR
GS
[0.75 0 0 0.75 0 -0.25] CT
0 0.447 0.741 RC
1 LJ
2.667 LW
N
314.386 777.786 M
312.963 779.384 L
S
GR
GS
[0.75 0 0 0.75 235.78947 583.08951] CT
0.494 0.184 0.557 RC
N
f1188474679
f
GR
GS
[0.75 0 0 0.75 0 -0.25] CT
0 0.447 0.741 RC
1 LJ
2.667 LW
N
313.758 778.491 M
312.335 780.089 L
S
GR
GS
[0.75 0 0 0.75 235.31845 583.61836] CT
0.302 0.745 0.933 RC
N
f1188474679
f
GR
GS
[0.75 0 0 0.75 0 -0.25] CT
0 0.447 0.741 RC
1 LJ
2.667 LW
N
313.13 779.196 M
311.707 780.794 L
S
GR
GS
[0.75 0 0 0.75 234.84782 584.14676] CT
0 0.447 0.741 RC
N
f1188474679
f
GR
GS
[0.75 0 0 0.75 0 -0.25] CT
0 0.447 0.741 RC
1 LJ
2.667 LW
N
312.503 779.9 M
311.08 781.497 L
S
GR
GS
[0.75 0 0 0.75 234.37754 584.67465] CT
0.929 0.694 0.125 RC
N
f1188474679
f
GR
GS
[0.75 0 0 0.75 0 -0.25] CT
0 0.447 0.741 RC
1 LJ
2.667 LW
N
311.877 780.603 M
310.453 782.201 L
S
GR
GS
[0.75 0 0 0.75 233.90762 585.20209] CT
0.467 0.675 0.188 RC
N
f1188474679
f
GR
GS
[0.75 0 0 0.75 0 -0.25] CT
0 0.447 0.741 RC
1 LJ
2.667 LW
N
311.251 781.305 M
309.827 782.903 L
S
GR
GS
[0.75 0 0 0.75 233.43807 585.72906] CT
0.635 0.078 0.184 RC
N
f1188474679
f
GR
GS
[0.75 0 0 0.75 0 -0.25] CT
0 0.447 0.741 RC
1 LJ
2.667 LW
N
310.625 782.007 M
309.201 783.605 L
S
GR
GS
[0.75 0 0 0.75 232.96889 586.25558] CT
0.851 0.325 0.098 RC
N
f1188474679
f
GR
GS
[0.75 0 0 0.75 0 -0.25] CT
0 0.447 0.741 RC
1 LJ
2.667 LW
N
310 782.709 M
308.576 784.306 L
S
GR
GS
[0.75 0 0 0.75 232.50007 586.78165] CT
0.494 0.184 0.557 RC
N
f1188474679
f
GR
GS
[0.75 0 0 0.75 0 -0.25] CT
0 0.447 0.741 RC
1 LJ
2.667 LW
N
309.375 783.41 M
307.952 785.007 L
S
GR
GS
[0.75 0 0 0.75 232.03162 587.30721] CT
0.302 0.745 0.933 RC
N
f1188474679
f
GR
GS
[0.75 0 0 0.75 0 -0.25] CT
0 0.447 0.741 RC
1 LJ
2.667 LW
N
308.751 784.11 M
307.444 785.577 L
S
GR
GS
[0.75 0 0 0.75 231.56353 587.83235] CT
0 0.447 0.741 RC
N
f1188474679
f
GR
GS
[0.75 0 0 0.75 0 -0.25] CT
0 0.447 0.741 RC
1 LJ
2.667 LW
N
308.128 784.809 M
307.444 785.577 L
S
GR
GS
[0.75 0 0 0.75 231.09586 588.35699] CT
0.929 0.694 0.125 RC
N
f1188474679
f
GR
GS
[0.75 0 0 0.75 0 -0.25] CT
0 0.447 0.741 RC
1 LJ
2.667 LW
N
307.505 785.508 M
307.444 785.577 L
S
GR
GS
[0.75 0 0 0.75 230.62852 588.88123] CT
0.467 0.675 0.188 RC
N
f1188474679
f
GR
%%Trailer
%%Pages: 1
%%EOF
