%!PS-Adobe-3.0 EPSF-3.0
%%Creator: (MATLAB, The Mathworks, Inc. Version 9.9.0.1592791 \(R2020b\) Update 5. Operating System: Windows 10)
%%Title: (C:/Users/marti/Documents/GitHub/bio-inspired-autonomous-systems/Assignment 02 - Braitenberg Vehicle/figures/freq_amp_diff_lr.eps)
%%CreationDate: 2021-03-23T11:48:31
%%Pages: (atend)
%%BoundingBox:     0     0   420   315
%%LanguageLevel: 3
%%EndComments
%%BeginProlog
%%BeginResource: procset (Apache XML Graphics Std ProcSet) 1.2 0
%%Version: 1.2 0
%%Copyright: (Copyright 2001-2003,2010 The Apache Software Foundation. License terms: http://www.apache.org/licenses/LICENSE-2.0)
/bd{bind def}bind def
/ld{load def}bd
/GR/grestore ld
/GS/gsave ld
/RM/rmoveto ld
/C/curveto ld
/t/show ld
/L/lineto ld
/ML/setmiterlimit ld
/CT/concat ld
/f/fill ld
/N/newpath ld
/S/stroke ld
/CC/setcmykcolor ld
/A/ashow ld
/cp/closepath ld
/RC/setrgbcolor ld
/LJ/setlinejoin ld
/GC/setgray ld
/LW/setlinewidth ld
/M/moveto ld
/re {4 2 roll M
1 index 0 rlineto
0 exch rlineto
neg 0 rlineto
cp } bd
/_ctm matrix def
/_tm matrix def
/BT { _ctm currentmatrix pop matrix _tm copy pop 0 0 moveto } bd
/ET { _ctm setmatrix } bd
/iTm { _ctm setmatrix _tm concat } bd
/Tm { _tm astore pop iTm 0 0 moveto } bd
/ux 0.0 def
/uy 0.0 def
/F {
  /Tp exch def
  /Tf exch def
  Tf findfont Tp scalefont setfont
  /cf Tf def  /cs Tp def
} bd
/ULS {currentpoint /uy exch def /ux exch def} bd
/ULE {
  /Tcx currentpoint pop def
  gsave
  newpath
  cf findfont cs scalefont dup
  /FontMatrix get 0 get /Ts exch def /FontInfo get dup
  /UnderlinePosition get Ts mul /To exch def
  /UnderlineThickness get Ts mul /Tt exch def
  ux uy To add moveto  Tcx uy To add lineto
  Tt setlinewidth stroke
  grestore
} bd
/OLE {
  /Tcx currentpoint pop def
  gsave
  newpath
  cf findfont cs scalefont dup
  /FontMatrix get 0 get /Ts exch def /FontInfo get dup
  /UnderlinePosition get Ts mul /To exch def
  /UnderlineThickness get Ts mul /Tt exch def
  ux uy To add cs add moveto Tcx uy To add cs add lineto
  Tt setlinewidth stroke
  grestore
} bd
/SOE {
  /Tcx currentpoint pop def
  gsave
  newpath
  cf findfont cs scalefont dup
  /FontMatrix get 0 get /Ts exch def /FontInfo get dup
  /UnderlinePosition get Ts mul /To exch def
  /UnderlineThickness get Ts mul /Tt exch def
  ux uy To add cs 10 mul 26 idiv add moveto Tcx uy To add cs 10 mul 26 idiv add lineto
  Tt setlinewidth stroke
  grestore
} bd
/QT {
/Y22 exch store
/X22 exch store
/Y21 exch store
/X21 exch store
currentpoint
/Y21 load 2 mul add 3 div exch
/X21 load 2 mul add 3 div exch
/X21 load 2 mul /X22 load add 3 div
/Y21 load 2 mul /Y22 load add 3 div
/X22 load /Y22 load curveto
} bd
/SSPD {
dup length /d exch dict def
{
/v exch def
/k exch def
currentpagedevice k known {
/cpdv currentpagedevice k get def
v cpdv ne {
/upd false def
/nullv v type /nulltype eq def
/nullcpdv cpdv type /nulltype eq def
nullv nullcpdv or
{
/upd true def
} {
/sametype v type cpdv type eq def
sametype {
v type /arraytype eq {
/vlen v length def
/cpdvlen cpdv length def
vlen cpdvlen eq {
0 1 vlen 1 sub {
/i exch def
/obj v i get def
/cpdobj cpdv i get def
obj cpdobj ne {
/upd true def
exit
} if
} for
} {
/upd true def
} ifelse
} {
v type /dicttype eq {
v {
/dv exch def
/dk exch def
/cpddv cpdv dk get def
dv cpddv ne {
/upd true def
exit
} if
} forall
} {
/upd true def
} ifelse
} ifelse
} if
} ifelse
upd true eq {
d k v put
} if
} if
} if
} forall
d length 0 gt {
d setpagedevice
} if
} bd
/RE { % /NewFontName [NewEncodingArray] /FontName RE -
  findfont dup length dict begin
  {
    1 index /FID ne
    {def} {pop pop} ifelse
  } forall
  /Encoding exch def
  /FontName 1 index def
  currentdict definefont pop
  end
} bind def
%%EndResource
%%BeginResource: procset (Apache XML Graphics EPS ProcSet) 1.0 0
%%Version: 1.0 0
%%Copyright: (Copyright 2002-2003 The Apache Software Foundation. License terms: http://www.apache.org/licenses/LICENSE-2.0)
/BeginEPSF { %def
/b4_Inc_state save def         % Save state for cleanup
/dict_count countdictstack def % Count objects on dict stack
/op_count count 1 sub def      % Count objects on operand stack
userdict begin                 % Push userdict on dict stack
/showpage { } def              % Redefine showpage, { } = null proc
0 setgray 0 setlinecap         % Prepare graphics state
1 setlinewidth 0 setlinejoin
10 setmiterlimit [ ] 0 setdash newpath
/languagelevel where           % If level not equal to 1 then
{pop languagelevel             % set strokeadjust and
1 ne                           % overprint to their defaults.
{false setstrokeadjust false setoverprint
} if
} if
} bd
/EndEPSF { %def
count op_count sub {pop} repeat            % Clean up stacks
countdictstack dict_count sub {end} repeat
b4_Inc_state restore
} bd
%%EndResource
%FOPBeginFontDict
%%IncludeResource: font Courier-Oblique
%%IncludeResource: font Courier-BoldOblique
%%IncludeResource: font Courier-Bold
%%IncludeResource: font ZapfDingbats
%%IncludeResource: font Symbol
%%IncludeResource: font Helvetica
%%IncludeResource: font Helvetica-Oblique
%%IncludeResource: font Helvetica-Bold
%%IncludeResource: font Helvetica-BoldOblique
%%IncludeResource: font Times-Roman
%%IncludeResource: font Times-Italic
%%IncludeResource: font Times-Bold
%%IncludeResource: font Times-BoldItalic
%%IncludeResource: font Courier
%FOPEndFontDict
%%BeginResource: encoding WinAnsiEncoding
/WinAnsiEncoding [
/.notdef /.notdef /.notdef /.notdef /.notdef
/.notdef /.notdef /.notdef /.notdef /.notdef
/.notdef /.notdef /.notdef /.notdef /.notdef
/.notdef /.notdef /.notdef /.notdef /.notdef
/.notdef /.notdef /.notdef /.notdef /.notdef
/.notdef /.notdef /.notdef /.notdef /.notdef
/.notdef /.notdef /space /exclam /quotedbl
/numbersign /dollar /percent /ampersand /quotesingle
/parenleft /parenright /asterisk /plus /comma
/hyphen /period /slash /zero /one
/two /three /four /five /six
/seven /eight /nine /colon /semicolon
/less /equal /greater /question /at
/A /B /C /D /E
/F /G /H /I /J
/K /L /M /N /O
/P /Q /R /S /T
/U /V /W /X /Y
/Z /bracketleft /backslash /bracketright /asciicircum
/underscore /quoteleft /a /b /c
/d /e /f /g /h
/i /j /k /l /m
/n /o /p /q /r
/s /t /u /v /w
/x /y /z /braceleft /bar
/braceright /asciitilde /bullet /Euro /bullet
/quotesinglbase /florin /quotedblbase /ellipsis /dagger
/daggerdbl /circumflex /perthousand /Scaron /guilsinglleft
/OE /bullet /Zcaron /bullet /bullet
/quoteleft /quoteright /quotedblleft /quotedblright /bullet
/endash /emdash /asciitilde /trademark /scaron
/guilsinglright /oe /bullet /zcaron /Ydieresis
/space /exclamdown /cent /sterling /currency
/yen /brokenbar /section /dieresis /copyright
/ordfeminine /guillemotleft /logicalnot /sfthyphen /registered
/macron /degree /plusminus /twosuperior /threesuperior
/acute /mu /paragraph /middot /cedilla
/onesuperior /ordmasculine /guillemotright /onequarter /onehalf
/threequarters /questiondown /Agrave /Aacute /Acircumflex
/Atilde /Adieresis /Aring /AE /Ccedilla
/Egrave /Eacute /Ecircumflex /Edieresis /Igrave
/Iacute /Icircumflex /Idieresis /Eth /Ntilde
/Ograve /Oacute /Ocircumflex /Otilde /Odieresis
/multiply /Oslash /Ugrave /Uacute /Ucircumflex
/Udieresis /Yacute /Thorn /germandbls /agrave
/aacute /acircumflex /atilde /adieresis /aring
/ae /ccedilla /egrave /eacute /ecircumflex
/edieresis /igrave /iacute /icircumflex /idieresis
/eth /ntilde /ograve /oacute /ocircumflex
/otilde /odieresis /divide /oslash /ugrave
/uacute /ucircumflex /udieresis /yacute /thorn
/ydieresis
] def
%%EndResource
%FOPBeginFontReencode
/Courier-Oblique findfont
dup length dict begin
  {1 index /FID ne {def} {pop pop} ifelse} forall
  /Encoding WinAnsiEncoding def
  currentdict
end
/Courier-Oblique exch definefont pop
/Courier-BoldOblique findfont
dup length dict begin
  {1 index /FID ne {def} {pop pop} ifelse} forall
  /Encoding WinAnsiEncoding def
  currentdict
end
/Courier-BoldOblique exch definefont pop
/Courier-Bold findfont
dup length dict begin
  {1 index /FID ne {def} {pop pop} ifelse} forall
  /Encoding WinAnsiEncoding def
  currentdict
end
/Courier-Bold exch definefont pop
/Helvetica findfont
dup length dict begin
  {1 index /FID ne {def} {pop pop} ifelse} forall
  /Encoding WinAnsiEncoding def
  currentdict
end
/Helvetica exch definefont pop
/Helvetica-Oblique findfont
dup length dict begin
  {1 index /FID ne {def} {pop pop} ifelse} forall
  /Encoding WinAnsiEncoding def
  currentdict
end
/Helvetica-Oblique exch definefont pop
/Helvetica-Bold findfont
dup length dict begin
  {1 index /FID ne {def} {pop pop} ifelse} forall
  /Encoding WinAnsiEncoding def
  currentdict
end
/Helvetica-Bold exch definefont pop
/Helvetica-BoldOblique findfont
dup length dict begin
  {1 index /FID ne {def} {pop pop} ifelse} forall
  /Encoding WinAnsiEncoding def
  currentdict
end
/Helvetica-BoldOblique exch definefont pop
/Times-Roman findfont
dup length dict begin
  {1 index /FID ne {def} {pop pop} ifelse} forall
  /Encoding WinAnsiEncoding def
  currentdict
end
/Times-Roman exch definefont pop
/Times-Italic findfont
dup length dict begin
  {1 index /FID ne {def} {pop pop} ifelse} forall
  /Encoding WinAnsiEncoding def
  currentdict
end
/Times-Italic exch definefont pop
/Times-Bold findfont
dup length dict begin
  {1 index /FID ne {def} {pop pop} ifelse} forall
  /Encoding WinAnsiEncoding def
  currentdict
end
/Times-Bold exch definefont pop
/Times-BoldItalic findfont
dup length dict begin
  {1 index /FID ne {def} {pop pop} ifelse} forall
  /Encoding WinAnsiEncoding def
  currentdict
end
/Times-BoldItalic exch definefont pop
/Courier findfont
dup length dict begin
  {1 index /FID ne {def} {pop pop} ifelse} forall
  /Encoding WinAnsiEncoding def
  currentdict
end
/Courier exch definefont pop
%FOPEndFontReencode
%%EndProlog
%%Page: 1 1
%%PageBoundingBox: 0 0 420 315
%%BeginPageSetup
[1 0 0 -1 0 315] CT
%%EndPageSetup
GS
[0.75 0 0 0.75 0 0] CT
1 GC
N
0 0 560 420 re
f
GR
GS
[0.75 0 0 0.75 0 0] CT
1 GC
N
0 0 560 420 re
f
GR
GS
[0.75 0 0 0.75 0 0] CT
1 GC
N
73 374 M
507 374 L
507 31 L
73 31 L
cp
f
GR
GS
[0.75 0 0 0.75 0 0] CT
0.149 GC
2 setlinecap
1 LJ
0.667 LW
N
507 374 M
73 374 L
S
GR
GS
[0.75 0 0 0.75 0 0] CT
0.149 GC
2 setlinecap
1 LJ
0.667 LW
N
507 31 M
73 31 L
S
GR
GS
[0.75 0 0 0.75 0 0] CT
0.149 GC
2 setlinecap
1 LJ
0.667 LW
N
507 374 M
507 369.66 L
S
GR
GS
[0.75 0 0 0.75 0 0] CT
0.149 GC
2 setlinecap
1 LJ
0.667 LW
N
434.667 374 M
434.667 369.66 L
S
GR
GS
[0.75 0 0 0.75 0 0] CT
0.149 GC
2 setlinecap
1 LJ
0.667 LW
N
362.333 374 M
362.333 369.66 L
S
GR
GS
[0.75 0 0 0.75 0 0] CT
0.149 GC
2 setlinecap
1 LJ
0.667 LW
N
290 374 M
290 369.66 L
S
GR
GS
[0.75 0 0 0.75 0 0] CT
0.149 GC
2 setlinecap
1 LJ
0.667 LW
N
217.667 374 M
217.667 369.66 L
S
GR
GS
[0.75 0 0 0.75 0 0] CT
0.149 GC
2 setlinecap
1 LJ
0.667 LW
N
145.333 374 M
145.333 369.66 L
S
GR
GS
[0.75 0 0 0.75 0 0] CT
0.149 GC
2 setlinecap
1 LJ
0.667 LW
N
73 374 M
73 369.66 L
S
GR
GS
[0.75 0 0 0.75 0 0] CT
0.149 GC
2 setlinecap
1 LJ
0.667 LW
N
507 31 M
507 35.34 L
S
GR
GS
[0.75 0 0 0.75 0 0] CT
0.149 GC
2 setlinecap
1 LJ
0.667 LW
N
434.667 31 M
434.667 35.34 L
S
GR
GS
[0.75 0 0 0.75 0 0] CT
0.149 GC
2 setlinecap
1 LJ
0.667 LW
N
362.333 31 M
362.333 35.34 L
S
GR
GS
[0.75 0 0 0.75 0 0] CT
0.149 GC
2 setlinecap
1 LJ
0.667 LW
N
290 31 M
290 35.34 L
S
GR
GS
[0.75 0 0 0.75 0 0] CT
0.149 GC
2 setlinecap
1 LJ
0.667 LW
N
217.667 31 M
217.667 35.34 L
S
GR
GS
[0.75 0 0 0.75 0 0] CT
0.149 GC
2 setlinecap
1 LJ
0.667 LW
N
145.333 31 M
145.333 35.34 L
S
GR
GS
[0.75 0 0 0.75 0 0] CT
0.149 GC
2 setlinecap
1 LJ
0.667 LW
N
73 31 M
73 35.34 L
S
GR
GS
[0.75 0 0 0.75 380.25 284.50001] CT
0.149 GC
/Helvetica 13.333 F
GS
[1 0 0 1 0 0] CT
-4 14 moveto 
1 -1 scale
(0) t 
GR
GR
GS
[0.75 0 0 0.75 325.99999 284.50001] CT
0.149 GC
/Helvetica 13.333 F
GS
[1 0 0 1 0 0] CT
-11.5 14 moveto 
1 -1 scale
(100) t 
GR
GR
GS
[0.75 0 0 0.75 271.75001 284.50001] CT
0.149 GC
/Helvetica 13.333 F
GS
[1 0 0 1 0 0] CT
-11.5 14 moveto 
1 -1 scale
(200) t 
GR
GR
GS
[0.75 0 0 0.75 217.5 284.50001] CT
0.149 GC
/Helvetica 13.333 F
GS
[1 0 0 1 0 0] CT
-11.5 14 moveto 
1 -1 scale
(300) t 
GR
GR
GS
[0.75 0 0 0.75 163.25 284.50001] CT
0.149 GC
/Helvetica 13.333 F
GS
[1 0 0 1 0 0] CT
-11.5 14 moveto 
1 -1 scale
(400) t 
GR
GR
GS
[0.75 0 0 0.75 109 284.50001] CT
0.149 GC
/Helvetica 13.333 F
GS
[1 0 0 1 0 0] CT
-11.5 14 moveto 
1 -1 scale
(500) t 
GR
GR
GS
[0.75 0 0 0.75 54.75 284.50001] CT
0.149 GC
/Helvetica 13.333 F
GS
[1 0 0 1 0 0] CT
-11.5 14 moveto 
1 -1 scale
(600) t 
GR
GR
GS
[0.75 0 0 0.75 217.50016 298.24999] CT
0.149 GC
/Helvetica 14.667 F
GS
[1 0 0 1 0 0] CT
-29 15 moveto 
1 -1 scale
(Distance) t 
GR
GR
GS
[0.75 0 0 0.75 0 0] CT
0.149 GC
2 setlinecap
1 LJ
0.667 LW
N
73 374 M
73 31 L
S
GR
GS
[0.75 0 0 0.75 0 0] CT
0.149 GC
2 setlinecap
1 LJ
0.667 LW
N
507 374 M
507 31 L
S
GR
GS
[0.75 0 0 0.75 0 0] CT
0.149 GC
2 setlinecap
1 LJ
0.667 LW
N
73 374 M
77.34 374 L
S
GR
GS
[0.75 0 0 0.75 0 0] CT
0.149 GC
2 setlinecap
1 LJ
0.667 LW
N
73 325 M
77.34 325 L
S
GR
GS
[0.75 0 0 0.75 0 0] CT
0.149 GC
2 setlinecap
1 LJ
0.667 LW
N
73 276 M
77.34 276 L
S
GR
GS
[0.75 0 0 0.75 0 0] CT
0.149 GC
2 setlinecap
1 LJ
0.667 LW
N
73 227 M
77.34 227 L
S
GR
GS
[0.75 0 0 0.75 0 0] CT
0.149 GC
2 setlinecap
1 LJ
0.667 LW
N
73 178 M
77.34 178 L
S
GR
GS
[0.75 0 0 0.75 0 0] CT
0.149 GC
2 setlinecap
1 LJ
0.667 LW
N
73 129 M
77.34 129 L
S
GR
GS
[0.75 0 0 0.75 0 0] CT
0.149 GC
2 setlinecap
1 LJ
0.667 LW
N
73 80 M
77.34 80 L
S
GR
GS
[0.75 0 0 0.75 0 0] CT
0.149 GC
2 setlinecap
1 LJ
0.667 LW
N
73 31 M
77.34 31 L
S
GR
GS
[0.75 0 0 0.75 0 0] CT
0.149 GC
2 setlinecap
1 LJ
0.667 LW
N
507 374 M
502.66 374 L
S
GR
GS
[0.75 0 0 0.75 0 0] CT
0.149 GC
2 setlinecap
1 LJ
0.667 LW
N
507 325 M
502.66 325 L
S
GR
GS
[0.75 0 0 0.75 0 0] CT
0.149 GC
2 setlinecap
1 LJ
0.667 LW
N
507 276 M
502.66 276 L
S
GR
GS
[0.75 0 0 0.75 0 0] CT
0.149 GC
2 setlinecap
1 LJ
0.667 LW
N
507 227 M
502.66 227 L
S
GR
GS
[0.75 0 0 0.75 0 0] CT
0.149 GC
2 setlinecap
1 LJ
0.667 LW
N
507 178 M
502.66 178 L
S
GR
GS
[0.75 0 0 0.75 0 0] CT
0.149 GC
2 setlinecap
1 LJ
0.667 LW
N
507 129 M
502.66 129 L
S
GR
GS
[0.75 0 0 0.75 0 0] CT
0.149 GC
2 setlinecap
1 LJ
0.667 LW
N
507 80 M
502.66 80 L
S
GR
GS
[0.75 0 0 0.75 0 0] CT
0.149 GC
2 setlinecap
1 LJ
0.667 LW
N
507 31 M
502.66 31 L
S
GR
GS
[0.75 0 0 0.75 50.74999 280.5] CT
0.149 GC
/Helvetica 13.333 F
GS
[1 0 0 1 0 0] CT
-12 5.5 moveto 
1 -1 scale
(-2) t 
GR
GR
GS
[0.75 0 0 0.75 50.74999 243.75] CT
0.149 GC
/Helvetica 13.333 F
GS
[1 0 0 1 0 0] CT
-8 5.5 moveto 
1 -1 scale
(0) t 
GR
GR
GS
[0.75 0 0 0.75 50.74999 207] CT
0.149 GC
/Helvetica 13.333 F
GS
[1 0 0 1 0 0] CT
-8 5.5 moveto 
1 -1 scale
(2) t 
GR
GR
GS
[0.75 0 0 0.75 50.74999 170.25] CT
0.149 GC
/Helvetica 13.333 F
GS
[1 0 0 1 0 0] CT
-8 5.5 moveto 
1 -1 scale
(4) t 
GR
GR
GS
[0.75 0 0 0.75 50.74999 133.5] CT
0.149 GC
/Helvetica 13.333 F
GS
[1 0 0 1 0 0] CT
-8 5.5 moveto 
1 -1 scale
(6) t 
GR
GR
GS
[0.75 0 0 0.75 50.74999 96.75] CT
0.149 GC
/Helvetica 13.333 F
GS
[1 0 0 1 0 0] CT
-8 5.5 moveto 
1 -1 scale
(8) t 
GR
GR
GS
[0.75 0 0 0.75 50.74999 60] CT
0.149 GC
/Helvetica 13.333 F
GS
[1 0 0 1 0 0] CT
-15 5.5 moveto 
1 -1 scale
(10) t 
GR
GR
GS
[0.75 0 0 0.75 50.74999 23.25] CT
0.149 GC
/Helvetica 13.333 F
GS
[1 0 0 1 0 0] CT
-15 5.5 moveto 
1 -1 scale
(12) t 
GR
GR
GS
[0 -0.75 0.75 0 36.5 151.87487] CT
0.149 GC
/Helvetica 14.667 F
GS
[1 0 0 1 0 0] CT
-68.5 -4 moveto 
1 -1 scale
(Amplitude Difference) t 
GR
GR
GS
[0.75 0 0 0.75 0 0] CT
0 0.447 0.741 RC
1 LJ
0.667 LW
N
97.821 51.315 M
98.152 76.182 L
98.519 98.691 L
98.919 119.041 L
99.347 137.441 L
99.799 154.092 L
100.272 169.176 L
100.764 182.857 L
101.27 195.278 L
101.79 206.569 L
102.321 216.841 L
102.861 226.194 L
103.409 234.717 L
103.965 242.487 L
104.526 249.576 L
105.092 256.046 L
105.662 261.952 L
106.235 267.347 L
106.812 272.276 L
107.392 276.78 L
107.974 280.896 L
108.557 284.659 L
109.143 288.099 L
109.73 291.244 L
110.318 294.121 L
110.908 296.751 L
111.498 299.157 L
112.09 301.358 L
112.682 303.37 L
113.276 305.211 L
113.87 306.895 L
114.464 308.436 L
115.06 309.845 L
115.656 311.135 L
116.252 312.314 L
116.85 313.393 L
117.447 314.381 L
118.045 315.284 L
118.644 316.11 L
119.243 316.866 L
119.843 317.558 L
120.443 318.191 L
121.044 318.77 L
121.645 319.299 L
122.247 319.784 L
122.849 320.227 L
123.451 320.633 L
124.054 321.004 L
124.658 321.344 L
125.262 321.655 L
125.866 321.939 L
126.471 322.199 L
127.076 322.437 L
127.682 322.655 L
128.288 322.854 L
128.895 323.037 L
129.502 323.204 L
130.109 323.356 L
130.717 323.496 L
131.325 323.624 L
131.934 323.741 L
132.544 323.848 L
133.153 323.945 L
133.763 324.035 L
134.374 324.117 L
134.985 324.192 L
135.597 324.261 L
136.209 324.323 L
136.821 324.381 L
137.434 324.434 L
138.047 324.482 L
138.661 324.526 L
139.275 324.566 L
139.89 324.603 L
140.505 324.637 L
141.12 324.667 L
141.736 324.696 L
142.353 324.721 L
142.97 324.745 L
143.587 324.767 L
144.205 324.787 L
144.823 324.805 L
145.442 324.821 L
146.061 324.836 L
146.681 324.85 L
147.301 324.863 L
147.921 324.875 L
148.542 324.885 L
149.163 324.895 L
149.785 324.904 L
150.407 324.912 L
151.03 324.92 L
151.653 324.926 L
152.277 324.933 L
152.901 324.938 L
153.525 324.944 L
154.15 324.948 L
154.776 324.953 L
155.402 324.957 L
156.028 324.96 L
156.655 324.964 L
157.282 324.967 L
157.909 324.97 L
158.538 324.972 L
159.166 324.975 L
159.795 324.977 L
160.424 324.979 L
161.054 324.98 L
161.685 324.982 L
162.315 324.984 L
162.947 324.985 L
163.578 324.986 L
164.21 324.987 L
164.843 324.989 L
165.476 324.99 L
166.109 324.99 L
166.743 324.991 L
167.378 324.992 L
168.013 324.993 L
168.648 324.993 L
169.283 324.994 L
169.92 324.994 L
170.556 324.995 L
171.193 324.995 L
171.831 324.996 L
172.469 324.996 L
173.107 324.996 L
173.746 324.997 L
174.385 324.997 L
175.025 324.997 L
175.665 324.997 L
176.306 324.998 L
176.947 324.998 L
177.588 324.998 L
178.23 324.998 L
178.873 324.998 L
179.516 324.999 L
180.159 324.999 L
180.803 324.999 L
181.447 324.999 L
182.091 324.999 L
182.737 324.999 L
183.382 324.999 L
184.028 324.999 L
184.675 324.999 L
185.321 324.999 L
185.969 324.999 L
186.617 324.999 L
187.265 324.999 L
187.914 325 L
188.563 325 L
189.212 325 L
189.862 325 L
190.513 325 L
191.164 325 L
191.815 325 L
192.467 325 L
193.119 325 L
193.772 325 L
194.425 325 L
195.079 325 L
195.733 325 L
196.387 325 L
197.042 325 L
197.698 325 L
198.353 325 L
199.01 325 L
199.666 325 L
200.324 325 L
200.981 325 L
201.639 325 L
202.298 325 L
202.957 325 L
203.616 325 L
204.276 325 L
204.936 325 L
205.597 325 L
206.258 325 L
206.92 325 L
207.582 325 L
208.245 325 L
208.908 325 L
209.571 325 L
210.235 325 L
210.9 325 L
211.564 325 L
212.23 325 L
212.895 325 L
213.561 325 L
214.228 325 L
214.895 325 L
215.562 325 L
216.23 325 L
216.899 325 L
217.568 325 L
218.237 325 L
218.907 325 L
219.577 325 L
220.247 325 L
220.918 325 L
221.59 325 L
222.262 325 L
222.934 325 L
223.607 325 L
224.28 325 L
224.954 325 L
225.628 325 L
226.303 325 L
226.978 325 L
227.654 325 L
228.329 325 L
229.006 325 L
229.683 325 L
230.36 325 L
231.038 325 L
231.716 325 L
232.395 325 L
233.074 325 L
233.753 325 L
234.433 325 L
235.114 325 L
235.795 325 L
236.476 325 L
237.158 325 L
237.84 325 L
238.523 325 L
239.206 325 L
239.889 325 L
240.573 325 L
241.258 325 L
241.943 325 L
242.628 325 L
243.314 325 L
244 325 L
244.687 325 L
245.374 325 L
246.061 325 L
246.75 325 L
247.438 325 L
248.127 325 L
248.816 325 L
249.506 325 L
250.196 325 L
250.887 325 L
251.578 325 L
252.27 325 L
252.962 325 L
253.654 325 L
254.347 325 L
255.041 325 L
255.734 325 L
256.429 325 L
257.123 325 L
257.819 325 L
258.514 325 L
259.21 325 L
259.907 325 L
260.604 325 L
261.301 325 L
261.999 325 L
262.697 325 L
263.396 325 L
264.095 325 L
264.795 325 L
265.495 325 L
266.195 325 L
266.896 325 L
267.598 325 L
268.299 325 L
269.002 325 L
269.704 325 L
270.408 325 L
271.111 325 L
271.815 325 L
272.52 325 L
273.225 325 L
273.93 325 L
274.636 325 L
275.342 325 L
276.049 325 L
276.756 325 L
277.464 325 L
278.172 325 L
278.88 325 L
279.589 325 L
280.299 325 L
281.009 325 L
281.719 325 L
282.43 325 L
283.141 325 L
283.852 325 L
284.565 325 L
285.277 325 L
285.99 325 L
286.703 325 L
287.417 325 L
288.132 325 L
288.846 325 L
289.561 325 L
290.277 325 L
290.993 325 L
291.71 325 L
292.427 325 L
293.144 325 L
293.862 325 L
294.58 325 L
295.299 325 L
296.018 325 L
296.738 325 L
297.458 325 L
298.178 325 L
298.899 325 L
299.621 325 L
300.342 325 L
301.065 325 L
301.787 325 L
302.511 325 L
303.234 325 L
303.958 325 L
304.683 325 L
305.408 325 L
306.133 325 L
306.859 325 L
307.585 325 L
308.312 325 L
309.039 325 L
309.767 325 L
310.495 325 L
311.223 325 L
311.952 325 L
312.681 325 L
313.411 325 L
314.141 325 L
314.872 325 L
315.603 325 L
316.335 325 L
317.067 325 L
317.799 325 L
318.532 325 L
319.266 325 L
319.999 325 L
320.734 325 L
321.468 325 L
322.203 325 L
322.939 325 L
323.675 325 L
324.411 325 L
325.148 325 L
325.886 325 L
326.623 325 L
327.362 325 L
328.1 325 L
328.839 325 L
329.579 325 L
330.319 325 L
331.059 325 L
331.8 325 L
332.542 325 L
333.283 325 L
334.025 325 L
334.768 325 L
335.511 325 L
336.255 325 L
336.999 325 L
337.743 325 L
338.488 325 L
339.233 325 L
339.979 325 L
340.725 325 L
341.472 325 L
342.219 325 L
342.966 325 L
343.714 325 L
344.462 325 L
345.211 325 L
345.961 325 L
346.71 325 L
347.46 325 L
348.211 325 L
348.962 325 L
349.713 325 L
350.465 325 L
351.218 325 L
351.97 325 L
352.724 325 L
353.477 325 L
354.231 325 L
354.986 325 L
355.741 325 L
356.496 325 L
357.252 325 L
358.008 325 L
358.765 325 L
359.522 325 L
360.28 325 L
361.038 325 L
361.796 325 L
362.555 325 L
363.315 325 L
364.075 325 L
364.835 325 L
365.595 325 L
366.357 325 L
367.118 325 L
367.88 325 L
368.643 325 L
369.406 325 L
370.169 325 L
370.933 325 L
371.697 325 L
372.461 325 L
373.227 325 L
373.992 325 L
374.758 325 L
375.524 325 L
376.291 325 L
377.059 325 L
377.826 325 L
378.594 325 L
379.363 325 L
380.132 325 L
380.901 325 L
381.671 325 L
382.442 325 L
383.212 325 L
383.984 325 L
384.755 325 L
385.527 325 L
386.3 325 L
387.073 325 L
387.846 325 L
388.62 325 L
389.394 325 L
390.169 325 L
390.944 325 L
391.72 325 L
392.496 325 L
393.272 325 L
394.049 325 L
394.827 325 L
395.604 325 L
396.383 325 L
397.161 325 L
397.94 325 L
398.72 325 L
399.5 325 L
400.28 325 L
401.061 325 L
401.842 325 L
402.624 325 L
403.406 325 L
404.189 325 L
404.972 325 L
405.755 325 L
406.539 325 L
407.324 325 L
408.108 325 L
408.894 325 L
409.679 325 L
410.465 325 L
411.252 325 L
412.039 325 L
412.826 325 L
413.614 325 L
414.402 325 L
415.191 325 L
415.98 325 L
416.77 325 L
417.56 325 L
418.35 325 L
419.141 325 L
419.932 325 L
420.724 325 L
421.516 325 L
422.309 325 L
423.102 325 L
423.895 325 L
424.689 325 L
425.483 325 L
426.278 325 L
427.073 325 L
427.869 325 L
428.665 325 L
429.462 325 L
430.259 325 L
431.056 325 L
431.854 325 L
432.652 325 L
433.451 325 L
434.25 325 L
435.05 325 L
435.85 325 L
436.65 325 L
437.451 325 L
438.252 325 L
439.054 325 L
439.856 325 L
440.659 325 L
441.462 325 L
442.265 325 L
443.069 325 L
443.873 325 L
444.678 325 L
445.483 325 L
446.289 325 L
447.095 325 L
447.902 325 L
448.709 325 L
449.516 325 L
450.324 325 L
451.132 325 L
451.941 325 L
452.75 325 L
453.559 325 L
454.369 325 L
455.18 325 L
455.99 325 L
456.802 325 L
457.613 325 L
458.425 325 L
459.238 325 L
460.051 325 L
460.864 325 L
461.678 325 L
462.493 325 L
463.307 325 L
464.122 325 L
464.938 325 L
465.754 325 L
466.57 325 L
467.387 325 L
468.205 325 L
469.022 325 L
469.841 325 L
470.659 325 L
471.478 325 L
472.298 325 L
473.118 325 L
473.938 325 L
474.759 325 L
475.58 325 L
476.401 325 L
477.223 325 L
478.046 325 L
478.869 325 L
479.692 325 L
480.516 325 L
481.34 325 L
482.165 325 L
482.99 325 L
483.815 325 L
484.641 325 L
485.468 325 L
486.294 325 L
487.122 325 L
487.949 325 L
488.777 325 L
489.606 325 L
490.435 325 L
491.264 325 L
492.094 325 L
492.924 325 L
S
GR
GS
[0.75 0 0 0.75 0 0] CT
0.851 0.325 0.098 RC
1 LJ
0.667 LW
N
97.821 156.781 M
98.284 164.615 L
98.769 172.22 L
99.273 179.572 L
99.796 186.655 L
100.335 193.652 L
100.89 200.359 L
101.459 206.762 L
102.041 212.866 L
102.635 218.723 L
103.239 224.402 L
103.853 229.754 L
104.476 234.966 L
105.108 239.899 L
105.747 244.565 L
106.392 248.976 L
107.044 253.147 L
107.701 257.088 L
108.364 260.813 L
109.03 264.361 L
109.701 267.769 L
110.376 270.983 L
111.054 274.014 L
111.735 276.874 L
112.419 279.561 L
113.106 282.091 L
113.795 284.478 L
114.486 286.732 L
115.179 288.858 L
115.874 290.865 L
116.571 292.759 L
117.269 294.547 L
117.969 296.235 L
118.67 297.828 L
119.373 299.342 L
120.076 300.795 L
120.781 302.165 L
121.487 303.457 L
122.193 304.675 L
122.901 305.823 L
123.61 306.906 L
124.319 307.927 L
125.029 308.89 L
125.741 309.799 L
126.453 310.655 L
127.165 311.463 L
127.879 312.226 L
128.593 312.945 L
129.307 313.623 L
130.023 314.268 L
130.739 314.885 L
131.456 315.467 L
132.173 316.014 L
132.891 316.531 L
133.61 317.017 L
134.329 317.475 L
135.049 317.907 L
135.769 318.314 L
136.49 318.697 L
137.212 319.058 L
137.934 319.399 L
138.657 319.72 L
139.38 320.022 L
140.104 320.307 L
140.828 320.576 L
141.553 320.829 L
142.279 321.068 L
143.005 321.293 L
143.732 321.505 L
144.459 321.705 L
145.187 321.893 L
145.915 322.071 L
146.644 322.238 L
147.373 322.396 L
148.103 322.545 L
148.833 322.685 L
149.564 322.817 L
150.296 322.942 L
151.028 323.059 L
151.761 323.17 L
152.494 323.275 L
153.227 323.373 L
153.961 323.466 L
154.696 323.553 L
155.431 323.636 L
156.167 323.714 L
156.903 323.787 L
157.64 323.856 L
158.378 323.922 L
159.116 323.983 L
159.854 324.041 L
160.593 324.096 L
161.332 324.147 L
162.072 324.196 L
162.813 324.242 L
163.554 324.285 L
164.296 324.325 L
165.038 324.364 L
165.78 324.4 L
166.523 324.434 L
167.267 324.466 L
168.011 324.497 L
168.756 324.525 L
169.501 324.552 L
170.247 324.578 L
170.993 324.602 L
171.74 324.625 L
172.488 324.646 L
173.236 324.666 L
173.984 324.685 L
174.733 324.703 L
175.482 324.72 L
176.232 324.736 L
176.983 324.751 L
177.734 324.765 L
178.486 324.778 L
179.238 324.791 L
179.99 324.803 L
180.744 324.814 L
181.497 324.825 L
182.251 324.834 L
183.006 324.844 L
183.761 324.853 L
184.517 324.861 L
185.273 324.869 L
186.03 324.876 L
186.788 324.883 L
187.545 324.89 L
188.304 324.896 L
189.063 324.902 L
189.822 324.908 L
190.582 324.913 L
191.343 324.918 L
192.104 324.923 L
192.865 324.927 L
193.627 324.931 L
194.39 324.935 L
195.153 324.939 L
195.916 324.942 L
196.681 324.945 L
197.445 324.948 L
198.21 324.951 L
198.976 324.954 L
199.742 324.957 L
200.509 324.959 L
201.276 324.962 L
202.044 324.964 L
202.813 324.966 L
203.581 324.968 L
204.351 324.97 L
205.121 324.971 L
205.891 324.973 L
206.662 324.974 L
207.433 324.976 L
208.205 324.977 L
208.978 324.978 L
209.751 324.98 L
210.524 324.981 L
211.298 324.982 L
212.073 324.983 L
212.848 324.984 L
213.624 324.985 L
214.4 324.986 L
215.177 324.986 L
215.954 324.987 L
216.731 324.988 L
217.51 324.989 L
218.288 324.989 L
219.068 324.99 L
219.847 324.99 L
220.628 324.991 L
221.409 324.992 L
222.19 324.992 L
222.972 324.992 L
223.754 324.993 L
224.537 324.993 L
225.32 324.994 L
226.104 324.994 L
226.889 324.994 L
227.674 324.995 L
228.459 324.995 L
229.245 324.995 L
230.032 324.996 L
230.819 324.996 L
231.607 324.996 L
232.395 324.996 L
233.183 324.996 L
233.972 324.997 L
234.762 324.997 L
235.552 324.997 L
236.343 324.997 L
237.134 324.997 L
237.926 324.997 L
238.718 324.998 L
239.511 324.998 L
240.304 324.998 L
241.098 324.998 L
241.892 324.998 L
242.687 324.998 L
243.482 324.998 L
244.278 324.998 L
245.075 324.999 L
245.871 324.999 L
246.669 324.999 L
247.467 324.999 L
248.265 324.999 L
249.064 324.999 L
249.864 324.999 L
250.664 324.999 L
251.464 324.999 L
252.265 324.999 L
253.067 324.999 L
253.869 324.999 L
254.671 324.999 L
255.475 324.999 L
256.278 324.999 L
257.082 324.999 L
257.887 324.999 L
258.692 324.999 L
259.498 324.999 L
260.304 325 L
261.111 325 L
261.918 325 L
262.726 325 L
263.534 325 L
264.343 325 L
265.152 325 L
265.962 325 L
266.772 325 L
267.583 325 L
268.394 325 L
269.206 325 L
270.018 325 L
270.831 325 L
271.645 325 L
272.459 325 L
273.273 325 L
274.088 325 L
274.903 325 L
275.719 325 L
276.536 325 L
277.353 325 L
278.17 325 L
278.988 325 L
279.807 325 L
280.626 325 L
281.446 325 L
282.266 325 L
283.086 325 L
283.907 325 L
284.729 325 L
285.551 325 L
286.374 325 L
287.197 325 L
288.021 325 L
288.845 325 L
289.669 325 L
290.495 325 L
291.32 325 L
292.147 325 L
292.973 325 L
293.801 325 L
294.628 325 L
295.457 325 L
296.285 325 L
297.115 325 L
297.944 325 L
298.775 325 L
299.606 325 L
300.437 325 L
301.269 325 L
302.101 325 L
302.934 325 L
303.767 325 L
304.601 325 L
305.436 325 L
306.271 325 L
307.106 325 L
307.942 325 L
308.778 325 L
309.615 325 L
310.453 325 L
311.291 325 L
312.129 325 L
312.968 325 L
313.808 325 L
314.648 325 L
315.488 325 L
316.329 325 L
317.171 325 L
318.013 325 L
318.855 325 L
319.698 325 L
320.542 325 L
321.386 325 L
322.231 325 L
323.076 325 L
323.921 325 L
324.768 325 L
325.614 325 L
326.461 325 L
327.309 325 L
328.157 325 L
329.006 325 L
329.855 325 L
330.704 325 L
331.555 325 L
332.405 325 L
333.256 325 L
334.108 325 L
334.96 325 L
335.813 325 L
336.666 325 L
337.52 325 L
338.374 325 L
339.229 325 L
340.084 325 L
340.94 325 L
341.796 325 L
342.653 325 L
343.51 325 L
344.368 325 L
345.226 325 L
346.085 325 L
346.944 325 L
347.804 325 L
348.664 325 L
349.525 325 L
350.386 325 L
351.248 325 L
352.11 325 L
352.973 325 L
353.837 325 L
354.7 325 L
355.565 325 L
356.43 325 L
357.295 325 L
358.161 325 L
359.027 325 L
359.894 325 L
360.761 325 L
361.629 325 L
362.497 325 L
363.366 325 L
364.236 325 L
365.105 325 L
365.976 325 L
366.847 325 L
367.718 325 L
368.59 325 L
369.462 325 L
370.335 325 L
371.208 325 L
372.082 325 L
372.957 325 L
373.832 325 L
374.707 325 L
375.583 325 L
376.459 325 L
377.336 325 L
378.213 325 L
379.091 325 L
379.97 325 L
380.849 325 L
381.728 325 L
382.608 325 L
383.488 325 L
384.369 325 L
385.251 325 L
386.132 325 L
387.015 325 L
387.898 325 L
388.781 325 L
389.665 325 L
390.549 325 L
391.434 325 L
392.32 325 L
393.206 325 L
394.092 325 L
394.979 325 L
395.866 325 L
396.754 325 L
397.642 325 L
398.531 325 L
399.421 325 L
400.31 325 L
401.201 325 L
402.092 325 L
402.983 325 L
403.875 325 L
404.767 325 L
405.66 325 L
406.554 325 L
407.447 325 L
408.342 325 L
409.237 325 L
410.132 325 L
411.028 325 L
411.924 325 L
412.821 325 L
413.718 325 L
414.616 325 L
415.514 325 L
416.413 325 L
417.313 325 L
418.212 325 L
419.113 325 L
420.013 325 L
420.915 325 L
421.817 325 L
422.719 325 L
423.622 325 L
424.525 325 L
425.429 325 L
426.333 325 L
427.238 325 L
428.143 325 L
429.049 325 L
429.955 325 L
430.862 325 L
431.769 325 L
432.677 325 L
433.585 325 L
434.494 325 L
435.403 325 L
436.312 325 L
437.223 325 L
438.133 325 L
439.045 325 L
439.956 325 L
440.868 325 L
441.781 325 L
442.694 325 L
443.608 325 L
444.522 325 L
445.437 325 L
446.352 325 L
447.267 325 L
448.183 325 L
449.1 325 L
450.017 325 L
450.935 325 L
451.853 325 L
452.771 325 L
453.69 325 L
454.61 325 L
455.53 325 L
456.451 325 L
457.372 325 L
458.293 325 L
459.215 325 L
460.138 325 L
461.06 325 L
461.984 325 L
462.908 325 L
463.832 325 L
464.757 325 L
465.683 325 L
466.609 325 L
467.535 325 L
468.462 325 L
469.389 325 L
470.317 325 L
471.246 325 L
472.174 325 L
473.104 325 L
474.034 325 L
474.964 325 L
475.895 325 L
476.826 325 L
477.758 325 L
478.69 325 L
479.623 325 L
480.556 325 L
481.49 325 L
482.424 325 L
483.359 325 L
484.294 325 L
485.23 325 L
486.166 325 L
487.102 325 L
488.04 325 L
488.977 325 L
489.915 325 L
490.854 325 L
491.793 325 L
492.733 325 L
S
GR
GS
[0.75 0 0 0.75 0 0] CT
0.929 0.694 0.125 RC
1 LJ
0.667 LW
N
97.821 237.377 M
98.471 239.32 L
99.136 241.243 L
99.814 243.146 L
100.505 245.025 L
101.209 246.879 L
101.925 248.707 L
102.652 250.484 L
103.39 252.222 L
104.139 253.93 L
104.898 255.608 L
105.667 257.256 L
106.445 258.873 L
107.232 260.459 L
108.027 262.013 L
108.831 263.535 L
109.642 265.025 L
110.461 266.484 L
111.287 267.907 L
112.12 269.276 L
112.959 270.625 L
113.804 272.001 L
114.656 273.344 L
115.513 274.656 L
116.376 275.936 L
117.245 277.184 L
118.118 278.436 L
118.996 279.682 L
119.879 280.894 L
120.766 282.075 L
121.657 283.225 L
122.553 284.344 L
123.452 285.439 L
124.355 286.549 L
125.262 287.628 L
126.172 288.677 L
127.086 289.696 L
128.003 290.686 L
128.922 291.648 L
129.845 292.582 L
130.77 293.502 L
131.698 294.423 L
132.629 295.318 L
133.562 296.185 L
134.498 297.027 L
135.436 297.843 L
136.376 298.636 L
137.318 299.404 L
138.262 300.15 L
139.208 300.874 L
140.156 301.579 L
141.106 302.289 L
142.058 302.977 L
143.011 303.644 L
143.967 304.29 L
144.923 304.916 L
145.882 305.522 L
146.842 306.11 L
147.803 306.679 L
148.766 307.231 L
149.73 307.766 L
150.695 308.284 L
151.662 308.786 L
152.63 309.273 L
153.6 309.745 L
154.57 310.202 L
155.542 310.645 L
156.515 311.074 L
157.489 311.49 L
158.464 311.894 L
159.441 312.285 L
160.418 312.664 L
161.396 313.032 L
162.376 313.388 L
163.356 313.733 L
164.337 314.068 L
165.32 314.393 L
166.303 314.708 L
167.287 315.013 L
168.273 315.309 L
169.259 315.596 L
170.246 315.874 L
171.234 316.144 L
172.222 316.405 L
173.212 316.659 L
174.203 316.905 L
175.194 317.144 L
176.186 317.375 L
177.179 317.6 L
178.173 317.817 L
179.168 318.028 L
180.163 318.233 L
181.16 318.432 L
182.157 318.624 L
183.155 318.811 L
184.154 318.993 L
185.153 319.168 L
186.153 319.339 L
187.154 319.504 L
188.156 319.665 L
189.159 319.821 L
190.162 319.972 L
191.166 320.118 L
192.171 320.261 L
193.177 320.399 L
194.183 320.533 L
195.19 320.663 L
196.198 320.789 L
197.207 320.911 L
198.216 321.03 L
199.226 321.145 L
200.237 321.256 L
201.248 321.365 L
202.26 321.47 L
203.273 321.572 L
204.287 321.671 L
205.301 321.768 L
206.317 321.861 L
207.332 321.952 L
208.349 322.039 L
209.366 322.125 L
210.384 322.208 L
211.403 322.288 L
212.422 322.366 L
213.442 322.442 L
214.463 322.515 L
215.485 322.587 L
216.507 322.656 L
217.53 322.723 L
218.553 322.788 L
219.578 322.852 L
220.603 322.913 L
221.628 322.973 L
222.655 323.031 L
223.682 323.087 L
224.71 323.142 L
225.738 323.195 L
226.767 323.246 L
227.797 323.296 L
228.828 323.345 L
229.859 323.392 L
230.891 323.438 L
231.923 323.482 L
232.957 323.525 L
233.991 323.567 L
235.025 323.608 L
236.061 323.647 L
237.097 323.685 L
238.134 323.723 L
239.171 323.759 L
240.209 323.794 L
241.248 323.828 L
242.288 323.861 L
243.328 323.893 L
244.369 323.924 L
245.41 323.955 L
246.452 323.984 L
247.495 324.013 L
248.539 324.04 L
249.583 324.067 L
250.628 324.094 L
251.674 324.119 L
252.72 324.144 L
253.767 324.168 L
254.814 324.191 L
255.863 324.214 L
256.912 324.236 L
257.961 324.257 L
259.012 324.278 L
260.063 324.298 L
261.115 324.317 L
262.167 324.336 L
263.22 324.355 L
264.274 324.373 L
265.328 324.39 L
266.383 324.407 L
267.439 324.424 L
268.495 324.44 L
269.552 324.455 L
270.61 324.47 L
271.669 324.485 L
272.728 324.499 L
273.788 324.513 L
274.848 324.526 L
275.909 324.539 L
276.971 324.552 L
278.033 324.564 L
279.096 324.576 L
280.16 324.588 L
281.225 324.599 L
282.29 324.61 L
283.356 324.621 L
284.422 324.631 L
285.489 324.641 L
286.557 324.651 L
287.625 324.661 L
288.695 324.67 L
289.764 324.679 L
290.835 324.688 L
291.906 324.696 L
292.978 324.704 L
294.05 324.712 L
295.123 324.72 L
296.197 324.728 L
297.272 324.735 L
298.347 324.742 L
299.422 324.749 L
300.499 324.756 L
301.576 324.762 L
302.654 324.769 L
303.732 324.775 L
304.811 324.781 L
305.891 324.787 L
306.971 324.793 L
308.052 324.798 L
309.134 324.804 L
310.216 324.809 L
311.299 324.814 L
312.383 324.819 L
313.467 324.824 L
314.553 324.828 L
315.638 324.833 L
316.725 324.837 L
317.811 324.842 L
318.899 324.846 L
319.987 324.85 L
321.076 324.854 L
322.166 324.858 L
323.256 324.861 L
324.347 324.865 L
325.439 324.868 L
326.531 324.872 L
327.624 324.875 L
328.717 324.878 L
329.812 324.882 L
330.906 324.885 L
332.002 324.888 L
333.098 324.891 L
334.195 324.893 L
335.292 324.896 L
336.391 324.899 L
337.489 324.901 L
338.589 324.904 L
339.689 324.906 L
340.79 324.909 L
341.891 324.911 L
342.993 324.913 L
344.096 324.916 L
345.199 324.918 L
346.303 324.92 L
347.408 324.922 L
348.513 324.924 L
349.619 324.926 L
350.725 324.928 L
351.832 324.929 L
352.94 324.931 L
354.049 324.933 L
355.158 324.935 L
356.268 324.936 L
357.378 324.938 L
358.489 324.939 L
359.601 324.941 L
360.714 324.942 L
361.827 324.944 L
362.94 324.945 L
364.055 324.946 L
365.17 324.948 L
366.285 324.949 L
367.401 324.95 L
368.518 324.951 L
369.636 324.953 L
370.754 324.954 L
371.873 324.955 L
372.992 324.956 L
374.113 324.957 L
375.233 324.958 L
376.355 324.959 L
377.477 324.96 L
378.599 324.961 L
379.723 324.962 L
380.847 324.963 L
381.971 324.963 L
383.097 324.964 L
384.222 324.965 L
385.349 324.966 L
386.476 324.967 L
387.604 324.967 L
388.732 324.968 L
389.861 324.969 L
390.991 324.97 L
392.122 324.97 L
393.253 324.971 L
394.384 324.972 L
395.516 324.972 L
396.649 324.973 L
397.783 324.973 L
398.917 324.974 L
400.052 324.975 L
401.187 324.975 L
402.323 324.976 L
403.46 324.976 L
404.598 324.977 L
405.735 324.977 L
406.874 324.978 L
408.013 324.978 L
409.153 324.979 L
410.294 324.979 L
411.435 324.979 L
412.577 324.98 L
413.719 324.98 L
414.862 324.981 L
416.006 324.981 L
417.15 324.981 L
418.295 324.982 L
419.441 324.982 L
420.587 324.982 L
421.734 324.983 L
422.881 324.983 L
424.029 324.983 L
425.178 324.984 L
426.327 324.984 L
427.477 324.984 L
428.628 324.985 L
429.779 324.985 L
430.931 324.985 L
432.084 324.985 L
433.237 324.986 L
434.391 324.986 L
435.545 324.986 L
436.7 324.986 L
437.855 324.986 L
439.012 324.987 L
440.169 324.987 L
441.326 324.987 L
442.484 324.987 L
443.643 324.987 L
444.802 324.988 L
445.962 324.988 L
447.123 324.988 L
448.284 324.988 L
449.446 324.988 L
450.609 324.988 L
451.772 324.988 L
452.936 324.989 L
454.1 324.989 L
455.265 324.989 L
456.431 324.989 L
457.597 324.989 L
458.764 324.989 L
459.931 324.989 L
461.099 324.989 L
462.268 324.989 L
463.437 324.989 L
464.607 324.99 L
465.778 324.99 L
466.949 324.99 L
468.121 324.99 L
469.293 324.99 L
470.466 324.99 L
471.64 324.99 L
472.814 324.99 L
473.989 324.99 L
475.165 324.99 L
476.341 324.989 L
477.518 324.989 L
478.695 324.989 L
479.873 324.989 L
481.052 324.989 L
482.231 324.989 L
483.411 324.989 L
484.591 324.988 L
485.772 324.988 L
486.954 324.988 L
488.136 324.988 L
489.319 324.987 L
490.502 324.987 L
491.687 324.986 L
492.871 324.985 L
S
GR
GS
[0.75 0 0 0.75 0 0] CT
1 GC
N
492 111 M
492 38 L
414 38 L
414 111 L
cp
f
GR
GS
[0.75 0 0 0.75 345.75 51] CT
/Helvetica 12 F
GS
[1 0 0 1 0 0] CT
0 5 moveto 
1 -1 scale
(1700) t 
GR
GR
GS
[0.75 0 0 0.75 0 0] CT
0 0.447 0.741 RC
1 LJ
0.667 LW
N
418 68 M
458 68 L
S
GR
GS
[0.75 0 0 0.75 345.75 63.375] CT
/Helvetica 12 F
GS
[1 0 0 1 0 0] CT
0 5 moveto 
1 -1 scale
(1900) t 
GR
GR
GS
[0.75 0 0 0.75 0 0] CT
0.851 0.325 0.098 RC
1 LJ
0.667 LW
N
418 84.5 M
458 84.5 L
S
GR
GS
[0.75 0 0 0.75 345.75 75.75] CT
/Helvetica 12 F
GS
[1 0 0 1 0 0] CT
0 5 moveto 
1 -1 scale
(2200) t 
GR
GR
GS
[0.75 0 0 0.75 0 0] CT
0.929 0.694 0.125 RC
1 LJ
0.667 LW
N
418 101 M
458 101 L
S
GR
GS
[0.75 0 0 0.75 339.75 36] CT
/Helvetica-Bold 12 F
GS
[1 0 0 1 0 0] CT
-30.5 5 moveto 
1 -1 scale
(Frequency) t 
GR
GR
GS
[0.75 0 0 0.75 0 0] CT
0.149 GC
10.0 ML
0.667 LW
N
414 111 M
414 38 L
492 38 L
492 111 L
cp
S
GR
GS
[0.75 0 0 0.75 0 0] CT
0.149 GC
1 LJ
0.667 LW
N
414 58 M
492 58 L
S
GR
%%Trailer
%%Pages: 1
%%EOF
