%!PS-Adobe-3.0 EPSF-3.0
%%Creator: (MATLAB, The Mathworks, Inc. Version 9.9.0.1592791 \(R2020b\) Update 5. Operating System: Windows 10)
%%Title: (C:/Users/marti/Documents/GitHub/bio-inspired-autonomous-systems/Assignment 02 - Braitenberg Vehicle/figures/freq_amp_diff.eps)
%%CreationDate: 2021-03-23T11:49:02
%%Pages: (atend)
%%BoundingBox:     0     0   420   315
%%LanguageLevel: 3
%%EndComments
%%BeginProlog
%%BeginResource: procset (Apache XML Graphics Std ProcSet) 1.2 0
%%Version: 1.2 0
%%Copyright: (Copyright 2001-2003,2010 The Apache Software Foundation. License terms: http://www.apache.org/licenses/LICENSE-2.0)
/bd{bind def}bind def
/ld{load def}bd
/GR/grestore ld
/GS/gsave ld
/RM/rmoveto ld
/C/curveto ld
/t/show ld
/L/lineto ld
/ML/setmiterlimit ld
/CT/concat ld
/f/fill ld
/N/newpath ld
/S/stroke ld
/CC/setcmykcolor ld
/A/ashow ld
/cp/closepath ld
/RC/setrgbcolor ld
/LJ/setlinejoin ld
/GC/setgray ld
/LW/setlinewidth ld
/M/moveto ld
/re {4 2 roll M
1 index 0 rlineto
0 exch rlineto
neg 0 rlineto
cp } bd
/_ctm matrix def
/_tm matrix def
/BT { _ctm currentmatrix pop matrix _tm copy pop 0 0 moveto } bd
/ET { _ctm setmatrix } bd
/iTm { _ctm setmatrix _tm concat } bd
/Tm { _tm astore pop iTm 0 0 moveto } bd
/ux 0.0 def
/uy 0.0 def
/F {
  /Tp exch def
  /Tf exch def
  Tf findfont Tp scalefont setfont
  /cf Tf def  /cs Tp def
} bd
/ULS {currentpoint /uy exch def /ux exch def} bd
/ULE {
  /Tcx currentpoint pop def
  gsave
  newpath
  cf findfont cs scalefont dup
  /FontMatrix get 0 get /Ts exch def /FontInfo get dup
  /UnderlinePosition get Ts mul /To exch def
  /UnderlineThickness get Ts mul /Tt exch def
  ux uy To add moveto  Tcx uy To add lineto
  Tt setlinewidth stroke
  grestore
} bd
/OLE {
  /Tcx currentpoint pop def
  gsave
  newpath
  cf findfont cs scalefont dup
  /FontMatrix get 0 get /Ts exch def /FontInfo get dup
  /UnderlinePosition get Ts mul /To exch def
  /UnderlineThickness get Ts mul /Tt exch def
  ux uy To add cs add moveto Tcx uy To add cs add lineto
  Tt setlinewidth stroke
  grestore
} bd
/SOE {
  /Tcx currentpoint pop def
  gsave
  newpath
  cf findfont cs scalefont dup
  /FontMatrix get 0 get /Ts exch def /FontInfo get dup
  /UnderlinePosition get Ts mul /To exch def
  /UnderlineThickness get Ts mul /Tt exch def
  ux uy To add cs 10 mul 26 idiv add moveto Tcx uy To add cs 10 mul 26 idiv add lineto
  Tt setlinewidth stroke
  grestore
} bd
/QT {
/Y22 exch store
/X22 exch store
/Y21 exch store
/X21 exch store
currentpoint
/Y21 load 2 mul add 3 div exch
/X21 load 2 mul add 3 div exch
/X21 load 2 mul /X22 load add 3 div
/Y21 load 2 mul /Y22 load add 3 div
/X22 load /Y22 load curveto
} bd
/SSPD {
dup length /d exch dict def
{
/v exch def
/k exch def
currentpagedevice k known {
/cpdv currentpagedevice k get def
v cpdv ne {
/upd false def
/nullv v type /nulltype eq def
/nullcpdv cpdv type /nulltype eq def
nullv nullcpdv or
{
/upd true def
} {
/sametype v type cpdv type eq def
sametype {
v type /arraytype eq {
/vlen v length def
/cpdvlen cpdv length def
vlen cpdvlen eq {
0 1 vlen 1 sub {
/i exch def
/obj v i get def
/cpdobj cpdv i get def
obj cpdobj ne {
/upd true def
exit
} if
} for
} {
/upd true def
} ifelse
} {
v type /dicttype eq {
v {
/dv exch def
/dk exch def
/cpddv cpdv dk get def
dv cpddv ne {
/upd true def
exit
} if
} forall
} {
/upd true def
} ifelse
} ifelse
} if
} ifelse
upd true eq {
d k v put
} if
} if
} if
} forall
d length 0 gt {
d setpagedevice
} if
} bd
/RE { % /NewFontName [NewEncodingArray] /FontName RE -
  findfont dup length dict begin
  {
    1 index /FID ne
    {def} {pop pop} ifelse
  } forall
  /Encoding exch def
  /FontName 1 index def
  currentdict definefont pop
  end
} bind def
%%EndResource
%%BeginResource: procset (Apache XML Graphics EPS ProcSet) 1.0 0
%%Version: 1.0 0
%%Copyright: (Copyright 2002-2003 The Apache Software Foundation. License terms: http://www.apache.org/licenses/LICENSE-2.0)
/BeginEPSF { %def
/b4_Inc_state save def         % Save state for cleanup
/dict_count countdictstack def % Count objects on dict stack
/op_count count 1 sub def      % Count objects on operand stack
userdict begin                 % Push userdict on dict stack
/showpage { } def              % Redefine showpage, { } = null proc
0 setgray 0 setlinecap         % Prepare graphics state
1 setlinewidth 0 setlinejoin
10 setmiterlimit [ ] 0 setdash newpath
/languagelevel where           % If level not equal to 1 then
{pop languagelevel             % set strokeadjust and
1 ne                           % overprint to their defaults.
{false setstrokeadjust false setoverprint
} if
} if
} bd
/EndEPSF { %def
count op_count sub {pop} repeat            % Clean up stacks
countdictstack dict_count sub {end} repeat
b4_Inc_state restore
} bd
%%EndResource
%FOPBeginFontDict
%%IncludeResource: font Courier-Oblique
%%IncludeResource: font Courier-BoldOblique
%%IncludeResource: font Courier-Bold
%%IncludeResource: font ZapfDingbats
%%IncludeResource: font Symbol
%%IncludeResource: font Helvetica
%%IncludeResource: font Helvetica-Oblique
%%IncludeResource: font Helvetica-Bold
%%IncludeResource: font Helvetica-BoldOblique
%%IncludeResource: font Times-Roman
%%IncludeResource: font Times-Italic
%%IncludeResource: font Times-Bold
%%IncludeResource: font Times-BoldItalic
%%IncludeResource: font Courier
%FOPEndFontDict
%%BeginResource: encoding WinAnsiEncoding
/WinAnsiEncoding [
/.notdef /.notdef /.notdef /.notdef /.notdef
/.notdef /.notdef /.notdef /.notdef /.notdef
/.notdef /.notdef /.notdef /.notdef /.notdef
/.notdef /.notdef /.notdef /.notdef /.notdef
/.notdef /.notdef /.notdef /.notdef /.notdef
/.notdef /.notdef /.notdef /.notdef /.notdef
/.notdef /.notdef /space /exclam /quotedbl
/numbersign /dollar /percent /ampersand /quotesingle
/parenleft /parenright /asterisk /plus /comma
/hyphen /period /slash /zero /one
/two /three /four /five /six
/seven /eight /nine /colon /semicolon
/less /equal /greater /question /at
/A /B /C /D /E
/F /G /H /I /J
/K /L /M /N /O
/P /Q /R /S /T
/U /V /W /X /Y
/Z /bracketleft /backslash /bracketright /asciicircum
/underscore /quoteleft /a /b /c
/d /e /f /g /h
/i /j /k /l /m
/n /o /p /q /r
/s /t /u /v /w
/x /y /z /braceleft /bar
/braceright /asciitilde /bullet /Euro /bullet
/quotesinglbase /florin /quotedblbase /ellipsis /dagger
/daggerdbl /circumflex /perthousand /Scaron /guilsinglleft
/OE /bullet /Zcaron /bullet /bullet
/quoteleft /quoteright /quotedblleft /quotedblright /bullet
/endash /emdash /asciitilde /trademark /scaron
/guilsinglright /oe /bullet /zcaron /Ydieresis
/space /exclamdown /cent /sterling /currency
/yen /brokenbar /section /dieresis /copyright
/ordfeminine /guillemotleft /logicalnot /sfthyphen /registered
/macron /degree /plusminus /twosuperior /threesuperior
/acute /mu /paragraph /middot /cedilla
/onesuperior /ordmasculine /guillemotright /onequarter /onehalf
/threequarters /questiondown /Agrave /Aacute /Acircumflex
/Atilde /Adieresis /Aring /AE /Ccedilla
/Egrave /Eacute /Ecircumflex /Edieresis /Igrave
/Iacute /Icircumflex /Idieresis /Eth /Ntilde
/Ograve /Oacute /Ocircumflex /Otilde /Odieresis
/multiply /Oslash /Ugrave /Uacute /Ucircumflex
/Udieresis /Yacute /Thorn /germandbls /agrave
/aacute /acircumflex /atilde /adieresis /aring
/ae /ccedilla /egrave /eacute /ecircumflex
/edieresis /igrave /iacute /icircumflex /idieresis
/eth /ntilde /ograve /oacute /ocircumflex
/otilde /odieresis /divide /oslash /ugrave
/uacute /ucircumflex /udieresis /yacute /thorn
/ydieresis
] def
%%EndResource
%FOPBeginFontReencode
/Courier-Oblique findfont
dup length dict begin
  {1 index /FID ne {def} {pop pop} ifelse} forall
  /Encoding WinAnsiEncoding def
  currentdict
end
/Courier-Oblique exch definefont pop
/Courier-BoldOblique findfont
dup length dict begin
  {1 index /FID ne {def} {pop pop} ifelse} forall
  /Encoding WinAnsiEncoding def
  currentdict
end
/Courier-BoldOblique exch definefont pop
/Courier-Bold findfont
dup length dict begin
  {1 index /FID ne {def} {pop pop} ifelse} forall
  /Encoding WinAnsiEncoding def
  currentdict
end
/Courier-Bold exch definefont pop
/Helvetica findfont
dup length dict begin
  {1 index /FID ne {def} {pop pop} ifelse} forall
  /Encoding WinAnsiEncoding def
  currentdict
end
/Helvetica exch definefont pop
/Helvetica-Oblique findfont
dup length dict begin
  {1 index /FID ne {def} {pop pop} ifelse} forall
  /Encoding WinAnsiEncoding def
  currentdict
end
/Helvetica-Oblique exch definefont pop
/Helvetica-Bold findfont
dup length dict begin
  {1 index /FID ne {def} {pop pop} ifelse} forall
  /Encoding WinAnsiEncoding def
  currentdict
end
/Helvetica-Bold exch definefont pop
/Helvetica-BoldOblique findfont
dup length dict begin
  {1 index /FID ne {def} {pop pop} ifelse} forall
  /Encoding WinAnsiEncoding def
  currentdict
end
/Helvetica-BoldOblique exch definefont pop
/Times-Roman findfont
dup length dict begin
  {1 index /FID ne {def} {pop pop} ifelse} forall
  /Encoding WinAnsiEncoding def
  currentdict
end
/Times-Roman exch definefont pop
/Times-Italic findfont
dup length dict begin
  {1 index /FID ne {def} {pop pop} ifelse} forall
  /Encoding WinAnsiEncoding def
  currentdict
end
/Times-Italic exch definefont pop
/Times-Bold findfont
dup length dict begin
  {1 index /FID ne {def} {pop pop} ifelse} forall
  /Encoding WinAnsiEncoding def
  currentdict
end
/Times-Bold exch definefont pop
/Times-BoldItalic findfont
dup length dict begin
  {1 index /FID ne {def} {pop pop} ifelse} forall
  /Encoding WinAnsiEncoding def
  currentdict
end
/Times-BoldItalic exch definefont pop
/Courier findfont
dup length dict begin
  {1 index /FID ne {def} {pop pop} ifelse} forall
  /Encoding WinAnsiEncoding def
  currentdict
end
/Courier exch definefont pop
%FOPEndFontReencode
%%EndProlog
%%Page: 1 1
%%PageBoundingBox: 0 0 420 315
%%BeginPageSetup
[1 0 0 -1 0 315] CT
%%EndPageSetup
GS
[0.75 0 0 0.75 0 0] CT
1 GC
N
0 0 560 420 re
f
GR
GS
[0.75 0 0 0.75 0 0] CT
1 GC
N
0 0 560 420 re
f
GR
GS
[0.75 0 0 0.75 0 0] CT
1 GC
N
73 374 M
507 374 L
507 31 L
73 31 L
cp
f
GR
GS
[0.75 0 0 0.75 0 0] CT
0.149 GC
2 setlinecap
1 LJ
0.667 LW
N
507 374 M
73 374 L
S
GR
GS
[0.75 0 0 0.75 0 0] CT
0.149 GC
2 setlinecap
1 LJ
0.667 LW
N
507 31 M
73 31 L
S
GR
GS
[0.75 0 0 0.75 0 0] CT
0.149 GC
2 setlinecap
1 LJ
0.667 LW
N
507 374 M
507 369.66 L
S
GR
GS
[0.75 0 0 0.75 0 0] CT
0.149 GC
2 setlinecap
1 LJ
0.667 LW
N
434.667 374 M
434.667 369.66 L
S
GR
GS
[0.75 0 0 0.75 0 0] CT
0.149 GC
2 setlinecap
1 LJ
0.667 LW
N
362.333 374 M
362.333 369.66 L
S
GR
GS
[0.75 0 0 0.75 0 0] CT
0.149 GC
2 setlinecap
1 LJ
0.667 LW
N
290 374 M
290 369.66 L
S
GR
GS
[0.75 0 0 0.75 0 0] CT
0.149 GC
2 setlinecap
1 LJ
0.667 LW
N
217.667 374 M
217.667 369.66 L
S
GR
GS
[0.75 0 0 0.75 0 0] CT
0.149 GC
2 setlinecap
1 LJ
0.667 LW
N
145.333 374 M
145.333 369.66 L
S
GR
GS
[0.75 0 0 0.75 0 0] CT
0.149 GC
2 setlinecap
1 LJ
0.667 LW
N
73 374 M
73 369.66 L
S
GR
GS
[0.75 0 0 0.75 0 0] CT
0.149 GC
2 setlinecap
1 LJ
0.667 LW
N
507 31 M
507 35.34 L
S
GR
GS
[0.75 0 0 0.75 0 0] CT
0.149 GC
2 setlinecap
1 LJ
0.667 LW
N
434.667 31 M
434.667 35.34 L
S
GR
GS
[0.75 0 0 0.75 0 0] CT
0.149 GC
2 setlinecap
1 LJ
0.667 LW
N
362.333 31 M
362.333 35.34 L
S
GR
GS
[0.75 0 0 0.75 0 0] CT
0.149 GC
2 setlinecap
1 LJ
0.667 LW
N
290 31 M
290 35.34 L
S
GR
GS
[0.75 0 0 0.75 0 0] CT
0.149 GC
2 setlinecap
1 LJ
0.667 LW
N
217.667 31 M
217.667 35.34 L
S
GR
GS
[0.75 0 0 0.75 0 0] CT
0.149 GC
2 setlinecap
1 LJ
0.667 LW
N
145.333 31 M
145.333 35.34 L
S
GR
GS
[0.75 0 0 0.75 0 0] CT
0.149 GC
2 setlinecap
1 LJ
0.667 LW
N
73 31 M
73 35.34 L
S
GR
GS
[0.75 0 0 0.75 380.25 284.50001] CT
0.149 GC
/Helvetica 13.333 F
GS
[1 0 0 1 0 0] CT
-4 14 moveto 
1 -1 scale
(0) t 
GR
GR
GS
[0.75 0 0 0.75 325.99999 284.50001] CT
0.149 GC
/Helvetica 13.333 F
GS
[1 0 0 1 0 0] CT
-11.5 14 moveto 
1 -1 scale
(100) t 
GR
GR
GS
[0.75 0 0 0.75 271.75001 284.50001] CT
0.149 GC
/Helvetica 13.333 F
GS
[1 0 0 1 0 0] CT
-11.5 14 moveto 
1 -1 scale
(200) t 
GR
GR
GS
[0.75 0 0 0.75 217.5 284.50001] CT
0.149 GC
/Helvetica 13.333 F
GS
[1 0 0 1 0 0] CT
-11.5 14 moveto 
1 -1 scale
(300) t 
GR
GR
GS
[0.75 0 0 0.75 163.25 284.50001] CT
0.149 GC
/Helvetica 13.333 F
GS
[1 0 0 1 0 0] CT
-11.5 14 moveto 
1 -1 scale
(400) t 
GR
GR
GS
[0.75 0 0 0.75 109 284.50001] CT
0.149 GC
/Helvetica 13.333 F
GS
[1 0 0 1 0 0] CT
-11.5 14 moveto 
1 -1 scale
(500) t 
GR
GR
GS
[0.75 0 0 0.75 54.75 284.50001] CT
0.149 GC
/Helvetica 13.333 F
GS
[1 0 0 1 0 0] CT
-11.5 14 moveto 
1 -1 scale
(600) t 
GR
GR
GS
[0.75 0 0 0.75 217.50016 298.24999] CT
0.149 GC
/Helvetica 14.667 F
GS
[1 0 0 1 0 0] CT
-29 15 moveto 
1 -1 scale
(Distance) t 
GR
GR
GS
[0.75 0 0 0.75 0 0] CT
0.149 GC
2 setlinecap
1 LJ
0.667 LW
N
73 374 M
73 31 L
S
GR
GS
[0.75 0 0 0.75 0 0] CT
0.149 GC
2 setlinecap
1 LJ
0.667 LW
N
507 374 M
507 31 L
S
GR
GS
[0.75 0 0 0.75 0 0] CT
0.149 GC
2 setlinecap
1 LJ
0.667 LW
N
73 374 M
77.34 374 L
S
GR
GS
[0.75 0 0 0.75 0 0] CT
0.149 GC
2 setlinecap
1 LJ
0.667 LW
N
73 335.889 M
77.34 335.889 L
S
GR
GS
[0.75 0 0 0.75 0 0] CT
0.149 GC
2 setlinecap
1 LJ
0.667 LW
N
73 297.778 M
77.34 297.778 L
S
GR
GS
[0.75 0 0 0.75 0 0] CT
0.149 GC
2 setlinecap
1 LJ
0.667 LW
N
73 259.667 M
77.34 259.667 L
S
GR
GS
[0.75 0 0 0.75 0 0] CT
0.149 GC
2 setlinecap
1 LJ
0.667 LW
N
73 221.556 M
77.34 221.556 L
S
GR
GS
[0.75 0 0 0.75 0 0] CT
0.149 GC
2 setlinecap
1 LJ
0.667 LW
N
73 183.444 M
77.34 183.444 L
S
GR
GS
[0.75 0 0 0.75 0 0] CT
0.149 GC
2 setlinecap
1 LJ
0.667 LW
N
73 145.333 M
77.34 145.333 L
S
GR
GS
[0.75 0 0 0.75 0 0] CT
0.149 GC
2 setlinecap
1 LJ
0.667 LW
N
73 107.222 M
77.34 107.222 L
S
GR
GS
[0.75 0 0 0.75 0 0] CT
0.149 GC
2 setlinecap
1 LJ
0.667 LW
N
73 69.111 M
77.34 69.111 L
S
GR
GS
[0.75 0 0 0.75 0 0] CT
0.149 GC
2 setlinecap
1 LJ
0.667 LW
N
73 31 M
77.34 31 L
S
GR
GS
[0.75 0 0 0.75 0 0] CT
0.149 GC
2 setlinecap
1 LJ
0.667 LW
N
507 374 M
502.66 374 L
S
GR
GS
[0.75 0 0 0.75 0 0] CT
0.149 GC
2 setlinecap
1 LJ
0.667 LW
N
507 335.889 M
502.66 335.889 L
S
GR
GS
[0.75 0 0 0.75 0 0] CT
0.149 GC
2 setlinecap
1 LJ
0.667 LW
N
507 297.778 M
502.66 297.778 L
S
GR
GS
[0.75 0 0 0.75 0 0] CT
0.149 GC
2 setlinecap
1 LJ
0.667 LW
N
507 259.667 M
502.66 259.667 L
S
GR
GS
[0.75 0 0 0.75 0 0] CT
0.149 GC
2 setlinecap
1 LJ
0.667 LW
N
507 221.556 M
502.66 221.556 L
S
GR
GS
[0.75 0 0 0.75 0 0] CT
0.149 GC
2 setlinecap
1 LJ
0.667 LW
N
507 183.444 M
502.66 183.444 L
S
GR
GS
[0.75 0 0 0.75 0 0] CT
0.149 GC
2 setlinecap
1 LJ
0.667 LW
N
507 145.333 M
502.66 145.333 L
S
GR
GS
[0.75 0 0 0.75 0 0] CT
0.149 GC
2 setlinecap
1 LJ
0.667 LW
N
507 107.222 M
502.66 107.222 L
S
GR
GS
[0.75 0 0 0.75 0 0] CT
0.149 GC
2 setlinecap
1 LJ
0.667 LW
N
507 69.111 M
502.66 69.111 L
S
GR
GS
[0.75 0 0 0.75 0 0] CT
0.149 GC
2 setlinecap
1 LJ
0.667 LW
N
507 31 M
502.66 31 L
S
GR
GS
[0.75 0 0 0.75 50.74999 280.5] CT
0.149 GC
/Helvetica 13.333 F
GS
[1 0 0 1 0 0] CT
-8 5.5 moveto 
1 -1 scale
(8) t 
GR
GR
GS
[0.75 0 0 0.75 50.74999 251.91666] CT
0.149 GC
/Helvetica 13.333 F
GS
[1 0 0 1 0 0] CT
-8 5.5 moveto 
1 -1 scale
(9) t 
GR
GR
GS
[0.75 0 0 0.75 50.74999 223.33333] CT
0.149 GC
/Helvetica 13.333 F
GS
[1 0 0 1 0 0] CT
-15 5.5 moveto 
1 -1 scale
(10) t 
GR
GR
GS
[0.75 0 0 0.75 50.74999 194.74999] CT
0.149 GC
/Helvetica 13.333 F
GS
[1 0 0 1 0 0] CT
-15 5.5 moveto 
1 -1 scale
(11) t 
GR
GR
GS
[0.75 0 0 0.75 50.74999 166.16667] CT
0.149 GC
/Helvetica 13.333 F
GS
[1 0 0 1 0 0] CT
-15 5.5 moveto 
1 -1 scale
(12) t 
GR
GR
GS
[0.75 0 0 0.75 50.74999 137.58333] CT
0.149 GC
/Helvetica 13.333 F
GS
[1 0 0 1 0 0] CT
-15 5.5 moveto 
1 -1 scale
(13) t 
GR
GR
GS
[0.75 0 0 0.75 50.74999 109] CT
0.149 GC
/Helvetica 13.333 F
GS
[1 0 0 1 0 0] CT
-15 5.5 moveto 
1 -1 scale
(14) t 
GR
GR
GS
[0.75 0 0 0.75 50.74999 80.41667] CT
0.149 GC
/Helvetica 13.333 F
GS
[1 0 0 1 0 0] CT
-15 5.5 moveto 
1 -1 scale
(15) t 
GR
GR
GS
[0.75 0 0 0.75 50.74999 51.83334] CT
0.149 GC
/Helvetica 13.333 F
GS
[1 0 0 1 0 0] CT
-15 5.5 moveto 
1 -1 scale
(16) t 
GR
GR
GS
[0.75 0 0 0.75 50.74999 23.25] CT
0.149 GC
/Helvetica 13.333 F
GS
[1 0 0 1 0 0] CT
-15 5.5 moveto 
1 -1 scale
(17) t 
GR
GR
GS
[0 -0.75 0.75 0 36.5 151.87486] CT
0.149 GC
/Helvetica 14.667 F
GS
[1 0 0 1 0 0] CT
-33 -4 moveto 
1 -1 scale
(Amplitude) t 
GR
GR
GS
[0.75 0 0 0.75 0 0] CT
0 0.447 0.741 RC
1 LJ
0.667 LW
N
97.821 227.527 M
98.152 235.354 L
98.519 243.136 L
98.919 250.779 L
99.347 258.212 L
99.799 265.385 L
100.272 272.26 L
100.764 278.814 L
101.27 285.031 L
101.79 290.904 L
102.321 296.432 L
102.861 301.617 L
103.409 306.466 L
103.965 310.989 L
104.526 315.198 L
105.092 319.104 L
105.662 322.723 L
106.235 326.069 L
106.812 329.155 L
107.392 331.999 L
107.974 334.613 L
108.557 337.012 L
109.143 339.21 L
109.73 341.221 L
110.318 343.057 L
110.908 344.731 L
111.498 346.254 L
112.09 347.638 L
112.682 348.891 L
113.276 350.025 L
113.87 351.049 L
114.464 351.97 L
115.06 352.797 L
115.656 353.536 L
116.252 354.196 L
116.85 354.782 L
117.447 355.3 L
118.045 355.756 L
118.644 356.154 L
119.243 356.5 L
119.843 356.797 L
120.443 357.049 L
121.044 357.261 L
121.645 357.436 L
122.247 357.575 L
122.849 357.684 L
123.451 357.763 L
124.054 357.816 L
124.658 357.845 L
125.262 357.851 L
125.866 357.837 L
126.471 357.804 L
127.076 357.754 L
127.682 357.688 L
128.288 357.608 L
128.895 357.515 L
129.502 357.41 L
130.109 357.293 L
130.717 357.167 L
131.325 357.031 L
131.934 356.887 L
132.544 356.735 L
133.153 356.575 L
133.763 356.41 L
134.374 356.238 L
134.985 356.061 L
135.597 355.879 L
136.209 355.692 L
136.821 355.501 L
137.434 355.307 L
138.047 355.109 L
138.661 354.907 L
139.275 354.703 L
139.89 354.496 L
140.505 354.286 L
141.12 354.075 L
141.736 353.861 L
142.353 353.645 L
142.97 353.428 L
143.587 353.209 L
144.205 352.988 L
144.823 352.767 L
145.442 352.544 L
146.061 352.32 L
146.681 352.094 L
147.301 351.868 L
147.921 351.642 L
148.542 351.414 L
149.163 351.186 L
149.785 350.957 L
150.407 350.727 L
151.03 350.497 L
151.653 350.266 L
152.277 350.035 L
152.901 349.803 L
153.525 349.572 L
154.15 349.339 L
154.776 349.107 L
155.402 348.874 L
156.028 348.641 L
156.655 348.407 L
157.282 348.174 L
157.909 347.94 L
158.538 347.706 L
159.166 347.472 L
159.795 347.237 L
160.424 347.003 L
161.054 346.768 L
161.685 346.534 L
162.315 346.299 L
162.947 346.064 L
163.578 345.829 L
164.21 345.594 L
164.843 345.359 L
165.476 345.123 L
166.109 344.888 L
166.743 344.653 L
167.378 344.417 L
168.013 344.182 L
168.648 343.946 L
169.283 343.711 L
169.92 343.475 L
170.556 343.239 L
171.193 343.004 L
171.831 342.768 L
172.469 342.532 L
173.107 342.297 L
173.746 342.061 L
174.385 341.825 L
175.025 341.589 L
175.665 341.353 L
176.306 341.118 L
176.947 340.882 L
177.588 340.646 L
178.23 340.41 L
178.873 340.174 L
179.516 339.938 L
180.159 339.703 L
180.803 339.467 L
181.447 339.231 L
182.091 338.995 L
182.737 338.759 L
183.382 338.523 L
184.028 338.287 L
184.675 338.051 L
185.321 337.816 L
185.969 337.58 L
186.617 337.344 L
187.265 337.108 L
187.914 336.872 L
188.563 336.636 L
189.212 336.4 L
189.862 336.164 L
190.513 335.929 L
191.164 335.693 L
191.815 335.457 L
192.467 335.221 L
193.119 334.985 L
193.772 334.749 L
194.425 334.514 L
195.079 334.278 L
195.733 334.042 L
196.387 333.806 L
197.042 333.57 L
197.698 333.335 L
198.353 333.099 L
199.01 332.863 L
199.666 332.627 L
200.324 332.391 L
200.981 332.156 L
201.639 331.92 L
202.298 331.684 L
202.957 331.448 L
203.616 331.213 L
204.276 330.977 L
204.936 330.741 L
205.597 330.505 L
206.258 330.27 L
206.92 330.034 L
207.582 329.798 L
208.245 329.563 L
208.908 329.327 L
209.571 329.091 L
210.235 328.856 L
210.9 328.62 L
211.564 328.384 L
212.23 328.149 L
212.895 327.913 L
213.561 327.677 L
214.228 327.442 L
214.895 327.206 L
215.562 326.971 L
216.23 326.735 L
216.899 326.5 L
217.568 326.264 L
218.237 326.028 L
218.907 325.793 L
219.577 325.557 L
220.247 325.322 L
220.918 325.086 L
221.59 324.851 L
222.262 324.615 L
222.934 324.38 L
223.607 324.144 L
224.28 323.909 L
224.954 323.674 L
225.628 323.438 L
226.303 323.203 L
226.978 322.967 L
227.654 322.732 L
228.329 322.497 L
229.006 322.261 L
229.683 322.026 L
230.36 321.79 L
231.038 321.555 L
231.716 321.32 L
232.395 321.085 L
233.074 320.849 L
233.753 320.614 L
234.433 320.379 L
235.114 320.143 L
235.795 319.908 L
236.476 319.673 L
237.158 319.438 L
237.84 319.202 L
238.523 318.967 L
239.206 318.732 L
239.889 318.497 L
240.573 318.262 L
241.258 318.027 L
241.943 317.792 L
242.628 317.556 L
243.314 317.321 L
244 317.086 L
244.687 316.851 L
245.374 316.616 L
246.061 316.381 L
246.75 316.146 L
247.438 315.911 L
248.127 315.676 L
248.816 315.441 L
249.506 315.206 L
250.196 314.971 L
250.887 314.736 L
251.578 314.501 L
252.27 314.266 L
252.962 314.032 L
253.654 313.797 L
254.347 313.562 L
255.041 313.327 L
255.734 313.092 L
256.429 312.857 L
257.123 312.622 L
257.819 312.388 L
258.514 312.153 L
259.21 311.918 L
259.907 311.683 L
260.604 311.449 L
261.301 311.214 L
261.999 310.979 L
262.697 310.745 L
263.396 310.51 L
264.095 310.275 L
264.795 310.041 L
265.495 309.806 L
266.195 309.572 L
266.896 309.337 L
267.598 309.103 L
268.299 308.868 L
269.002 308.633 L
269.704 308.399 L
270.408 308.165 L
271.111 307.93 L
271.815 307.696 L
272.52 307.461 L
273.225 307.227 L
273.93 306.992 L
274.636 306.758 L
275.342 306.524 L
276.049 306.289 L
276.756 306.055 L
277.464 305.821 L
278.172 305.586 L
278.88 305.352 L
279.589 305.118 L
280.299 304.884 L
281.009 304.65 L
281.719 304.415 L
282.43 304.181 L
283.141 303.947 L
283.852 303.713 L
284.565 303.479 L
285.277 303.245 L
285.99 303.011 L
286.703 302.777 L
287.417 302.543 L
288.132 302.309 L
288.846 302.075 L
289.561 301.841 L
290.277 301.607 L
290.993 301.373 L
291.71 301.139 L
292.427 300.905 L
293.144 300.671 L
293.862 300.437 L
294.58 300.203 L
295.299 299.97 L
296.018 299.736 L
296.738 299.502 L
297.458 299.268 L
298.178 299.035 L
298.899 298.801 L
299.621 298.567 L
300.342 298.334 L
301.065 298.1 L
301.787 297.866 L
302.511 297.633 L
303.234 297.399 L
303.958 297.166 L
304.683 296.932 L
305.408 296.699 L
306.133 296.465 L
306.859 296.232 L
307.585 295.998 L
308.312 295.765 L
309.039 295.531 L
309.767 295.298 L
310.495 295.065 L
311.223 294.831 L
311.952 294.598 L
312.681 294.365 L
313.411 294.131 L
314.141 293.898 L
314.872 293.665 L
315.603 293.432 L
316.335 293.199 L
317.067 292.966 L
317.799 292.732 L
318.532 292.499 L
319.266 292.266 L
319.999 292.033 L
320.734 291.8 L
321.468 291.567 L
322.203 291.334 L
322.939 291.101 L
323.675 290.868 L
324.411 290.635 L
325.148 290.403 L
325.886 290.17 L
326.623 289.937 L
327.362 289.704 L
328.1 289.471 L
328.839 289.238 L
329.579 289.006 L
330.319 288.773 L
331.059 288.54 L
331.8 288.308 L
332.542 288.075 L
333.283 287.842 L
334.025 287.61 L
334.768 287.377 L
335.511 287.145 L
336.255 286.912 L
336.999 286.68 L
337.743 286.447 L
338.488 286.215 L
339.233 285.982 L
339.979 285.75 L
340.725 285.518 L
341.472 285.285 L
342.219 285.053 L
342.966 284.821 L
343.714 284.589 L
344.462 284.356 L
345.211 284.124 L
345.961 283.892 L
346.71 283.66 L
347.46 283.428 L
348.211 283.196 L
348.962 282.963 L
349.713 282.731 L
350.465 282.499 L
351.218 282.267 L
351.97 282.035 L
352.724 281.804 L
353.477 281.572 L
354.231 281.34 L
354.986 281.108 L
355.741 280.876 L
356.496 280.644 L
357.252 280.412 L
358.008 280.181 L
358.765 279.949 L
359.522 279.717 L
360.28 279.486 L
361.038 279.254 L
361.796 279.022 L
362.555 278.791 L
363.315 278.559 L
364.075 278.328 L
364.835 278.096 L
365.595 277.865 L
366.357 277.633 L
367.118 277.402 L
367.88 277.171 L
368.643 276.939 L
369.406 276.708 L
370.169 276.477 L
370.933 276.245 L
371.697 276.014 L
372.461 275.783 L
373.227 275.552 L
373.992 275.321 L
374.758 275.089 L
375.524 274.858 L
376.291 274.627 L
377.059 274.396 L
377.826 274.165 L
378.594 273.934 L
379.363 273.703 L
380.132 273.472 L
380.901 273.241 L
381.671 273.011 L
382.442 272.78 L
383.212 272.549 L
383.984 272.318 L
384.755 272.087 L
385.527 271.857 L
386.3 271.626 L
387.073 271.395 L
387.846 271.165 L
388.62 270.934 L
389.394 270.704 L
390.169 270.473 L
390.944 270.243 L
391.72 270.012 L
392.496 269.782 L
393.272 269.551 L
394.049 269.321 L
394.827 269.091 L
395.604 268.86 L
396.383 268.63 L
397.161 268.4 L
397.94 268.169 L
398.72 267.939 L
399.5 267.709 L
400.28 267.479 L
401.061 267.249 L
401.842 267.019 L
402.624 266.789 L
403.406 266.559 L
404.189 266.329 L
404.972 266.099 L
405.755 265.869 L
406.539 265.639 L
407.324 265.409 L
408.108 265.179 L
408.894 264.95 L
409.679 264.72 L
410.465 264.49 L
411.252 264.26 L
412.039 264.031 L
412.826 263.801 L
413.614 263.572 L
414.402 263.342 L
415.191 263.112 L
415.98 262.883 L
416.77 262.654 L
417.56 262.424 L
418.35 262.195 L
419.141 261.965 L
419.932 261.736 L
420.724 261.507 L
421.516 261.277 L
422.309 261.048 L
423.102 260.819 L
423.895 260.59 L
424.689 260.361 L
425.483 260.132 L
426.278 259.903 L
427.073 259.673 L
427.869 259.444 L
428.665 259.215 L
429.462 258.987 L
430.259 258.758 L
431.056 258.529 L
431.854 258.3 L
432.652 258.071 L
433.451 257.842 L
434.25 257.614 L
435.05 257.385 L
435.85 257.156 L
436.65 256.928 L
437.451 256.699 L
438.252 256.47 L
439.054 256.242 L
439.856 256.013 L
440.659 255.785 L
441.462 255.557 L
442.265 255.328 L
443.069 255.1 L
443.873 254.871 L
444.678 254.643 L
445.483 254.415 L
446.289 254.187 L
447.095 253.959 L
447.902 253.73 L
448.709 253.502 L
449.516 253.274 L
450.324 253.046 L
451.132 252.818 L
451.941 252.59 L
452.75 252.362 L
453.559 252.134 L
454.369 251.906 L
455.18 251.679 L
455.99 251.451 L
456.802 251.223 L
457.613 250.995 L
458.425 250.768 L
459.238 250.54 L
460.051 250.312 L
460.864 250.085 L
461.678 249.857 L
462.493 249.63 L
463.307 249.402 L
464.122 249.175 L
464.938 248.947 L
465.754 248.72 L
466.57 248.493 L
467.387 248.265 L
468.205 248.038 L
469.022 247.811 L
469.841 247.584 L
470.659 247.356 L
471.478 247.129 L
472.298 246.902 L
473.118 246.675 L
473.938 246.448 L
474.759 246.221 L
475.58 245.994 L
476.401 245.767 L
477.223 245.54 L
478.046 245.314 L
478.869 245.087 L
479.692 244.86 L
480.516 244.633 L
481.34 244.407 L
482.165 244.18 L
482.99 243.953 L
483.815 243.727 L
484.641 243.5 L
485.468 243.274 L
486.294 243.047 L
487.122 242.821 L
487.949 242.595 L
488.777 242.368 L
489.606 242.142 L
490.435 241.916 L
491.264 241.689 L
492.094 241.463 L
492.924 241.237 L
S
GR
GS
[0.75 0 0 0.75 0 0] CT
0.851 0.325 0.098 RC
1 LJ
0.667 LW
N
97.821 209.917 M
98.284 213.432 L
98.769 216.96 L
99.273 220.483 L
99.796 223.982 L
100.335 227.441 L
100.89 230.841 L
101.459 234.172 L
102.041 237.424 L
102.635 240.589 L
103.239 243.659 L
103.853 246.569 L
104.476 249.38 L
105.108 252.082 L
105.747 254.676 L
106.392 257.162 L
107.044 259.54 L
107.701 261.81 L
108.364 263.975 L
109.03 266.038 L
109.701 267.997 L
110.376 269.856 L
111.054 271.616 L
111.735 273.28 L
112.419 274.837 L
113.106 276.297 L
113.795 277.675 L
114.486 278.973 L
115.179 280.193 L
115.874 281.34 L
116.571 282.416 L
117.269 283.424 L
117.969 284.368 L
118.67 285.25 L
119.373 286.072 L
120.076 286.839 L
120.781 287.55 L
121.487 288.209 L
122.193 288.818 L
122.901 289.379 L
123.61 289.896 L
124.319 290.37 L
125.029 290.804 L
125.741 291.199 L
126.453 291.558 L
127.165 291.883 L
127.879 292.175 L
128.593 292.435 L
129.307 292.667 L
130.023 292.871 L
130.739 293.048 L
131.456 293.199 L
132.173 293.327 L
132.891 293.432 L
133.61 293.515 L
134.329 293.578 L
135.049 293.621 L
135.769 293.647 L
136.49 293.655 L
137.212 293.648 L
137.934 293.625 L
138.657 293.588 L
139.38 293.537 L
140.104 293.473 L
140.828 293.397 L
141.553 293.31 L
142.279 293.212 L
143.005 293.103 L
143.732 292.985 L
144.459 292.859 L
145.187 292.723 L
145.915 292.58 L
146.644 292.429 L
147.373 292.27 L
148.103 292.105 L
148.833 291.934 L
149.564 291.757 L
150.296 291.573 L
151.028 291.385 L
151.761 291.192 L
152.494 290.993 L
153.227 290.791 L
153.961 290.584 L
154.696 290.373 L
155.431 290.158 L
156.167 289.94 L
156.903 289.719 L
157.64 289.494 L
158.378 289.266 L
159.116 289.036 L
159.854 288.803 L
160.593 288.568 L
161.332 288.33 L
162.072 288.09 L
162.813 287.848 L
163.554 287.604 L
164.296 287.358 L
165.038 287.11 L
165.78 286.861 L
166.523 286.61 L
167.267 286.358 L
168.011 286.104 L
168.756 285.849 L
169.501 285.593 L
170.247 285.336 L
170.993 285.078 L
171.74 284.819 L
172.488 284.558 L
173.236 284.297 L
173.984 284.035 L
174.733 283.773 L
175.482 283.509 L
176.232 283.245 L
176.983 282.98 L
177.734 282.715 L
178.486 282.449 L
179.238 282.182 L
179.99 281.915 L
180.744 281.647 L
181.497 281.38 L
182.251 281.111 L
183.006 280.842 L
183.761 280.573 L
184.517 280.304 L
185.273 280.034 L
186.03 279.764 L
186.788 279.493 L
187.545 279.222 L
188.304 278.952 L
189.063 278.68 L
189.822 278.409 L
190.582 278.137 L
191.343 277.866 L
192.104 277.594 L
192.865 277.322 L
193.627 277.049 L
194.39 276.777 L
195.153 276.504 L
195.916 276.232 L
196.681 275.959 L
197.445 275.686 L
198.21 275.413 L
198.976 275.14 L
199.742 274.867 L
200.509 274.594 L
201.276 274.321 L
202.044 274.047 L
202.813 273.774 L
203.581 273.5 L
204.351 273.227 L
205.121 272.954 L
205.891 272.68 L
206.662 272.406 L
207.433 272.133 L
208.205 271.859 L
208.978 271.586 L
209.751 271.312 L
210.524 271.038 L
211.298 270.765 L
212.073 270.491 L
212.848 270.217 L
213.624 269.944 L
214.4 269.67 L
215.177 269.397 L
215.954 269.123 L
216.731 268.849 L
217.51 268.576 L
218.288 268.302 L
219.068 268.029 L
219.847 267.755 L
220.628 267.482 L
221.409 267.208 L
222.19 266.935 L
222.972 266.661 L
223.754 266.388 L
224.537 266.114 L
225.32 265.841 L
226.104 265.567 L
226.889 265.294 L
227.674 265.021 L
228.459 264.748 L
229.245 264.474 L
230.032 264.201 L
230.819 263.928 L
231.607 263.655 L
232.395 263.382 L
233.183 263.109 L
233.972 262.836 L
234.762 262.563 L
235.552 262.29 L
236.343 262.017 L
237.134 261.744 L
237.926 261.471 L
238.718 261.198 L
239.511 260.926 L
240.304 260.653 L
241.098 260.38 L
241.892 260.108 L
242.687 259.835 L
243.482 259.562 L
244.278 259.29 L
245.075 259.017 L
245.871 258.745 L
246.669 258.473 L
247.467 258.2 L
248.265 257.928 L
249.064 257.656 L
249.864 257.384 L
250.664 257.111 L
251.464 256.839 L
252.265 256.567 L
253.067 256.295 L
253.869 256.023 L
254.671 255.751 L
255.475 255.48 L
256.278 255.208 L
257.082 254.936 L
257.887 254.664 L
258.692 254.393 L
259.498 254.121 L
260.304 253.849 L
261.111 253.578 L
261.918 253.306 L
262.726 253.035 L
263.534 252.763 L
264.343 252.492 L
265.152 252.221 L
265.962 251.95 L
266.772 251.678 L
267.583 251.407 L
268.394 251.136 L
269.206 250.865 L
270.018 250.594 L
270.831 250.323 L
271.645 250.052 L
272.459 249.781 L
273.273 249.511 L
274.088 249.24 L
274.903 248.969 L
275.719 248.699 L
276.536 248.428 L
277.353 248.157 L
278.17 247.887 L
278.988 247.616 L
279.807 247.346 L
280.626 247.076 L
281.446 246.805 L
282.266 246.535 L
283.086 246.265 L
283.907 245.995 L
284.729 245.725 L
285.551 245.455 L
286.374 245.185 L
287.197 244.915 L
288.021 244.645 L
288.845 244.375 L
289.669 244.105 L
290.495 243.836 L
291.32 243.566 L
292.147 243.296 L
292.973 243.027 L
293.801 242.757 L
294.628 242.488 L
295.457 242.218 L
296.285 241.949 L
297.115 241.68 L
297.944 241.41 L
298.775 241.141 L
299.606 240.872 L
300.437 240.603 L
301.269 240.334 L
302.101 240.065 L
302.934 239.796 L
303.767 239.527 L
304.601 239.258 L
305.436 238.99 L
306.271 238.721 L
307.106 238.452 L
307.942 238.184 L
308.778 237.915 L
309.615 237.647 L
310.453 237.378 L
311.291 237.11 L
312.129 236.841 L
312.968 236.573 L
313.808 236.305 L
314.648 236.037 L
315.488 235.769 L
316.329 235.5 L
317.171 235.232 L
318.013 234.965 L
318.855 234.697 L
319.698 234.429 L
320.542 234.161 L
321.386 233.893 L
322.231 233.626 L
323.076 233.358 L
323.921 233.09 L
324.768 232.823 L
325.614 232.555 L
326.461 232.288 L
327.309 232.021 L
328.157 231.753 L
329.006 231.486 L
329.855 231.219 L
330.704 230.952 L
331.555 230.685 L
332.405 230.418 L
333.256 230.151 L
334.108 229.884 L
334.96 229.617 L
335.813 229.35 L
336.666 229.084 L
337.52 228.817 L
338.374 228.55 L
339.229 228.284 L
340.084 228.017 L
340.94 227.751 L
341.796 227.484 L
342.653 227.218 L
343.51 226.952 L
344.368 226.686 L
345.226 226.42 L
346.085 226.153 L
346.944 225.887 L
347.804 225.621 L
348.664 225.355 L
349.525 225.09 L
350.386 224.824 L
351.248 224.558 L
352.11 224.292 L
352.973 224.027 L
353.837 223.761 L
354.7 223.496 L
355.565 223.23 L
356.43 222.965 L
357.295 222.699 L
358.161 222.434 L
359.027 222.169 L
359.894 221.904 L
360.761 221.639 L
361.629 221.374 L
362.497 221.109 L
363.366 220.844 L
364.236 220.579 L
365.105 220.314 L
365.976 220.049 L
366.847 219.784 L
367.718 219.52 L
368.59 219.255 L
369.462 218.991 L
370.335 218.726 L
371.208 218.462 L
372.082 218.198 L
372.957 217.933 L
373.832 217.669 L
374.707 217.405 L
375.583 217.141 L
376.459 216.877 L
377.336 216.613 L
378.213 216.349 L
379.091 216.085 L
379.97 215.821 L
380.849 215.557 L
381.728 215.294 L
382.608 215.03 L
383.488 214.766 L
384.369 214.503 L
385.251 214.239 L
386.132 213.976 L
387.015 213.713 L
387.898 213.45 L
388.781 213.186 L
389.665 212.923 L
390.549 212.66 L
391.434 212.397 L
392.32 212.134 L
393.206 211.871 L
394.092 211.608 L
394.979 211.346 L
395.866 211.083 L
396.754 210.82 L
397.642 210.558 L
398.531 210.295 L
399.421 210.033 L
400.31 209.77 L
401.201 209.508 L
402.092 209.245 L
402.983 208.983 L
403.875 208.721 L
404.767 208.459 L
405.66 208.197 L
406.554 207.935 L
407.447 207.673 L
408.342 207.411 L
409.237 207.149 L
410.132 206.888 L
411.028 206.626 L
411.924 206.364 L
412.821 206.103 L
413.718 205.841 L
414.616 205.58 L
415.514 205.318 L
416.413 205.057 L
417.313 204.796 L
418.212 204.535 L
419.113 204.274 L
420.013 204.012 L
420.915 203.751 L
421.817 203.491 L
422.719 203.23 L
423.622 202.969 L
424.525 202.708 L
425.429 202.447 L
426.333 202.187 L
427.238 201.926 L
428.143 201.666 L
429.049 201.405 L
429.955 201.145 L
430.862 200.885 L
431.769 200.624 L
432.677 200.364 L
433.585 200.104 L
434.494 199.844 L
435.403 199.584 L
436.312 199.324 L
437.223 199.064 L
438.133 198.804 L
439.045 198.545 L
439.956 198.285 L
440.868 198.025 L
441.781 197.766 L
442.694 197.506 L
443.608 197.247 L
444.522 196.988 L
445.437 196.728 L
446.352 196.469 L
447.267 196.21 L
448.183 195.951 L
449.1 195.692 L
450.017 195.433 L
450.935 195.174 L
451.853 194.915 L
452.771 194.656 L
453.69 194.397 L
454.61 194.139 L
455.53 193.88 L
456.451 193.622 L
457.372 193.363 L
458.293 193.105 L
459.215 192.846 L
460.138 192.588 L
461.06 192.33 L
461.984 192.072 L
462.908 191.814 L
463.832 191.556 L
464.757 191.298 L
465.683 191.04 L
466.609 190.782 L
467.535 190.524 L
468.462 190.267 L
469.389 190.009 L
470.317 189.751 L
471.246 189.494 L
472.174 189.236 L
473.104 188.979 L
474.034 188.722 L
474.964 188.464 L
475.895 188.207 L
476.826 187.95 L
477.758 187.693 L
478.69 187.436 L
479.623 187.179 L
480.556 186.922 L
481.49 186.666 L
482.424 186.409 L
483.359 186.152 L
484.294 185.896 L
485.23 185.639 L
486.166 185.383 L
487.102 185.126 L
488.04 184.87 L
488.977 184.614 L
489.915 184.357 L
490.854 184.101 L
491.793 183.845 L
492.733 183.589 L
S
GR
GS
[0.75 0 0 0.75 0 0] CT
0.929 0.694 0.125 RC
1 LJ
0.667 LW
N
97.821 130.943 M
98.471 131.638 L
99.136 132.335 L
99.814 133.032 L
100.505 133.728 L
101.209 134.422 L
101.925 135.113 L
102.652 135.766 L
103.39 136.396 L
104.139 137.021 L
104.898 137.64 L
105.667 138.253 L
106.445 138.858 L
107.232 139.456 L
108.027 140.045 L
108.831 140.626 L
109.642 141.196 L
110.461 141.757 L
111.287 142.3 L
112.12 142.797 L
112.959 143.285 L
113.804 143.762 L
114.656 144.227 L
115.513 144.681 L
116.376 145.122 L
117.245 145.552 L
118.118 145.969 L
118.996 146.373 L
119.879 146.764 L
120.766 147.141 L
121.657 147.504 L
122.553 147.854 L
123.452 148.19 L
124.355 148.513 L
125.262 148.821 L
126.172 149.115 L
127.086 149.395 L
128.003 149.661 L
128.922 149.913 L
129.845 150.151 L
130.77 150.376 L
131.698 150.587 L
132.629 150.784 L
133.562 150.968 L
134.498 151.138 L
135.436 151.295 L
136.376 151.438 L
137.318 151.569 L
138.262 151.688 L
139.208 151.794 L
140.156 151.889 L
141.106 151.971 L
142.058 152.041 L
143.011 152.1 L
143.967 152.147 L
144.923 152.183 L
145.882 152.207 L
146.842 152.221 L
147.803 152.224 L
148.766 152.218 L
149.73 152.201 L
150.695 152.174 L
151.662 152.138 L
152.63 152.093 L
153.6 152.039 L
154.57 151.976 L
155.542 151.905 L
156.515 151.825 L
157.489 151.738 L
158.464 151.642 L
159.441 151.539 L
160.418 151.428 L
161.396 151.311 L
162.376 151.186 L
163.356 151.054 L
164.337 150.916 L
165.32 150.772 L
166.303 150.621 L
167.287 150.464 L
168.273 150.301 L
169.259 150.132 L
170.246 149.958 L
171.234 149.779 L
172.222 149.594 L
173.212 149.404 L
174.203 149.209 L
175.194 149.01 L
176.186 148.805 L
177.179 148.596 L
178.173 148.383 L
179.168 148.165 L
180.163 147.944 L
181.16 147.718 L
182.157 147.488 L
183.155 147.255 L
184.154 147.018 L
185.153 146.777 L
186.153 146.533 L
187.154 146.286 L
188.156 146.035 L
189.159 145.781 L
190.162 145.524 L
191.166 145.264 L
192.171 145.002 L
193.177 144.736 L
194.183 144.468 L
195.19 144.197 L
196.198 143.924 L
197.207 143.648 L
198.216 143.369 L
199.226 143.089 L
200.237 142.806 L
201.248 142.521 L
202.26 142.234 L
203.273 141.945 L
204.287 141.654 L
205.301 141.361 L
206.317 141.066 L
207.332 140.769 L
208.349 140.47 L
209.366 140.17 L
210.384 139.869 L
211.403 139.565 L
212.422 139.26 L
213.442 138.954 L
214.463 138.646 L
215.485 138.337 L
216.507 138.027 L
217.53 137.715 L
218.553 137.402 L
219.578 137.087 L
220.603 136.772 L
221.628 136.455 L
222.655 136.138 L
223.682 135.819 L
224.71 135.499 L
225.738 135.178 L
226.767 134.857 L
227.797 134.534 L
228.828 134.21 L
229.859 133.886 L
230.891 133.561 L
231.923 133.235 L
232.957 132.908 L
233.991 132.58 L
235.025 132.252 L
236.061 131.923 L
237.097 131.593 L
238.134 131.263 L
239.171 130.932 L
240.209 130.6 L
241.248 130.268 L
242.288 129.935 L
243.328 129.602 L
244.369 129.268 L
245.41 128.934 L
246.452 128.599 L
247.495 128.264 L
248.539 127.928 L
249.583 127.592 L
250.628 127.256 L
251.674 126.919 L
252.72 126.582 L
253.767 126.244 L
254.814 125.906 L
255.863 125.568 L
256.912 125.229 L
257.961 124.89 L
259.012 124.551 L
260.063 124.211 L
261.115 123.872 L
262.167 123.531 L
263.22 123.191 L
264.274 122.851 L
265.328 122.51 L
266.383 122.169 L
267.439 121.828 L
268.495 121.486 L
269.552 121.145 L
270.61 120.803 L
271.669 120.461 L
272.728 120.119 L
273.788 119.777 L
274.848 119.435 L
275.909 119.092 L
276.971 118.75 L
278.033 118.407 L
279.096 118.065 L
280.16 117.722 L
281.225 117.379 L
282.29 117.036 L
283.356 116.693 L
284.422 116.35 L
285.489 116.006 L
286.557 115.663 L
287.625 115.32 L
288.695 114.976 L
289.764 114.633 L
290.835 114.29 L
291.906 113.946 L
292.978 113.603 L
294.05 113.259 L
295.123 112.916 L
296.197 112.572 L
297.272 112.229 L
298.347 111.885 L
299.422 111.541 L
300.499 111.198 L
301.576 110.854 L
302.654 110.511 L
303.732 110.168 L
304.811 109.824 L
305.891 109.481 L
306.971 109.137 L
308.052 108.794 L
309.134 108.451 L
310.216 108.108 L
311.299 107.764 L
312.383 107.421 L
313.467 107.078 L
314.553 106.735 L
315.638 106.392 L
316.725 106.049 L
317.811 105.706 L
318.899 105.363 L
319.987 105.021 L
321.076 104.678 L
322.166 104.336 L
323.256 103.993 L
324.347 103.651 L
325.439 103.308 L
326.531 102.966 L
327.624 102.624 L
328.717 102.282 L
329.812 101.94 L
330.906 101.598 L
332.002 101.256 L
333.098 100.914 L
334.195 100.572 L
335.292 100.231 L
336.391 99.889 L
337.489 99.548 L
338.589 99.207 L
339.689 98.866 L
340.79 98.525 L
341.891 98.184 L
342.993 97.843 L
344.096 97.502 L
345.199 97.161 L
346.303 96.821 L
347.408 96.48 L
348.513 96.14 L
349.619 95.8 L
350.725 95.46 L
351.832 95.12 L
352.94 94.78 L
354.049 94.44 L
355.158 94.101 L
356.268 93.761 L
357.378 93.422 L
358.489 93.083 L
359.601 92.744 L
360.714 92.405 L
361.827 92.066 L
362.94 91.727 L
364.055 91.388 L
365.17 91.05 L
366.285 90.711 L
367.401 90.373 L
368.518 90.035 L
369.636 89.697 L
370.754 89.359 L
371.873 89.021 L
372.992 88.684 L
374.113 88.346 L
375.233 88.009 L
376.355 87.672 L
377.477 87.335 L
378.599 86.998 L
379.723 86.661 L
380.847 86.324 L
381.971 85.988 L
383.097 85.651 L
384.222 85.315 L
385.349 84.979 L
386.476 84.643 L
387.604 84.307 L
388.732 83.971 L
389.861 83.636 L
390.991 83.3 L
392.122 82.965 L
393.253 82.63 L
394.384 82.295 L
395.516 81.96 L
396.649 81.625 L
397.783 81.29 L
398.917 80.956 L
400.052 80.621 L
401.187 80.287 L
402.323 79.953 L
403.46 79.619 L
404.598 79.285 L
405.735 78.952 L
406.874 78.618 L
408.013 78.285 L
409.153 77.952 L
410.294 77.619 L
411.435 77.286 L
412.577 76.953 L
413.719 76.62 L
414.862 76.288 L
416.006 75.955 L
417.15 75.623 L
418.295 75.291 L
419.441 74.959 L
420.587 74.627 L
421.734 74.296 L
422.881 73.964 L
424.029 73.633 L
425.178 73.302 L
426.327 72.97 L
427.477 72.639 L
428.628 72.309 L
429.779 71.978 L
430.931 71.648 L
432.084 71.317 L
433.237 70.987 L
434.391 70.657 L
435.545 70.327 L
436.7 69.997 L
437.855 69.667 L
439.012 69.338 L
440.169 69.009 L
441.326 68.679 L
442.484 68.35 L
443.643 68.021 L
444.802 67.693 L
445.962 67.364 L
447.123 67.036 L
448.284 66.707 L
449.446 66.379 L
450.609 66.051 L
451.772 65.723 L
452.936 65.395 L
454.1 65.068 L
455.265 64.74 L
456.431 64.413 L
457.597 64.086 L
458.764 63.759 L
459.931 63.432 L
461.099 63.105 L
462.268 62.778 L
463.437 62.452 L
464.607 62.126 L
465.778 61.799 L
466.949 61.473 L
468.121 61.148 L
469.293 60.822 L
470.466 60.496 L
471.64 60.171 L
472.814 59.845 L
473.989 59.52 L
475.165 59.195 L
476.341 58.87 L
477.518 58.545 L
478.695 58.221 L
479.873 57.896 L
481.052 57.572 L
482.231 57.248 L
483.411 56.923 L
484.591 56.599 L
485.772 56.276 L
486.954 55.952 L
488.136 55.628 L
489.319 55.305 L
490.502 54.981 L
491.687 54.658 L
492.871 54.334 L
S
GR
GS
[0.75 0 0 0.75 0 0] CT
1 GC
N
492 368 M
492 295 L
414 295 L
414 368 L
cp
f
GR
GS
[0.75 0 0 0.75 345.75 243.75] CT
/Helvetica 12 F
GS
[1 0 0 1 0 0] CT
0 5 moveto 
1 -1 scale
(1700) t 
GR
GR
GS
[0.75 0 0 0.75 0 0] CT
0 0.447 0.741 RC
1 LJ
0.667 LW
N
418 325 M
458 325 L
S
GR
GS
[0.75 0 0 0.75 345.75 256.125] CT
/Helvetica 12 F
GS
[1 0 0 1 0 0] CT
0 5 moveto 
1 -1 scale
(1900) t 
GR
GR
GS
[0.75 0 0 0.75 0 0] CT
0.851 0.325 0.098 RC
1 LJ
0.667 LW
N
418 341.5 M
458 341.5 L
S
GR
GS
[0.75 0 0 0.75 345.75 268.5] CT
/Helvetica 12 F
GS
[1 0 0 1 0 0] CT
0 5 moveto 
1 -1 scale
(2200) t 
GR
GR
GS
[0.75 0 0 0.75 0 0] CT
0.929 0.694 0.125 RC
1 LJ
0.667 LW
N
418 358 M
458 358 L
S
GR
GS
[0.75 0 0 0.75 339.75 228.75] CT
/Helvetica-Bold 12 F
GS
[1 0 0 1 0 0] CT
-30.5 5 moveto 
1 -1 scale
(Frequency) t 
GR
GR
GS
[0.75 0 0 0.75 0 0] CT
0.149 GC
10.0 ML
0.667 LW
N
414 368 M
414 295 L
492 295 L
492 368 L
cp
S
GR
GS
[0.75 0 0 0.75 0 0] CT
0.149 GC
1 LJ
0.667 LW
N
414 315 M
492 315 L
S
GR
%%Trailer
%%Pages: 1
%%EOF
