%!PS-Adobe-3.0 EPSF-3.0
%%Creator: (MATLAB, The Mathworks, Inc. Version 9.9.0.1592791 \(R2020b\) Update 5. Operating System: Windows 10)
%%Title: (C:/Users/marti/Documents/GitHub/bio-inspired-autonomous-systems/Assignment 01 - Lizard Ear Model/robot_1000hz_info.eps)
%%CreationDate: 2021-03-15T11:44:43
%%Pages: (atend)
%%BoundingBox:     0     0  1440   722
%%LanguageLevel: 3
%%EndComments
%%BeginProlog
%%BeginResource: procset (Apache XML Graphics Std ProcSet) 1.2 0
%%Version: 1.2 0
%%Copyright: (Copyright 2001-2003,2010 The Apache Software Foundation. License terms: http://www.apache.org/licenses/LICENSE-2.0)
/bd{bind def}bind def
/ld{load def}bd
/GR/grestore ld
/GS/gsave ld
/RM/rmoveto ld
/C/curveto ld
/t/show ld
/L/lineto ld
/ML/setmiterlimit ld
/CT/concat ld
/f/fill ld
/N/newpath ld
/S/stroke ld
/CC/setcmykcolor ld
/A/ashow ld
/cp/closepath ld
/RC/setrgbcolor ld
/LJ/setlinejoin ld
/GC/setgray ld
/LW/setlinewidth ld
/M/moveto ld
/re {4 2 roll M
1 index 0 rlineto
0 exch rlineto
neg 0 rlineto
cp } bd
/_ctm matrix def
/_tm matrix def
/BT { _ctm currentmatrix pop matrix _tm copy pop 0 0 moveto } bd
/ET { _ctm setmatrix } bd
/iTm { _ctm setmatrix _tm concat } bd
/Tm { _tm astore pop iTm 0 0 moveto } bd
/ux 0.0 def
/uy 0.0 def
/F {
  /Tp exch def
  /Tf exch def
  Tf findfont Tp scalefont setfont
  /cf Tf def  /cs Tp def
} bd
/ULS {currentpoint /uy exch def /ux exch def} bd
/ULE {
  /Tcx currentpoint pop def
  gsave
  newpath
  cf findfont cs scalefont dup
  /FontMatrix get 0 get /Ts exch def /FontInfo get dup
  /UnderlinePosition get Ts mul /To exch def
  /UnderlineThickness get Ts mul /Tt exch def
  ux uy To add moveto  Tcx uy To add lineto
  Tt setlinewidth stroke
  grestore
} bd
/OLE {
  /Tcx currentpoint pop def
  gsave
  newpath
  cf findfont cs scalefont dup
  /FontMatrix get 0 get /Ts exch def /FontInfo get dup
  /UnderlinePosition get Ts mul /To exch def
  /UnderlineThickness get Ts mul /Tt exch def
  ux uy To add cs add moveto Tcx uy To add cs add lineto
  Tt setlinewidth stroke
  grestore
} bd
/SOE {
  /Tcx currentpoint pop def
  gsave
  newpath
  cf findfont cs scalefont dup
  /FontMatrix get 0 get /Ts exch def /FontInfo get dup
  /UnderlinePosition get Ts mul /To exch def
  /UnderlineThickness get Ts mul /Tt exch def
  ux uy To add cs 10 mul 26 idiv add moveto Tcx uy To add cs 10 mul 26 idiv add lineto
  Tt setlinewidth stroke
  grestore
} bd
/QT {
/Y22 exch store
/X22 exch store
/Y21 exch store
/X21 exch store
currentpoint
/Y21 load 2 mul add 3 div exch
/X21 load 2 mul add 3 div exch
/X21 load 2 mul /X22 load add 3 div
/Y21 load 2 mul /Y22 load add 3 div
/X22 load /Y22 load curveto
} bd
/SSPD {
dup length /d exch dict def
{
/v exch def
/k exch def
currentpagedevice k known {
/cpdv currentpagedevice k get def
v cpdv ne {
/upd false def
/nullv v type /nulltype eq def
/nullcpdv cpdv type /nulltype eq def
nullv nullcpdv or
{
/upd true def
} {
/sametype v type cpdv type eq def
sametype {
v type /arraytype eq {
/vlen v length def
/cpdvlen cpdv length def
vlen cpdvlen eq {
0 1 vlen 1 sub {
/i exch def
/obj v i get def
/cpdobj cpdv i get def
obj cpdobj ne {
/upd true def
exit
} if
} for
} {
/upd true def
} ifelse
} {
v type /dicttype eq {
v {
/dv exch def
/dk exch def
/cpddv cpdv dk get def
dv cpddv ne {
/upd true def
exit
} if
} forall
} {
/upd true def
} ifelse
} ifelse
} if
} ifelse
upd true eq {
d k v put
} if
} if
} if
} forall
d length 0 gt {
d setpagedevice
} if
} bd
/RE { % /NewFontName [NewEncodingArray] /FontName RE -
  findfont dup length dict begin
  {
    1 index /FID ne
    {def} {pop pop} ifelse
  } forall
  /Encoding exch def
  /FontName 1 index def
  currentdict definefont pop
  end
} bind def
%%EndResource
%%BeginResource: procset (Apache XML Graphics EPS ProcSet) 1.0 0
%%Version: 1.0 0
%%Copyright: (Copyright 2002-2003 The Apache Software Foundation. License terms: http://www.apache.org/licenses/LICENSE-2.0)
/BeginEPSF { %def
/b4_Inc_state save def         % Save state for cleanup
/dict_count countdictstack def % Count objects on dict stack
/op_count count 1 sub def      % Count objects on operand stack
userdict begin                 % Push userdict on dict stack
/showpage { } def              % Redefine showpage, { } = null proc
0 setgray 0 setlinecap         % Prepare graphics state
1 setlinewidth 0 setlinejoin
10 setmiterlimit [ ] 0 setdash newpath
/languagelevel where           % If level not equal to 1 then
{pop languagelevel             % set strokeadjust and
1 ne                           % overprint to their defaults.
{false setstrokeadjust false setoverprint
} if
} if
} bd
/EndEPSF { %def
count op_count sub {pop} repeat            % Clean up stacks
countdictstack dict_count sub {end} repeat
b4_Inc_state restore
} bd
%%EndResource
%FOPBeginFontDict
%%IncludeResource: font Courier-Oblique
%%IncludeResource: font Courier-BoldOblique
%%IncludeResource: font Courier-Bold
%%IncludeResource: font ZapfDingbats
%%IncludeResource: font Symbol
%%IncludeResource: font Helvetica
%%IncludeResource: font Helvetica-Oblique
%%IncludeResource: font Helvetica-Bold
%%IncludeResource: font Helvetica-BoldOblique
%%IncludeResource: font Times-Roman
%%IncludeResource: font Times-Italic
%%IncludeResource: font Times-Bold
%%IncludeResource: font Times-BoldItalic
%%IncludeResource: font Courier
%FOPEndFontDict
%%BeginResource: encoding WinAnsiEncoding
/WinAnsiEncoding [
/.notdef /.notdef /.notdef /.notdef /.notdef
/.notdef /.notdef /.notdef /.notdef /.notdef
/.notdef /.notdef /.notdef /.notdef /.notdef
/.notdef /.notdef /.notdef /.notdef /.notdef
/.notdef /.notdef /.notdef /.notdef /.notdef
/.notdef /.notdef /.notdef /.notdef /.notdef
/.notdef /.notdef /space /exclam /quotedbl
/numbersign /dollar /percent /ampersand /quotesingle
/parenleft /parenright /asterisk /plus /comma
/hyphen /period /slash /zero /one
/two /three /four /five /six
/seven /eight /nine /colon /semicolon
/less /equal /greater /question /at
/A /B /C /D /E
/F /G /H /I /J
/K /L /M /N /O
/P /Q /R /S /T
/U /V /W /X /Y
/Z /bracketleft /backslash /bracketright /asciicircum
/underscore /quoteleft /a /b /c
/d /e /f /g /h
/i /j /k /l /m
/n /o /p /q /r
/s /t /u /v /w
/x /y /z /braceleft /bar
/braceright /asciitilde /bullet /Euro /bullet
/quotesinglbase /florin /quotedblbase /ellipsis /dagger
/daggerdbl /circumflex /perthousand /Scaron /guilsinglleft
/OE /bullet /Zcaron /bullet /bullet
/quoteleft /quoteright /quotedblleft /quotedblright /bullet
/endash /emdash /asciitilde /trademark /scaron
/guilsinglright /oe /bullet /zcaron /Ydieresis
/space /exclamdown /cent /sterling /currency
/yen /brokenbar /section /dieresis /copyright
/ordfeminine /guillemotleft /logicalnot /sfthyphen /registered
/macron /degree /plusminus /twosuperior /threesuperior
/acute /mu /paragraph /middot /cedilla
/onesuperior /ordmasculine /guillemotright /onequarter /onehalf
/threequarters /questiondown /Agrave /Aacute /Acircumflex
/Atilde /Adieresis /Aring /AE /Ccedilla
/Egrave /Eacute /Ecircumflex /Edieresis /Igrave
/Iacute /Icircumflex /Idieresis /Eth /Ntilde
/Ograve /Oacute /Ocircumflex /Otilde /Odieresis
/multiply /Oslash /Ugrave /Uacute /Ucircumflex
/Udieresis /Yacute /Thorn /germandbls /agrave
/aacute /acircumflex /atilde /adieresis /aring
/ae /ccedilla /egrave /eacute /ecircumflex
/edieresis /igrave /iacute /icircumflex /idieresis
/eth /ntilde /ograve /oacute /ocircumflex
/otilde /odieresis /divide /oslash /ugrave
/uacute /ucircumflex /udieresis /yacute /thorn
/ydieresis
] def
%%EndResource
%FOPBeginFontReencode
/Courier-Oblique findfont
dup length dict begin
  {1 index /FID ne {def} {pop pop} ifelse} forall
  /Encoding WinAnsiEncoding def
  currentdict
end
/Courier-Oblique exch definefont pop
/Courier-BoldOblique findfont
dup length dict begin
  {1 index /FID ne {def} {pop pop} ifelse} forall
  /Encoding WinAnsiEncoding def
  currentdict
end
/Courier-BoldOblique exch definefont pop
/Courier-Bold findfont
dup length dict begin
  {1 index /FID ne {def} {pop pop} ifelse} forall
  /Encoding WinAnsiEncoding def
  currentdict
end
/Courier-Bold exch definefont pop
/Helvetica findfont
dup length dict begin
  {1 index /FID ne {def} {pop pop} ifelse} forall
  /Encoding WinAnsiEncoding def
  currentdict
end
/Helvetica exch definefont pop
/Helvetica-Oblique findfont
dup length dict begin
  {1 index /FID ne {def} {pop pop} ifelse} forall
  /Encoding WinAnsiEncoding def
  currentdict
end
/Helvetica-Oblique exch definefont pop
/Helvetica-Bold findfont
dup length dict begin
  {1 index /FID ne {def} {pop pop} ifelse} forall
  /Encoding WinAnsiEncoding def
  currentdict
end
/Helvetica-Bold exch definefont pop
/Helvetica-BoldOblique findfont
dup length dict begin
  {1 index /FID ne {def} {pop pop} ifelse} forall
  /Encoding WinAnsiEncoding def
  currentdict
end
/Helvetica-BoldOblique exch definefont pop
/Times-Roman findfont
dup length dict begin
  {1 index /FID ne {def} {pop pop} ifelse} forall
  /Encoding WinAnsiEncoding def
  currentdict
end
/Times-Roman exch definefont pop
/Times-Italic findfont
dup length dict begin
  {1 index /FID ne {def} {pop pop} ifelse} forall
  /Encoding WinAnsiEncoding def
  currentdict
end
/Times-Italic exch definefont pop
/Times-Bold findfont
dup length dict begin
  {1 index /FID ne {def} {pop pop} ifelse} forall
  /Encoding WinAnsiEncoding def
  currentdict
end
/Times-Bold exch definefont pop
/Times-BoldItalic findfont
dup length dict begin
  {1 index /FID ne {def} {pop pop} ifelse} forall
  /Encoding WinAnsiEncoding def
  currentdict
end
/Times-BoldItalic exch definefont pop
/Courier findfont
dup length dict begin
  {1 index /FID ne {def} {pop pop} ifelse} forall
  /Encoding WinAnsiEncoding def
  currentdict
end
/Courier exch definefont pop
%FOPEndFontReencode
%%EndProlog
%%Page: 1 1
%%PageBoundingBox: 0 0 1440 722
%%BeginPageSetup
[1 0 0 -1 0 722] CT
%%EndPageSetup
GS
[0.75 0 0 0.75 0 -0.25] CT
1 GC
N
0 0 1920 963 re
f
GR
GS
[0.75 0 0 0.75 0 -0.25] CT
1 GC
N
0 0 1920 963 re
f
GR
GS
[0.75 0 0 0.75 0 -0.25] CT
1 GC
N
1095 401 M
1738 401 L
1738 72 L
1095 72 L
cp
f
GR
GS
[0.75 0 0 0.75 0 -0.25] CT
0.873 GC
1 LJ
0.667 LW
N
1161.397 401 M
1161.397 72 L
S
GR
GS
[0.75 0 0 0.75 0 -0.25] CT
0.873 GC
1 LJ
0.667 LW
N
1231.288 401 M
1231.288 72 L
S
GR
GS
[0.75 0 0 0.75 0 -0.25] CT
0.873 GC
1 LJ
0.667 LW
N
1301.179 401 M
1301.179 72 L
S
GR
GS
[0.75 0 0 0.75 0 -0.25] CT
0.873 GC
1 LJ
0.667 LW
N
1371.071 401 M
1371.071 72 L
S
GR
GS
[0.75 0 0 0.75 0 -0.25] CT
0.873 GC
1 LJ
0.667 LW
N
1440.962 401 M
1440.962 72 L
S
GR
GS
[0.75 0 0 0.75 0 -0.25] CT
0.873 GC
1 LJ
0.667 LW
N
1510.853 401 M
1510.853 72 L
S
GR
GS
[0.75 0 0 0.75 0 -0.25] CT
0.873 GC
1 LJ
0.667 LW
N
1580.745 401 M
1580.745 72 L
S
GR
GS
[0.75 0 0 0.75 0 -0.25] CT
0.873 GC
1 LJ
0.667 LW
N
1650.636 401 M
1650.636 72 L
S
GR
GS
[0.75 0 0 0.75 0 -0.25] CT
0.873 GC
1 LJ
0.667 LW
N
1720.527 401 M
1720.527 72 L
S
GR
GS
[0.75 0 0 0.75 0 -0.25] CT
0.873 GC
1 LJ
0.667 LW
N
1738 401 M
1095 401 L
S
GR
GS
[0.75 0 0 0.75 0 -0.25] CT
0.873 GC
1 LJ
0.667 LW
N
1738 368.1 M
1095 368.1 L
S
GR
GS
[0.75 0 0 0.75 0 -0.25] CT
0.873 GC
1 LJ
0.667 LW
N
1738 335.2 M
1095 335.2 L
S
GR
GS
[0.75 0 0 0.75 0 -0.25] CT
0.873 GC
1 LJ
0.667 LW
N
1738 302.3 M
1095 302.3 L
S
GR
GS
[0.75 0 0 0.75 0 -0.25] CT
0.873 GC
1 LJ
0.667 LW
N
1738 269.4 M
1095 269.4 L
S
GR
GS
[0.75 0 0 0.75 0 -0.25] CT
0.873 GC
1 LJ
0.667 LW
N
1738 236.5 M
1095 236.5 L
S
GR
GS
[0.75 0 0 0.75 0 -0.25] CT
0.873 GC
1 LJ
0.667 LW
N
1738 203.6 M
1095 203.6 L
S
GR
GS
[0.75 0 0 0.75 0 -0.25] CT
0.873 GC
1 LJ
0.667 LW
N
1738 170.7 M
1095 170.7 L
S
GR
GS
[0.75 0 0 0.75 0 -0.25] CT
0.873 GC
1 LJ
0.667 LW
N
1738 137.8 M
1095 137.8 L
S
GR
GS
[0.75 0 0 0.75 0 -0.25] CT
0.873 GC
1 LJ
0.667 LW
N
1738 104.9 M
1095 104.9 L
S
GR
GS
[0.75 0 0 0.75 0 -0.25] CT
0.873 GC
1 LJ
0.667 LW
N
1738 72 M
1095 72 L
S
GR
GS
[0.75 0 0 0.75 0 -0.25] CT
0.149 GC
2 setlinecap
1 LJ
0.667 LW
N
1095 401 M
1738 401 L
S
GR
GS
[0.75 0 0 0.75 0 -0.25] CT
0.149 GC
2 setlinecap
1 LJ
0.667 LW
N
1161.397 401 M
1161.397 394.57 L
S
GR
GS
[0.75 0 0 0.75 0 -0.25] CT
0.149 GC
2 setlinecap
1 LJ
0.667 LW
N
1231.288 401 M
1231.288 394.57 L
S
GR
GS
[0.75 0 0 0.75 0 -0.25] CT
0.149 GC
2 setlinecap
1 LJ
0.667 LW
N
1301.179 401 M
1301.179 394.57 L
S
GR
GS
[0.75 0 0 0.75 0 -0.25] CT
0.149 GC
2 setlinecap
1 LJ
0.667 LW
N
1371.071 401 M
1371.071 394.57 L
S
GR
GS
[0.75 0 0 0.75 0 -0.25] CT
0.149 GC
2 setlinecap
1 LJ
0.667 LW
N
1440.962 401 M
1440.962 394.57 L
S
GR
GS
[0.75 0 0 0.75 0 -0.25] CT
0.149 GC
2 setlinecap
1 LJ
0.667 LW
N
1510.853 401 M
1510.853 394.57 L
S
GR
GS
[0.75 0 0 0.75 0 -0.25] CT
0.149 GC
2 setlinecap
1 LJ
0.667 LW
N
1580.745 401 M
1580.745 394.57 L
S
GR
GS
[0.75 0 0 0.75 0 -0.25] CT
0.149 GC
2 setlinecap
1 LJ
0.667 LW
N
1650.636 401 M
1650.636 394.57 L
S
GR
GS
[0.75 0 0 0.75 0 -0.25] CT
0.149 GC
2 setlinecap
1 LJ
0.667 LW
N
1720.527 401 M
1720.527 394.57 L
S
GR
GS
[0.75 0 0 0.75 871.04755 304.50001] CT
0.149 GC
/Helvetica 13.333 F
GS
[1 0 0 1 0 0] CT
-7.5 14 moveto 
1 -1 scale
(20) t 
GR
GR
GS
[0.75 0 0 0.75 923.46606 304.50001] CT
0.149 GC
/Helvetica 13.333 F
GS
[1 0 0 1 0 0] CT
-7.5 14 moveto 
1 -1 scale
(40) t 
GR
GR
GS
[0.75 0 0 0.75 975.88449 304.50001] CT
0.149 GC
/Helvetica 13.333 F
GS
[1 0 0 1 0 0] CT
-7.5 14 moveto 
1 -1 scale
(60) t 
GR
GR
GS
[0.75 0 0 0.75 1028.30301 304.50001] CT
0.149 GC
/Helvetica 13.333 F
GS
[1 0 0 1 0 0] CT
-7.5 14 moveto 
1 -1 scale
(80) t 
GR
GR
GS
[0.75 0 0 0.75 1080.72144 304.50001] CT
0.149 GC
/Helvetica 13.333 F
GS
[1 0 0 1 0 0] CT
-11.5 14 moveto 
1 -1 scale
(100) t 
GR
GR
GS
[0.75 0 0 0.75 1133.13995 304.50001] CT
0.149 GC
/Helvetica 13.333 F
GS
[1 0 0 1 0 0] CT
-11.5 14 moveto 
1 -1 scale
(120) t 
GR
GR
GS
[0.75 0 0 0.75 1185.55838 304.50001] CT
0.149 GC
/Helvetica 13.333 F
GS
[1 0 0 1 0 0] CT
-11.5 14 moveto 
1 -1 scale
(140) t 
GR
GR
GS
[0.75 0 0 0.75 1237.9769 304.50001] CT
0.149 GC
/Helvetica 13.333 F
GS
[1 0 0 1 0 0] CT
-11.5 14 moveto 
1 -1 scale
(160) t 
GR
GR
GS
[0.75 0 0 0.75 1290.39542 304.50001] CT
0.149 GC
/Helvetica 13.333 F
GS
[1 0 0 1 0 0] CT
-11.5 14 moveto 
1 -1 scale
(180) t 
GR
GR
GS
[0.75 0 0 0.75 0 -0.25] CT
0.149 GC
2 setlinecap
1 LJ
0.667 LW
N
1095 401 M
1095 72 L
S
GR
GS
[0.75 0 0 0.75 0 -0.25] CT
0.149 GC
2 setlinecap
1 LJ
0.667 LW
N
1095 401 M
1101.43 401 L
S
GR
GS
[0.75 0 0 0.75 0 -0.25] CT
0.149 GC
2 setlinecap
1 LJ
0.667 LW
N
1095 368.1 M
1101.43 368.1 L
S
GR
GS
[0.75 0 0 0.75 0 -0.25] CT
0.149 GC
2 setlinecap
1 LJ
0.667 LW
N
1095 335.2 M
1101.43 335.2 L
S
GR
GS
[0.75 0 0 0.75 0 -0.25] CT
0.149 GC
2 setlinecap
1 LJ
0.667 LW
N
1095 302.3 M
1101.43 302.3 L
S
GR
GS
[0.75 0 0 0.75 0 -0.25] CT
0.149 GC
2 setlinecap
1 LJ
0.667 LW
N
1095 269.4 M
1101.43 269.4 L
S
GR
GS
[0.75 0 0 0.75 0 -0.25] CT
0.149 GC
2 setlinecap
1 LJ
0.667 LW
N
1095 236.5 M
1101.43 236.5 L
S
GR
GS
[0.75 0 0 0.75 0 -0.25] CT
0.149 GC
2 setlinecap
1 LJ
0.667 LW
N
1095 203.6 M
1101.43 203.6 L
S
GR
GS
[0.75 0 0 0.75 0 -0.25] CT
0.149 GC
2 setlinecap
1 LJ
0.667 LW
N
1095 170.7 M
1101.43 170.7 L
S
GR
GS
[0.75 0 0 0.75 0 -0.25] CT
0.149 GC
2 setlinecap
1 LJ
0.667 LW
N
1095 137.8 M
1101.43 137.8 L
S
GR
GS
[0.75 0 0 0.75 0 -0.25] CT
0.149 GC
2 setlinecap
1 LJ
0.667 LW
N
1095 104.9 M
1101.43 104.9 L
S
GR
GS
[0.75 0 0 0.75 0 -0.25] CT
0.149 GC
2 setlinecap
1 LJ
0.667 LW
N
1095 72 M
1101.43 72 L
S
GR
GS
[0.75 0 0 0.75 817.24997 300.5] CT
0.149 GC
/Helvetica 13.333 F
GS
[1 0 0 1 0 0] CT
-8 5.5 moveto 
1 -1 scale
(0) t 
GR
GR
GS
[0.75 0 0 0.75 817.24997 275.825] CT
0.149 GC
/Helvetica 13.333 F
GS
[1 0 0 1 0 0] CT
-19 5.5 moveto 
1 -1 scale
(0.5) t 
GR
GR
GS
[0.75 0 0 0.75 817.24997 251.15001] CT
0.149 GC
/Helvetica 13.333 F
GS
[1 0 0 1 0 0] CT
-8 5.5 moveto 
1 -1 scale
(1) t 
GR
GR
GS
[0.75 0 0 0.75 817.24997 226.47499] CT
0.149 GC
/Helvetica 13.333 F
GS
[1 0 0 1 0 0] CT
-19 5.5 moveto 
1 -1 scale
(1.5) t 
GR
GR
GS
[0.75 0 0 0.75 817.24997 201.8] CT
0.149 GC
/Helvetica 13.333 F
GS
[1 0 0 1 0 0] CT
-8 5.5 moveto 
1 -1 scale
(2) t 
GR
GR
GS
[0.75 0 0 0.75 817.24997 177.125] CT
0.149 GC
/Helvetica 13.333 F
GS
[1 0 0 1 0 0] CT
-19 5.5 moveto 
1 -1 scale
(2.5) t 
GR
GR
GS
[0.75 0 0 0.75 817.24997 152.45] CT
0.149 GC
/Helvetica 13.333 F
GS
[1 0 0 1 0 0] CT
-8 5.5 moveto 
1 -1 scale
(3) t 
GR
GR
GS
[0.75 0 0 0.75 817.24997 127.775] CT
0.149 GC
/Helvetica 13.333 F
GS
[1 0 0 1 0 0] CT
-19 5.5 moveto 
1 -1 scale
(3.5) t 
GR
GR
GS
[0.75 0 0 0.75 817.24997 103.1] CT
0.149 GC
/Helvetica 13.333 F
GS
[1 0 0 1 0 0] CT
-8 5.5 moveto 
1 -1 scale
(4) t 
GR
GR
GS
[0.75 0 0 0.75 817.24997 78.425] CT
0.149 GC
/Helvetica 13.333 F
GS
[1 0 0 1 0 0] CT
-19 5.5 moveto 
1 -1 scale
(4.5) t 
GR
GR
GS
[0.75 0 0 0.75 817.24997 53.75] CT
0.149 GC
/Helvetica 13.333 F
GS
[1 0 0 1 0 0] CT
-8 5.5 moveto 
1 -1 scale
(5) t 
GR
GR
GS
[0.75 0 0 0.75 1062.37601 51.6875] CT
/Helvetica-Bold 14.667 F
GS
[1 0 0 1 0 0] CT
-181.5 -4 moveto 
1 -1 scale
(Motor velocities: left motor \(red\), right motor \(black\)) t 
GR
GR
GS
[0.75 0 0 0.75 0 -0.25] CT
1 0 0 RC
1 LJ
2.667 LW
N
1095 335.2 M
1098.495 335.2 L
1101.989 335.2 L
1105.484 335.2 L
1108.978 72 L
1112.473 335.2 L
1115.967 72 L
1119.462 335.2 L
1122.957 72 L
1126.451 335.2 L
1129.946 72 L
1133.44 335.2 L
1136.935 72 L
1140.429 335.2 L
1143.924 72 L
1147.418 335.2 L
1150.913 72 L
1154.408 335.2 L
1157.902 72 L
1161.397 335.2 L
1164.891 72 L
1168.386 335.2 L
1171.88 72 L
1175.375 335.2 L
1178.87 72 L
1182.364 335.2 L
1185.859 72 L
1189.353 335.2 L
1192.848 72 L
1196.342 335.2 L
1199.837 72 L
1203.332 335.2 L
1206.826 72 L
1210.321 335.2 L
1213.815 72 L
1217.31 335.2 L
1220.804 72 L
1224.299 335.2 L
1227.793 72 L
1231.288 335.2 L
1234.783 72 L
1238.277 335.2 L
1241.772 72 L
1245.266 335.2 L
1248.761 72 L
1252.255 335.2 L
1255.75 72 L
1259.245 335.2 L
1262.739 72 L
1266.234 335.2 L
1269.728 72 L
1273.223 335.2 L
1276.717 72 L
1280.212 335.2 L
1283.707 72 L
1287.201 335.2 L
1290.696 72 L
1294.19 335.2 L
1297.685 72 L
1301.179 335.2 L
1304.674 72 L
1308.168 335.2 L
1311.663 72 L
1315.158 335.2 L
1318.652 72 L
1322.147 335.2 L
1325.641 72 L
1329.136 72 L
1332.63 335.2 L
1336.125 335.2 L
1339.62 72 L
1343.114 72 L
1346.609 335.2 L
1350.103 335.2 L
1353.598 72 L
1357.092 72 L
1360.587 335.2 L
1364.082 335.2 L
1367.576 72 L
1371.071 72 L
1374.565 335.2 L
1378.06 335.2 L
1381.554 72 L
1385.049 72 L
1388.543 335.2 L
1392.038 335.2 L
1395.533 72 L
1399.027 72 L
1402.522 335.2 L
1406.016 335.2 L
1409.511 72 L
1413.005 72 L
1416.5 335.2 L
1419.995 335.2 L
1423.489 72 L
1426.984 72 L
1430.478 335.2 L
1433.973 335.2 L
1437.467 72 L
1440.962 72 L
1444.457 335.2 L
1447.951 335.2 L
1451.446 72 L
1454.94 72 L
1458.435 335.2 L
1461.929 335.2 L
1465.424 72 L
1468.918 72 L
1472.413 335.2 L
1475.908 335.2 L
1479.402 72 L
1482.897 72 L
1486.391 335.2 L
1489.886 335.2 L
1493.38 72 L
1496.875 72 L
1500.37 335.2 L
1503.864 335.2 L
1507.359 72 L
1510.853 72 L
1514.348 335.2 L
1517.842 335.2 L
1521.337 72 L
1524.832 72 L
1528.326 335.2 L
1531.821 335.2 L
1535.315 72 L
1538.81 72 L
1542.304 335.2 L
1545.799 335.2 L
1549.293 72 L
1552.788 72 L
1556.283 335.2 L
1559.777 335.2 L
1563.272 72 L
1566.766 72 L
1570.261 335.2 L
1573.755 335.2 L
1577.25 72 L
1580.745 72 L
1584.239 335.2 L
1587.734 335.2 L
1591.228 72 L
1594.723 72 L
1598.217 335.2 L
1601.712 335.2 L
1605.207 72 L
1608.701 72 L
1612.196 335.2 L
1615.69 335.2 L
1619.185 72 L
1622.679 72 L
1626.174 335.2 L
1629.668 335.2 L
1633.163 72 L
1636.658 72 L
1640.152 335.2 L
1643.647 335.2 L
1647.141 72 L
1650.636 72 L
1654.13 335.2 L
1657.625 335.2 L
1661.12 72 L
1664.614 72 L
1668.109 335.2 L
1671.603 335.2 L
1675.098 72 L
1678.592 72 L
1682.087 335.2 L
1685.582 335.2 L
1689.076 72 L
1692.571 72 L
1696.065 335.2 L
1699.56 335.2 L
1703.054 72 L
1706.549 72 L
1710.043 335.2 L
1713.538 335.2 L
1717.033 72 L
1720.527 72 L
1724.022 335.2 L
1727.516 335.2 L
1731.011 72 L
1734.505 72 L
1738 335.2 L
S
GR
GS
[0.75 0 0 0.75 0 -0.25] CT
1 LJ
2.667 LW
N
1095 72 M
1098.495 72 L
1101.989 72 L
1105.484 72 L
1108.978 335.2 L
1112.473 72 L
1115.967 335.2 L
1119.462 72 L
1122.957 335.2 L
1126.451 72 L
1129.946 335.2 L
1133.44 72 L
1136.935 335.2 L
1140.429 72 L
1143.924 335.2 L
1147.418 72 L
1150.913 335.2 L
1154.408 72 L
1157.902 335.2 L
1161.397 72 L
1164.891 335.2 L
1168.386 72 L
1171.88 335.2 L
1175.375 72 L
1178.87 335.2 L
1182.364 72 L
1185.859 335.2 L
1189.353 72 L
1192.848 335.2 L
1196.342 72 L
1199.837 335.2 L
1203.332 72 L
1206.826 335.2 L
1210.321 72 L
1213.815 335.2 L
1217.31 72 L
1220.804 335.2 L
1224.299 72 L
1227.793 335.2 L
1231.288 72 L
1234.783 335.2 L
1238.277 72 L
1241.772 335.2 L
1245.266 72 L
1248.761 335.2 L
1252.255 72 L
1255.75 335.2 L
1259.245 72 L
1262.739 335.2 L
1266.234 72 L
1269.728 335.2 L
1273.223 72 L
1276.717 335.2 L
1280.212 72 L
1283.707 335.2 L
1287.201 72 L
1290.696 335.2 L
1294.19 72 L
1297.685 335.2 L
1301.179 72 L
1304.674 335.2 L
1308.168 72 L
1311.663 335.2 L
1315.158 72 L
1318.652 335.2 L
1322.147 72 L
1325.641 335.2 L
1329.136 335.2 L
1332.63 72 L
1336.125 72 L
1339.62 335.2 L
1343.114 335.2 L
1346.609 72 L
1350.103 72 L
1353.598 335.2 L
1357.092 335.2 L
1360.587 72 L
1364.082 72 L
1367.576 335.2 L
1371.071 335.2 L
1374.565 72 L
1378.06 72 L
1381.554 335.2 L
1385.049 335.2 L
1388.543 72 L
1392.038 72 L
1395.533 335.2 L
1399.027 335.2 L
1402.522 72 L
1406.016 72 L
1409.511 335.2 L
1413.005 335.2 L
1416.5 72 L
1419.995 72 L
1423.489 335.2 L
1426.984 335.2 L
1430.478 72 L
1433.973 72 L
1437.467 335.2 L
1440.962 335.2 L
1444.457 72 L
1447.951 72 L
1451.446 335.2 L
1454.94 335.2 L
1458.435 72 L
1461.929 72 L
1465.424 335.2 L
1468.918 335.2 L
1472.413 72 L
1475.908 72 L
1479.402 335.2 L
1482.897 335.2 L
1486.391 72 L
1489.886 72 L
1493.38 335.2 L
1496.875 335.2 L
1500.37 72 L
1503.864 72 L
1507.359 335.2 L
1510.853 335.2 L
1514.348 72 L
1517.842 72 L
1521.337 335.2 L
1524.832 335.2 L
1528.326 72 L
1531.821 72 L
1535.315 335.2 L
1538.81 335.2 L
1542.304 72 L
1545.799 72 L
1549.293 335.2 L
1552.788 335.2 L
1556.283 72 L
1559.777 72 L
1563.272 335.2 L
1566.766 335.2 L
1570.261 72 L
1573.755 72 L
1577.25 335.2 L
1580.745 335.2 L
1584.239 72 L
1587.734 72 L
1591.228 335.2 L
1594.723 335.2 L
1598.217 72 L
1601.712 72 L
1605.207 335.2 L
1608.701 335.2 L
1612.196 72 L
1615.69 72 L
1619.185 335.2 L
1622.679 335.2 L
1626.174 72 L
1629.668 72 L
1633.163 335.2 L
1636.658 335.2 L
1640.152 72 L
1643.647 72 L
1647.141 335.2 L
1650.636 335.2 L
1654.13 72 L
1657.625 72 L
1661.12 335.2 L
1664.614 335.2 L
1668.109 72 L
1671.603 72 L
1675.098 335.2 L
1678.592 335.2 L
1682.087 72 L
1685.582 72 L
1689.076 335.2 L
1692.571 335.2 L
1696.065 72 L
1699.56 72 L
1703.054 335.2 L
1706.549 335.2 L
1710.043 72 L
1713.538 72 L
1717.033 335.2 L
1720.527 335.2 L
1724.022 72 L
1727.516 72 L
1731.011 335.2 L
1734.505 335.2 L
1738 72 L
S
GR
GS
[0.75 0 0 0.75 0 -0.25] CT
1 GC
N
1095 857 M
1738 857 L
1738 529 L
1095 529 L
cp
f
GR
GS
[0.75 0 0 0.75 0 -0.25] CT
0.873 GC
1 LJ
0.667 LW
N
1161.397 857 M
1161.397 529 L
S
GR
GS
[0.75 0 0 0.75 0 -0.25] CT
0.873 GC
1 LJ
0.667 LW
N
1231.288 857 M
1231.288 529 L
S
GR
GS
[0.75 0 0 0.75 0 -0.25] CT
0.873 GC
1 LJ
0.667 LW
N
1301.179 857 M
1301.179 529 L
S
GR
GS
[0.75 0 0 0.75 0 -0.25] CT
0.873 GC
1 LJ
0.667 LW
N
1371.071 857 M
1371.071 529 L
S
GR
GS
[0.75 0 0 0.75 0 -0.25] CT
0.873 GC
1 LJ
0.667 LW
N
1440.962 857 M
1440.962 529 L
S
GR
GS
[0.75 0 0 0.75 0 -0.25] CT
0.873 GC
1 LJ
0.667 LW
N
1510.853 857 M
1510.853 529 L
S
GR
GS
[0.75 0 0 0.75 0 -0.25] CT
0.873 GC
1 LJ
0.667 LW
N
1580.745 857 M
1580.745 529 L
S
GR
GS
[0.75 0 0 0.75 0 -0.25] CT
0.873 GC
1 LJ
0.667 LW
N
1650.636 857 M
1650.636 529 L
S
GR
GS
[0.75 0 0 0.75 0 -0.25] CT
0.873 GC
1 LJ
0.667 LW
N
1720.527 857 M
1720.527 529 L
S
GR
GS
[0.75 0 0 0.75 0 -0.25] CT
0.873 GC
1 LJ
0.667 LW
N
1738 857 M
1095 857 L
S
GR
GS
[0.75 0 0 0.75 0 -0.25] CT
0.873 GC
1 LJ
0.667 LW
N
1738 802.333 M
1095 802.333 L
S
GR
GS
[0.75 0 0 0.75 0 -0.25] CT
0.873 GC
1 LJ
0.667 LW
N
1738 747.667 M
1095 747.667 L
S
GR
GS
[0.75 0 0 0.75 0 -0.25] CT
0.873 GC
1 LJ
0.667 LW
N
1738 693 M
1095 693 L
S
GR
GS
[0.75 0 0 0.75 0 -0.25] CT
0.873 GC
1 LJ
0.667 LW
N
1738 638.333 M
1095 638.333 L
S
GR
GS
[0.75 0 0 0.75 0 -0.25] CT
0.873 GC
1 LJ
0.667 LW
N
1738 583.667 M
1095 583.667 L
S
GR
GS
[0.75 0 0 0.75 0 -0.25] CT
0.873 GC
1 LJ
0.667 LW
N
1738 529 M
1095 529 L
S
GR
GS
[0.75 0 0 0.75 0 -0.25] CT
0.149 GC
2 setlinecap
1 LJ
0.667 LW
N
1095 857 M
1738 857 L
S
GR
GS
[0.75 0 0 0.75 0 -0.25] CT
0.149 GC
2 setlinecap
1 LJ
0.667 LW
N
1161.397 857 M
1161.397 850.57 L
S
GR
GS
[0.75 0 0 0.75 0 -0.25] CT
0.149 GC
2 setlinecap
1 LJ
0.667 LW
N
1231.288 857 M
1231.288 850.57 L
S
GR
GS
[0.75 0 0 0.75 0 -0.25] CT
0.149 GC
2 setlinecap
1 LJ
0.667 LW
N
1301.179 857 M
1301.179 850.57 L
S
GR
GS
[0.75 0 0 0.75 0 -0.25] CT
0.149 GC
2 setlinecap
1 LJ
0.667 LW
N
1371.071 857 M
1371.071 850.57 L
S
GR
GS
[0.75 0 0 0.75 0 -0.25] CT
0.149 GC
2 setlinecap
1 LJ
0.667 LW
N
1440.962 857 M
1440.962 850.57 L
S
GR
GS
[0.75 0 0 0.75 0 -0.25] CT
0.149 GC
2 setlinecap
1 LJ
0.667 LW
N
1510.853 857 M
1510.853 850.57 L
S
GR
GS
[0.75 0 0 0.75 0 -0.25] CT
0.149 GC
2 setlinecap
1 LJ
0.667 LW
N
1580.745 857 M
1580.745 850.57 L
S
GR
GS
[0.75 0 0 0.75 0 -0.25] CT
0.149 GC
2 setlinecap
1 LJ
0.667 LW
N
1650.636 857 M
1650.636 850.57 L
S
GR
GS
[0.75 0 0 0.75 0 -0.25] CT
0.149 GC
2 setlinecap
1 LJ
0.667 LW
N
1720.527 857 M
1720.527 850.57 L
S
GR
GS
[0.75 0 0 0.75 871.04755 646.49998] CT
0.149 GC
/Helvetica 13.333 F
GS
[1 0 0 1 0 0] CT
-7.5 14 moveto 
1 -1 scale
(20) t 
GR
GR
GS
[0.75 0 0 0.75 923.46606 646.49998] CT
0.149 GC
/Helvetica 13.333 F
GS
[1 0 0 1 0 0] CT
-7.5 14 moveto 
1 -1 scale
(40) t 
GR
GR
GS
[0.75 0 0 0.75 975.88449 646.49998] CT
0.149 GC
/Helvetica 13.333 F
GS
[1 0 0 1 0 0] CT
-7.5 14 moveto 
1 -1 scale
(60) t 
GR
GR
GS
[0.75 0 0 0.75 1028.30301 646.49998] CT
0.149 GC
/Helvetica 13.333 F
GS
[1 0 0 1 0 0] CT
-7.5 14 moveto 
1 -1 scale
(80) t 
GR
GR
GS
[0.75 0 0 0.75 1080.72144 646.49998] CT
0.149 GC
/Helvetica 13.333 F
GS
[1 0 0 1 0 0] CT
-11.5 14 moveto 
1 -1 scale
(100) t 
GR
GR
GS
[0.75 0 0 0.75 1133.13995 646.49998] CT
0.149 GC
/Helvetica 13.333 F
GS
[1 0 0 1 0 0] CT
-11.5 14 moveto 
1 -1 scale
(120) t 
GR
GR
GS
[0.75 0 0 0.75 1185.55838 646.49998] CT
0.149 GC
/Helvetica 13.333 F
GS
[1 0 0 1 0 0] CT
-11.5 14 moveto 
1 -1 scale
(140) t 
GR
GR
GS
[0.75 0 0 0.75 1237.9769 646.49998] CT
0.149 GC
/Helvetica 13.333 F
GS
[1 0 0 1 0 0] CT
-11.5 14 moveto 
1 -1 scale
(160) t 
GR
GR
GS
[0.75 0 0 0.75 1290.39542 646.49998] CT
0.149 GC
/Helvetica 13.333 F
GS
[1 0 0 1 0 0] CT
-11.5 14 moveto 
1 -1 scale
(180) t 
GR
GR
GS
[0.75 0 0 0.75 0 -0.25] CT
0.149 GC
2 setlinecap
1 LJ
0.667 LW
N
1095 857 M
1095 529 L
S
GR
GS
[0.75 0 0 0.75 0 -0.25] CT
0.149 GC
2 setlinecap
1 LJ
0.667 LW
N
1095 857 M
1101.43 857 L
S
GR
GS
[0.75 0 0 0.75 0 -0.25] CT
0.149 GC
2 setlinecap
1 LJ
0.667 LW
N
1095 802.333 M
1101.43 802.333 L
S
GR
GS
[0.75 0 0 0.75 0 -0.25] CT
0.149 GC
2 setlinecap
1 LJ
0.667 LW
N
1095 747.667 M
1101.43 747.667 L
S
GR
GS
[0.75 0 0 0.75 0 -0.25] CT
0.149 GC
2 setlinecap
1 LJ
0.667 LW
N
1095 693 M
1101.43 693 L
S
GR
GS
[0.75 0 0 0.75 0 -0.25] CT
0.149 GC
2 setlinecap
1 LJ
0.667 LW
N
1095 638.333 M
1101.43 638.333 L
S
GR
GS
[0.75 0 0 0.75 0 -0.25] CT
0.149 GC
2 setlinecap
1 LJ
0.667 LW
N
1095 583.667 M
1101.43 583.667 L
S
GR
GS
[0.75 0 0 0.75 0 -0.25] CT
0.149 GC
2 setlinecap
1 LJ
0.667 LW
N
1095 529 M
1101.43 529 L
S
GR
GS
[0.75 0 0 0.75 817.24997 642.5] CT
0.149 GC
/Helvetica 13.333 F
GS
[1 0 0 1 0 0] CT
-23 5.5 moveto 
1 -1 scale
(-0.8) t 
GR
GR
GS
[0.75 0 0 0.75 817.24997 601.49998] CT
0.149 GC
/Helvetica 13.333 F
GS
[1 0 0 1 0 0] CT
-23 5.5 moveto 
1 -1 scale
(-0.6) t 
GR
GR
GS
[0.75 0 0 0.75 817.24997 560.50002] CT
0.149 GC
/Helvetica 13.333 F
GS
[1 0 0 1 0 0] CT
-23 5.5 moveto 
1 -1 scale
(-0.4) t 
GR
GR
GS
[0.75 0 0 0.75 817.24997 519.5] CT
0.149 GC
/Helvetica 13.333 F
GS
[1 0 0 1 0 0] CT
-23 5.5 moveto 
1 -1 scale
(-0.2) t 
GR
GR
GS
[0.75 0 0 0.75 817.24997 478.49998] CT
0.149 GC
/Helvetica 13.333 F
GS
[1 0 0 1 0 0] CT
-8 5.5 moveto 
1 -1 scale
(0) t 
GR
GR
GS
[0.75 0 0 0.75 817.24997 437.50002] CT
0.149 GC
/Helvetica 13.333 F
GS
[1 0 0 1 0 0] CT
-19 5.5 moveto 
1 -1 scale
(0.2) t 
GR
GR
GS
[0.75 0 0 0.75 817.24997 396.5] CT
0.149 GC
/Helvetica 13.333 F
GS
[1 0 0 1 0 0] CT
-19 5.5 moveto 
1 -1 scale
(0.4) t 
GR
GR
GS
[0.75 0 0 0.75 1062.37601 394.4375] CT
/Helvetica-Bold 14.667 F
GS
[1 0 0 1 0 0] CT
-215 -4 moveto 
1 -1 scale
(Sound inputs: left microphone \(red\), right microphone \(black\)) t 
GR
GR
GS
[0.75 0 0 0.75 0 -0.25] CT
1 0 0 RC
1 LJ
2.667 LW
N
1095 853.009 M
1098.495 785.566 L
1101.989 717.819 L
1105.484 649.728 L
1108.978 581.272 L
1112.473 649.481 L
1115.967 581.023 L
1119.462 649.229 L
1122.957 580.768 L
1126.451 648.971 L
1129.946 580.507 L
1133.44 648.708 L
1136.935 580.241 L
1140.429 648.438 L
1143.924 579.968 L
1147.418 648.163 L
1150.913 579.689 L
1154.408 647.881 L
1157.902 579.404 L
1161.397 647.592 L
1164.891 579.112 L
1168.386 647.297 L
1171.88 578.813 L
1175.375 646.995 L
1178.87 578.507 L
1182.364 646.685 L
1185.859 578.194 L
1189.353 646.368 L
1192.848 577.873 L
1196.342 646.042 L
1199.837 577.543 L
1203.332 645.709 L
1206.826 577.206 L
1210.321 645.367 L
1213.815 576.86 L
1217.31 645.017 L
1220.804 576.504 L
1224.299 644.657 L
1227.793 576.14 L
1231.288 644.287 L
1234.783 575.766 L
1238.277 643.908 L
1241.772 575.381 L
1245.266 643.519 L
1248.761 574.987 L
1252.255 643.118 L
1255.75 574.581 L
1259.245 642.707 L
1262.739 574.164 L
1266.234 642.284 L
1269.728 573.735 L
1273.223 641.849 L
1276.717 573.293 L
1280.212 641.401 L
1283.707 572.839 L
1287.201 640.94 L
1290.696 572.371 L
1294.19 640.465 L
1297.685 571.889 L
1301.179 639.976 L
1304.674 571.392 L
1308.168 639.471 L
1311.663 570.88 L
1315.158 638.951 L
1318.652 570.352 L
1322.147 638.414 L
1325.641 569.806 L
1329.136 637.86 L
1332.63 706.47 L
1336.125 638.417 L
1339.62 569.8 L
1343.114 637.844 L
1346.609 706.463 L
1350.103 638.42 L
1353.598 569.793 L
1357.092 637.828 L
1360.587 706.456 L
1364.082 638.423 L
1367.576 569.786 L
1371.071 637.809 L
1374.565 706.448 L
1378.06 638.426 L
1381.554 569.778 L
1385.049 637.79 L
1388.543 706.44 L
1392.038 638.43 L
1395.533 569.769 L
1399.027 637.769 L
1402.522 706.431 L
1406.016 638.434 L
1409.511 569.76 L
1413.005 637.746 L
1416.5 706.422 L
1419.995 638.438 L
1423.489 569.75 L
1426.984 637.722 L
1430.478 706.411 L
1433.973 638.442 L
1437.467 569.739 L
1440.962 637.695 L
1444.457 706.4 L
1447.951 638.447 L
1451.446 569.727 L
1454.94 637.666 L
1458.435 706.388 L
1461.929 638.452 L
1465.424 569.715 L
1468.918 637.634 L
1472.413 706.374 L
1475.908 638.458 L
1479.402 569.701 L
1482.897 637.599 L
1486.391 706.359 L
1489.886 638.464 L
1493.38 569.685 L
1496.875 637.56 L
1500.37 706.343 L
1503.864 638.472 L
1507.359 569.667 L
1510.853 637.517 L
1514.348 706.325 L
1517.842 638.479 L
1521.337 569.648 L
1524.832 637.469 L
1528.326 706.304 L
1531.821 638.488 L
1535.315 569.626 L
1538.81 637.414 L
1542.304 706.281 L
1545.799 638.498 L
1549.293 569.602 L
1552.788 637.353 L
1556.283 706.255 L
1559.777 638.51 L
1563.272 569.574 L
1566.766 637.282 L
1570.261 706.225 L
1573.755 638.523 L
1577.25 569.541 L
1580.745 637.201 L
1584.239 706.19 L
1587.734 638.538 L
1591.228 569.504 L
1594.723 637.106 L
1598.217 706.149 L
1601.712 638.556 L
1605.207 569.459 L
1608.701 636.993 L
1612.196 706.1 L
1615.69 638.578 L
1619.185 569.406 L
1622.679 636.858 L
1626.174 706.042 L
1629.668 638.604 L
1633.163 569.341 L
1636.658 636.693 L
1640.152 705.97 L
1643.647 638.636 L
1647.141 569.26 L
1650.636 636.486 L
1654.13 705.879 L
1657.625 638.677 L
1661.12 569.157 L
1664.614 636.219 L
1668.109 705.761 L
1671.603 638.73 L
1675.098 569.02 L
1678.592 635.861 L
1682.087 705.601 L
1685.582 638.803 L
1689.076 568.831 L
1692.571 635.358 L
1696.065 705.372 L
1699.56 638.91 L
1703.054 568.55 L
1706.549 634.599 L
1710.043 705.019 L
1713.538 639.079 L
1717.033 568.092 L
1720.527 633.319 L
1724.022 704.401 L
1727.516 639.387 L
1731.011 567.212 L
1734.505 630.703 L
1738 703.042 L
S
GR
GS
[0.75 0 0 0.75 0 -0.25] CT
1 LJ
2.667 LW
N
1095 684.766 M
1098.495 672.019 L
1101.989 657.161 L
1105.484 641.07 L
1108.978 624.724 L
1112.473 641.011 L
1115.967 624.666 L
1119.462 640.95 L
1122.957 624.606 L
1126.451 640.888 L
1129.946 624.545 L
1133.44 640.825 L
1136.935 624.482 L
1140.429 640.76 L
1143.924 624.418 L
1147.418 640.694 L
1150.913 624.353 L
1154.408 640.627 L
1157.902 624.286 L
1161.397 640.557 L
1164.891 624.217 L
1168.386 640.486 L
1171.88 624.147 L
1175.375 640.414 L
1178.87 624.075 L
1182.364 640.339 L
1185.859 624.002 L
1189.353 640.263 L
1192.848 623.926 L
1196.342 640.185 L
1199.837 623.849 L
1203.332 640.105 L
1206.826 623.77 L
1210.321 640.023 L
1213.815 623.689 L
1217.31 639.939 L
1220.804 623.606 L
1224.299 639.852 L
1227.793 623.521 L
1231.288 639.764 L
1234.783 623.433 L
1238.277 639.673 L
1241.772 623.343 L
1245.266 639.579 L
1248.761 623.251 L
1252.255 639.483 L
1255.75 623.156 L
1259.245 639.384 L
1262.739 623.058 L
1266.234 639.282 L
1269.728 622.958 L
1273.223 639.178 L
1276.717 622.855 L
1280.212 639.07 L
1283.707 622.749 L
1287.201 638.96 L
1290.696 622.64 L
1294.19 638.845 L
1297.685 622.528 L
1301.179 638.728 L
1304.674 622.412 L
1308.168 638.607 L
1311.663 622.292 L
1315.158 638.482 L
1318.652 622.169 L
1322.147 638.353 L
1325.641 622.042 L
1329.136 638.22 L
1332.63 654.533 L
1336.125 638.353 L
1339.62 622.041 L
1343.114 638.216 L
1346.609 654.532 L
1350.103 638.354 L
1353.598 622.039 L
1357.092 638.212 L
1360.587 654.53 L
1364.082 638.355 L
1367.576 622.038 L
1371.071 638.207 L
1374.565 654.528 L
1378.06 638.356 L
1381.554 622.036 L
1385.049 638.203 L
1388.543 654.526 L
1392.038 638.357 L
1395.533 622.034 L
1399.027 638.198 L
1402.522 654.524 L
1406.016 638.357 L
1409.511 622.032 L
1413.005 638.192 L
1416.5 654.522 L
1419.995 638.358 L
1423.489 622.029 L
1426.984 638.186 L
1430.478 654.52 L
1433.973 638.359 L
1437.467 622.027 L
1440.962 638.18 L
1444.457 654.517 L
1447.951 638.361 L
1451.446 622.024 L
1454.94 638.173 L
1458.435 654.514 L
1461.929 638.362 L
1465.424 622.021 L
1468.918 638.165 L
1472.413 654.511 L
1475.908 638.363 L
1479.402 622.018 L
1482.897 638.157 L
1486.391 654.508 L
1489.886 638.365 L
1493.38 622.014 L
1496.875 638.148 L
1500.37 654.504 L
1503.864 638.367 L
1507.359 622.01 L
1510.853 638.137 L
1514.348 654.5 L
1517.842 638.368 L
1521.337 622.006 L
1524.832 638.126 L
1528.326 654.495 L
1531.821 638.371 L
1535.315 622 L
1538.81 638.113 L
1542.304 654.489 L
1545.799 638.373 L
1549.293 621.995 L
1552.788 638.098 L
1556.283 654.483 L
1559.777 638.376 L
1563.272 621.988 L
1566.766 638.081 L
1570.261 654.476 L
1573.755 638.379 L
1577.25 621.981 L
1580.745 638.061 L
1584.239 654.468 L
1587.734 638.383 L
1591.228 621.972 L
1594.723 638.038 L
1598.217 654.459 L
1601.712 638.387 L
1605.207 621.962 L
1608.701 638.011 L
1612.196 654.447 L
1615.69 638.392 L
1619.185 621.949 L
1622.679 637.979 L
1626.174 654.434 L
1629.668 638.398 L
1633.163 621.934 L
1636.658 637.939 L
1640.152 654.417 L
1643.647 638.406 L
1647.141 621.915 L
1650.636 637.889 L
1654.13 654.396 L
1657.625 638.416 L
1661.12 621.891 L
1664.614 637.825 L
1668.109 654.368 L
1671.603 638.429 L
1675.098 621.86 L
1678.592 637.739 L
1682.087 654.331 L
1685.582 638.446 L
1689.076 621.815 L
1692.571 637.619 L
1696.065 654.278 L
1699.56 638.472 L
1703.054 621.75 L
1706.549 637.436 L
1710.043 654.195 L
1713.538 638.512 L
1717.033 621.644 L
1720.527 637.129 L
1724.022 654.051 L
1727.516 638.586 L
1731.011 621.439 L
1734.505 636.5 L
1738 653.734 L
S
GR
GS
[0.75 0 0 0.75 0 -0.25] CT
1 GC
N
250 785.5 M
892 785.5 L
892 143.5 L
250 143.5 L
cp
f
GR
GS
[0.75 0 0 0.75 0 -0.25] CT
0.775 GC
[1 3] 0 setdash
2 LJ
0.667 LW
N
250 785.5 M
250 143.5 L
S
GR
GS
[0.75 0 0 0.75 0 -0.25] CT
0.775 GC
[1 3] 0 setdash
2 LJ
0.667 LW
N
271.4 785.5 M
271.4 143.5 L
S
GR
GS
[0.75 0 0 0.75 0 -0.25] CT
0.775 GC
[1 3] 0 setdash
2 LJ
0.667 LW
N
292.8 785.5 M
292.8 143.5 L
S
GR
GS
[0.75 0 0 0.75 0 -0.25] CT
0.775 GC
[1 3] 0 setdash
2 LJ
0.667 LW
N
314.2 785.5 M
314.2 143.5 L
S
GR
GS
[0.75 0 0 0.75 0 -0.25] CT
0.775 GC
[1 3] 0 setdash
2 LJ
0.667 LW
N
335.6 785.5 M
335.6 143.5 L
S
GR
GS
[0.75 0 0 0.75 0 -0.25] CT
0.775 GC
[1 3] 0 setdash
2 LJ
0.667 LW
N
357 785.5 M
357 143.5 L
S
GR
GS
[0.75 0 0 0.75 0 -0.25] CT
0.775 GC
[1 3] 0 setdash
2 LJ
0.667 LW
N
378.4 785.5 M
378.4 143.5 L
S
GR
GS
[0.75 0 0 0.75 0 -0.25] CT
0.775 GC
[1 3] 0 setdash
2 LJ
0.667 LW
N
399.8 785.5 M
399.8 143.5 L
S
GR
GS
[0.75 0 0 0.75 0 -0.25] CT
0.775 GC
[1 3] 0 setdash
2 LJ
0.667 LW
N
421.2 785.5 M
421.2 143.5 L
S
GR
GS
[0.75 0 0 0.75 0 -0.25] CT
0.775 GC
[1 3] 0 setdash
2 LJ
0.667 LW
N
442.6 785.5 M
442.6 143.5 L
S
GR
GS
[0.75 0 0 0.75 0 -0.25] CT
0.775 GC
[1 3] 0 setdash
2 LJ
0.667 LW
N
464 785.5 M
464 143.5 L
S
GR
GS
[0.75 0 0 0.75 0 -0.25] CT
0.775 GC
[1 3] 0 setdash
2 LJ
0.667 LW
N
485.4 785.5 M
485.4 143.5 L
S
GR
GS
[0.75 0 0 0.75 0 -0.25] CT
0.775 GC
[1 3] 0 setdash
2 LJ
0.667 LW
N
506.8 785.5 M
506.8 143.5 L
S
GR
GS
[0.75 0 0 0.75 0 -0.25] CT
0.775 GC
[1 3] 0 setdash
2 LJ
0.667 LW
N
528.2 785.5 M
528.2 143.5 L
S
GR
GS
[0.75 0 0 0.75 0 -0.25] CT
0.775 GC
[1 3] 0 setdash
2 LJ
0.667 LW
N
549.6 785.5 M
549.6 143.5 L
S
GR
GS
[0.75 0 0 0.75 0 -0.25] CT
0.775 GC
[1 3] 0 setdash
2 LJ
0.667 LW
N
571 785.5 M
571 143.5 L
S
GR
GS
[0.75 0 0 0.75 0 -0.25] CT
0.775 GC
[1 3] 0 setdash
2 LJ
0.667 LW
N
592.4 785.5 M
592.4 143.5 L
S
GR
GS
[0.75 0 0 0.75 0 -0.25] CT
0.775 GC
[1 3] 0 setdash
2 LJ
0.667 LW
N
613.8 785.5 M
613.8 143.5 L
S
GR
GS
[0.75 0 0 0.75 0 -0.25] CT
0.775 GC
[1 3] 0 setdash
2 LJ
0.667 LW
N
635.2 785.5 M
635.2 143.5 L
S
GR
GS
[0.75 0 0 0.75 0 -0.25] CT
0.775 GC
[1 3] 0 setdash
2 LJ
0.667 LW
N
656.6 785.5 M
656.6 143.5 L
S
GR
GS
[0.75 0 0 0.75 0 -0.25] CT
0.775 GC
[1 3] 0 setdash
2 LJ
0.667 LW
N
678 785.5 M
678 143.5 L
S
GR
GS
[0.75 0 0 0.75 0 -0.25] CT
0.775 GC
[1 3] 0 setdash
2 LJ
0.667 LW
N
699.4 785.5 M
699.4 143.5 L
S
GR
GS
[0.75 0 0 0.75 0 -0.25] CT
0.775 GC
[1 3] 0 setdash
2 LJ
0.667 LW
N
720.8 785.5 M
720.8 143.5 L
S
GR
GS
[0.75 0 0 0.75 0 -0.25] CT
0.775 GC
[1 3] 0 setdash
2 LJ
0.667 LW
N
742.2 785.5 M
742.2 143.5 L
S
GR
GS
[0.75 0 0 0.75 0 -0.25] CT
0.775 GC
[1 3] 0 setdash
2 LJ
0.667 LW
N
763.6 785.5 M
763.6 143.5 L
S
GR
GS
[0.75 0 0 0.75 0 -0.25] CT
0.775 GC
[1 3] 0 setdash
2 LJ
0.667 LW
N
785 785.5 M
785 143.5 L
S
GR
GS
[0.75 0 0 0.75 0 -0.25] CT
0.775 GC
[1 3] 0 setdash
2 LJ
0.667 LW
N
806.4 785.5 M
806.4 143.5 L
S
GR
GS
[0.75 0 0 0.75 0 -0.25] CT
0.775 GC
[1 3] 0 setdash
2 LJ
0.667 LW
N
827.8 785.5 M
827.8 143.5 L
S
GR
GS
[0.75 0 0 0.75 0 -0.25] CT
0.775 GC
[1 3] 0 setdash
2 LJ
0.667 LW
N
849.2 785.5 M
849.2 143.5 L
S
GR
GS
[0.75 0 0 0.75 0 -0.25] CT
0.775 GC
[1 3] 0 setdash
2 LJ
0.667 LW
N
870.6 785.5 M
870.6 143.5 L
S
GR
GS
[0.75 0 0 0.75 0 -0.25] CT
0.775 GC
[1 3] 0 setdash
2 LJ
0.667 LW
N
892 785.5 M
892 143.5 L
S
GR
GS
[0.75 0 0 0.75 0 -0.25] CT
0.775 GC
[1 3] 0 setdash
2 LJ
0.667 LW
N
892 785.5 M
250 785.5 L
S
GR
GS
[0.75 0 0 0.75 0 -0.25] CT
0.775 GC
[1 3] 0 setdash
2 LJ
0.667 LW
N
892 764.1 M
250 764.1 L
S
GR
GS
[0.75 0 0 0.75 0 -0.25] CT
0.775 GC
[1 3] 0 setdash
2 LJ
0.667 LW
N
892 742.7 M
250 742.7 L
S
GR
GS
[0.75 0 0 0.75 0 -0.25] CT
0.775 GC
[1 3] 0 setdash
2 LJ
0.667 LW
N
892 721.3 M
250 721.3 L
S
GR
GS
[0.75 0 0 0.75 0 -0.25] CT
0.775 GC
[1 3] 0 setdash
2 LJ
0.667 LW
N
892 699.9 M
250 699.9 L
S
GR
GS
[0.75 0 0 0.75 0 -0.25] CT
0.775 GC
[1 3] 0 setdash
2 LJ
0.667 LW
N
892 678.5 M
250 678.5 L
S
GR
GS
[0.75 0 0 0.75 0 -0.25] CT
0.775 GC
[1 3] 0 setdash
2 LJ
0.667 LW
N
892 657.1 M
250 657.1 L
S
GR
GS
[0.75 0 0 0.75 0 -0.25] CT
0.775 GC
[1 3] 0 setdash
2 LJ
0.667 LW
N
892 635.7 M
250 635.7 L
S
GR
GS
[0.75 0 0 0.75 0 -0.25] CT
0.775 GC
[1 3] 0 setdash
2 LJ
0.667 LW
N
892 614.3 M
250 614.3 L
S
GR
GS
[0.75 0 0 0.75 0 -0.25] CT
0.775 GC
[1 3] 0 setdash
2 LJ
0.667 LW
N
892 592.9 M
250 592.9 L
S
GR
GS
[0.75 0 0 0.75 0 -0.25] CT
0.775 GC
[1 3] 0 setdash
2 LJ
0.667 LW
N
892 571.5 M
250 571.5 L
S
GR
GS
[0.75 0 0 0.75 0 -0.25] CT
0.775 GC
[1 3] 0 setdash
2 LJ
0.667 LW
N
892 550.1 M
250 550.1 L
S
GR
GS
[0.75 0 0 0.75 0 -0.25] CT
0.775 GC
[1 3] 0 setdash
2 LJ
0.667 LW
N
892 528.7 M
250 528.7 L
S
GR
GS
[0.75 0 0 0.75 0 -0.25] CT
0.775 GC
[1 3] 0 setdash
2 LJ
0.667 LW
N
892 507.3 M
250 507.3 L
S
GR
GS
[0.75 0 0 0.75 0 -0.25] CT
0.775 GC
[1 3] 0 setdash
2 LJ
0.667 LW
N
892 485.9 M
250 485.9 L
S
GR
GS
[0.75 0 0 0.75 0 -0.25] CT
0.775 GC
[1 3] 0 setdash
2 LJ
0.667 LW
N
892 464.5 M
250 464.5 L
S
GR
GS
[0.75 0 0 0.75 0 -0.25] CT
0.775 GC
[1 3] 0 setdash
2 LJ
0.667 LW
N
892 443.1 M
250 443.1 L
S
GR
GS
[0.75 0 0 0.75 0 -0.25] CT
0.775 GC
[1 3] 0 setdash
2 LJ
0.667 LW
N
892 421.7 M
250 421.7 L
S
GR
GS
[0.75 0 0 0.75 0 -0.25] CT
0.775 GC
[1 3] 0 setdash
2 LJ
0.667 LW
N
892 400.3 M
250 400.3 L
S
GR
GS
[0.75 0 0 0.75 0 -0.25] CT
0.775 GC
[1 3] 0 setdash
2 LJ
0.667 LW
N
892 378.9 M
250 378.9 L
S
GR
GS
[0.75 0 0 0.75 0 -0.25] CT
0.775 GC
[1 3] 0 setdash
2 LJ
0.667 LW
N
892 357.5 M
250 357.5 L
S
GR
GS
[0.75 0 0 0.75 0 -0.25] CT
0.775 GC
[1 3] 0 setdash
2 LJ
0.667 LW
N
892 336.1 M
250 336.1 L
S
GR
GS
[0.75 0 0 0.75 0 -0.25] CT
0.775 GC
[1 3] 0 setdash
2 LJ
0.667 LW
N
892 314.7 M
250 314.7 L
S
GR
GS
[0.75 0 0 0.75 0 -0.25] CT
0.775 GC
[1 3] 0 setdash
2 LJ
0.667 LW
N
892 293.3 M
250 293.3 L
S
GR
GS
[0.75 0 0 0.75 0 -0.25] CT
0.775 GC
[1 3] 0 setdash
2 LJ
0.667 LW
N
892 271.9 M
250 271.9 L
S
GR
GS
[0.75 0 0 0.75 0 -0.25] CT
0.775 GC
[1 3] 0 setdash
2 LJ
0.667 LW
N
892 250.5 M
250 250.5 L
S
GR
GS
[0.75 0 0 0.75 0 -0.25] CT
0.775 GC
[1 3] 0 setdash
2 LJ
0.667 LW
N
892 229.1 M
250 229.1 L
S
GR
GS
[0.75 0 0 0.75 0 -0.25] CT
0.775 GC
[1 3] 0 setdash
2 LJ
0.667 LW
N
892 207.7 M
250 207.7 L
S
GR
GS
[0.75 0 0 0.75 0 -0.25] CT
0.775 GC
[1 3] 0 setdash
2 LJ
0.667 LW
N
892 186.3 M
250 186.3 L
S
GR
GS
[0.75 0 0 0.75 0 -0.25] CT
0.775 GC
[1 3] 0 setdash
2 LJ
0.667 LW
N
892 164.9 M
250 164.9 L
S
GR
GS
[0.75 0 0 0.75 0 -0.25] CT
0.775 GC
[1 3] 0 setdash
2 LJ
0.667 LW
N
892 143.5 M
250 143.5 L
S
GR
GS
[0.75 0 0 0.75 0 -0.25] CT
0.149 GC
2 setlinecap
1 LJ
0.667 LW
N
250 785.5 M
892 785.5 L
S
GR
GS
[0.75 0 0 0.75 0 -0.25] CT
0.149 GC
2 setlinecap
1 LJ
0.667 LW
N
250 785.5 M
250 779.08 L
S
GR
GS
[0.75 0 0 0.75 0 -0.25] CT
0.149 GC
2 setlinecap
1 LJ
0.667 LW
N
357 785.5 M
357 779.08 L
S
GR
GS
[0.75 0 0 0.75 0 -0.25] CT
0.149 GC
2 setlinecap
1 LJ
0.667 LW
N
464 785.5 M
464 779.08 L
S
GR
GS
[0.75 0 0 0.75 0 -0.25] CT
0.149 GC
2 setlinecap
1 LJ
0.667 LW
N
571 785.5 M
571 779.08 L
S
GR
GS
[0.75 0 0 0.75 0 -0.25] CT
0.149 GC
2 setlinecap
1 LJ
0.667 LW
N
678 785.5 M
678 779.08 L
S
GR
GS
[0.75 0 0 0.75 0 -0.25] CT
0.149 GC
2 setlinecap
1 LJ
0.667 LW
N
785 785.5 M
785 779.08 L
S
GR
GS
[0.75 0 0 0.75 0 -0.25] CT
0.149 GC
2 setlinecap
1 LJ
0.667 LW
N
892 785.5 M
892 779.08 L
S
GR
GS
[0.75 0 0 0.75 187.5 592.87498] CT
0.149 GC
/Helvetica 13.333 F
GS
[1 0 0 1 0 0] CT
-13.5 14 moveto 
1 -1 scale
(-200) t 
GR
GR
GS
[0.75 0 0 0.75 267.75 592.87498] CT
0.149 GC
/Helvetica 13.333 F
GS
[1 0 0 1 0 0] CT
-13.5 14 moveto 
1 -1 scale
(-100) t 
GR
GR
GS
[0.75 0 0 0.75 348 592.87498] CT
0.149 GC
/Helvetica 13.333 F
GS
[1 0 0 1 0 0] CT
-4 14 moveto 
1 -1 scale
(0) t 
GR
GR
GS
[0.75 0 0 0.75 428.25 592.87498] CT
0.149 GC
/Helvetica 13.333 F
GS
[1 0 0 1 0 0] CT
-11.5 14 moveto 
1 -1 scale
(100) t 
GR
GR
GS
[0.75 0 0 0.75 508.5 592.87498] CT
0.149 GC
/Helvetica 13.333 F
GS
[1 0 0 1 0 0] CT
-11.5 14 moveto 
1 -1 scale
(200) t 
GR
GR
GS
[0.75 0 0 0.75 588.75 592.87498] CT
0.149 GC
/Helvetica 13.333 F
GS
[1 0 0 1 0 0] CT
-11.5 14 moveto 
1 -1 scale
(300) t 
GR
GR
GS
[0.75 0 0 0.75 669 592.87498] CT
0.149 GC
/Helvetica 13.333 F
GS
[1 0 0 1 0 0] CT
-11.5 14 moveto 
1 -1 scale
(400) t 
GR
GR
GS
[0.75 0 0 0.75 0 -0.25] CT
0.149 GC
2 setlinecap
1 LJ
0.667 LW
N
250 785.5 M
250 143.5 L
S
GR
GS
[0.75 0 0 0.75 0 -0.25] CT
0.149 GC
2 setlinecap
1 LJ
0.667 LW
N
250 785.5 M
256.42 785.5 L
S
GR
GS
[0.75 0 0 0.75 0 -0.25] CT
0.149 GC
2 setlinecap
1 LJ
0.667 LW
N
250 678.5 M
256.42 678.5 L
S
GR
GS
[0.75 0 0 0.75 0 -0.25] CT
0.149 GC
2 setlinecap
1 LJ
0.667 LW
N
250 571.5 M
256.42 571.5 L
S
GR
GS
[0.75 0 0 0.75 0 -0.25] CT
0.149 GC
2 setlinecap
1 LJ
0.667 LW
N
250 464.5 M
256.42 464.5 L
S
GR
GS
[0.75 0 0 0.75 0 -0.25] CT
0.149 GC
2 setlinecap
1 LJ
0.667 LW
N
250 357.5 M
256.42 357.5 L
S
GR
GS
[0.75 0 0 0.75 0 -0.25] CT
0.149 GC
2 setlinecap
1 LJ
0.667 LW
N
250 250.5 M
256.42 250.5 L
S
GR
GS
[0.75 0 0 0.75 0 -0.25] CT
0.149 GC
2 setlinecap
1 LJ
0.667 LW
N
250 143.5 M
256.42 143.5 L
S
GR
GS
[0.75 0 0 0.75 183.5 588.875] CT
0.149 GC
/Helvetica 13.333 F
GS
[1 0 0 1 0 0] CT
-27 5.5 moveto 
1 -1 scale
(-200) t 
GR
GR
GS
[0.75 0 0 0.75 183.5 508.625] CT
0.149 GC
/Helvetica 13.333 F
GS
[1 0 0 1 0 0] CT
-27 5.5 moveto 
1 -1 scale
(-100) t 
GR
GR
GS
[0.75 0 0 0.75 183.5 428.375] CT
0.149 GC
/Helvetica 13.333 F
GS
[1 0 0 1 0 0] CT
-8 5.5 moveto 
1 -1 scale
(0) t 
GR
GR
GS
[0.75 0 0 0.75 183.5 348.125] CT
0.149 GC
/Helvetica 13.333 F
GS
[1 0 0 1 0 0] CT
-23 5.5 moveto 
1 -1 scale
(100) t 
GR
GR
GS
[0.75 0 0 0.75 183.5 267.875] CT
0.149 GC
/Helvetica 13.333 F
GS
[1 0 0 1 0 0] CT
-23 5.5 moveto 
1 -1 scale
(200) t 
GR
GR
GS
[0.75 0 0 0.75 183.5 187.625] CT
0.149 GC
/Helvetica 13.333 F
GS
[1 0 0 1 0 0] CT
-23 5.5 moveto 
1 -1 scale
(300) t 
GR
GR
GS
[0.75 0 0 0.75 183.5 107.375] CT
0.149 GC
/Helvetica 13.333 F
GS
[1 0 0 1 0 0] CT
-23 5.5 moveto 
1 -1 scale
(400) t 
GR
GR
GS
[0.75 0 0 0.75 588.75 187.625] CT
N
-6 -6 M
-6 6 L
6 6 L
6 -6 L
cp
f
GR
GS
[0.75 0 0 0.75 588.75 187.625] CT
10.0 ML
0.667 LW
N
-6 -6 M
-6 6 L
6 6 L
6 -6 L
cp
S
GR
GS
[0.75 0 0 0.75 267.75 508.625] CT
1 0 0 RC
N
6.667 0 M
6.667 -3.682 3.682 -6.667 0 -6.667 C
-3.682 -6.667 -6.667 -3.682 -6.667 0 C
-6.667 3.682 -3.682 6.667 0 6.667 C
3.682 6.667 6.667 3.682 6.667 0 C
cp
f
GR
GS
[0.75 0 0 0.75 267.75 508.625] CT
1 0 0 RC
N
0 -6.333 M
3.498 -6.333 6.333 -3.498 6.333 0 C
6.333 0 L
6.333 3.498 3.498 6.333 0 6.333 C
-3.498 6.333 -6.333 3.498 -6.333 0 C
-6.333 -3.498 -3.498 -6.333 0 -6.333 C
cp
0 -7 M
-3.866 -7 -7 -3.866 -7 0 C
-7 3.866 -3.866 7 0 7 C
3.866 7 7 3.866 7 0 C
7 0 L
7 -3.866 3.866 -7 0 -7 C
cp
f
GR
GS
[0.75 0 0 0.75 0 -0.25] CT
0 0.447 0.741 RC
1 LJ
2.667 LW
N
360.177 678.101 M
362.25 677.571 L
S
GR
GS
[0.75 0 0 0.75 270.1325 508.32562] CT
0.494 0.184 0.557 RC
N
0.5 0 M
0.5 0.276 0.276 0.5 0 0.5 C
-0.276 0.5 -0.5 0.276 -0.5 0 C
-0.5 -0.276 -0.276 -0.5 0 -0.5 C
0.276 -0.5 0.5 -0.276 0.5 0 C
cp
f
GR
GS
[0.75 0 0 0.75 0 -0.25] CT
0 0.447 0.741 RC
1 LJ
2.667 LW
N
363.156 676.928 M
365.034 675.902 L
S
GR
GS
[0.75 0 0 0.75 272.36687 507.44612] CT
0.302 0.745 0.933 RC
N
/f1188474679{0.5 0 M
0.5 0.276 0.276 0.5 0 0.5 C
-0.276 0.5 -0.5 0.276 -0.5 0 C
-0.5 -0.276 -0.276 -0.5 0 -0.5 C
0.276 -0.5 0.5 -0.276 0.5 0 C
cp}def
f1188474679
f
GR
GS
[0.75 0 0 0.75 0 -0.25] CT
0 0.447 0.741 RC
1 LJ
2.667 LW
N
365.752 675.055 M
367.318 673.596 L
S
GR
GS
[0.75 0 0 0.75 274.31417 506.04115] CT
0 0.447 0.741 RC
N
f1188474679
f
GR
GS
[0.75 0 0 0.75 0 -0.25] CT
0 0.447 0.741 RC
1 LJ
2.667 LW
N
367.804 672.597 M
368.961 670.797 L
S
GR
GS
[0.75 0 0 0.75 275.85336 504.1981] CT
0.929 0.694 0.125 RC
N
f1188474679
f
GR
GS
[0.75 0 0 0.75 0 -0.25] CT
0 0.447 0.741 RC
1 LJ
2.667 LW
N
369.857 670.14 M
371.423 668.681 L
S
GR
GS
[0.75 0 0 0.75 277.39254 502.35506] CT
0.467 0.675 0.188 RC
N
f1188474679
f
GR
GS
[0.75 0 0 0.75 0 -0.25] CT
0 0.447 0.741 RC
1 LJ
2.667 LW
N
371.909 667.683 M
373.065 665.882 L
S
GR
GS
[0.75 0 0 0.75 278.93172 500.51201] CT
0.635 0.078 0.184 RC
N
f1188474679
f
GR
GS
[0.75 0 0 0.75 0 -0.25] CT
0 0.447 0.741 RC
1 LJ
2.667 LW
N
373.961 665.225 M
375.527 663.767 L
S
GR
GS
[0.75 0 0 0.75 280.47091 498.66896] CT
0.851 0.325 0.098 RC
N
f1188474679
f
GR
GS
[0.75 0 0 0.75 0 -0.25] CT
0 0.447 0.741 RC
1 LJ
2.667 LW
N
376.013 662.768 M
377.17 660.967 L
S
GR
GS
[0.75 0 0 0.75 282.01009 496.82591] CT
0.494 0.184 0.557 RC
N
f1188474679
f
GR
GS
[0.75 0 0 0.75 0 -0.25] CT
0 0.447 0.741 RC
1 LJ
2.667 LW
N
378.066 660.31 M
379.632 658.852 L
S
GR
GS
[0.75 0 0 0.75 283.54928 494.98286] CT
0.302 0.745 0.933 RC
N
f1188474679
f
GR
GS
[0.75 0 0 0.75 0 -0.25] CT
0 0.447 0.741 RC
1 LJ
2.667 LW
N
380.118 657.853 M
381.274 656.052 L
S
GR
GS
[0.75 0 0 0.75 285.08849 493.13982] CT
0 0.447 0.741 RC
N
f1188474679
f
GR
GS
[0.75 0 0 0.75 0 -0.25] CT
0 0.447 0.741 RC
1 LJ
2.667 LW
N
382.17 655.396 M
383.736 653.937 L
S
GR
GS
[0.75 0 0 0.75 286.62765 491.29672] CT
0.929 0.694 0.125 RC
N
f1188474679
f
GR
GS
[0.75 0 0 0.75 0 -0.25] CT
0 0.447 0.741 RC
1 LJ
2.667 LW
N
384.222 652.938 M
385.379 651.138 L
S
GR
GS
[0.75 0 0 0.75 288.16683 489.45367] CT
0.467 0.675 0.188 RC
N
f1188474679
f
GR
GS
[0.75 0 0 0.75 0 -0.25] CT
0 0.447 0.741 RC
1 LJ
2.667 LW
N
386.275 650.481 M
387.841 649.022 L
S
GR
GS
[0.75 0 0 0.75 289.70602 487.61063] CT
0.635 0.078 0.184 RC
N
f1188474679
f
GR
GS
[0.75 0 0 0.75 0 -0.25] CT
0 0.447 0.741 RC
1 LJ
2.667 LW
N
388.327 648.023 M
389.483 646.223 L
S
GR
GS
[0.75 0 0 0.75 291.2452 485.76758] CT
0.851 0.325 0.098 RC
N
f1188474679
f
GR
GS
[0.75 0 0 0.75 0 -0.25] CT
0 0.447 0.741 RC
1 LJ
2.667 LW
N
390.379 645.566 M
391.945 644.107 L
S
GR
GS
[0.75 0 0 0.75 292.78439 483.92453] CT
0.494 0.184 0.557 RC
N
f1188474679
f
GR
GS
[0.75 0 0 0.75 0 -0.25] CT
0 0.447 0.741 RC
1 LJ
2.667 LW
N
392.431 643.109 M
393.588 641.308 L
S
GR
GS
[0.75 0 0 0.75 294.32357 482.08148] CT
0.302 0.745 0.933 RC
N
f1188474679
f
GR
GS
[0.75 0 0 0.75 0 -0.25] CT
0 0.447 0.741 RC
1 LJ
2.667 LW
N
394.484 640.651 M
396.049 639.193 L
S
GR
GS
[0.75 0 0 0.75 295.86275 480.23843] CT
0 0.447 0.741 RC
N
f1188474679
f
GR
GS
[0.75 0 0 0.75 0 -0.25] CT
0 0.447 0.741 RC
1 LJ
2.667 LW
N
396.536 638.194 M
397.692 636.393 L
S
GR
GS
[0.75 0 0 0.75 297.40194 478.39539] CT
0.929 0.694 0.125 RC
N
f1188474679
f
GR
GS
[0.75 0 0 0.75 0 -0.25] CT
0 0.447 0.741 RC
1 LJ
2.667 LW
N
398.588 635.736 M
400.154 634.278 L
S
GR
GS
[0.75 0 0 0.75 298.94112 476.55234] CT
0.467 0.675 0.188 RC
N
f1188474679
f
GR
GS
[0.75 0 0 0.75 0 -0.25] CT
0 0.447 0.741 RC
1 LJ
2.667 LW
N
400.64 633.279 M
401.797 631.478 L
S
GR
GS
[0.75 0 0 0.75 300.48031 474.70929] CT
0.635 0.078 0.184 RC
N
f1188474679
f
GR
GS
[0.75 0 0 0.75 0 -0.25] CT
0 0.447 0.741 RC
1 LJ
2.667 LW
N
402.693 630.822 M
404.258 629.363 L
S
GR
GS
[0.75 0 0 0.75 302.01949 472.8662] CT
0.851 0.325 0.098 RC
N
f1188474679
f
GR
GS
[0.75 0 0 0.75 0 -0.25] CT
0 0.447 0.741 RC
1 LJ
2.667 LW
N
404.745 628.364 M
405.901 626.563 L
S
GR
GS
[0.75 0 0 0.75 303.55868 471.02315] CT
0.494 0.184 0.557 RC
N
f1188474679
f
GR
GS
[0.75 0 0 0.75 0 -0.25] CT
0 0.447 0.741 RC
1 LJ
2.667 LW
N
406.797 625.907 M
408.363 624.448 L
S
GR
GS
[0.75 0 0 0.75 305.09786 469.1801] CT
0.302 0.745 0.933 RC
N
f1188474679
f
GR
GS
[0.75 0 0 0.75 0 -0.25] CT
0 0.447 0.741 RC
1 LJ
2.667 LW
N
408.849 623.449 M
410.006 621.649 L
S
GR
GS
[0.75 0 0 0.75 306.63705 467.33705] CT
0 0.447 0.741 RC
N
f1188474679
f
GR
GS
[0.75 0 0 0.75 0 -0.25] CT
0 0.447 0.741 RC
1 LJ
2.667 LW
N
410.902 620.992 M
412.467 619.533 L
S
GR
GS
[0.75 0 0 0.75 308.17623 465.494] CT
0.929 0.694 0.125 RC
N
f1188474679
f
GR
GS
[0.75 0 0 0.75 0 -0.25] CT
0 0.447 0.741 RC
1 LJ
2.667 LW
N
412.954 618.535 M
414.11 616.734 L
S
GR
GS
[0.75 0 0 0.75 309.71542 463.65096] CT
0.467 0.675 0.188 RC
N
f1188474679
f
GR
GS
[0.75 0 0 0.75 0 -0.25] CT
0 0.447 0.741 RC
1 LJ
2.667 LW
N
415.006 616.077 M
416.572 614.618 L
S
GR
GS
[0.75 0 0 0.75 311.2546 461.80791] CT
0.635 0.078 0.184 RC
N
f1188474679
f
GR
GS
[0.75 0 0 0.75 0 -0.25] CT
0 0.447 0.741 RC
1 LJ
2.667 LW
N
417.058 613.62 M
418.215 611.819 L
S
GR
GS
[0.75 0 0 0.75 312.79379 459.96486] CT
0.851 0.325 0.098 RC
N
f1188474679
f
GR
GS
[0.75 0 0 0.75 0 -0.25] CT
0 0.447 0.741 RC
1 LJ
2.667 LW
N
419.111 611.162 M
420.676 609.704 L
S
GR
GS
[0.75 0 0 0.75 314.33297 458.12181] CT
0.494 0.184 0.557 RC
N
f1188474679
f
GR
GS
[0.75 0 0 0.75 0 -0.25] CT
0 0.447 0.741 RC
1 LJ
2.667 LW
N
421.163 608.705 M
422.319 606.904 L
S
GR
GS
[0.75 0 0 0.75 315.87215 456.27876] CT
0.302 0.745 0.933 RC
N
f1188474679
f
GR
GS
[0.75 0 0 0.75 0 -0.25] CT
0 0.447 0.741 RC
1 LJ
2.667 LW
N
423.215 606.248 M
424.781 604.789 L
S
GR
GS
[0.75 0 0 0.75 317.41134 454.43567] CT
0 0.447 0.741 RC
N
f1188474679
f
GR
GS
[0.75 0 0 0.75 0 -0.25] CT
0 0.447 0.741 RC
1 LJ
2.667 LW
N
425.267 603.79 M
426.424 601.989 L
S
GR
GS
[0.75 0 0 0.75 318.95052 452.59262] CT
0.929 0.694 0.125 RC
N
f1188474679
f
GR
GS
[0.75 0 0 0.75 0 -0.25] CT
0 0.447 0.741 RC
1 LJ
2.667 LW
N
427.32 601.333 M
428.885 599.874 L
S
GR
GS
[0.75 0 0 0.75 320.48971 450.74957] CT
0.467 0.675 0.188 RC
N
f1188474679
f
GR
GS
[0.75 0 0 0.75 0 -0.25] CT
0 0.447 0.741 RC
1 LJ
2.667 LW
N
429.372 598.875 M
430.528 597.075 L
S
GR
GS
[0.75 0 0 0.75 322.02889 448.90652] CT
0.635 0.078 0.184 RC
N
f1188474679
f
GR
GS
[0.75 0 0 0.75 0 -0.25] CT
0 0.447 0.741 RC
1 LJ
2.667 LW
N
431.424 596.418 M
432.99 594.959 L
S
GR
GS
[0.75 0 0 0.75 323.56808 447.06348] CT
0.851 0.325 0.098 RC
N
f1188474679
f
GR
GS
[0.75 0 0 0.75 0 -0.25] CT
0 0.447 0.741 RC
1 LJ
2.667 LW
N
433.476 593.961 M
434.633 592.16 L
S
GR
GS
[0.75 0 0 0.75 325.10726 445.22043] CT
0.494 0.184 0.557 RC
N
f1188474679
f
GR
GS
[0.75 0 0 0.75 0 -0.25] CT
0 0.447 0.741 RC
1 LJ
2.667 LW
N
435.529 591.503 M
437.094 590.044 L
S
GR
GS
[0.75 0 0 0.75 326.64645 443.37738] CT
0.302 0.745 0.933 RC
N
f1188474679
f
GR
GS
[0.75 0 0 0.75 0 -0.25] CT
0 0.447 0.741 RC
1 LJ
2.667 LW
N
437.581 589.046 M
438.737 587.245 L
S
GR
GS
[0.75 0 0 0.75 328.18563 441.53433] CT
0 0.447 0.741 RC
N
f1188474679
f
GR
GS
[0.75 0 0 0.75 0 -0.25] CT
0 0.447 0.741 RC
1 LJ
2.667 LW
N
439.633 586.588 M
441.199 585.13 L
S
GR
GS
[0.75 0 0 0.75 329.72482 439.69128] CT
0.929 0.694 0.125 RC
N
f1188474679
f
GR
GS
[0.75 0 0 0.75 0 -0.25] CT
0 0.447 0.741 RC
1 LJ
2.667 LW
N
441.685 584.131 M
442.842 582.33 L
S
GR
GS
[0.75 0 0 0.75 331.264 437.84824] CT
0.467 0.675 0.188 RC
N
f1188474679
f
GR
GS
[0.75 0 0 0.75 0 -0.25] CT
0 0.447 0.741 RC
1 LJ
2.667 LW
N
443.738 581.674 M
445.303 580.215 L
S
GR
GS
[0.75 0 0 0.75 332.80318 436.00514] CT
0.635 0.078 0.184 RC
N
f1188474679
f
GR
GS
[0.75 0 0 0.75 0 -0.25] CT
0 0.447 0.741 RC
1 LJ
2.667 LW
N
445.79 579.216 M
446.946 577.415 L
S
GR
GS
[0.75 0 0 0.75 334.34237 434.16209] CT
0.851 0.325 0.098 RC
N
f1188474679
f
GR
GS
[0.75 0 0 0.75 0 -0.25] CT
0 0.447 0.741 RC
1 LJ
2.667 LW
N
447.842 576.759 M
449.408 575.3 L
S
GR
GS
[0.75 0 0 0.75 335.88155 432.31905] CT
0.494 0.184 0.557 RC
N
f1188474679
f
GR
GS
[0.75 0 0 0.75 0 -0.25] CT
0 0.447 0.741 RC
1 LJ
2.667 LW
N
449.894 574.301 M
451.051 572.501 L
S
GR
GS
[0.75 0 0 0.75 337.42074 430.476] CT
0.302 0.745 0.933 RC
N
f1188474679
f
GR
GS
[0.75 0 0 0.75 0 -0.25] CT
0 0.447 0.741 RC
1 LJ
2.667 LW
N
451.947 571.844 M
453.512 570.385 L
S
GR
GS
[0.75 0 0 0.75 338.95992 428.63295] CT
0 0.447 0.741 RC
N
f1188474679
f
GR
GS
[0.75 0 0 0.75 0 -0.25] CT
0 0.447 0.741 RC
1 LJ
2.667 LW
N
453.999 569.387 M
455.155 567.586 L
S
GR
GS
[0.75 0 0 0.75 340.49911 426.7899] CT
0.929 0.694 0.125 RC
N
f1188474679
f
GR
GS
[0.75 0 0 0.75 0 -0.25] CT
0 0.447 0.741 RC
1 LJ
2.667 LW
N
456.051 566.929 M
457.617 565.47 L
S
GR
GS
[0.75 0 0 0.75 342.03829 424.94685] CT
0.467 0.675 0.188 RC
N
f1188474679
f
GR
GS
[0.75 0 0 0.75 0 -0.25] CT
0 0.447 0.741 RC
1 LJ
2.667 LW
N
458.103 564.472 M
459.26 562.671 L
S
GR
GS
[0.75 0 0 0.75 343.57748 423.10381] CT
0.635 0.078 0.184 RC
N
f1188474679
f
GR
GS
[0.75 0 0 0.75 0 -0.25] CT
0 0.447 0.741 RC
1 LJ
2.667 LW
N
460.156 562.014 M
461.721 560.556 L
S
GR
GS
[0.75 0 0 0.75 345.11666 421.26076] CT
0.851 0.325 0.098 RC
N
f1188474679
f
GR
GS
[0.75 0 0 0.75 0 -0.25] CT
0 0.447 0.741 RC
1 LJ
2.667 LW
N
462.208 559.557 M
463.364 557.756 L
S
GR
GS
[0.75 0 0 0.75 346.65585 419.41771] CT
0.494 0.184 0.557 RC
N
f1188474679
f
GR
GS
[0.75 0 0 0.75 0 -0.25] CT
0 0.447 0.741 RC
1 LJ
2.667 LW
N
464.26 557.1 M
465.826 555.641 L
S
GR
GS
[0.75 0 0 0.75 348.19503 417.57466] CT
0.302 0.745 0.933 RC
N
f1188474679
f
GR
GS
[0.75 0 0 0.75 0 -0.25] CT
0 0.447 0.741 RC
1 LJ
2.667 LW
N
466.312 554.642 M
467.469 552.841 L
S
GR
GS
[0.75 0 0 0.75 349.73421 415.73157] CT
0 0.447 0.741 RC
N
f1188474679
f
GR
GS
[0.75 0 0 0.75 0 -0.25] CT
0 0.447 0.741 RC
1 LJ
2.667 LW
N
468.365 552.185 M
469.93 550.726 L
S
GR
GS
[0.75 0 0 0.75 351.2734 413.88852] CT
0.929 0.694 0.125 RC
N
f1188474679
f
GR
GS
[0.75 0 0 0.75 0 -0.25] CT
0 0.447 0.741 RC
1 LJ
2.667 LW
N
470.417 549.727 M
471.573 547.927 L
S
GR
GS
[0.75 0 0 0.75 352.81258 412.04547] CT
0.467 0.675 0.188 RC
N
f1188474679
f
GR
GS
[0.75 0 0 0.75 0 -0.25] CT
0 0.447 0.741 RC
1 LJ
2.667 LW
N
472.469 547.27 M
474.035 545.811 L
S
GR
GS
[0.75 0 0 0.75 354.35177 410.20242] CT
0.635 0.078 0.184 RC
N
f1188474679
f
GR
GS
[0.75 0 0 0.75 0 -0.25] CT
0 0.447 0.741 RC
1 LJ
2.667 LW
N
474.521 544.813 M
475.678 543.012 L
S
GR
GS
[0.75 0 0 0.75 355.89095 408.35938] CT
0.851 0.325 0.098 RC
N
f1188474679
f
GR
GS
[0.75 0 0 0.75 0 -0.25] CT
0 0.447 0.741 RC
1 LJ
2.667 LW
N
476.574 542.355 M
478.139 540.896 L
S
GR
GS
[0.75 0 0 0.75 357.43014 406.51633] CT
0.494 0.184 0.557 RC
N
f1188474679
f
GR
GS
[0.75 0 0 0.75 0 -0.25] CT
0 0.447 0.741 RC
1 LJ
2.667 LW
N
478.626 539.898 M
479.782 538.097 L
S
GR
GS
[0.75 0 0 0.75 358.96932 404.67328] CT
0.302 0.745 0.933 RC
N
f1188474679
f
GR
GS
[0.75 0 0 0.75 0 -0.25] CT
0 0.447 0.741 RC
1 LJ
2.667 LW
N
480.678 537.44 M
482.244 535.982 L
S
GR
GS
[0.75 0 0 0.75 360.50851 402.83023] CT
0 0.447 0.741 RC
N
f1188474679
f
GR
GS
[0.75 0 0 0.75 0 -0.25] CT
0 0.447 0.741 RC
1 LJ
2.667 LW
N
482.73 534.983 M
483.887 533.182 L
S
GR
GS
[0.75 0 0 0.75 362.04769 400.98718] CT
0.929 0.694 0.125 RC
N
f1188474679
f
GR
GS
[0.75 0 0 0.75 0 -0.25] CT
0 0.447 0.741 RC
1 LJ
2.667 LW
N
484.783 532.526 M
486.348 531.067 L
S
GR
GS
[0.75 0 0 0.75 363.58688 399.14413] CT
0.467 0.675 0.188 RC
N
f1188474679
f
GR
GS
[0.75 0 0 0.75 0 -0.25] CT
0 0.447 0.741 RC
1 LJ
2.667 LW
N
486.835 530.068 M
487.991 528.267 L
S
GR
GS
[0.75 0 0 0.75 365.12606 397.30104] CT
0.635 0.078 0.184 RC
N
f1188474679
f
GR
GS
[0.75 0 0 0.75 0 -0.25] CT
0 0.447 0.741 RC
1 LJ
2.667 LW
N
488.887 527.611 M
490.453 526.152 L
S
GR
GS
[0.75 0 0 0.75 366.66525 395.45799] CT
0.851 0.325 0.098 RC
N
f1188474679
f
GR
GS
[0.75 0 0 0.75 0 -0.25] CT
0 0.447 0.741 RC
1 LJ
2.667 LW
N
490.939 525.153 M
492.095 523.353 L
S
GR
GS
[0.75 0 0 0.75 368.20443 393.61494] CT
0.494 0.184 0.557 RC
N
f1188474679
f
GR
GS
[0.75 0 0 0.75 0 -0.25] CT
0 0.447 0.741 RC
1 LJ
2.667 LW
N
492.991 522.696 M
494.557 521.237 L
S
GR
GS
[0.75 0 0 0.75 369.74361 391.7719] CT
0.302 0.745 0.933 RC
N
f1188474679
f
GR
GS
[0.75 0 0 0.75 0 -0.25] CT
0 0.447 0.741 RC
1 LJ
2.667 LW
N
495.044 520.238 M
496.2 518.438 L
S
GR
GS
[0.75 0 0 0.75 371.2828 389.92885] CT
0 0.447 0.741 RC
N
f1188474679
f
GR
GS
[0.75 0 0 0.75 0 -0.25] CT
0 0.447 0.741 RC
1 LJ
2.667 LW
N
497.096 517.781 M
498.662 516.322 L
S
GR
GS
[0.75 0 0 0.75 372.82198 388.0858] CT
0.929 0.694 0.125 RC
N
f1188474679
f
GR
GS
[0.75 0 0 0.75 0 -0.25] CT
0 0.447 0.741 RC
1 LJ
2.667 LW
N
499.692 515.908 M
501.57 514.882 L
S
GR
GS
[0.75 0 0 0.75 374.76929 386.68083] CT
0.467 0.675 0.188 RC
N
f1188474679
f
GR
GS
[0.75 0 0 0.75 0 -0.25] CT
0 0.447 0.741 RC
1 LJ
2.667 LW
N
502.289 514.034 M
503.855 512.576 L
S
GR
GS
[0.75 0 0 0.75 376.71661 385.27586] CT
0.635 0.078 0.184 RC
N
f1188474679
f
GR
GS
[0.75 0 0 0.75 0 -0.25] CT
0 0.447 0.741 RC
1 LJ
2.667 LW
N
504.341 511.577 M
505.497 509.776 L
S
GR
GS
[0.75 0 0 0.75 378.2558 383.43284] CT
0.851 0.325 0.098 RC
N
f1188474679
f
GR
GS
[0.75 0 0 0.75 0 -0.25] CT
0 0.447 0.741 RC
1 LJ
2.667 LW
N
506.393 509.12 M
507.959 507.661 L
S
GR
GS
[0.75 0 0 0.75 379.79498 381.58979] CT
0.494 0.184 0.557 RC
N
f1188474679
f
GR
GS
[0.75 0 0 0.75 0 -0.25] CT
0 0.447 0.741 RC
1 LJ
2.667 LW
N
508.99 507.246 M
510.868 506.22 L
S
GR
GS
[0.75 0 0 0.75 381.74229 380.18482] CT
0.302 0.745 0.933 RC
N
f1188474679
f
GR
GS
[0.75 0 0 0.75 0 -0.25] CT
0 0.447 0.741 RC
1 LJ
2.667 LW
N
511.586 505.373 M
513.152 503.914 L
S
GR
GS
[0.75 0 0 0.75 383.68959 378.77988] CT
0 0.447 0.741 RC
N
f1188474679
f
GR
GS
[0.75 0 0 0.75 0 -0.25] CT
0 0.447 0.741 RC
1 LJ
2.667 LW
N
513.638 502.916 M
514.795 501.115 L
S
GR
GS
[0.75 0 0 0.75 385.22878 376.93681] CT
0.929 0.694 0.125 RC
N
f1188474679
f
GR
GS
[0.75 0 0 0.75 0 -0.25] CT
0 0.447 0.741 RC
1 LJ
2.667 LW
N
515.691 500.458 M
517.256 499 L
S
GR
GS
[0.75 0 0 0.75 386.76796 375.09376] CT
0.467 0.675 0.188 RC
N
f1188474679
f
GR
GS
[0.75 0 0 0.75 0 -0.25] CT
0 0.447 0.741 RC
1 LJ
2.667 LW
N
518.287 498.585 M
520.165 497.559 L
S
GR
GS
[0.75 0 0 0.75 388.71529 373.68881] CT
0.635 0.078 0.184 RC
N
f1188474679
f
GR
GS
[0.75 0 0 0.75 0 -0.25] CT
0 0.447 0.741 RC
1 LJ
2.667 LW
N
520.883 496.712 M
522.449 495.253 L
S
GR
GS
[0.75 0 0 0.75 390.66261 372.28384] CT
0.851 0.325 0.098 RC
N
f1188474679
f
GR
GS
[0.75 0 0 0.75 0 -0.25] CT
0 0.447 0.741 RC
1 LJ
2.667 LW
N
522.936 494.254 M
524.092 492.454 L
S
GR
GS
[0.75 0 0 0.75 392.2018 370.4408] CT
0.494 0.184 0.557 RC
N
f1188474679
f
GR
GS
[0.75 0 0 0.75 0 -0.25] CT
0 0.447 0.741 RC
1 LJ
2.667 LW
N
524.988 491.797 M
526.554 490.338 L
S
GR
GS
[0.75 0 0 0.75 393.74098 368.59775] CT
0.302 0.745 0.933 RC
N
f1188474679
f
GR
GS
[0.75 0 0 0.75 0 -0.25] CT
0 0.447 0.741 RC
1 LJ
2.667 LW
N
527.584 489.924 M
529.462 488.898 L
S
GR
GS
[0.75 0 0 0.75 395.68826 367.19278] CT
0 0.447 0.741 RC
N
f1188474679
f
GR
GS
[0.75 0 0 0.75 0 -0.25] CT
0 0.447 0.741 RC
1 LJ
2.667 LW
N
530.181 488.05 M
531.747 486.592 L
S
GR
GS
[0.75 0 0 0.75 397.63559 365.78783] CT
0.929 0.694 0.125 RC
N
f1188474679
f
GR
GS
[0.75 0 0 0.75 0 -0.25] CT
0 0.447 0.741 RC
1 LJ
2.667 LW
N
532.233 485.593 M
533.389 483.792 L
S
GR
GS
[0.75 0 0 0.75 399.17477 363.94479] CT
0.467 0.675 0.188 RC
N
f1188474679
f
GR
GS
[0.75 0 0 0.75 0 -0.25] CT
0 0.447 0.741 RC
1 LJ
2.667 LW
N
534.285 483.136 M
535.851 481.677 L
S
GR
GS
[0.75 0 0 0.75 400.71396 362.10172] CT
0.635 0.078 0.184 RC
N
f1188474679
f
GR
GS
[0.75 0 0 0.75 0 -0.25] CT
0 0.447 0.741 RC
1 LJ
2.667 LW
N
536.882 481.262 M
538.76 480.236 L
S
GR
GS
[0.75 0 0 0.75 402.66129 360.69677] CT
0.851 0.325 0.098 RC
N
f1188474679
f
GR
GS
[0.75 0 0 0.75 0 -0.25] CT
0 0.447 0.741 RC
1 LJ
2.667 LW
N
539.478 479.389 M
541.044 477.93 L
S
GR
GS
[0.75 0 0 0.75 404.60857 359.2918] CT
0.494 0.184 0.557 RC
N
f1188474679
f
GR
GS
[0.75 0 0 0.75 0 -0.25] CT
0 0.447 0.741 RC
1 LJ
2.667 LW
N
541.53 476.932 M
542.687 475.131 L
S
GR
GS
[0.75 0 0 0.75 406.14775 357.44875] CT
0.302 0.745 0.933 RC
N
f1188474679
f
GR
GS
[0.75 0 0 0.75 0 -0.25] CT
0 0.447 0.741 RC
1 LJ
2.667 LW
N
543.583 474.474 M
545.148 473.016 L
S
GR
GS
[0.75 0 0 0.75 407.68694 355.60571] CT
0 0.447 0.741 RC
N
f1188474679
f
GR
GS
[0.75 0 0 0.75 0 -0.25] CT
0 0.447 0.741 RC
1 LJ
2.667 LW
N
546.179 472.601 M
548.057 471.575 L
S
GR
GS
[0.75 0 0 0.75 409.63426 354.20076] CT
0.929 0.694 0.125 RC
N
f1188474679
f
GR
GS
[0.75 0 0 0.75 0 -0.25] CT
0 0.447 0.741 RC
1 LJ
2.667 LW
N
548.775 470.728 M
550.341 469.269 L
S
GR
GS
[0.75 0 0 0.75 411.58159 352.79579] CT
0.467 0.675 0.188 RC
N
f1188474679
f
GR
GS
[0.75 0 0 0.75 0 -0.25] CT
0 0.447 0.741 RC
1 LJ
2.667 LW
N
550.828 468.27 M
551.984 466.47 L
S
GR
GS
[0.75 0 0 0.75 413.12077 350.95274] CT
0.635 0.078 0.184 RC
N
f1188474679
f
GR
GS
[0.75 0 0 0.75 0 -0.25] CT
0 0.447 0.741 RC
1 LJ
2.667 LW
N
552.88 465.813 M
554.446 464.354 L
S
GR
GS
[0.75 0 0 0.75 414.65996 349.1097] CT
0.851 0.325 0.098 RC
N
f1188474679
f
GR
GS
[0.75 0 0 0.75 0 -0.25] CT
0 0.447 0.741 RC
1 LJ
2.667 LW
N
555.476 463.94 M
557.354 462.914 L
S
GR
GS
[0.75 0 0 0.75 416.60728 347.70473] CT
0.494 0.184 0.557 RC
N
f1188474679
f
GR
GS
[0.75 0 0 0.75 0 -0.25] CT
0 0.447 0.741 RC
1 LJ
2.667 LW
N
558.073 462.066 M
559.639 460.608 L
S
GR
GS
[0.75 0 0 0.75 418.55457 346.29978] CT
0.302 0.745 0.933 RC
N
f1188474679
f
GR
GS
[0.75 0 0 0.75 0 -0.25] CT
0 0.447 0.741 RC
1 LJ
2.667 LW
N
560.125 459.609 M
561.281 457.808 L
S
GR
GS
[0.75 0 0 0.75 420.09375 344.45673] CT
0 0.447 0.741 RC
N
f1188474679
f
GR
GS
[0.75 0 0 0.75 0 -0.25] CT
0 0.447 0.741 RC
1 LJ
2.667 LW
N
562.177 457.152 M
563.743 455.693 L
S
GR
GS
[0.75 0 0 0.75 421.63293 342.61366] CT
0.929 0.694 0.125 RC
N
f1188474679
f
GR
GS
[0.75 0 0 0.75 0 -0.25] CT
0 0.447 0.741 RC
1 LJ
2.667 LW
N
564.774 455.278 M
566.652 454.252 L
S
GR
GS
[0.75 0 0 0.75 423.58026 341.20872] CT
0.467 0.675 0.188 RC
N
f1188474679
f
GR
GS
[0.75 0 0 0.75 0 -0.25] CT
0 0.447 0.741 RC
1 LJ
2.667 LW
N
567.37 453.405 M
568.936 451.946 L
S
GR
GS
[0.75 0 0 0.75 425.52759 339.80375] CT
0.635 0.078 0.184 RC
N
f1188474679
f
GR
GS
[0.75 0 0 0.75 0 -0.25] CT
0 0.447 0.741 RC
1 LJ
2.667 LW
N
569.422 450.948 M
570.579 449.147 L
S
GR
GS
[0.75 0 0 0.75 427.06677 337.9607] CT
0.851 0.325 0.098 RC
N
f1188474679
f
GR
GS
[0.75 0 0 0.75 0 -0.25] CT
0 0.447 0.741 RC
1 LJ
2.667 LW
N
571.475 448.49 M
573.04 447.031 L
S
GR
GS
[0.75 0 0 0.75 428.60596 336.11765] CT
0.494 0.184 0.557 RC
N
f1188474679
f
GR
GS
[0.75 0 0 0.75 0 -0.25] CT
0 0.447 0.741 RC
1 LJ
2.667 LW
N
574.071 446.617 M
575.949 445.591 L
S
GR
GS
[0.75 0 0 0.75 430.55324 334.71271] CT
0.302 0.745 0.933 RC
N
f1188474679
f
GR
GS
[0.75 0 0 0.75 0 -0.25] CT
0 0.447 0.741 RC
1 LJ
2.667 LW
N
576.667 444.744 M
578.233 443.285 L
S
GR
GS
[0.75 0 0 0.75 432.50056 333.30774] CT
0 0.447 0.741 RC
N
f1188474679
f
GR
GS
[0.75 0 0 0.75 0 -0.25] CT
0 0.447 0.741 RC
1 LJ
2.667 LW
N
578.72 442.286 M
579.876 440.486 L
S
GR
GS
[0.75 0 0 0.75 434.03975 331.46469] CT
0.929 0.694 0.125 RC
N
f1188474679
f
GR
GS
[0.75 0 0 0.75 0 -0.25] CT
0 0.447 0.741 RC
1 LJ
2.667 LW
N
580.772 439.829 M
582.338 438.37 L
S
GR
GS
[0.75 0 0 0.75 435.57893 329.62164] CT
0.467 0.675 0.188 RC
N
f1188474679
f
GR
GS
[0.75 0 0 0.75 0 -0.25] CT
0 0.447 0.741 RC
1 LJ
2.667 LW
N
583.368 437.956 M
585.246 436.93 L
S
GR
GS
[0.75 0 0 0.75 437.52626 328.21667] CT
0.635 0.078 0.184 RC
N
f1188474679
f
GR
GS
[0.75 0 0 0.75 0 -0.25] CT
0 0.447 0.741 RC
1 LJ
2.667 LW
N
585.965 436.082 M
587.531 434.624 L
S
GR
GS
[0.75 0 0 0.75 439.47354 326.81173] CT
0.851 0.325 0.098 RC
N
f1188474679
f
GR
GS
[0.75 0 0 0.75 0 -0.25] CT
0 0.447 0.741 RC
1 LJ
2.667 LW
N
588.017 433.625 M
589.173 431.824 L
S
GR
GS
[0.75 0 0 0.75 441.01273 324.96868] CT
0.494 0.184 0.557 RC
N
f1188474679
f
GR
GS
[0.75 0 0 0.75 0 -0.25] CT
0 0.447 0.741 RC
1 LJ
2.667 LW
N
590.069 431.168 M
591.635 429.709 L
S
GR
GS
[0.75 0 0 0.75 442.55196 323.12563] CT
0.302 0.745 0.933 RC
N
f1188474679
f
GR
GS
[0.75 0 0 0.75 0 -0.25] CT
0 0.447 0.741 RC
1 LJ
2.667 LW
N
592.666 429.294 M
594.544 428.268 L
S
GR
GS
[0.75 0 0 0.75 444.49924 321.72066] CT
0 0.447 0.741 RC
N
f1188474679
f
GR
GS
[0.75 0 0 0.75 0 -0.25] CT
0 0.447 0.741 RC
1 LJ
2.667 LW
N
595.262 427.421 M
596.828 425.962 L
S
GR
GS
[0.75 0 0 0.75 446.44656 320.31572] CT
0.929 0.694 0.125 RC
N
f1188474679
f
GR
GS
[0.75 0 0 0.75 0 -0.25] CT
0 0.447 0.741 RC
1 LJ
2.667 LW
N
597.314 424.964 M
598.471 423.163 L
S
GR
GS
[0.75 0 0 0.75 447.98575 318.47265] CT
0.467 0.675 0.188 RC
N
f1188474679
f
GR
GS
[0.75 0 0 0.75 0 -0.25] CT
0 0.447 0.741 RC
1 LJ
2.667 LW
N
599.367 422.506 M
600.932 421.047 L
S
GR
GS
[0.75 0 0 0.75 449.52493 316.6296] CT
0.635 0.078 0.184 RC
N
f1188474679
f
GR
GS
[0.75 0 0 0.75 0 -0.25] CT
0 0.447 0.741 RC
1 LJ
2.667 LW
N
601.963 420.633 M
603.841 419.607 L
S
GR
GS
[0.75 0 0 0.75 451.47221 315.22463] CT
0.851 0.325 0.098 RC
N
f1188474679
f
GR
GS
[0.75 0 0 0.75 0 -0.25] CT
0 0.447 0.741 RC
1 LJ
2.667 LW
N
604.559 418.76 M
606.125 417.301 L
S
GR
GS
[0.75 0 0 0.75 453.41954 313.81969] CT
0.494 0.184 0.557 RC
N
f1188474679
f
GR
GS
[0.75 0 0 0.75 0 -0.25] CT
0 0.447 0.741 RC
1 LJ
2.667 LW
N
606.612 416.302 M
607.768 414.501 L
S
GR
GS
[0.75 0 0 0.75 454.95872 311.97664] CT
0.302 0.745 0.933 RC
N
f1188474679
f
GR
GS
[0.75 0 0 0.75 0 -0.25] CT
0 0.447 0.741 RC
1 LJ
2.667 LW
N
608.664 413.845 M
610.23 412.386 L
S
GR
GS
[0.75 0 0 0.75 456.49791 310.13359] CT
0 0.447 0.741 RC
N
f1188474679
f
GR
GS
[0.75 0 0 0.75 0 -0.25] CT
0 0.447 0.741 RC
1 LJ
2.667 LW
N
611.26 411.971 M
613.138 410.946 L
S
GR
GS
[0.75 0 0 0.75 458.44524 308.72862] CT
0.929 0.694 0.125 RC
N
f1188474679
f
GR
GS
[0.75 0 0 0.75 0 -0.25] CT
0 0.447 0.741 RC
1 LJ
2.667 LW
N
613.857 410.098 M
615.423 408.64 L
S
GR
GS
[0.75 0 0 0.75 460.39256 307.32368] CT
0.467 0.675 0.188 RC
N
f1188474679
f
GR
GS
[0.75 0 0 0.75 0 -0.25] CT
0 0.447 0.741 RC
1 LJ
2.667 LW
N
615.909 407.641 M
617.065 405.84 L
S
GR
GS
[0.75 0 0 0.75 461.93175 305.48061] CT
0.635 0.078 0.184 RC
N
f1188474679
f
GR
GS
[0.75 0 0 0.75 0 -0.25] CT
0 0.447 0.741 RC
1 LJ
2.667 LW
N
617.961 405.183 M
619.527 403.725 L
S
GR
GS
[0.75 0 0 0.75 463.47093 303.63758] CT
0.851 0.325 0.098 RC
N
f1188474679
f
GR
GS
[0.75 0 0 0.75 0 -0.25] CT
0 0.447 0.741 RC
1 LJ
2.667 LW
N
620.558 403.31 M
622.436 402.284 L
S
GR
GS
[0.75 0 0 0.75 465.41821 302.23261] CT
0.494 0.184 0.557 RC
N
f1188474679
f
GR
GS
[0.75 0 0 0.75 0 -0.25] CT
0 0.447 0.741 RC
1 LJ
2.667 LW
N
623.154 401.437 M
624.72 399.978 L
S
GR
GS
[0.75 0 0 0.75 467.36554 300.82767] CT
0.302 0.745 0.933 RC
N
f1188474679
f
GR
GS
[0.75 0 0 0.75 0 -0.25] CT
0 0.447 0.741 RC
1 LJ
2.667 LW
N
625.206 398.979 M
626.363 397.179 L
S
GR
GS
[0.75 0 0 0.75 468.90472 298.9846] CT
0 0.447 0.741 RC
N
f1188474679
f
GR
GS
[0.75 0 0 0.75 0 -0.25] CT
0 0.447 0.741 RC
1 LJ
2.667 LW
N
627.259 396.522 M
628.824 395.063 L
S
GR
GS
[0.75 0 0 0.75 470.44391 297.14155] CT
0.929 0.694 0.125 RC
N
f1188474679
f
GR
GS
[0.75 0 0 0.75 0 -0.25] CT
0 0.447 0.741 RC
1 LJ
2.667 LW
N
629.855 394.649 M
631.733 393.623 L
S
GR
GS
[0.75 0 0 0.75 472.39124 295.73658] CT
0.467 0.675 0.188 RC
N
f1188474679
f
GR
GS
[0.75 0 0 0.75 0 -0.25] CT
0 0.447 0.741 RC
1 LJ
2.667 LW
N
632.451 392.776 M
634.017 391.317 L
S
GR
GS
[0.75 0 0 0.75 474.33852 294.33163] CT
0.635 0.078 0.184 RC
N
f1188474679
f
GR
GS
[0.75 0 0 0.75 0 -0.25] CT
0 0.447 0.741 RC
1 LJ
2.667 LW
N
634.504 390.318 M
635.66 388.517 L
S
GR
GS
[0.75 0 0 0.75 475.8777 292.48859] CT
0.851 0.325 0.098 RC
N
f1188474679
f
GR
GS
[0.75 0 0 0.75 0 -0.25] CT
0 0.447 0.741 RC
1 LJ
2.667 LW
N
636.556 387.861 M
638.122 386.402 L
S
GR
GS
[0.75 0 0 0.75 477.41693 290.64554] CT
0.494 0.184 0.557 RC
N
f1188474679
f
GR
GS
[0.75 0 0 0.75 0 -0.25] CT
0 0.447 0.741 RC
1 LJ
2.667 LW
N
639.152 385.987 M
641.03 384.961 L
S
GR
GS
[0.75 0 0 0.75 479.36421 289.24057] CT
0.302 0.745 0.933 RC
N
f1188474679
f
GR
GS
[0.75 0 0 0.75 0 -0.25] CT
0 0.447 0.741 RC
1 LJ
2.667 LW
N
641.749 384.114 M
643.315 382.655 L
S
GR
GS
[0.75 0 0 0.75 481.31154 287.83562] CT
0 0.447 0.741 RC
N
f1188474679
f
GR
GS
[0.75 0 0 0.75 0 -0.25] CT
0 0.447 0.741 RC
1 LJ
2.667 LW
N
643.801 381.657 M
644.957 379.856 L
S
GR
GS
[0.75 0 0 0.75 482.85072 285.99255] CT
0.929 0.694 0.125 RC
N
f1188474679
f
GR
GS
[0.75 0 0 0.75 0 -0.25] CT
0 0.447 0.741 RC
1 LJ
2.667 LW
N
645.853 379.199 M
647.419 377.741 L
S
GR
GS
[0.75 0 0 0.75 484.38991 284.14951] CT
0.467 0.675 0.188 RC
N
f1188474679
f
GR
GS
[0.75 0 0 0.75 0 -0.25] CT
0 0.447 0.741 RC
1 LJ
2.667 LW
N
648.45 377.326 M
650.328 376.3 L
S
GR
GS
[0.75 0 0 0.75 486.33723 282.74456] CT
0.635 0.078 0.184 RC
N
f1188474679
f
GR
GS
[0.75 0 0 0.75 0 -0.25] CT
0 0.447 0.741 RC
1 LJ
2.667 LW
N
651.046 375.453 M
652.612 373.994 L
S
GR
GS
[0.75 0 0 0.75 488.28452 281.33959] CT
0.851 0.325 0.098 RC
N
f1188474679
f
GR
GS
[0.75 0 0 0.75 0 -0.25] CT
0 0.447 0.741 RC
1 LJ
2.667 LW
N
653.098 372.995 M
654.255 371.195 L
S
GR
GS
[0.75 0 0 0.75 489.8237 279.49654] CT
0.494 0.184 0.557 RC
N
f1188474679
f
GR
GS
[0.75 0 0 0.75 0 -0.25] CT
0 0.447 0.741 RC
1 LJ
2.667 LW
N
655.151 370.538 M
656.716 369.079 L
S
GR
GS
[0.75 0 0 0.75 491.36288 277.6535] CT
0.302 0.745 0.933 RC
N
f1188474679
f
GR
GS
[0.75 0 0 0.75 0 -0.25] CT
0 0.447 0.741 RC
1 LJ
2.667 LW
N
657.747 368.665 M
659.625 367.639 L
S
GR
GS
[0.75 0 0 0.75 493.31021 276.24853] CT
0 0.447 0.741 RC
N
f1188474679
f
GR
GS
[0.75 0 0 0.75 0 -0.25] CT
0 0.447 0.741 RC
1 LJ
2.667 LW
N
660.343 366.791 M
661.909 365.333 L
S
GR
GS
[0.75 0 0 0.75 495.25754 274.84358] CT
0.929 0.694 0.125 RC
N
f1188474679
f
GR
GS
[0.75 0 0 0.75 0 -0.25] CT
0 0.447 0.741 RC
1 LJ
2.667 LW
N
662.396 364.334 M
663.552 362.533 L
S
GR
GS
[0.75 0 0 0.75 496.79672 273.00053] CT
0.467 0.675 0.188 RC
N
f1188474679
f
GR
GS
[0.75 0 0 0.75 0 -0.25] CT
0 0.447 0.741 RC
1 LJ
2.667 LW
N
664.448 361.877 M
666.014 360.418 L
S
GR
GS
[0.75 0 0 0.75 498.33591 271.15749] CT
0.635 0.078 0.184 RC
N
f1188474679
f
GR
GS
[0.75 0 0 0.75 0 -0.25] CT
0 0.447 0.741 RC
1 LJ
2.667 LW
N
667.044 360.003 M
668.922 358.977 L
S
GR
GS
[0.75 0 0 0.75 500.28319 269.75252] CT
0.851 0.325 0.098 RC
N
f1188474679
f
GR
GS
[0.75 0 0 0.75 0 -0.25] CT
0 0.447 0.741 RC
1 LJ
2.667 LW
N
669.641 358.13 M
671.206 356.671 L
S
GR
GS
[0.75 0 0 0.75 502.23051 268.34757] CT
0.494 0.184 0.557 RC
N
f1188474679
f
GR
GS
[0.75 0 0 0.75 0 -0.25] CT
0 0.447 0.741 RC
1 LJ
2.667 LW
N
671.693 355.673 M
672.849 353.872 L
S
GR
GS
[0.75 0 0 0.75 503.7697 266.5045] CT
0.302 0.745 0.933 RC
N
f1188474679
f
GR
GS
[0.75 0 0 0.75 0 -0.25] CT
0 0.447 0.741 RC
1 LJ
2.667 LW
N
673.745 353.215 M
675.311 351.757 L
S
GR
GS
[0.75 0 0 0.75 505.30888 264.66145] CT
0 0.447 0.741 RC
N
f1188474679
f
GR
GS
[0.75 0 0 0.75 0 -0.25] CT
0 0.447 0.741 RC
1 LJ
2.667 LW
N
676.342 351.342 M
678.22 350.316 L
S
GR
GS
[0.75 0 0 0.75 507.25621 263.25651] CT
0.929 0.694 0.125 RC
N
f1188474679
f
GR
GS
[0.75 0 0 0.75 0 -0.25] CT
0 0.447 0.741 RC
1 LJ
2.667 LW
N
678.938 349.469 M
680.504 348.01 L
S
GR
GS
[0.75 0 0 0.75 509.20349 261.85154] CT
0.467 0.675 0.188 RC
N
f1188474679
f
GR
GS
[0.75 0 0 0.75 0 -0.25] CT
0 0.447 0.741 RC
1 LJ
2.667 LW
N
680.99 347.011 M
682.146 345.211 L
S
GR
GS
[0.75 0 0 0.75 510.74272 260.00849] CT
0.635 0.078 0.184 RC
N
f1188474679
f
GR
GS
[0.75 0 0 0.75 0 -0.25] CT
0 0.447 0.741 RC
1 LJ
2.667 LW
N
683.043 344.554 M
684.608 343.095 L
S
GR
GS
[0.75 0 0 0.75 512.28191 258.16544] CT
0.851 0.325 0.098 RC
N
f1188474679
f
GR
GS
[0.75 0 0 0.75 0 -0.25] CT
0 0.447 0.741 RC
1 LJ
2.667 LW
N
685.639 342.681 M
687.517 341.655 L
S
GR
GS
[0.75 0 0 0.75 514.22919 256.76048] CT
0.494 0.184 0.557 RC
N
f1188474679
f
GR
GS
[0.75 0 0 0.75 0 -0.25] CT
0 0.447 0.741 RC
1 LJ
2.667 LW
N
688.235 340.807 M
689.801 339.349 L
S
GR
GS
[0.75 0 0 0.75 516.17651 255.35553] CT
0.302 0.745 0.933 RC
N
f1188474679
f
GR
GS
[0.75 0 0 0.75 0 -0.25] CT
0 0.447 0.741 RC
1 LJ
2.667 LW
N
690.288 338.35 M
691.444 336.549 L
S
GR
GS
[0.75 0 0 0.75 517.7157 253.51248] CT
0 0.447 0.741 RC
N
f1188474679
f
GR
GS
[0.75 0 0 0.75 0 -0.25] CT
0 0.447 0.741 RC
1 LJ
2.667 LW
N
692.34 335.893 M
693.906 334.434 L
S
GR
GS
[0.75 0 0 0.75 519.25488 251.66943] CT
0.929 0.694 0.125 RC
N
f1188474679
f
GR
GS
[0.75 0 0 0.75 0 -0.25] CT
0 0.447 0.741 RC
1 LJ
2.667 LW
N
694.936 334.019 M
696.814 332.993 L
S
GR
GS
[0.75 0 0 0.75 521.20221 250.26447] CT
0.467 0.675 0.188 RC
N
f1188474679
f
GR
GS
[0.75 0 0 0.75 0 -0.25] CT
0 0.447 0.741 RC
1 LJ
2.667 LW
N
697.533 332.146 M
699.099 330.687 L
S
GR
GS
[0.75 0 0 0.75 523.14949 248.85952] CT
0.635 0.078 0.184 RC
N
f1188474679
f
GR
GS
[0.75 0 0 0.75 0 -0.25] CT
0 0.447 0.741 RC
1 LJ
2.667 LW
N
699.585 329.689 M
700.741 327.888 L
S
GR
GS
[0.75 0 0 0.75 524.68867 247.01647] CT
0.851 0.325 0.098 RC
N
f1188474679
f
GR
GS
[0.75 0 0 0.75 0 -0.25] CT
0 0.447 0.741 RC
1 LJ
2.667 LW
N
701.637 327.231 M
703.203 325.772 L
S
GR
GS
[0.75 0 0 0.75 526.22786 245.1734] CT
0.494 0.184 0.557 RC
N
f1188474679
f
GR
GS
[0.75 0 0 0.75 0 -0.25] CT
0 0.447 0.741 RC
1 LJ
2.667 LW
N
704.234 325.358 M
706.112 324.332 L
S
GR
GS
[0.75 0 0 0.75 528.17519 243.76846] CT
0.302 0.745 0.933 RC
N
f1188474679
f
GR
GS
[0.75 0 0 0.75 0 -0.25] CT
0 0.447 0.741 RC
1 LJ
2.667 LW
N
706.83 323.485 M
708.396 322.026 L
S
GR
GS
[0.75 0 0 0.75 530.12251 242.36349] CT
0 0.447 0.741 RC
N
f1188474679
f
GR
GS
[0.75 0 0 0.75 0 -0.25] CT
0 0.447 0.741 RC
1 LJ
2.667 LW
N
708.882 321.027 M
710.039 319.227 L
S
GR
GS
[0.75 0 0 0.75 531.6617 240.52044] CT
0.929 0.694 0.125 RC
N
f1188474679
f
GR
GS
[0.75 0 0 0.75 0 -0.25] CT
0 0.447 0.741 RC
1 LJ
2.667 LW
N
710.935 318.57 M
712.5 317.111 L
S
GR
GS
[0.75 0 0 0.75 533.20088 238.67739] CT
0.467 0.675 0.188 RC
N
f1188474679
f
GR
GS
[0.75 0 0 0.75 0 -0.25] CT
0 0.447 0.741 RC
1 LJ
2.667 LW
N
713.531 316.697 M
715.409 315.671 L
S
GR
GS
[0.75 0 0 0.75 535.14816 237.27245] CT
0.635 0.078 0.184 RC
N
f1188474679
f
GR
GS
[0.75 0 0 0.75 0 -0.25] CT
0 0.447 0.741 RC
1 LJ
2.667 LW
N
716.127 314.823 M
717.693 313.365 L
S
GR
GS
[0.75 0 0 0.75 537.09549 235.86748] CT
0.851 0.325 0.098 RC
N
f1188474679
f
GR
GS
[0.75 0 0 0.75 0 -0.25] CT
0 0.447 0.741 RC
1 LJ
2.667 LW
N
718.18 312.366 M
719.336 310.565 L
S
GR
GS
[0.75 0 0 0.75 538.63467 234.02443] CT
0.494 0.184 0.557 RC
N
f1188474679
f
GR
GS
[0.75 0 0 0.75 0 -0.25] CT
0 0.447 0.741 RC
1 LJ
2.667 LW
N
720.232 309.909 M
721.798 308.45 L
S
GR
GS
[0.75 0 0 0.75 540.17386 232.18138] CT
0.302 0.745 0.933 RC
N
f1188474679
f
GR
GS
[0.75 0 0 0.75 0 -0.25] CT
0 0.447 0.741 RC
1 LJ
2.667 LW
N
722.828 308.035 M
724.706 307.009 L
S
GR
GS
[0.75 0 0 0.75 542.12119 230.77641] CT
0 0.447 0.741 RC
N
f1188474679
f
GR
GS
[0.75 0 0 0.75 0 -0.25] CT
0 0.447 0.741 RC
1 LJ
2.667 LW
N
725.425 306.162 M
726.99 304.703 L
S
GR
GS
[0.75 0 0 0.75 544.06851 229.37147] CT
0.929 0.694 0.125 RC
N
f1188474679
f
GR
GS
[0.75 0 0 0.75 0 -0.25] CT
0 0.447 0.741 RC
1 LJ
2.667 LW
N
727.477 303.705 M
728.633 301.904 L
S
GR
GS
[0.75 0 0 0.75 545.6077 227.52842] CT
0.467 0.675 0.188 RC
N
f1188474679
f
GR
GS
[0.75 0 0 0.75 0 -0.25] CT
0 0.447 0.741 RC
1 LJ
2.667 LW
N
729.529 301.247 M
731.095 299.788 L
S
GR
GS
[0.75 0 0 0.75 547.14688 225.68535] CT
0.635 0.078 0.184 RC
N
f1188474679
f
GR
GS
[0.75 0 0 0.75 0 -0.25] CT
0 0.447 0.741 RC
1 LJ
2.667 LW
N
732.126 299.374 M
734.004 298.348 L
S
GR
GS
[0.75 0 0 0.75 549.09416 224.2804] CT
0.851 0.325 0.098 RC
N
f1188474679
f
GR
GS
[0.75 0 0 0.75 0 -0.25] CT
0 0.447 0.741 RC
1 LJ
2.667 LW
N
734.722 297.501 M
736.288 296.042 L
S
GR
GS
[0.75 0 0 0.75 551.04149 222.87543] CT
0.494 0.184 0.557 RC
N
f1188474679
f
GR
GS
[0.75 0 0 0.75 0 -0.25] CT
0 0.447 0.741 RC
1 LJ
2.667 LW
N
736.774 295.043 M
737.93 293.242 L
S
GR
GS
[0.75 0 0 0.75 552.58067 221.03239] CT
0.302 0.745 0.933 RC
N
f1188474679
f
GR
GS
[0.75 0 0 0.75 0 -0.25] CT
0 0.447 0.741 RC
1 LJ
2.667 LW
N
738.826 292.586 M
740.392 291.127 L
S
GR
GS
[0.75 0 0 0.75 554.11986 219.18934] CT
0 0.447 0.741 RC
N
f1188474679
f
GR
GS
[0.75 0 0 0.75 0 -0.25] CT
0 0.447 0.741 RC
1 LJ
2.667 LW
N
741.423 290.713 M
743.301 289.687 L
S
GR
GS
[0.75 0 0 0.75 556.06718 217.78439] CT
0.929 0.694 0.125 RC
N
f1188474679
f
GR
GS
[0.75 0 0 0.75 0 -0.25] CT
0 0.447 0.741 RC
1 LJ
2.667 LW
N
744.019 288.839 M
745.585 287.381 L
S
GR
GS
[0.75 0 0 0.75 558.01447 216.37943] CT
0.467 0.675 0.188 RC
N
f1188474679
f
GR
GS
[0.75 0 0 0.75 0 -0.25] CT
0 0.447 0.741 RC
1 LJ
2.667 LW
N
746.072 286.382 M
747.228 284.581 L
S
GR
GS
[0.75 0 0 0.75 559.5537 214.53638] CT
0.635 0.078 0.184 RC
N
f1188474679
f
GR
GS
[0.75 0 0 0.75 0 -0.25] CT
0 0.447 0.741 RC
1 LJ
2.667 LW
N
748.124 283.924 M
749.69 282.466 L
S
GR
GS
[0.75 0 0 0.75 561.09283 212.69333] CT
0.851 0.325 0.098 RC
N
f1188474679
f
GR
GS
[0.75 0 0 0.75 0 -0.25] CT
0 0.447 0.741 RC
1 LJ
2.667 LW
N
750.72 282.051 M
752.598 281.025 L
S
GR
GS
[0.75 0 0 0.75 563.04016 211.28836] CT
0.494 0.184 0.557 RC
N
f1188474679
f
GR
GS
[0.75 0 0 0.75 0 -0.25] CT
0 0.447 0.741 RC
1 LJ
2.667 LW
N
753.317 280.178 M
754.882 278.719 L
S
GR
GS
[0.75 0 0 0.75 564.98749 209.88339] CT
0.302 0.745 0.933 RC
N
f1188474679
f
GR
GS
[0.75 0 0 0.75 0 -0.25] CT
0 0.447 0.741 RC
1 LJ
2.667 LW
N
755.369 277.72 M
756.525 275.92 L
S
GR
GS
[0.75 0 0 0.75 566.52667 208.04037] CT
0 0.447 0.741 RC
N
f1188474679
f
GR
GS
[0.75 0 0 0.75 0 -0.25] CT
0 0.447 0.741 RC
1 LJ
2.667 LW
N
757.421 275.263 M
758.987 273.804 L
S
GR
GS
[0.75 0 0 0.75 568.06586 206.19732] CT
0.929 0.694 0.125 RC
N
f1188474679
f
GR
GS
[0.75 0 0 0.75 0 -0.25] CT
0 0.447 0.741 RC
1 LJ
2.667 LW
N
760.018 273.39 M
761.896 272.364 L
S
GR
GS
[0.75 0 0 0.75 570.01318 204.79235] CT
0.467 0.675 0.188 RC
N
f1188474679
f
GR
GS
[0.75 0 0 0.75 0 -0.25] CT
0 0.447 0.741 RC
1 LJ
2.667 LW
N
762.614 271.517 M
764.18 270.058 L
S
GR
GS
[0.75 0 0 0.75 571.96046 203.38738] CT
0.635 0.078 0.184 RC
N
f1188474679
f
GR
GS
[0.75 0 0 0.75 0 -0.25] CT
0 0.447 0.741 RC
1 LJ
2.667 LW
N
764.666 269.059 M
765.822 267.258 L
S
GR
GS
[0.75 0 0 0.75 573.49965 201.54433] CT
0.851 0.325 0.098 RC
N
f1188474679
f
GR
GS
[0.75 0 0 0.75 0 -0.25] CT
0 0.447 0.741 RC
1 LJ
2.667 LW
N
766.718 266.602 M
768.284 265.143 L
S
GR
GS
[0.75 0 0 0.75 575.03883 199.70129] CT
0.494 0.184 0.557 RC
N
f1188474679
f
GR
GS
[0.75 0 0 0.75 0 -0.25] CT
0 0.447 0.741 RC
1 LJ
2.667 LW
N
769.315 264.728 M
771.193 263.702 L
S
GR
GS
[0.75 0 0 0.75 576.98616 198.29634] CT
0.302 0.745 0.933 RC
N
f1188474679
f
GR
GS
[0.75 0 0 0.75 578.93344 196.89137] CT
1 0 0 RC
N
/f640454831{6.667 0 M
6.667 -3.682 3.682 -6.667 0 -6.667 C
-3.682 -6.667 -6.667 -3.682 -6.667 0 C
-6.667 3.682 -3.682 6.667 0 6.667 C
3.682 6.667 6.667 3.682 6.667 0 C
cp}def
f640454831
f
GR
GS
[0.75 0 0 0.75 578.93344 196.89137] CT
1 0 0 RC
N
/f-1502758814{0 -6.333 M
3.498 -6.333 6.333 -3.498 6.333 0 C
6.333 0 L
6.333 3.498 3.498 6.333 0 6.333 C
-3.498 6.333 -6.333 3.498 -6.333 0 C
-6.333 -3.498 -3.498 -6.333 0 -6.333 C
cp
0 -7 M
-3.866 -7 -7 -3.866 -7 0 C
-7 3.866 -3.866 7 0 7 C
3.866 7 7 3.866 7 0 C
7 0 L
7 -3.866 3.866 -7 0 -7 C
cp}def
f-1502758814
f
GR
GS
[0.75 0 0 0.75 0 -0.25] CT
0 0.447 0.741 RC
1 LJ
2.667 LW
N
771.911 262.855 M
773.477 261.396 L
S
GR
GS
[0.75 0 0 0.75 578.93344 196.89137] CT
0 0.447 0.741 RC
N
f1188474679
f
GR
%%Trailer
%%Pages: 1
%%EOF
