%!PS-Adobe-3.0 EPSF-3.0
%%Creator: (MATLAB, The Mathworks, Inc. Version 9.9.0.1592791 \(R2020b\) Update 5. Operating System: Windows 10)
%%Title: (C:/Users/marti/Documents/GitHub/bio-inspired-autonomous-systems/Assignment 01 - Lizard Ear Model/robot_946hz.eps)
%%CreationDate: 2021-03-15T11:33:30
%%Pages: (atend)
%%BoundingBox:     0     0   420   315
%%LanguageLevel: 3
%%EndComments
%%BeginProlog
%%BeginResource: procset (Apache XML Graphics Std ProcSet) 1.2 0
%%Version: 1.2 0
%%Copyright: (Copyright 2001-2003,2010 The Apache Software Foundation. License terms: http://www.apache.org/licenses/LICENSE-2.0)
/bd{bind def}bind def
/ld{load def}bd
/GR/grestore ld
/GS/gsave ld
/RM/rmoveto ld
/C/curveto ld
/t/show ld
/L/lineto ld
/ML/setmiterlimit ld
/CT/concat ld
/f/fill ld
/N/newpath ld
/S/stroke ld
/CC/setcmykcolor ld
/A/ashow ld
/cp/closepath ld
/RC/setrgbcolor ld
/LJ/setlinejoin ld
/GC/setgray ld
/LW/setlinewidth ld
/M/moveto ld
/re {4 2 roll M
1 index 0 rlineto
0 exch rlineto
neg 0 rlineto
cp } bd
/_ctm matrix def
/_tm matrix def
/BT { _ctm currentmatrix pop matrix _tm copy pop 0 0 moveto } bd
/ET { _ctm setmatrix } bd
/iTm { _ctm setmatrix _tm concat } bd
/Tm { _tm astore pop iTm 0 0 moveto } bd
/ux 0.0 def
/uy 0.0 def
/F {
  /Tp exch def
  /Tf exch def
  Tf findfont Tp scalefont setfont
  /cf Tf def  /cs Tp def
} bd
/ULS {currentpoint /uy exch def /ux exch def} bd
/ULE {
  /Tcx currentpoint pop def
  gsave
  newpath
  cf findfont cs scalefont dup
  /FontMatrix get 0 get /Ts exch def /FontInfo get dup
  /UnderlinePosition get Ts mul /To exch def
  /UnderlineThickness get Ts mul /Tt exch def
  ux uy To add moveto  Tcx uy To add lineto
  Tt setlinewidth stroke
  grestore
} bd
/OLE {
  /Tcx currentpoint pop def
  gsave
  newpath
  cf findfont cs scalefont dup
  /FontMatrix get 0 get /Ts exch def /FontInfo get dup
  /UnderlinePosition get Ts mul /To exch def
  /UnderlineThickness get Ts mul /Tt exch def
  ux uy To add cs add moveto Tcx uy To add cs add lineto
  Tt setlinewidth stroke
  grestore
} bd
/SOE {
  /Tcx currentpoint pop def
  gsave
  newpath
  cf findfont cs scalefont dup
  /FontMatrix get 0 get /Ts exch def /FontInfo get dup
  /UnderlinePosition get Ts mul /To exch def
  /UnderlineThickness get Ts mul /Tt exch def
  ux uy To add cs 10 mul 26 idiv add moveto Tcx uy To add cs 10 mul 26 idiv add lineto
  Tt setlinewidth stroke
  grestore
} bd
/QT {
/Y22 exch store
/X22 exch store
/Y21 exch store
/X21 exch store
currentpoint
/Y21 load 2 mul add 3 div exch
/X21 load 2 mul add 3 div exch
/X21 load 2 mul /X22 load add 3 div
/Y21 load 2 mul /Y22 load add 3 div
/X22 load /Y22 load curveto
} bd
/SSPD {
dup length /d exch dict def
{
/v exch def
/k exch def
currentpagedevice k known {
/cpdv currentpagedevice k get def
v cpdv ne {
/upd false def
/nullv v type /nulltype eq def
/nullcpdv cpdv type /nulltype eq def
nullv nullcpdv or
{
/upd true def
} {
/sametype v type cpdv type eq def
sametype {
v type /arraytype eq {
/vlen v length def
/cpdvlen cpdv length def
vlen cpdvlen eq {
0 1 vlen 1 sub {
/i exch def
/obj v i get def
/cpdobj cpdv i get def
obj cpdobj ne {
/upd true def
exit
} if
} for
} {
/upd true def
} ifelse
} {
v type /dicttype eq {
v {
/dv exch def
/dk exch def
/cpddv cpdv dk get def
dv cpddv ne {
/upd true def
exit
} if
} forall
} {
/upd true def
} ifelse
} ifelse
} if
} ifelse
upd true eq {
d k v put
} if
} if
} if
} forall
d length 0 gt {
d setpagedevice
} if
} bd
/RE { % /NewFontName [NewEncodingArray] /FontName RE -
  findfont dup length dict begin
  {
    1 index /FID ne
    {def} {pop pop} ifelse
  } forall
  /Encoding exch def
  /FontName 1 index def
  currentdict definefont pop
  end
} bind def
%%EndResource
%%BeginResource: procset (Apache XML Graphics EPS ProcSet) 1.0 0
%%Version: 1.0 0
%%Copyright: (Copyright 2002-2003 The Apache Software Foundation. License terms: http://www.apache.org/licenses/LICENSE-2.0)
/BeginEPSF { %def
/b4_Inc_state save def         % Save state for cleanup
/dict_count countdictstack def % Count objects on dict stack
/op_count count 1 sub def      % Count objects on operand stack
userdict begin                 % Push userdict on dict stack
/showpage { } def              % Redefine showpage, { } = null proc
0 setgray 0 setlinecap         % Prepare graphics state
1 setlinewidth 0 setlinejoin
10 setmiterlimit [ ] 0 setdash newpath
/languagelevel where           % If level not equal to 1 then
{pop languagelevel             % set strokeadjust and
1 ne                           % overprint to their defaults.
{false setstrokeadjust false setoverprint
} if
} if
} bd
/EndEPSF { %def
count op_count sub {pop} repeat            % Clean up stacks
countdictstack dict_count sub {end} repeat
b4_Inc_state restore
} bd
%%EndResource
%FOPBeginFontDict
%%IncludeResource: font Courier-Oblique
%%IncludeResource: font Courier-BoldOblique
%%IncludeResource: font Courier-Bold
%%IncludeResource: font ZapfDingbats
%%IncludeResource: font Symbol
%%IncludeResource: font Helvetica
%%IncludeResource: font Helvetica-Oblique
%%IncludeResource: font Helvetica-Bold
%%IncludeResource: font Helvetica-BoldOblique
%%IncludeResource: font Times-Roman
%%IncludeResource: font Times-Italic
%%IncludeResource: font Times-Bold
%%IncludeResource: font Times-BoldItalic
%%IncludeResource: font Courier
%FOPEndFontDict
%%BeginResource: encoding WinAnsiEncoding
/WinAnsiEncoding [
/.notdef /.notdef /.notdef /.notdef /.notdef
/.notdef /.notdef /.notdef /.notdef /.notdef
/.notdef /.notdef /.notdef /.notdef /.notdef
/.notdef /.notdef /.notdef /.notdef /.notdef
/.notdef /.notdef /.notdef /.notdef /.notdef
/.notdef /.notdef /.notdef /.notdef /.notdef
/.notdef /.notdef /space /exclam /quotedbl
/numbersign /dollar /percent /ampersand /quotesingle
/parenleft /parenright /asterisk /plus /comma
/hyphen /period /slash /zero /one
/two /three /four /five /six
/seven /eight /nine /colon /semicolon
/less /equal /greater /question /at
/A /B /C /D /E
/F /G /H /I /J
/K /L /M /N /O
/P /Q /R /S /T
/U /V /W /X /Y
/Z /bracketleft /backslash /bracketright /asciicircum
/underscore /quoteleft /a /b /c
/d /e /f /g /h
/i /j /k /l /m
/n /o /p /q /r
/s /t /u /v /w
/x /y /z /braceleft /bar
/braceright /asciitilde /bullet /Euro /bullet
/quotesinglbase /florin /quotedblbase /ellipsis /dagger
/daggerdbl /circumflex /perthousand /Scaron /guilsinglleft
/OE /bullet /Zcaron /bullet /bullet
/quoteleft /quoteright /quotedblleft /quotedblright /bullet
/endash /emdash /asciitilde /trademark /scaron
/guilsinglright /oe /bullet /zcaron /Ydieresis
/space /exclamdown /cent /sterling /currency
/yen /brokenbar /section /dieresis /copyright
/ordfeminine /guillemotleft /logicalnot /sfthyphen /registered
/macron /degree /plusminus /twosuperior /threesuperior
/acute /mu /paragraph /middot /cedilla
/onesuperior /ordmasculine /guillemotright /onequarter /onehalf
/threequarters /questiondown /Agrave /Aacute /Acircumflex
/Atilde /Adieresis /Aring /AE /Ccedilla
/Egrave /Eacute /Ecircumflex /Edieresis /Igrave
/Iacute /Icircumflex /Idieresis /Eth /Ntilde
/Ograve /Oacute /Ocircumflex /Otilde /Odieresis
/multiply /Oslash /Ugrave /Uacute /Ucircumflex
/Udieresis /Yacute /Thorn /germandbls /agrave
/aacute /acircumflex /atilde /adieresis /aring
/ae /ccedilla /egrave /eacute /ecircumflex
/edieresis /igrave /iacute /icircumflex /idieresis
/eth /ntilde /ograve /oacute /ocircumflex
/otilde /odieresis /divide /oslash /ugrave
/uacute /ucircumflex /udieresis /yacute /thorn
/ydieresis
] def
%%EndResource
%FOPBeginFontReencode
/Courier-Oblique findfont
dup length dict begin
  {1 index /FID ne {def} {pop pop} ifelse} forall
  /Encoding WinAnsiEncoding def
  currentdict
end
/Courier-Oblique exch definefont pop
/Courier-BoldOblique findfont
dup length dict begin
  {1 index /FID ne {def} {pop pop} ifelse} forall
  /Encoding WinAnsiEncoding def
  currentdict
end
/Courier-BoldOblique exch definefont pop
/Courier-Bold findfont
dup length dict begin
  {1 index /FID ne {def} {pop pop} ifelse} forall
  /Encoding WinAnsiEncoding def
  currentdict
end
/Courier-Bold exch definefont pop
/Helvetica findfont
dup length dict begin
  {1 index /FID ne {def} {pop pop} ifelse} forall
  /Encoding WinAnsiEncoding def
  currentdict
end
/Helvetica exch definefont pop
/Helvetica-Oblique findfont
dup length dict begin
  {1 index /FID ne {def} {pop pop} ifelse} forall
  /Encoding WinAnsiEncoding def
  currentdict
end
/Helvetica-Oblique exch definefont pop
/Helvetica-Bold findfont
dup length dict begin
  {1 index /FID ne {def} {pop pop} ifelse} forall
  /Encoding WinAnsiEncoding def
  currentdict
end
/Helvetica-Bold exch definefont pop
/Helvetica-BoldOblique findfont
dup length dict begin
  {1 index /FID ne {def} {pop pop} ifelse} forall
  /Encoding WinAnsiEncoding def
  currentdict
end
/Helvetica-BoldOblique exch definefont pop
/Times-Roman findfont
dup length dict begin
  {1 index /FID ne {def} {pop pop} ifelse} forall
  /Encoding WinAnsiEncoding def
  currentdict
end
/Times-Roman exch definefont pop
/Times-Italic findfont
dup length dict begin
  {1 index /FID ne {def} {pop pop} ifelse} forall
  /Encoding WinAnsiEncoding def
  currentdict
end
/Times-Italic exch definefont pop
/Times-Bold findfont
dup length dict begin
  {1 index /FID ne {def} {pop pop} ifelse} forall
  /Encoding WinAnsiEncoding def
  currentdict
end
/Times-Bold exch definefont pop
/Times-BoldItalic findfont
dup length dict begin
  {1 index /FID ne {def} {pop pop} ifelse} forall
  /Encoding WinAnsiEncoding def
  currentdict
end
/Times-BoldItalic exch definefont pop
/Courier findfont
dup length dict begin
  {1 index /FID ne {def} {pop pop} ifelse} forall
  /Encoding WinAnsiEncoding def
  currentdict
end
/Courier exch definefont pop
%FOPEndFontReencode
%%EndProlog
%%Page: 1 1
%%PageBoundingBox: 0 0 420 315
%%BeginPageSetup
[1 0 0 -1 0 315] CT
%%EndPageSetup
GS
[0.75 0 0 0.75 0 0] CT
1 GC
N
0 0 560 420 re
f
GR
GS
[0.75 0 0 0.75 0 0] CT
1 GC
N
0 0 560 420 re
f
GR
GS
[0.75 0 0 0.75 0 0] CT
1 GC
N
119 374 M
461 374 L
461 32 L
119 32 L
cp
f
GR
GS
[0.75 0 0 0.75 0 0] CT
0.775 GC
[1 3] 0 setdash
2 LJ
0.667 LW
N
119 374 M
119 32 L
S
GR
GS
[0.75 0 0 0.75 0 0] CT
0.775 GC
[1 3] 0 setdash
2 LJ
0.667 LW
N
130.4 374 M
130.4 32 L
S
GR
GS
[0.75 0 0 0.75 0 0] CT
0.775 GC
[1 3] 0 setdash
2 LJ
0.667 LW
N
141.8 374 M
141.8 32 L
S
GR
GS
[0.75 0 0 0.75 0 0] CT
0.775 GC
[1 3] 0 setdash
2 LJ
0.667 LW
N
153.2 374 M
153.2 32 L
S
GR
GS
[0.75 0 0 0.75 0 0] CT
0.775 GC
[1 3] 0 setdash
2 LJ
0.667 LW
N
164.6 374 M
164.6 32 L
S
GR
GS
[0.75 0 0 0.75 0 0] CT
0.775 GC
[1 3] 0 setdash
2 LJ
0.667 LW
N
176 374 M
176 32 L
S
GR
GS
[0.75 0 0 0.75 0 0] CT
0.775 GC
[1 3] 0 setdash
2 LJ
0.667 LW
N
187.4 374 M
187.4 32 L
S
GR
GS
[0.75 0 0 0.75 0 0] CT
0.775 GC
[1 3] 0 setdash
2 LJ
0.667 LW
N
198.8 374 M
198.8 32 L
S
GR
GS
[0.75 0 0 0.75 0 0] CT
0.775 GC
[1 3] 0 setdash
2 LJ
0.667 LW
N
210.2 374 M
210.2 32 L
S
GR
GS
[0.75 0 0 0.75 0 0] CT
0.775 GC
[1 3] 0 setdash
2 LJ
0.667 LW
N
221.6 374 M
221.6 32 L
S
GR
GS
[0.75 0 0 0.75 0 0] CT
0.775 GC
[1 3] 0 setdash
2 LJ
0.667 LW
N
233 374 M
233 32 L
S
GR
GS
[0.75 0 0 0.75 0 0] CT
0.775 GC
[1 3] 0 setdash
2 LJ
0.667 LW
N
244.4 374 M
244.4 32 L
S
GR
GS
[0.75 0 0 0.75 0 0] CT
0.775 GC
[1 3] 0 setdash
2 LJ
0.667 LW
N
255.8 374 M
255.8 32 L
S
GR
GS
[0.75 0 0 0.75 0 0] CT
0.775 GC
[1 3] 0 setdash
2 LJ
0.667 LW
N
267.2 374 M
267.2 32 L
S
GR
GS
[0.75 0 0 0.75 0 0] CT
0.775 GC
[1 3] 0 setdash
2 LJ
0.667 LW
N
278.6 374 M
278.6 32 L
S
GR
GS
[0.75 0 0 0.75 0 0] CT
0.775 GC
[1 3] 0 setdash
2 LJ
0.667 LW
N
290 374 M
290 32 L
S
GR
GS
[0.75 0 0 0.75 0 0] CT
0.775 GC
[1 3] 0 setdash
2 LJ
0.667 LW
N
301.4 374 M
301.4 32 L
S
GR
GS
[0.75 0 0 0.75 0 0] CT
0.775 GC
[1 3] 0 setdash
2 LJ
0.667 LW
N
312.8 374 M
312.8 32 L
S
GR
GS
[0.75 0 0 0.75 0 0] CT
0.775 GC
[1 3] 0 setdash
2 LJ
0.667 LW
N
324.2 374 M
324.2 32 L
S
GR
GS
[0.75 0 0 0.75 0 0] CT
0.775 GC
[1 3] 0 setdash
2 LJ
0.667 LW
N
335.6 374 M
335.6 32 L
S
GR
GS
[0.75 0 0 0.75 0 0] CT
0.775 GC
[1 3] 0 setdash
2 LJ
0.667 LW
N
347 374 M
347 32 L
S
GR
GS
[0.75 0 0 0.75 0 0] CT
0.775 GC
[1 3] 0 setdash
2 LJ
0.667 LW
N
358.4 374 M
358.4 32 L
S
GR
GS
[0.75 0 0 0.75 0 0] CT
0.775 GC
[1 3] 0 setdash
2 LJ
0.667 LW
N
369.8 374 M
369.8 32 L
S
GR
GS
[0.75 0 0 0.75 0 0] CT
0.775 GC
[1 3] 0 setdash
2 LJ
0.667 LW
N
381.2 374 M
381.2 32 L
S
GR
GS
[0.75 0 0 0.75 0 0] CT
0.775 GC
[1 3] 0 setdash
2 LJ
0.667 LW
N
392.6 374 M
392.6 32 L
S
GR
GS
[0.75 0 0 0.75 0 0] CT
0.775 GC
[1 3] 0 setdash
2 LJ
0.667 LW
N
404 374 M
404 32 L
S
GR
GS
[0.75 0 0 0.75 0 0] CT
0.775 GC
[1 3] 0 setdash
2 LJ
0.667 LW
N
415.4 374 M
415.4 32 L
S
GR
GS
[0.75 0 0 0.75 0 0] CT
0.775 GC
[1 3] 0 setdash
2 LJ
0.667 LW
N
426.8 374 M
426.8 32 L
S
GR
GS
[0.75 0 0 0.75 0 0] CT
0.775 GC
[1 3] 0 setdash
2 LJ
0.667 LW
N
438.2 374 M
438.2 32 L
S
GR
GS
[0.75 0 0 0.75 0 0] CT
0.775 GC
[1 3] 0 setdash
2 LJ
0.667 LW
N
449.6 374 M
449.6 32 L
S
GR
GS
[0.75 0 0 0.75 0 0] CT
0.775 GC
[1 3] 0 setdash
2 LJ
0.667 LW
N
461 374 M
461 32 L
S
GR
GS
[0.75 0 0 0.75 0 0] CT
0.775 GC
[1 3] 0 setdash
2 LJ
0.667 LW
N
461 374 M
119 374 L
S
GR
GS
[0.75 0 0 0.75 0 0] CT
0.775 GC
[1 3] 0 setdash
2 LJ
0.667 LW
N
461 362.6 M
119 362.6 L
S
GR
GS
[0.75 0 0 0.75 0 0] CT
0.775 GC
[1 3] 0 setdash
2 LJ
0.667 LW
N
461 351.2 M
119 351.2 L
S
GR
GS
[0.75 0 0 0.75 0 0] CT
0.775 GC
[1 3] 0 setdash
2 LJ
0.667 LW
N
461 339.8 M
119 339.8 L
S
GR
GS
[0.75 0 0 0.75 0 0] CT
0.775 GC
[1 3] 0 setdash
2 LJ
0.667 LW
N
461 328.4 M
119 328.4 L
S
GR
GS
[0.75 0 0 0.75 0 0] CT
0.775 GC
[1 3] 0 setdash
2 LJ
0.667 LW
N
461 317 M
119 317 L
S
GR
GS
[0.75 0 0 0.75 0 0] CT
0.775 GC
[1 3] 0 setdash
2 LJ
0.667 LW
N
461 305.6 M
119 305.6 L
S
GR
GS
[0.75 0 0 0.75 0 0] CT
0.775 GC
[1 3] 0 setdash
2 LJ
0.667 LW
N
461 294.2 M
119 294.2 L
S
GR
GS
[0.75 0 0 0.75 0 0] CT
0.775 GC
[1 3] 0 setdash
2 LJ
0.667 LW
N
461 282.8 M
119 282.8 L
S
GR
GS
[0.75 0 0 0.75 0 0] CT
0.775 GC
[1 3] 0 setdash
2 LJ
0.667 LW
N
461 271.4 M
119 271.4 L
S
GR
GS
[0.75 0 0 0.75 0 0] CT
0.775 GC
[1 3] 0 setdash
2 LJ
0.667 LW
N
461 260 M
119 260 L
S
GR
GS
[0.75 0 0 0.75 0 0] CT
0.775 GC
[1 3] 0 setdash
2 LJ
0.667 LW
N
461 248.6 M
119 248.6 L
S
GR
GS
[0.75 0 0 0.75 0 0] CT
0.775 GC
[1 3] 0 setdash
2 LJ
0.667 LW
N
461 237.2 M
119 237.2 L
S
GR
GS
[0.75 0 0 0.75 0 0] CT
0.775 GC
[1 3] 0 setdash
2 LJ
0.667 LW
N
461 225.8 M
119 225.8 L
S
GR
GS
[0.75 0 0 0.75 0 0] CT
0.775 GC
[1 3] 0 setdash
2 LJ
0.667 LW
N
461 214.4 M
119 214.4 L
S
GR
GS
[0.75 0 0 0.75 0 0] CT
0.775 GC
[1 3] 0 setdash
2 LJ
0.667 LW
N
461 203 M
119 203 L
S
GR
GS
[0.75 0 0 0.75 0 0] CT
0.775 GC
[1 3] 0 setdash
2 LJ
0.667 LW
N
461 191.6 M
119 191.6 L
S
GR
GS
[0.75 0 0 0.75 0 0] CT
0.775 GC
[1 3] 0 setdash
2 LJ
0.667 LW
N
461 180.2 M
119 180.2 L
S
GR
GS
[0.75 0 0 0.75 0 0] CT
0.775 GC
[1 3] 0 setdash
2 LJ
0.667 LW
N
461 168.8 M
119 168.8 L
S
GR
GS
[0.75 0 0 0.75 0 0] CT
0.775 GC
[1 3] 0 setdash
2 LJ
0.667 LW
N
461 157.4 M
119 157.4 L
S
GR
GS
[0.75 0 0 0.75 0 0] CT
0.775 GC
[1 3] 0 setdash
2 LJ
0.667 LW
N
461 146 M
119 146 L
S
GR
GS
[0.75 0 0 0.75 0 0] CT
0.775 GC
[1 3] 0 setdash
2 LJ
0.667 LW
N
461 134.6 M
119 134.6 L
S
GR
GS
[0.75 0 0 0.75 0 0] CT
0.775 GC
[1 3] 0 setdash
2 LJ
0.667 LW
N
461 123.2 M
119 123.2 L
S
GR
GS
[0.75 0 0 0.75 0 0] CT
0.775 GC
[1 3] 0 setdash
2 LJ
0.667 LW
N
461 111.8 M
119 111.8 L
S
GR
GS
[0.75 0 0 0.75 0 0] CT
0.775 GC
[1 3] 0 setdash
2 LJ
0.667 LW
N
461 100.4 M
119 100.4 L
S
GR
GS
[0.75 0 0 0.75 0 0] CT
0.775 GC
[1 3] 0 setdash
2 LJ
0.667 LW
N
461 89 M
119 89 L
S
GR
GS
[0.75 0 0 0.75 0 0] CT
0.775 GC
[1 3] 0 setdash
2 LJ
0.667 LW
N
461 77.6 M
119 77.6 L
S
GR
GS
[0.75 0 0 0.75 0 0] CT
0.775 GC
[1 3] 0 setdash
2 LJ
0.667 LW
N
461 66.2 M
119 66.2 L
S
GR
GS
[0.75 0 0 0.75 0 0] CT
0.775 GC
[1 3] 0 setdash
2 LJ
0.667 LW
N
461 54.8 M
119 54.8 L
S
GR
GS
[0.75 0 0 0.75 0 0] CT
0.775 GC
[1 3] 0 setdash
2 LJ
0.667 LW
N
461 43.4 M
119 43.4 L
S
GR
GS
[0.75 0 0 0.75 0 0] CT
0.775 GC
[1 3] 0 setdash
2 LJ
0.667 LW
N
461 32 M
119 32 L
S
GR
GS
[0.75 0 0 0.75 0 0] CT
0.149 GC
2 setlinecap
1 LJ
0.667 LW
N
119 374 M
461 374 L
S
GR
GS
[0.75 0 0 0.75 0 0] CT
0.149 GC
2 setlinecap
1 LJ
0.667 LW
N
119 374 M
119 370.58 L
S
GR
GS
[0.75 0 0 0.75 0 0] CT
0.149 GC
2 setlinecap
1 LJ
0.667 LW
N
176 374 M
176 370.58 L
S
GR
GS
[0.75 0 0 0.75 0 0] CT
0.149 GC
2 setlinecap
1 LJ
0.667 LW
N
233 374 M
233 370.58 L
S
GR
GS
[0.75 0 0 0.75 0 0] CT
0.149 GC
2 setlinecap
1 LJ
0.667 LW
N
290 374 M
290 370.58 L
S
GR
GS
[0.75 0 0 0.75 0 0] CT
0.149 GC
2 setlinecap
1 LJ
0.667 LW
N
347 374 M
347 370.58 L
S
GR
GS
[0.75 0 0 0.75 0 0] CT
0.149 GC
2 setlinecap
1 LJ
0.667 LW
N
404 374 M
404 370.58 L
S
GR
GS
[0.75 0 0 0.75 0 0] CT
0.149 GC
2 setlinecap
1 LJ
0.667 LW
N
461 374 M
461 370.58 L
S
GR
GS
[0.75 0 0 0.75 89.25 284.50001] CT
0.149 GC
/Helvetica 13.333 F
GS
[1 0 0 1 0 0] CT
-13.5 14 moveto 
1 -1 scale
(-200) t 
GR
GR
GS
[0.75 0 0 0.75 132 284.50001] CT
0.149 GC
/Helvetica 13.333 F
GS
[1 0 0 1 0 0] CT
-13.5 14 moveto 
1 -1 scale
(-100) t 
GR
GR
GS
[0.75 0 0 0.75 174.75 284.50001] CT
0.149 GC
/Helvetica 13.333 F
GS
[1 0 0 1 0 0] CT
-4 14 moveto 
1 -1 scale
(0) t 
GR
GR
GS
[0.75 0 0 0.75 217.5 284.50001] CT
0.149 GC
/Helvetica 13.333 F
GS
[1 0 0 1 0 0] CT
-11.5 14 moveto 
1 -1 scale
(100) t 
GR
GR
GS
[0.75 0 0 0.75 260.25 284.50001] CT
0.149 GC
/Helvetica 13.333 F
GS
[1 0 0 1 0 0] CT
-11.5 14 moveto 
1 -1 scale
(200) t 
GR
GR
GS
[0.75 0 0 0.75 303 284.50001] CT
0.149 GC
/Helvetica 13.333 F
GS
[1 0 0 1 0 0] CT
-11.5 14 moveto 
1 -1 scale
(300) t 
GR
GR
GS
[0.75 0 0 0.75 345.75 284.50001] CT
0.149 GC
/Helvetica 13.333 F
GS
[1 0 0 1 0 0] CT
-11.5 14 moveto 
1 -1 scale
(400) t 
GR
GR
GS
[0.75 0 0 0.75 0 0] CT
0.149 GC
2 setlinecap
1 LJ
0.667 LW
N
119 374 M
119 32 L
S
GR
GS
[0.75 0 0 0.75 0 0] CT
0.149 GC
2 setlinecap
1 LJ
0.667 LW
N
119 374 M
122.42 374 L
S
GR
GS
[0.75 0 0 0.75 0 0] CT
0.149 GC
2 setlinecap
1 LJ
0.667 LW
N
119 317 M
122.42 317 L
S
GR
GS
[0.75 0 0 0.75 0 0] CT
0.149 GC
2 setlinecap
1 LJ
0.667 LW
N
119 260 M
122.42 260 L
S
GR
GS
[0.75 0 0 0.75 0 0] CT
0.149 GC
2 setlinecap
1 LJ
0.667 LW
N
119 203 M
122.42 203 L
S
GR
GS
[0.75 0 0 0.75 0 0] CT
0.149 GC
2 setlinecap
1 LJ
0.667 LW
N
119 146 M
122.42 146 L
S
GR
GS
[0.75 0 0 0.75 0 0] CT
0.149 GC
2 setlinecap
1 LJ
0.667 LW
N
119 89 M
122.42 89 L
S
GR
GS
[0.75 0 0 0.75 0 0] CT
0.149 GC
2 setlinecap
1 LJ
0.667 LW
N
119 32 M
122.42 32 L
S
GR
GS
[0.75 0 0 0.75 85.25 280.5] CT
0.149 GC
/Helvetica 13.333 F
GS
[1 0 0 1 0 0] CT
-27 5.5 moveto 
1 -1 scale
(-200) t 
GR
GR
GS
[0.75 0 0 0.75 85.25 237.75] CT
0.149 GC
/Helvetica 13.333 F
GS
[1 0 0 1 0 0] CT
-27 5.5 moveto 
1 -1 scale
(-100) t 
GR
GR
GS
[0.75 0 0 0.75 85.25 195] CT
0.149 GC
/Helvetica 13.333 F
GS
[1 0 0 1 0 0] CT
-8 5.5 moveto 
1 -1 scale
(0) t 
GR
GR
GS
[0.75 0 0 0.75 85.25 152.25] CT
0.149 GC
/Helvetica 13.333 F
GS
[1 0 0 1 0 0] CT
-23 5.5 moveto 
1 -1 scale
(100) t 
GR
GR
GS
[0.75 0 0 0.75 85.25 109.5] CT
0.149 GC
/Helvetica 13.333 F
GS
[1 0 0 1 0 0] CT
-23 5.5 moveto 
1 -1 scale
(200) t 
GR
GR
GS
[0.75 0 0 0.75 85.25 66.75] CT
0.149 GC
/Helvetica 13.333 F
GS
[1 0 0 1 0 0] CT
-23 5.5 moveto 
1 -1 scale
(300) t 
GR
GR
GS
[0.75 0 0 0.75 85.25 24] CT
0.149 GC
/Helvetica 13.333 F
GS
[1 0 0 1 0 0] CT
-23 5.5 moveto 
1 -1 scale
(400) t 
GR
GR
GS
[0.75 0 0 0.75 303 66.75] CT
N
-6 -6 M
-6 6 L
6 6 L
6 -6 L
cp
f
GR
GS
[0.75 0 0 0.75 303 66.75] CT
10.0 ML
0.667 LW
N
-6 -6 M
-6 6 L
6 6 L
6 -6 L
cp
S
GR
GS
[0.75 0 0 0.75 132 237.75] CT
1 0 0 RC
N
6.667 0 M
6.667 -3.682 3.682 -6.667 0 -6.667 C
-3.682 -6.667 -6.667 -3.682 -6.667 0 C
-6.667 3.682 -3.682 6.667 0 6.667 C
3.682 6.667 6.667 3.682 6.667 0 C
cp
f
GR
GS
[0.75 0 0 0.75 132 237.75] CT
1 0 0 RC
N
0 -6.333 M
3.498 -6.333 6.333 -3.498 6.333 0 C
6.333 0 L
6.333 3.498 3.498 6.333 0 6.333 C
-3.498 6.333 -6.333 3.498 -6.333 0 C
-6.333 -3.498 -3.498 -6.333 0 -6.333 C
cp
0 -7 M
-3.866 -7 -7 -3.866 -7 0 C
-7 3.866 -3.866 7 0 7 C
3.866 7 7 3.866 7 0 C
7 0 L
7 -3.866 3.866 -7 0 -7 C
cp
f
GR
GS
[0.75 0 0 0.75 0 0] CT
0 0.447 0.741 RC
1 LJ
2.667 LW
N
177.692 317.213 M
178.797 317.495 L
S
GR
GS
[0.75 0 0 0.75 133.26918 237.90948] CT
0.494 0.184 0.557 RC
N
0.5 0 M
0.5 0.276 0.276 0.5 0 0.5 C
-0.276 0.5 -0.5 0.276 -0.5 0 C
-0.5 -0.276 -0.276 -0.5 0 -0.5 C
0.276 -0.5 0.5 -0.276 0.5 0 C
cp
f
GR
GS
[0.75 0 0 0.75 0 0] CT
0 0.447 0.741 RC
1 LJ
2.667 LW
N
179.279 317.837 M
180.28 318.384 L
S
GR
GS
[0.75 0 0 0.75 134.45945 238.37801] CT
0.302 0.745 0.933 RC
N
/f1188474679{0.5 0 M
0.5 0.276 0.276 0.5 0 0.5 C
-0.276 0.5 -0.5 0.276 -0.5 0 C
-0.5 -0.276 -0.276 -0.5 0 -0.5 C
0.276 -0.5 0.5 -0.276 0.5 0 C
cp}def
f1188474679
f
GR
GS
[0.75 0 0 0.75 0 0] CT
0 0.447 0.741 RC
1 LJ
2.667 LW
N
180.662 318.835 M
181.497 319.612 L
S
GR
GS
[0.75 0 0 0.75 135.49681 239.12643] CT
0 0.447 0.741 RC
N
f1188474679
f
GR
GS
[0.75 0 0 0.75 0 0] CT
0 0.447 0.741 RC
1 LJ
2.667 LW
N
181.756 320.144 M
182.372 321.104 L
S
GR
GS
[0.75 0 0 0.75 136.31675 240.10824] CT
0.929 0.694 0.125 RC
N
f1188474679
f
GR
GS
[0.75 0 0 0.75 0 0] CT
0 0.447 0.741 RC
1 LJ
2.667 LW
N
182.491 321.683 M
182.851 322.765 L
S
GR
GS
[0.75 0 0 0.75 136.86829 241.2624] CT
0.467 0.675 0.188 RC
N
f1188474679
f
GR
GS
[0.75 0 0 0.75 0 0] CT
0 0.447 0.741 RC
1 LJ
2.667 LW
N
182.823 323.356 M
182.904 324.493 L
S
GR
GS
[0.75 0 0 0.75 137.11715 242.51713] CT
0.635 0.078 0.184 RC
N
f1188474679
f
GR
GS
[0.75 0 0 0.75 0 0] CT
0 0.447 0.741 RC
1 LJ
2.667 LW
N
182.73 325.059 M
182.527 326.181 L
S
GR
GS
[0.75 0 0 0.75 137.04785 243.7944] CT
0.851 0.325 0.098 RC
N
f1188474679
f
GR
GS
[0.75 0 0 0.75 0 0] CT
0 0.447 0.741 RC
1 LJ
2.667 LW
N
182.22 326.686 M
181.745 327.723 L
S
GR
GS
[0.75 0 0 0.75 136.66469 245.01482] CT
0.494 0.184 0.557 RC
N
f1188474679
f
GR
GS
[0.75 0 0 0.75 0 0] CT
0 0.447 0.741 RC
1 LJ
2.667 LW
N
181.322 328.137 M
180.606 329.024 L
S
GR
GS
[0.75 0 0 0.75 135.99152 246.10254] CT
0.302 0.745 0.933 RC
N
f1188474679
f
GR
GS
[0.75 0 0 0.75 0 0] CT
0 0.447 0.741 RC
1 LJ
2.667 LW
N
180.424 329.587 M
179.95 330.624 L
S
GR
GS
[0.75 0 0 0.75 135.31833 247.19023] CT
0 0.447 0.741 RC
N
f1188474679
f
GR
GS
[0.75 0 0 0.75 0 0] CT
0 0.447 0.741 RC
1 LJ
2.667 LW
N
179.527 331.037 M
178.811 331.924 L
S
GR
GS
[0.75 0 0 0.75 134.64515 248.27792] CT
0.929 0.694 0.125 RC
N
f1188474679
f
GR
GS
[0.75 0 0 0.75 0 0] CT
0 0.447 0.741 RC
1 LJ
2.667 LW
N
178.629 332.487 M
178.155 333.524 L
S
GR
GS
[0.75 0 0 0.75 133.97198 249.36562] CT
0.467 0.675 0.188 RC
N
f1188474679
f
GR
GS
[0.75 0 0 0.75 0 0] CT
0 0.447 0.741 RC
1 LJ
2.667 LW
N
177.732 333.938 M
177.016 334.825 L
S
GR
GS
[0.75 0 0 0.75 133.29879 250.45331] CT
0.635 0.078 0.184 RC
N
f1188474679
f
GR
GS
[0.75 0 0 0.75 0 0] CT
0 0.447 0.741 RC
1 LJ
2.667 LW
N
176.834 335.388 M
176.36 336.425 L
S
GR
GS
[0.75 0 0 0.75 132.62561 251.54102] CT
0.851 0.325 0.098 RC
N
f1188474679
f
GR
GS
[0.75 0 0 0.75 0 0] CT
0 0.447 0.741 RC
1 LJ
2.667 LW
N
175.937 336.838 M
175.22 337.725 L
S
GR
GS
[0.75 0 0 0.75 131.95244 252.62872] CT
0.494 0.184 0.557 RC
N
f1188474679
f
GR
GS
[0.75 0 0 0.75 0 0] CT
0 0.447 0.741 RC
1 LJ
2.667 LW
N
175.039 338.289 M
174.565 339.325 L
S
GR
GS
[0.75 0 0 0.75 131.27925 253.71641] CT
0.302 0.745 0.933 RC
N
f1188474679
f
GR
GS
[0.75 0 0 0.75 0 0] CT
0 0.447 0.741 RC
1 LJ
2.667 LW
N
174.141 339.739 M
173.425 340.626 L
S
GR
GS
[0.75 0 0 0.75 130.60608 254.8041] CT
0 0.447 0.741 RC
N
f1188474679
f
GR
GS
[0.75 0 0 0.75 0 0] CT
0 0.447 0.741 RC
1 LJ
2.667 LW
N
173.244 341.189 M
172.769 342.226 L
S
GR
GS
[0.75 0 0 0.75 129.9329 255.89182] CT
0.929 0.694 0.125 RC
N
f1188474679
f
GR
GS
[0.75 0 0 0.75 0 0] CT
0 0.447 0.741 RC
1 LJ
2.667 LW
N
172.346 342.639 M
171.63 343.526 L
S
GR
GS
[0.75 0 0 0.75 129.25971 256.97951] CT
0.467 0.675 0.188 RC
N
f1188474679
f
GR
GS
[0.75 0 0 0.75 0 0] CT
0 0.447 0.741 RC
1 LJ
2.667 LW
N
171.449 344.09 M
170.974 345.126 L
S
GR
GS
[0.75 0 0 0.75 128.58654 258.0672] CT
0.635 0.078 0.184 RC
N
f1188474679
f
GR
GS
[0.75 0 0 0.75 0 0] CT
0 0.447 0.741 RC
1 LJ
2.667 LW
N
170.551 345.54 M
169.835 346.427 L
S
GR
GS
[0.75 0 0 0.75 127.91335 259.15489] CT
0.851 0.325 0.098 RC
N
f1188474679
f
GR
GS
[0.75 0 0 0.75 0 0] CT
0 0.447 0.741 RC
1 LJ
2.667 LW
N
169.654 346.99 M
169.179 348.027 L
S
GR
GS
[0.75 0 0 0.75 127.24017 260.24258] CT
0.494 0.184 0.557 RC
N
f1188474679
f
GR
GS
[0.75 0 0 0.75 0 0] CT
0 0.447 0.741 RC
1 LJ
2.667 LW
N
168.756 348.44 M
168.04 349.327 L
S
GR
GS
[0.75 0 0 0.75 126.56699 261.3303] CT
0.302 0.745 0.933 RC
N
f1188474679
f
GR
GS
[0.75 0 0 0.75 0 0] CT
0 0.447 0.741 RC
1 LJ
2.667 LW
N
167.858 349.891 M
167.384 350.927 L
S
GR
GS
[0.75 0 0 0.75 125.89381 262.41799] CT
0 0.447 0.741 RC
N
f1188474679
f
GR
GS
[0.75 0 0 0.75 0 0] CT
0 0.447 0.741 RC
1 LJ
2.667 LW
N
166.961 351.341 M
166.245 352.228 L
S
GR
GS
[0.75 0 0 0.75 125.22063 263.50568] CT
0.929 0.694 0.125 RC
N
f1188474679
f
GR
GS
[0.75 0 0 0.75 0 0] CT
0 0.447 0.741 RC
1 LJ
2.667 LW
N
166.063 352.791 M
165.589 353.828 L
S
GR
GS
[0.75 0 0 0.75 124.54745 264.59338] CT
0.467 0.675 0.188 RC
N
f1188474679
f
GR
GS
[0.75 0 0 0.75 0 0] CT
0 0.447 0.741 RC
1 LJ
2.667 LW
N
165.166 354.241 M
164.45 355.128 L
S
GR
GS
[0.75 0 0 0.75 123.87427 265.68109] CT
0.635 0.078 0.184 RC
N
f1188474679
f
GR
GS
[0.75 0 0 0.75 0 0] CT
0 0.447 0.741 RC
1 LJ
2.667 LW
N
164.268 355.692 M
163.794 356.728 L
S
GR
GS
[0.75 0 0 0.75 123.2011 266.76878] CT
0.851 0.325 0.098 RC
N
f1188474679
f
GR
GS
[0.75 0 0 0.75 0 0] CT
0 0.447 0.741 RC
1 LJ
2.667 LW
N
163.371 357.142 M
162.654 358.029 L
S
GR
GS
[0.75 0 0 0.75 122.52791 267.85648] CT
0.494 0.184 0.557 RC
N
f1188474679
f
GR
GS
[0.75 0 0 0.75 0 0] CT
0 0.447 0.741 RC
1 LJ
2.667 LW
N
162.473 358.592 M
161.999 359.629 L
S
GR
GS
[0.75 0 0 0.75 121.85473 268.94417] CT
0.302 0.745 0.933 RC
N
f1188474679
f
GR
GS
[0.75 0 0 0.75 0 0] CT
0 0.447 0.741 RC
1 LJ
2.667 LW
N
161.575 360.043 M
160.859 360.93 L
S
GR
GS
[0.75 0 0 0.75 121.18155 270.03188] CT
0 0.447 0.741 RC
N
f1188474679
f
GR
GS
[0.75 0 0 0.75 0 0] CT
0 0.447 0.741 RC
1 LJ
2.667 LW
N
160.678 361.493 M
160.203 362.529 L
S
GR
GS
[0.75 0 0 0.75 120.50837 271.11958] CT
0.929 0.694 0.125 RC
N
f1188474679
f
GR
GS
[0.75 0 0 0.75 0 0] CT
0 0.447 0.741 RC
1 LJ
2.667 LW
N
159.78 362.943 M
159.064 363.83 L
S
GR
GS
[0.75 0 0 0.75 119.83518 272.20727] CT
0.467 0.675 0.188 RC
N
f1188474679
f
GR
GS
[0.75 0 0 0.75 0 0] CT
0 0.447 0.741 RC
1 LJ
2.667 LW
N
158.883 364.393 M
158.408 365.43 L
S
GR
GS
[0.75 0 0 0.75 119.16201 273.29496] CT
0.635 0.078 0.184 RC
N
f1188474679
f
GR
GS
[0.75 0 0 0.75 0 0] CT
0 0.447 0.741 RC
1 LJ
2.667 LW
N
157.985 365.844 M
157.269 366.731 L
S
GR
GS
[0.75 0 0 0.75 118.48883 274.38268] CT
0.851 0.325 0.098 RC
N
f1188474679
f
GR
GS
[0.75 0 0 0.75 0 0] CT
0 0.447 0.741 RC
1 LJ
2.667 LW
N
157.088 367.294 M
156.613 368.33 L
S
GR
GS
[0.75 0 0 0.75 117.81564 275.47037] CT
0.494 0.184 0.557 RC
N
f1188474679
f
GR
GS
[0.75 0 0 0.75 0 0] CT
0 0.447 0.741 RC
1 LJ
2.667 LW
N
156.19 368.744 M
155.474 369.631 L
S
GR
GS
[0.75 0 0 0.75 117.14247 276.55806] CT
0.302 0.745 0.933 RC
N
f1188474679
f
GR
GS
[0.75 0 0 0.75 0 0] CT
0 0.447 0.741 RC
1 LJ
2.667 LW
N
155.292 370.194 M
154.818 371.231 L
S
GR
GS
[0.75 0 0 0.75 116.46929 277.64575] CT
0 0.447 0.741 RC
N
f1188474679
f
GR
GS
[0.75 0 0 0.75 0 0] CT
0 0.447 0.741 RC
1 LJ
2.667 LW
N
154.395 371.645 M
153.679 372.532 L
S
GR
GS
[0.75 0 0 0.75 115.7961 278.73344] CT
0.929 0.694 0.125 RC
N
f1188474679
f
GR
GS
[0.75 0 0 0.75 0 0] CT
0 0.447 0.741 RC
1 LJ
2.667 LW
N
153.497 373.095 M
153.064 374.041 L
S
GR
GS
[0.75 0 0 0.75 115.12293 279.82116] CT
0.467 0.675 0.188 RC
N
f1188474679
f
GR
%%Trailer
%%Pages: 1
%%EOF
